<?xml version="1.0" encoding="utf-8"?>
<!-- Generator: Adobe Illustrator 16.0.0, SVG Export Plug-In . SVG Version: 6.00 Build 0)  -->
<!DOCTYPE svg PUBLIC "-//W3C//DTD SVG 1.0//EN" "http://www.w3.org/TR/2001/REC-SVG-20010904/DTD/svg10.dtd">
<svg version="1.0" id="Capa_1" xmlns="http://www.w3.org/2000/svg" xmlns:xlink="http://www.w3.org/1999/xlink" x="0px" y="0px"
	 width="630.5px" height="209.5px" viewBox="-18.5 0 630.5 209.5" enable-background="new -18.5 0 630.5 209.5"
	 xml:space="preserve">
<g>
	<path fill="#FFFFFF" d="M34.2354,57.8584c0-4.1094,1.2827-7.915,3.4502-11.0469l18.9082-27.4971c0,0,0.2451-0.3682,0.3369-0.4756
		c0.0762-0.0986,0.1836-0.2178,0.4404-0.2178c0.2603,0,0.375,0.1191,0.4629,0.1992c0.0806,0.126,0.3447,0.4941,0.3447,0.4941
		l3.9097,5.6328c0.5972,0.8496,1.5356,1.3135,2.4966,1.3135c0.6128,0,1.2251-0.1758,1.7612-0.5557
		c1.375-0.9502,1.7271-2.8682,0.77-4.2432l-7.1646-10.2881c-0.957-1.3857-2.8638-1.7158-4.2617-0.7627
		c-0.2988,0.2031-0.7236,0.7314-0.7236,0.7314l-65.0874,94.3916c-0.7046,1.0146-0.7964,2.3242-0.2104,3.4307
		c0.5898,1.1074,1.7231,1.8037,2.9639,1.8037l21.9941-0.0225l26.2715-38.2109C36.8164,68.9551,34.2354,63.7207,34.2354,57.8584
		 M56.1187,76.1084c0-4.1631,1.2983-8,3.5151-11.1582l17.3267-25.1914c0.3984-0.5371,0.6665-1.1758,0.6665-1.9043
		c0-1.7607-1.4209-3.1543-3.1782-3.1543c-1.126,0-2.1177,0.6055-2.665,1.4932l-51.2759,74.5752h28.3354l13.8193-20.0908
		C58.6421,87.1006,56.1187,81.917,56.1187,76.1084 M125.4985,105.5342l-16.7178-24.291c-0.54-0.916-1.5088-1.5469-2.646-1.5469
		c-1.708,0-3.0786,1.3926-3.0786,3.0703c0,0.7354,0.2485,1.3711,0.6587,1.8916l11.2803,16.3887
		c0.0195,0.0186,0.0229,0.042,0.0229,0.042l1.8647,2.6992c0.1187,0.1689,0.1304,0.3828,0.0459,0.5898
		c-0.1108,0.1914-0.2871,0.3066-0.5132,0.3066H82.6968c-1.6621-0.0391-3.3315-0.5322-4.8057-1.5322
		c-3.9248-2.7217-4.9243-8.0908-2.2168-12.0264l18.7124-27.1914c0.3677-0.5088,0.5977-1.1172,0.5977-1.8145
		c0-1.6895-1.3862-3.0713-3.0786-3.0713c-1.084,0-2.0371,0.5791-2.5771,1.4092l-34.5884,50.2881l68.0088,0.0303
		c1.229,0,2.3779-0.6855,2.96-1.7998C126.2832,107.8936,126.1914,106.5605,125.4985,105.5342"/>
	<path fill="#FFFFFF" d="M238.377,110.7695h-14.0063c-8.0317,0-10.7588-7.2012-10.7588-7.2012l-7.8721-20.291H174.187
		l-10.5649,27.4922h-12.2603c0,0,28.1851-68.3369,37.5239-91.0928c0.46-1.1445,1.5098-3.1191,3.7554-3.1191
		c2.0732,0.0352,7.8765,0,7.8765,0L238.377,110.7695z M190.189,42.8623c0,0-10.6982,26.7949-12.8057,32.3926h25.1948
		C200.4702,69.6572,190.189,42.8623,190.189,42.8623"/>
	<path fill="#FFFFFF" d="M365.7891,67.2334l0.0342,43.5332h-22.3125V20.4141c0,0-0.125-3.8193,4.0996-3.8193h27.0742
		c3.4424,0,6.3848,0.1289,8.8447,0.2744c2.4521,0.2061,4.5518,0.4434,6.3193,0.792c1.7764,0.4004,3.3076,0.8691,4.6367,1.4629
		c1.3164,0.5938,2.5508,1.2813,3.7383,2.1152c2.7314,2.0137,4.8613,4.4707,6.4609,7.4082
		c1.5791,2.9248,2.3916,6.4609,2.3916,10.5605c0,6.625-1.8281,12.0059-5.4365,16.2051c-3.6563,4.1543-8.875,7.0977-15.6582,8.8262
		c4.3574,7.7217,28.9805,46.5273,28.9805,46.5273H398.374c-8.7539,0-12.0615-7.5107-12.0615-7.5107L366.998,67.2334H365.7891
		L365.7891,67.2334z M379.542,27.1592c-5.5879-3.2871-13.7529-2.792-13.7529-2.792l0.0908,37.2393c0,0,7.8506,0.7061,14.0664-3.3809
		c4.0391-2.6836,7.416-7.4023,7.416-15.6836C387.3623,34.2051,383.7832,29.6494,379.542,27.1592"/>
	<path fill="#FFFFFF" d="M245.3081,20.5176c0,0-0.0303-3.958,4.1895-3.958c11.0342,0,38.4014,0,48.519,0.0352v7.1875
		c0,5.2139-4.7363,4.5947-4.7363,4.5947c-4.3579,0-25.6299,0.0127-25.6299,0.0127v27.6641h29.8408v7.5762
		c0,0,0.2842,4.125-4.3613,4.125h-25.4795l0.022,43.0127h-22.3647v-90.25H245.3081L245.3081,20.5176z"/>
	<path fill="#FFFFFF" d="M308.7813,21.1162c0,0-0.5293-4.5547,4.0732-4.5547h18.334v94.207h-22.4072V21.1162L308.7813,21.1162z"/>
	<path fill="#FFFFFF" d="M435.2041,110.7686h-12.7969l13.6016-91.2383c0,0,0.4434-2.9688,3.9316-2.9688h7.5459l31.415,65.7471
		l31.7461-65.7471h8.2549c3.0459,0,3.6992,2.9688,3.6992,2.9688l11.2754,91.2383h-22.3213c0,0-4.3408-52.0332-5.4209-62.749h-0.2705
		l-30.0898,62.749h-5.167c0,0-24.5156-50.9453-29.6904-61.3848h-0.2578L435.2041,110.7686z"/>
	<path fill="#FFFFFF" d="M544.0879,19.9609c0,0,0.2539-3.4072,4.1689-3.4072h48.5137v7.7393c0,3.6475-3.2988,4.0654-3.2988,4.0654
		h-27.4453v27.6934h30.207v7.0938c0,4.6543-3.6221,4.625-3.6221,4.625l-26.585-0.0176v31.4277l30.7441,0.0352v7.583
		c0,0,0.0352,3.9707-4.1123,3.9707h-48.54L544.0879,19.9609z"/>
	<g>
		<path fill="#FFFFFF" d="M149.6074,177.0273v-2.4297h3.7324v2.4297c0,6.0879,2.5171,9.9824,8.6836,9.9824
			c5.4346,0,8.0308-3.4912,8.0308-9.7373v-1.6221c0-7.2197-2.6758-10.1406-9.2495-15.499
			c-6.6533-5.2725-10.4648-9.2461-10.4648-16.7109v-0.8154c0-7.3818,4.3813-11.6836,11.2759-11.6836
			c7.3027,0,11.4424,4.2188,11.4424,11.8496v1.8643h-3.7324v-1.8643c0-5.8418-2.7583-8.6045-7.71-8.6045
			c-4.7852,0-7.5439,2.9209-7.5439,8.2803v0.8076c0,6.0078,2.7588,8.8457,9.0874,13.9551
			c7.3818,5.8428,10.7104,9.4121,10.7104,18.1758v1.7881c0,8.5176-4.3022,13.0615-11.8462,13.0615
			C153.7471,190.2549,149.6074,185.0625,149.6074,177.0273z"/>
		<path fill="#FFFFFF" d="M223.375,177.1104V159.668c0-8.1963,4.2188-12.9824,11.2798-12.9824
			c7.0571,0,11.0347,4.0537,11.0347,12.7373v9.0869h-18.582v8.6006c0,6.3291,2.1924,9.8994,7.71,9.8994
			c4.7056,0,7.3022-2.7588,7.3022-7.8682v-1.1396h3.5698v1.0566c0,7.5469-4.0566,11.0342-10.8721,11.0342
			C227.4316,190.0928,223.375,185.3867,223.375,177.1104z M227.1069,165.4268h14.8501v-6.0039c0-6.6533-2.3545-9.6572-7.3022-9.6572
			c-5.0303,0-7.5474,3.7354-7.5474,9.9023v5.7588H227.1069z"/>
		<path fill="#FFFFFF" d="M295.2783,194.3115h3.7324c0.2412,4.4609,2.8379,6.7324,7.627,6.7324
			c5.1924,0,8.0303-2.8379,8.0303-9.3281v-8.0313c-1.377,3.2461-4.4609,6.001-9.249,6.001c-6.4082,0-10.3857-4.0537-10.3857-12.25
			v-18.3369c0-8.1934,4.3809-12.4131,10.793-12.4131c4.7852,0,7.5439,2.6758,8.8418,5.7598v-5.2764h3.7324v44.6299
			c0,8.4385-4.4609,12.333-11.6836,12.333C299.4141,204.1318,295.5195,200.4785,295.2783,194.3115z M314.668,177.1934v-17.7705
			c0-5.8418-2.9209-9.5742-8.2764-9.5742c-4.7852,0-7.627,2.9209-7.627,9.3291v18.2578c0,6.4912,2.8418,9.1699,7.4648,9.1699
			C311.3438,186.6055,314.668,182.9521,314.668,177.1934z"/>
		<path fill="#FFFFFF" d="M390.707,189.6055h-3.7314v-5.3545c-1.2988,3.1621-4.3818,5.8418-8.7637,5.8418
			c-5.5967,0-8.8418-3.2451-8.8418-10.5479v-32.376h3.7324v32.2969c0,5.1094,1.9473,7.3818,6.166,7.3818
			c4.4609,0,7.707-3.2461,7.707-8.0313v-31.6475h3.7314V189.6055L390.707,189.6055z"/>
		<path fill="#FFFFFF" d="M441.9189,147.1689h3.7324v5.8418c1.3809-3.5703,4.3018-6,9.249-6.166v3.4902
			c-5.5166,0.2451-9.249,2.7588-9.249,9.167v30.1035h-3.7324V147.1689z"/>
		<path fill="#FFFFFF" d="M501.8135,177.2725V159.585c0-8.1973,4.623-12.8994,11.6836-12.8994
			c7.1406,0,11.7637,4.623,11.7637,12.8164v17.6914c0,8.2725-4.7061,12.8994-11.8467,12.8994
			C506.2744,190.0928,501.8135,185.3076,501.8135,177.2725z M521.4492,177.2725V159.668c0-6.25-2.7588-9.8193-7.9521-9.8193
			c-5.1133,0-7.9512,3.5703-7.9512,9.7363v17.6875c0,6.0879,2.7588,9.7373,7.8682,9.7373
			C518.6904,187.0098,521.4492,183.3604,521.4492,177.2725z"/>
		<path fill="#FFFFFF" d="M574.0371,179.0576v-1.0566h3.5703v1.0566c0,5.2764,2.3516,7.9521,7.0576,7.9521
			c4.3809,0,6.4902-2.3516,6.4902-7.3027v-0.5664c0-4.3848-2.5127-6.5732-7.5469-10.0605
			c-5.7598-3.8945-8.9219-6.8154-8.9219-12.8232v-0.3252c0-6,4.0527-9.2461,9.4912-9.2461c5.6797,0,9.7363,2.9209,9.7363,10.1406
			v1.1357h-3.6494v-1.1357c0-4.9473-2.2715-6.9775-6.0869-6.9775c-3.7324,0-6.0039,1.9473-6.0039,6.0039v0.3242
			c0,4.2988,2.1885,6.3291,7.4639,9.8164c5.1934,3.5703,9.0879,6.7363,9.0879,13.0645v0.5664
			c0,6.6572-3.2451,10.4688-10.0615,10.4688C577.7656,190.0928,574.0371,186.1982,574.0371,179.0576z"/>
	</g>
</g>
</svg>
