<?xml version="1.0" encoding="utf-8"?>
<!-- Generator: Adobe Illustrator 17.0.0, SVG Export Plug-In . SVG Version: 6.00 Build 0)  -->
<!DOCTYPE svg PUBLIC "-//W3C//DTD SVG 1.1//EN" "http://www.w3.org/Graphics/SVG/1.1/DTD/svg11.dtd">
<svg version="1.1" id="Capa_1" xmlns="http://www.w3.org/2000/svg" xmlns:xlink="http://www.w3.org/1999/xlink" x="0px" y="0px"
	 width="60px" height="24px" viewBox="0 0 60 24" enable-background="new 0 0 60 24" xml:space="preserve">
<g id="GNP">
	<g>
		<path fill="#FFFFFF" d="M26.917,11.501c0-0.624,0.111-0.847-0.587-1.219l0,0l-0.483-0.238V9.614h4.815v0.431l-0.49,0.193l0,0
			c-0.728,0.297-0.728,0.379-0.713,1.263l0,0l0.007,3.559l-0.178,0.171l0,0c-0.84,0.215-2.801,0.75-4.569,0.75
			c-4.057,0-6.055-2.103-6.055-6.65c0-4.889,2.823-7.007,6.531-7.007c0.996,0,2.801,0,4.057,1.062
			c0.416,0.349,0.453,0.743,0.453,0.899c0,0.297-0.059,0.357-0.119,0.476l0,0l-0.899,1.746h-0.334l0,0
			c0-0.862-1.003-3.158-3.611-3.158c-3.024,0-3.173,2.11-3.173,5.677c0,3.121,0.327,5.929,3.938,5.929
			c1.166,0,1.382-0.617,1.412-1.308C26.917,13.648,26.917,11.85,26.917,11.501L26.917,11.501L26.917,11.501z"/>
		<path fill="#FFFFFF" d="M31.865,15.29l0.862-0.349l0,0c0.706-0.275,0.706-0.788,0.706-1.924l0,0V4.821l0,0
			c0-0.631-0.178-0.944-0.669-1.278l0,0l-0.788-0.528V2.585h3.574l0.215,0.134l0,0c0.394,0.528,1.211,1.947,2.311,3.433l0,0
			l3.789,5.156l0,0c0.156,0.215,0.238,0.312,0.312,0.312c0.156,0,0.156-0.193,0.156-0.55l0,0V4.836l0,0
			c0-0.899-0.015-1.077-0.78-1.389l0,0l-1.122-0.431V2.585h4.495v0.431l-0.572,0.215l0,0c-0.84,0.334-1.003,0.528-1.003,1.82l0,0
			v7.727l0,0c0,1.181,0.022,2.378,0.022,2.786l0,0l-0.134,0.156h-1.1l-0.215-0.156l0,0c-0.178-0.215-1.196-1.649-2.236-3.039l0,0
			l-4.592-6.137l0,0c-0.253-0.334-0.371-0.513-0.468-0.513c-0.178,0-0.178,0.201-0.178,0.476l0,0v7.014l0,0
			c0,0.943,0,1.241,0.825,1.516l0,0l1.159,0.409v0.431h-4.569L31.865,15.29L31.865,15.29z"/>
		<path fill="#FFFFFF" d="M46.079,15.29l0.862-0.29l0,0c0.646-0.215,0.669-0.572,0.669-1.806l0,0V4.717l0,0
			c0-0.936,0-1.174-0.669-1.389l0,0l-0.862-0.312V2.585h6.501l0,0c2.274,0,4.503,0.49,4.503,3.47c0,2.727-2.036,4.413-5.216,4.413
			c-0.134,0-0.312-0.022-0.431-0.022l0,0l-0.29-0.706l0.156-0.156l0,0c1.427-0.037,3.158-0.624,2.913-3.381
			c-0.193-2.147-0.818-2.549-2.578-2.549c-1.196,0-1.278,0.178-1.278,0.669l0,0v8.872l0,0c0,1.315-0.022,1.59,0.765,1.806l0,0
			l1.018,0.29v0.431h-6.063L46.079,15.29L46.079,15.29z"/>
		<polygon fill="#FFFFFF" points="59.984,17.757 18.662,17.757 18.662,17.482 59.984,17.482 		"/>
		<path fill="#FFFFFF" d="M10.593,9.086c0,1.211-0.981,2.192-2.199,2.192c-1.211,0-2.192-0.981-2.192-2.192
			c0-1.211,0.981-2.192,2.192-2.192C9.612,6.894,10.593,7.875,10.593,9.086L10.593,9.086L10.593,9.086z"/>
		<path fill="#FFFFFF" d="M4.745,5.423h-4.74l0.958,2.935h2.363V8.351l0,0c2.393,0,4.332-1.939,4.339-4.339l0,0l0,0l0,0V1.656
			l-2.92-0.959V5.423L4.745,5.423z"/>
		<path fill="#FFFFFF" d="M4.73,12.742v4.733l2.935-0.951v-2.363H7.658l0,0c0-2.392-1.939-4.332-4.339-4.339l0,0l0,0l0,0H0.963
			l-0.958,2.92H4.73L4.73,12.742z"/>
		<path fill="#FFFFFF" d="M12.049,12.749h4.74l-0.966-2.928h-2.355h-0.007l0,0c-2.392,0.007-4.332,1.947-4.332,4.339l0,0l0,0v0.007
			v2.348l2.92,0.958L12.049,12.749L12.049,12.749z"/>
		<path fill="#FFFFFF" d="M12.056,5.438V0.705L9.129,1.656v2.363l0,0l0,0c0.007,2.393,1.947,4.332,4.339,4.339l0,0h0.007l0,0h2.348
			l0.966-2.92L12.056,5.438L12.056,5.438z"/>
		<path fill="#FFFFFF" d="M58.903,2.8c0.453,0,0.825,0.364,0.825,0.884c0,0.513-0.371,0.884-0.825,0.884v0.208
			c0.602,0,1.092-0.49,1.092-1.092c0-0.609-0.49-1.1-1.092-1.1V2.8L58.903,2.8z M58.903,3.848v-0.26h0.007l0,0
			c0.141,0,0.252-0.022,0.252-0.186c0-0.149-0.134-0.171-0.245-0.171l0,0h-0.015V3.053h0.037l0,0c0.297,0,0.461,0.104,0.461,0.364
			c0,0.215-0.126,0.319-0.327,0.334l0,0l0.334,0.55H59.17L58.903,3.848z M58.903,4.569c-0.461,0-0.832-0.372-0.832-0.884
			c0-0.52,0.372-0.884,0.832-0.884l0,0V2.585l0,0c-0.609,0-1.1,0.49-1.1,1.1c0,0.602,0.49,1.092,1.1,1.092l0,0l0,0l0,0V4.569
			L58.903,4.569L58.903,4.569L58.903,4.569L58.903,4.569z M58.903,3.053v0.178H58.71l0,0v0.357h0.193v0.26l-0.052-0.082H58.71v0.535
			h-0.23l0,0V3.053H58.903z"/>
		<g>
			<path fill="#FFFFFF" d="M19.658,23.302c-0.464,0-0.752-0.131-0.858-0.192c-0.096-0.111-0.162-0.474-0.162-0.818
				c0.035-0.066,0.151-0.071,0.192-0.015c0.101,0.328,0.439,0.792,0.868,0.792c0.374,0,0.545-0.257,0.545-0.51
				c0-0.409-0.384-0.651-0.687-0.803c-0.364-0.182-0.762-0.485-0.762-0.984c-0.005-0.57,0.439-0.964,1.171-0.964
				c0.167,0,0.374,0.02,0.575,0.081c0.066,0.02,0.111,0.03,0.172,0.04c0.04,0.111,0.091,0.384,0.091,0.722
				c-0.025,0.061-0.151,0.066-0.197,0.015c-0.086-0.258-0.303-0.626-0.666-0.626c-0.333,0-0.515,0.217-0.515,0.469
				c0,0.232,0.207,0.444,0.459,0.575l0.333,0.177c0.313,0.167,0.712,0.459,0.712,1.015C20.93,22.899,20.42,23.302,19.658,23.302z"/>
			<path fill="#FFFFFF" d="M25.049,21.202c0,0.142,0.005,0.151,0.141,0.151h0.348c0.263,0,0.323-0.035,0.374-0.278l0.025-0.126
				c0.035-0.04,0.162-0.04,0.187,0.005c-0.01,0.162-0.015,0.343-0.015,0.535c0,0.192,0.005,0.374,0.015,0.535
				c-0.025,0.045-0.152,0.051-0.187,0.005l-0.025-0.126c-0.05-0.242-0.111-0.283-0.374-0.283h-0.348
				c-0.136,0-0.141,0.005-0.141,0.156v0.601c0,0.232,0.02,0.394,0.081,0.479c0.066,0.091,0.162,0.131,0.53,0.131
				c0.439,0,0.611-0.015,0.888-0.586c0.04-0.056,0.167-0.035,0.187,0.025c-0.02,0.262-0.141,0.671-0.212,0.808
				c-0.268-0.01-0.752-0.015-1.166-0.015h-0.656c-0.242,0-0.49,0.005-0.868,0.015c-0.04-0.03-0.04-0.151,0-0.177l0.237-0.035
				c0.227-0.035,0.257-0.066,0.257-0.53v-1.883c0-0.459-0.03-0.49-0.257-0.535l-0.126-0.025c-0.045-0.03-0.04-0.146,0.01-0.177
				c0.237,0.01,0.485,0.015,0.727,0.015h1.07c0.323,0,0.611-0.005,0.676-0.015c0.005,0.081,0.04,0.444,0.066,0.782
				c-0.02,0.056-0.136,0.066-0.187,0.02c-0.056-0.177-0.126-0.328-0.192-0.399c-0.096-0.096-0.247-0.156-0.495-0.156h-0.404
				c-0.167,0-0.167,0.01-0.167,0.197L25.049,21.202L25.049,21.202z"/>
			<path fill="#FFFFFF" d="M32.768,22.651c0,0.212,0.01,0.313,0.106,0.333c0.02,0.02,0.015,0.106-0.015,0.121
				c-0.086,0.015-0.217,0.03-0.353,0.076c-0.177,0.056-0.611,0.121-0.893,0.121c-0.343,0-0.636-0.035-0.994-0.177
				c-0.591-0.237-0.994-0.798-0.994-1.524c0-0.631,0.283-1.186,0.888-1.525c0.343-0.187,0.752-0.267,1.181-0.267
				c0.56,0,0.838,0.121,0.999,0.121c0.015,0.151,0.02,0.505,0.071,0.813c-0.02,0.056-0.157,0.061-0.192,0.01
				c-0.162-0.475-0.479-0.712-0.949-0.712c-0.803,0-1.191,0.666-1.191,1.464c0,0.722,0.247,1.151,0.575,1.373
				c0.242,0.162,0.505,0.192,0.692,0.192c0.288,0,0.348-0.056,0.348-0.384v-0.318c0-0.273-0.03-0.303-0.273-0.338L31.551,22
				c-0.056-0.03-0.056-0.146,0-0.177c0.358,0.01,0.606,0.015,0.853,0.015c0.242,0,0.49-0.005,0.661-0.015
				c0.041,0.03,0.041,0.146,0,0.177l-0.116,0.02c-0.151,0.025-0.182,0.076-0.182,0.348C32.768,22.369,32.768,22.651,32.768,22.651z"
				/>
			<path fill="#FFFFFF" d="M36.352,20.617c0-0.469-0.03-0.5-0.257-0.545l-0.126-0.025c-0.04-0.03-0.045-0.141,0.01-0.172
				c0.242,0.01,0.495,0.015,0.737,0.015c0.247,0,0.495-0.005,0.737-0.015c0.04,0.03,0.04,0.142,0,0.172l-0.121,0.02
				c-0.227,0.04-0.257,0.081-0.257,0.55v1.166c0,0.591,0.066,1.242,0.833,1.242c0.646,0,0.843-0.565,0.843-1.257v-0.611
				c0-0.409-0.02-0.792-0.076-0.924c-0.046-0.106-0.157-0.136-0.293-0.162l-0.136-0.025c-0.04-0.04-0.03-0.141,0-0.172
				c0.273,0.01,0.47,0.015,0.676,0.015c0.187,0,0.374-0.005,0.565-0.015c0.03,0.03,0.04,0.131,0,0.172l-0.091,0.02
				c-0.131,0.03-0.227,0.061-0.272,0.167c-0.056,0.131-0.076,0.515-0.076,0.924v0.565c0,0.475-0.046,0.909-0.323,1.217
				c-0.222,0.237-0.591,0.363-1,0.363c-0.384,0-0.727-0.061-1-0.283c-0.263-0.217-0.374-0.591-0.374-1.141L36.352,20.617
				L36.352,20.617z"/>
			<path fill="#FFFFFF" d="M42.788,20.708c0-0.505-0.01-0.56-0.222-0.591l-0.136-0.02c-0.051-0.025-0.051-0.151,0.01-0.177
				c0.379-0.025,0.772-0.045,1.252-0.045c0.429,0,0.798,0.066,0.989,0.182c0.293,0.171,0.444,0.424,0.444,0.747
				c0,0.449-0.303,0.641-0.535,0.757c-0.05,0.025-0.05,0.056-0.025,0.111c0.333,0.676,0.54,1.055,0.782,1.262
				c0.131,0.106,0.263,0.136,0.338,0.141c0.045,0.025,0.045,0.101,0.02,0.131c-0.081,0.035-0.242,0.045-0.399,0.045
				c-0.465,0-0.757-0.167-0.979-0.53c-0.161-0.267-0.278-0.515-0.394-0.782c-0.061-0.136-0.141-0.177-0.268-0.177
				c-0.177,0-0.187,0.01-0.187,0.111v0.621c0,0.465,0.03,0.5,0.257,0.54l0.136,0.025c0.035,0.025,0.035,0.146,0,0.177
				c-0.268-0.01-0.5-0.015-0.742-0.015c-0.252,0-0.474,0.005-0.737,0.015c-0.04-0.03-0.04-0.151,0-0.177l0.136-0.025
				c0.227-0.041,0.257-0.076,0.257-0.54V20.708z M43.479,21.349c0,0.177,0.015,0.192,0.313,0.192c0.182,0,0.288-0.045,0.384-0.142
				c0.086-0.086,0.182-0.247,0.182-0.545c0-0.454-0.268-0.747-0.661-0.747c-0.207,0-0.217,0.015-0.217,0.257
				C43.479,20.364,43.479,21.349,43.479,21.349z"/>
			<path fill="#FFFFFF" d="M51.864,21.541c0,1.1-0.737,1.762-1.822,1.762c-1.015,0-1.752-0.666-1.752-1.721
				c0-1,0.747-1.772,1.802-1.772C51.142,19.809,51.864,20.516,51.864,21.541z M50.052,20.042c-0.621,0-0.954,0.58-0.954,1.424
				c0,0.616,0.217,1.605,1.04,1.605c0.661,0,0.919-0.646,0.919-1.464C51.056,20.743,50.678,20.042,50.052,20.042z"/>
			<path fill="#FFFFFF" d="M55.877,23.302c-0.464,0-0.752-0.131-0.858-0.192c-0.096-0.111-0.162-0.474-0.162-0.818
				c0.035-0.066,0.152-0.071,0.192-0.015c0.101,0.328,0.439,0.792,0.868,0.792c0.374,0,0.545-0.257,0.545-0.51
				c0-0.409-0.383-0.651-0.686-0.803c-0.363-0.182-0.762-0.485-0.762-0.984c-0.005-0.57,0.439-0.964,1.171-0.964
				c0.167,0,0.374,0.02,0.576,0.081c0.065,0.02,0.111,0.03,0.172,0.04c0.041,0.111,0.091,0.384,0.091,0.722
				c-0.025,0.061-0.151,0.066-0.197,0.015c-0.086-0.258-0.303-0.626-0.666-0.626c-0.333,0-0.515,0.217-0.515,0.469
				c0,0.232,0.207,0.444,0.459,0.575l0.333,0.177c0.313,0.167,0.712,0.459,0.712,1.015C57.149,22.899,56.639,23.302,55.877,23.302z"
				/>
		</g>
	</g>
</g>
</svg>
