<?xml version="1.0" encoding="utf-8"?>
<!-- Generator: Adobe Illustrator 16.0.0, SVG Export Plug-In . SVG Version: 6.00 Build 0)  -->
<!DOCTYPE svg PUBLIC "-//W3C//DTD SVG 1.1//EN" "http://www.w3.org/Graphics/SVG/1.1/DTD/svg11.dtd">
<svg version="1.1" id="Capa_1" xmlns="http://www.w3.org/2000/svg" xmlns:xlink="http://www.w3.org/1999/xlink" x="0px" y="0px"
	 width="631.108px" height="141px" viewBox="-7.892 11 631.108 141" enable-background="new -7.892 11 631.108 141"
	 xml:space="preserve">
<g id="blanco_2_">
	<g id="auto_1_">
		<g>
			<path opacity="0.1" fill="#ffffff" enable-background="new    " d="M430.473,99.689v15.093c0,6.962,5.641,12.604,12.605,12.604
				h5.21v15.721c0,1.216,0.561,2.367,1.521,3.116c-0.638,1.421-2.049,2.335-3.605,2.335h-11.842c-2.188,0-3.958-1.772-3.958-3.962
				v-15.719h-5.211c-6.965,0-12.605-5.642-12.605-12.604v-15.093c0-6.965,5.641-12.606,12.605-12.606h-0.317l12.274-35.965
				c1.174-3.063,4.113-5.084,7.393-5.084h13.268c-1.255,0.9-2.222,2.15-2.775,3.594L442.76,87.084
				C442.759,87.084,430.473,91.182,430.473,99.689z"/>
			<path fill="#FFFFFF" d="M438.239,122.604c-7.668,0.005-13.887-6.206-13.888-13.875c-0.003-7.665,6.211-13.882,13.877-13.883
				c7.666-0.003,13.882,6.214,13.882,13.88C452.103,116.384,445.898,122.596,438.239,122.604z M438.239,102.795
				c-3.278-0.004-5.938,2.649-5.939,5.927c-0.003,3.275,2.65,5.935,5.929,5.935c3.275,0.001,5.933-2.653,5.933-5.93
				C444.159,105.453,441.51,102.803,438.239,102.795z"/>
		</g>
		<g>
			<rect x="434.875" y="133.349" fill="none" width="10.817" height="10.739"/>
			<path fill="none" d="M416.736,77.197h-3.015v2.942h7.616C420.51,78.345,418.714,77.197,416.736,77.197z"/>
			<path fill="#FFFFFF" d="M444.543,51.997h30.22v-8.942h-5.227H444.52c-5.116,0.032-9.695,3.183-11.546,7.953
				c-0.019,0.051-0.038,0.105-0.056,0.157l-7.006,20.526c-2.54-2.216-5.802-3.437-9.174-3.434h-4.31
				c-4.226,0.004-7.647,3.427-7.651,7.651v5.528c0.004,4.223,3.426,7.646,7.651,7.649h0.722c-3.225,3.2-5.038,7.555-5.035,12.099
				v15.091c0.012,9.428,7.649,17.066,17.075,17.077h0.742v11.249c0.004,4.652,3.775,8.426,8.43,8.431h11.842
				c4.653-0.005,8.425-3.776,8.431-8.431v-11.252h20.128v-8.942H451.05c-0.586-0.121-1.188-0.121-1.773,0h-17.985
				c-0.586-0.121-1.188-0.121-1.775,0h-4.32c-4.491-0.005-8.131-3.646-8.137-8.133V101.18c0.006-4.489,3.646-8.129,8.137-8.136
				h49.571v-8.821l-43.64-0.114l10.223-29.956C441.881,52.853,443.141,52.004,444.543,51.997z M434.875,133.349h10.817v10.739
				h-10.817V133.349z M413.721,80.141v-2.943h3.015c1.979,0,3.773,1.149,4.602,2.943H413.721z"/>
		</g>
	</g>
	<g>
		<g>
			<path fill="#FFFFFF" d="M506.953,42.388v29.013h-5.889V48.959h-0.638l-5.675,21.163h-5.887l-5.675-21.163h-0.642v22.442h-5.886
				V42.388h10.026l5.118,21.119l5.12-21.119H506.953z"/>
		</g>
	</g>
	
	
</svg>
