<?xml version="1.0" encoding="utf-8"?>
<!-- Generator: Adobe Illustrator 23.0.1, SVG Export Plug-In . SVG Version: 6.00 Build 0)  -->
<svg version="1.1" id="Capa_1" xmlns="http://www.w3.org/2000/svg" xmlns:xlink="http://www.w3.org/1999/xlink" x="0px" y="0px"
     width="60px" height="24px" viewBox="0 0 60 24" enable-background="new 0 0 60 24" xml:space="preserve"
	  style="enable-background:new 0 0 60 24;">
<style type="text/css">
	.st0{fill-rule:evenodd;clip-rule:evenodd;fill:#FFFFFF;}
	.st1{fill:#FFFFFF;}
</style>
<g>
	<path class="st0" d="M58,10.5c0-0.5,0.4-0.9,0.9-0.9s0.9,0.4,0.9,0.9s-0.4,0.9-0.9,0.9C58.4,11.4,58,11,58,10.5z M57.7,10.5
		c0-0.6,0.5-1.1,1.1-1.1c0.6,0,1.1,0.5,1.1,1.1c0,0.6-0.5,1.1-1.1,1.1C58.2,11.7,57.7,11.1,57.7,10.5z M58.8,10.2h-0.2l-0.1,0.5
		l-0.1-0.5h-0.2v0.7h0.1v-0.6l0.1,0.6h0.1l0.1-0.6v0.6h0.1L58.8,10.2L58.8,10.2z M59,10.9h0.1v-0.3h0.2c0.1,0,0.1,0,0.1,0.1
		c0,0.1,0,0.1,0,0.1h0.2c0,0,0-0.1,0-0.2c0-0.1,0-0.2-0.1-0.2c0.1,0,0.1-0.1,0.1-0.2c0-0.1,0-0.2-0.2-0.2H59L59,10.9L59,10.9z
		 M59.1,10.5v-0.2h0.2c0.1,0,0.1,0.1,0.1,0.1c0,0.1,0,0.1-0.1,0.1H59.1z"/>
	<g>
		<g>
			<polygon class="st1" points="5.4,15.6 9.8,3.6 8.9,3.6 4.9,14.4 			"/>
			<polygon class="st1" points="6.1,17.2 11,3.6 10.1,3.6 5.6,16 			"/>
			<polygon class="st1" points="6.7,18.7 12.2,3.6 11.3,3.6 6.2,17.5 			"/>
			<polygon class="st1" points="7.4,20.3 13.5,3.6 12.5,3.6 6.9,19.1 			"/>
		</g>
		<g>
			<path class="st1" d="M17.8,4c0.1,0.2,0.1,0.4,0,0.6c-0.1,0.2-0.2,0.4-0.4,0.6c-0.1,0.1-0.2,0.2-0.4,0.2c0.2,0.1,0.3,0.2,0.3,0.3
				c0,0.2,0,0.3-0.1,0.6c-0.1,0.2-0.2,0.4-0.4,0.6c-0.1,0.1-0.3,0.2-0.4,0.3c-0.2,0.1-0.3,0.2-0.5,0.2c-0.2,0-0.4,0.1-0.6,0.1h-1.8
				l1.4-3.9h1.9C17.4,3.6,17.7,3.8,17.8,4z M15,5.8l-0.4,1h0.9c0.2,0,0.3,0,0.4-0.1c0.2-0.1,0.3-0.2,0.4-0.5c0.1-0.2,0-0.3-0.1-0.4
				c-0.1,0-0.2-0.1-0.4-0.1H15z M15.6,4.3l-0.3,0.9h0.9c0.2,0,0.3,0,0.4-0.1c0.1-0.1,0.2-0.2,0.3-0.3c0.1-0.2,0-0.3-0.1-0.4
				c-0.1,0-0.3-0.1-0.4-0.1L15.6,4.3L15.6,4.3z"/>
			<path class="st1" d="M20,3.6H21l0,3.9H20l0-0.8h-1.4l-0.5,0.8h-0.9L20,3.6z M19.1,6h1l0.1-1.5L19.1,6z"/>
			<path class="st1" d="M22.8,3.6h0.9l0.6,2.7l1-2.7H26l-1.4,3.9h-0.8l-0.6-2.8l-1,2.8h-0.7L22.8,3.6z"/>
			<path class="st1" d="M26.9,4c0.4-0.3,0.9-0.5,1.4-0.5c0.6,0,1,0.2,1.2,0.6c0.1,0.2,0.1,0.5,0,0.7h-0.8c0-0.2,0-0.3-0.1-0.4
				c-0.1-0.2-0.3-0.3-0.6-0.3c-0.3,0-0.6,0.1-0.8,0.4s-0.5,0.6-0.6,1c-0.2,0.4-0.2,0.8-0.1,1c0.1,0.2,0.3,0.3,0.5,0.3
				c0.3,0,0.5-0.1,0.7-0.3c0.1-0.1,0.2-0.3,0.4-0.4H29c-0.2,0.4-0.5,0.8-0.9,1c-0.4,0.3-0.8,0.4-1.2,0.4c-0.5,0-0.9-0.2-1.1-0.5
				c-0.2-0.4-0.2-0.9,0.1-1.5C26.1,4.9,26.4,4.4,26.9,4z"/>
			<path class="st1" d="M32.3,7.1c-0.4,0.3-0.9,0.5-1.4,0.5c-0.6,0-0.9-0.2-1.1-0.5c-0.3-0.4-0.3-0.9,0-1.6c0.3-0.7,0.6-1.2,1.2-1.6
				c0.4-0.3,0.9-0.5,1.4-0.5c0.6,0,0.9,0.2,1.1,0.5c0.3,0.4,0.3,0.9,0,1.6C33.2,6.2,32.8,6.8,32.3,7.1z M32,6.6
				c0.3-0.2,0.5-0.6,0.6-1c0.2-0.4,0.2-0.8,0.1-1c-0.1-0.2-0.3-0.4-0.6-0.4s-0.6,0.1-0.9,0.4c-0.3,0.2-0.5,0.6-0.7,1
				c-0.2,0.4-0.2,0.8-0.1,1c0.1,0.2,0.3,0.4,0.6,0.4C31.4,6.9,31.7,6.8,32,6.6z"/>
		</g>
		<path class="st0" d="M53.7,16l1.1-3.2l1,3.2H53.7z M56.2,9.6h-2.7l-3.8,10.7h2.7l0.7-2.1h3.5c0.1,0.2,0.7,2.1,0.7,2.1H60L56.2,9.6
			z M2.9,9.6H0v10.7h4.9v-5.9L2.9,9.6z M11.5,9.6l-1.7,4.8v5.9h4.9V9.6H11.5z M21.8,9.6v6.5c0,0.7-0.1,1.2-0.2,1.5
			c-0.2,0.5-0.7,0.8-1.5,0.8s-1.3-0.2-1.5-0.7c-0.2-0.3-0.2-0.8-0.2-1.5V9.6h-2.6v6.5c0,1.1,0.2,2,0.5,2.7c0.7,1.2,2,1.8,3.8,1.8
			c1.9,0,3.1-0.6,3.8-1.8c0.4-0.6,0.5-1.5,0.5-2.7V9.6H21.8z M25.3,9.6v10.7h7.7V18h-5.1V9.6H25.3z M30.6,9.6v2.2h3.1v8.5h2.6v-8.5
			h3.1V9.6H30.6z M40.1,9.6h2.4h0.1h2.6c0,0,1.8,6.2,2.1,7.3l2.1-7.3h2.6l-3.6,10.7h-2.3L42.7,9.9v10.4h-2.5L40.1,9.6L40.1,9.6z"/>
	</g>
</g>
</svg>
