<?xml version="1.0" encoding="utf-8"?>
<!-- Generator: Adobe Illustrator 17.0.0, SVG Export Plug-In . SVG Version: 6.00 Build 0)  -->
<!DOCTYPE svg PUBLIC "-//W3C//DTD SVG 1.1//EN" "http://www.w3.org/Graphics/SVG/1.1/DTD/svg11.dtd">
<svg version="1.1" id="Capa_1" xmlns="http://www.w3.org/2000/svg" xmlns:xlink="http://www.w3.org/1999/xlink" x="0px" y="0px"
	 width="60px" height="24px" viewBox="0 0 60 24" enable-background="new 0 0 60 24" xml:space="preserve">
<g id="PRIMEROSEGUROS">
	<path fill="#FFFFFF" d="M-0.01,6.163C0.041,6.032,0.081,5.9,0.142,5.774C0.338,5.361,0.666,5.063,1.12,5.063
		c1.241-0.01,2.497-0.076,3.717,0.086c2.325,0.313,3.969,2.724,3.561,5.034c-0.409,2.28-2.179,3.768-4.499,3.768
		c-0.454,0-0.903,0-1.382,0c0,0.772,0.005,1.503,0,2.239c0,0.182-0.005,0.368-0.05,0.54c-0.141,0.52-0.635,0.878-1.17,0.888
		c-0.53,0.01-0.999-0.323-1.18-0.832c-0.035-0.101-0.076-0.207-0.111-0.308C-0.01,13.037-0.01,9.603-0.01,6.163z M2.522,11.449
		c0.53,0,1.024,0.005,1.513,0c0.958-0.01,1.755-0.711,1.901-1.664C6.078,8.841,5.518,7.863,4.59,7.661
		C3.924,7.515,3.218,7.56,2.522,7.519C2.522,8.866,2.522,10.137,2.522,11.449z"/>
	<path fill="#FFFFFF" d="M27.009,5.926c0.691-0.58,1.493-0.918,2.421-0.923c2.048-0.015,3.747,1.619,3.783,3.672
		c0.02,1.352,0.01,2.708,0.005,4.06c-0.005,0.736-0.55,1.281-1.256,1.276c-0.716-0.005-1.226-0.535-1.226-1.291
		c-0.005-1.301,0.005-2.608-0.005-3.909c-0.005-0.651-0.414-1.155-1.029-1.286c-0.535-0.116-1.13,0.197-1.357,0.736
		c-0.066,0.151-0.091,0.333-0.091,0.499c-0.005,1.321,0,2.648-0.005,3.969c-0.005,0.555-0.252,0.979-0.777,1.19
		c-0.494,0.197-0.953,0.111-1.342-0.262c-0.272-0.257-0.373-0.59-0.368-0.958c0.005-1.16,0.005-2.325,0-3.485
		c0-0.222,0-0.444-0.03-0.666c-0.076-0.595-0.646-1.054-1.261-1.039c-0.635,0.015-1.165,0.53-1.2,1.18
		c-0.02,0.383-0.005,0.767-0.005,1.15c0,0.958,0.005,1.922,0,2.88c-0.005,0.54-0.232,0.963-0.736,1.185
		c-0.464,0.202-0.913,0.141-1.306-0.182c-0.288-0.237-0.439-0.555-0.439-0.928c-0.005-1.392-0.04-2.789,0.01-4.181
		c0.056-1.483,0.787-2.597,2.128-3.238c1.347-0.641,2.648-0.474,3.858,0.404c0.066,0.045,0.126,0.096,0.192,0.146
		C26.969,5.921,26.984,5.921,27.009,5.926z"/>
	<path fill="#FFFFFF" d="M37.364,10.652c0.701,0.989,1.982,1.18,2.956,0.469c0.303-0.222,0.62-0.343,0.989-0.277
		c0.504,0.091,0.837,0.388,0.963,0.888c0.136,0.524-0.03,0.958-0.449,1.291c-0.58,0.459-1.241,0.757-1.967,0.883
		c-2.441,0.424-4.776-1.185-5.22-3.586c-0.459-2.481,1.11-4.837,3.551-5.341c2.749-0.565,5.422,1.639,5.382,4.433
		c-0.01,0.736-0.52,1.236-1.281,1.236c-1.523,0.005-3.051,0-4.575,0C37.606,10.652,37.505,10.652,37.364,10.652z M40.743,8.216
		c-0.918-1.301-2.754-1.044-3.349,0C38.504,8.216,39.608,8.216,40.743,8.216z"/>
	<path fill="#FFFFFF" d="M51.077,9.532c-0.005-2.476,1.992-4.494,4.449-4.504c2.471-0.005,4.484,2.007,4.484,4.494
		c0,2.481-2.022,4.519-4.479,4.509C53.075,14.021,51.083,12.003,51.077,9.532z M55.551,11.519c1.089-0.005,1.977-0.908,1.972-1.997
		S56.61,7.53,55.531,7.535c-1.089,0.005-1.972,0.908-1.967,2.002C53.569,10.637,54.457,11.519,55.551,11.519z"/>
	<path fill="#FFFFFF" d="M11.555,5.406c0.585-0.121,1.17-0.287,1.765-0.348c0.767-0.076,1.347,0.464,1.392,1.2
		c0.04,0.691-0.514,1.261-1.271,1.301c-0.958,0.05-1.619,0.726-1.624,1.685c-0.01,1.15,0,2.305-0.005,3.455
		c-0.005,0.827-0.575,1.372-1.362,1.311c-0.635-0.045-1.12-0.57-1.125-1.241c-0.005-1.644,0-3.293,0-4.938c0-0.494,0-0.989,0-1.483
		c0-0.57,0.237-0.994,0.772-1.221c0.524-0.222,0.989-0.091,1.387,0.303c0.025,0.025,0.061,0.05,0.091,0.076
		C11.56,5.467,11.56,5.437,11.555,5.406z"/>
	<path fill="#FFFFFF" d="M16.811,7.958c-0.55-0.05-0.943-0.293-1.14-0.777c-0.202-0.504-0.121-0.984,0.267-1.367
		c0.434-0.424,0.883-0.832,1.347-1.221c0.388-0.328,0.847-0.383,1.306-0.151c0.464,0.232,0.706,0.615,0.706,1.145
		c0,2.386,0,4.771-0.005,7.157c0,0.741-0.53,1.281-1.246,1.276c-0.706-0.005-1.236-0.55-1.241-1.296c-0.005-1.468,0-2.93,0-4.398
		C16.811,8.21,16.811,8.1,16.811,7.958z"/>
	<path fill="#FFFFFF" d="M45.111,10.818c0-0.585-0.015-1.17,0.005-1.755c0.076-2.204,1.881-3.99,4.055-4.02
		c0.615-0.01,1.11,0.348,1.276,0.918c0.151,0.524-0.056,1.115-0.54,1.392c-0.202,0.116-0.454,0.182-0.686,0.197
		c-0.968,0.071-1.619,0.747-1.624,1.725c-0.005,1.16,0.005,2.325-0.005,3.485c-0.005,0.56-0.323,0.999-0.827,1.185
		c-0.459,0.172-0.994,0.04-1.332-0.333c-0.227-0.247-0.333-0.545-0.333-0.883C45.106,12.089,45.106,11.454,45.111,10.818
		C45.106,10.818,45.106,10.818,45.111,10.818z"/>
	<path fill="#FFFFFF" d="M46.745,18.086c-0.449,0.419-0.928,0.444-1.412,0.227c-0.494-0.217-0.661-0.656-0.676-1.16
		c-0.005-0.212,0.01-0.424,0.056-0.631c0.207-0.989,1.372-1.392,2.078-0.605c0.01-0.061,0.015-0.106,0.025-0.146
		c0.061-0.217,0.217-0.282,0.419-0.257c0.197,0.025,0.308,0.146,0.308,0.348c0,0.878,0.02,1.76-0.01,2.638
		c-0.02,0.661-0.454,1.135-1.11,1.195c-0.368,0.03-0.757-0.056-1.125-0.136c-0.136-0.03-0.303-0.166-0.358-0.298
		c-0.056-0.126-0.04-0.353,0.045-0.454c0.066-0.081,0.282-0.045,0.429-0.03c0.066,0.005,0.131,0.091,0.187,0.146
		c0.232,0.217,0.504,0.247,0.787,0.136c0.262-0.101,0.323-0.343,0.358-0.59C46.755,18.363,46.745,18.252,46.745,18.086z
		 M46.775,16.992c-0.025-0.146-0.045-0.288-0.081-0.419c-0.066-0.252-0.227-0.398-0.494-0.414c-0.272-0.015-0.504,0.06-0.625,0.328
		c-0.141,0.318-0.161,0.646-0.025,0.968c0.106,0.257,0.308,0.398,0.595,0.383c0.277-0.015,0.474-0.161,0.55-0.434
		C46.73,17.269,46.75,17.128,46.775,16.992z"/>
	<path fill="#FFFFFF" d="M42.085,17.208c0,0.313,0.106,0.54,0.368,0.661c0.292,0.131,0.59,0.121,0.868-0.056
		c0.076-0.05,0.136-0.151,0.212-0.166c0.151-0.025,0.343-0.06,0.464,0.01c0.172,0.096,0.136,0.298,0.035,0.459
		c-0.035,0.06-0.086,0.111-0.141,0.156c-0.565,0.479-1.725,0.419-2.239-0.111c-0.52-0.53-0.54-1.599-0.03-2.169
		c0.439-0.489,1.004-0.575,1.609-0.429c0.535,0.126,0.878,0.474,1.009,1.014c0.121,0.489,0.01,0.625-0.489,0.631
		C43.204,17.208,42.65,17.208,42.085,17.208z M43.472,16.714c-0.056-0.403-0.292-0.62-0.656-0.625
		c-0.388-0.005-0.64,0.217-0.706,0.625C42.569,16.714,43.018,16.714,43.472,16.714z"/>
	<path fill="#FFFFFF" d="M50.18,18.096c-0.298,0.333-0.605,0.509-1.014,0.499c-0.59-0.015-0.979-0.353-1.004-0.943
		c-0.025-0.585-0.01-1.17-0.005-1.755c0-0.257,0.151-0.383,0.403-0.393c0.262-0.005,0.409,0.126,0.419,0.408
		c0.01,0.454,0,0.908,0.005,1.362c0.005,0.434,0.172,0.646,0.504,0.646c0.343,0,0.605-0.272,0.615-0.651
		c0.01-0.424,0-0.847,0.005-1.271c0.005-0.348,0.141-0.499,0.429-0.494c0.277,0.005,0.398,0.146,0.398,0.489
		c0.005,0.706,0,1.412,0,2.118c0,0.237-0.035,0.454-0.333,0.479C50.291,18.621,50.195,18.424,50.18,18.096z"/>
	<path fill="#FFFFFF" d="M55.127,18.595c-0.963,0.005-1.518-0.545-1.528-1.518c-0.01-0.948,0.58-1.564,1.498-1.574
		c0.923-0.005,1.523,0.6,1.528,1.543C56.631,18.025,56.081,18.595,55.127,18.595z M54.437,17.037c0,0.06-0.005,0.121,0,0.182
		c0.03,0.459,0.287,0.762,0.656,0.772c0.363,0.01,0.62-0.252,0.691-0.701c0.01-0.081,0.02-0.161,0.02-0.242
		c0-0.575-0.262-0.928-0.686-0.928C54.684,16.114,54.431,16.452,54.437,17.037z"/>
	<path fill="#FFFFFF" d="M39.537,18.631c-0.242-0.066-0.545-0.116-0.817-0.237c-0.161-0.071-0.318-0.227-0.393-0.388
		c-0.05-0.106,0.005-0.328,0.096-0.414c0.071-0.066,0.272-0.025,0.403,0.01c0.086,0.025,0.136,0.151,0.227,0.197
		c0.176,0.086,0.358,0.177,0.55,0.207c0.202,0.03,0.444-0.02,0.464-0.277c0.02-0.237-0.217-0.247-0.388-0.298
		c-0.292-0.081-0.585-0.146-0.873-0.247c-0.328-0.116-0.509-0.358-0.525-0.706c-0.015-0.343,0.121-0.62,0.429-0.777
		c0.605-0.308,1.21-0.257,1.796,0.061c0.091,0.05,0.202,0.151,0.212,0.242c0.015,0.131-0.015,0.353-0.101,0.393
		c-0.121,0.06-0.348,0.056-0.454-0.02c-0.232-0.171-0.459-0.313-0.747-0.242c-0.116,0.025-0.207,0.151-0.308,0.232
		c0.086,0.081,0.156,0.202,0.257,0.242c0.267,0.096,0.55,0.136,0.817,0.227c0.514,0.171,0.711,0.409,0.701,0.822
		c-0.005,0.409-0.257,0.716-0.721,0.862C39.981,18.57,39.79,18.585,39.537,18.631z"/>
	<path fill="#FFFFFF" d="M58.29,18.641c-0.272-0.071-0.55-0.126-0.807-0.222c-0.146-0.056-0.277-0.166-0.383-0.282
		c-0.151-0.166-0.176-0.378,0.005-0.54c0.176-0.161,0.363-0.091,0.509,0.066c0.207,0.227,0.439,0.388,0.767,0.348
		c0.071-0.01,0.156-0.005,0.202-0.045c0.076-0.066,0.182-0.161,0.182-0.247c0-0.076-0.106-0.197-0.187-0.227
		c-0.298-0.101-0.605-0.156-0.903-0.247c-0.575-0.177-0.837-0.64-0.61-1.135c0.081-0.177,0.252-0.358,0.424-0.439
		c0.575-0.272,1.155-0.217,1.715,0.076c0.05,0.025,0.101,0.071,0.141,0.111c0.151,0.161,0.182,0.343,0.025,0.514
		c-0.146,0.161-0.338,0.151-0.489,0.015c-0.217-0.192-0.444-0.333-0.736-0.267c-0.121,0.025-0.222,0.141-0.328,0.212
		c0.091,0.091,0.161,0.222,0.267,0.262c0.212,0.086,0.449,0.116,0.671,0.177c0.59,0.161,0.878,0.474,0.847,0.908
		c-0.035,0.464-0.439,0.827-0.999,0.893c-0.101,0.01-0.202,0-0.303,0C58.3,18.605,58.295,18.621,58.29,18.641z"/>
	<path fill="#FFFFFF" d="M52.348,16.079c0.106-0.161,0.176-0.298,0.277-0.403c0.247-0.252,0.661-0.212,0.802,0.066
		c0.131,0.267-0.02,0.535-0.323,0.57c-0.55,0.071-0.661,0.177-0.681,0.736c-0.015,0.363,0,0.726-0.01,1.089
		c-0.005,0.333-0.131,0.464-0.424,0.459c-0.272-0.005-0.393-0.131-0.393-0.454c-0.005-0.696,0-1.392,0-2.088
		c0-0.383,0.106-0.545,0.363-0.545C52.212,15.504,52.318,15.65,52.348,16.079z"/>
	<path fill="#FFFFFF" d="M11.863,6.188v2.098c0,0.646-0.53,1.175-1.175,1.175h-0.192c-0.646,0-1.175-0.53-1.175-1.175V6.188
		c0-0.646,0.53-1.175,1.175-1.175h0.192C11.333,5.013,11.863,5.542,11.863,6.188z"/>
	<path fill="#FFFFFF" d="M11.535,5.386c0.585-0.121,1.17-0.287,1.765-0.348c0.767-0.076,1.347,0.464,1.392,1.2
		c0.04,0.691-0.514,1.261-1.271,1.301c-0.958,0.05-1.619,0.726-1.624,1.685c-0.01,1.15,0,2.305-0.005,3.455
		c-0.005,0.827-0.575,1.372-1.362,1.311c-0.635-0.045-1.12-0.57-1.125-1.241c-0.005-1.644-0.025-2.32-0.005-3.964
		c0.03-2.28,2.219-3.324,2.25-3.304C11.54,5.447,11.535,5.416,11.535,5.386z"/>
	<g>
		<path fill="#FFFFFF" d="M16.811,7.958c-0.55-0.05-0.943-0.293-1.14-0.777c-0.202-0.504-0.121-0.984,0.267-1.367
			c0.434-0.424,0.883-0.832,1.347-1.221c0.388-0.328,0.847-0.383,1.306-0.151c0.464,0.232,0.706,0.615,0.706,1.145
			c0,2.386,0,4.771-0.005,7.157c0,0.741-0.53,1.281-1.246,1.276c-0.706-0.005-1.236-0.55-1.241-1.296c-0.005-1.468,0-2.93,0-4.398
			C16.811,8.21,16.811,8.1,16.811,7.958z"/>
		<path fill="#FFFFFF" d="M16.816,7.282l-0.02-1.634c0-0.535,0.086-0.681,0.328-0.933c0.272-0.287,0.57-0.378,0.686-0.404
			c0.025-0.005,0.05-0.01,0.081-0.01c1.165-0.061,1.377,0.863,1.402,1.044c0.005,0.015,0.005,0.035,0.005,0.05
			c0.01,0.202-0.015,0.373-0.05,0.504c-0.045,0.176-0.146,0.333-0.282,0.459l-0.994,0.923c-0.005,0.005-0.015,0.015-0.02,0.02
			l-0.414,0.338c-0.005,0.005-0.005,0.005-0.01,0.01c-0.161,0.121-0.585,0.333-0.706,0.267C16.801,7.898,16.816,7.469,16.816,7.282z
			"/>
	</g>
</g>
</svg>
