<?xml version="1.0" encoding="utf-8"?>
<!-- Generator: Adobe Illustrator 23.0.1, SVG Export Plug-In . SVG Version: 6.00 Build 0)  -->
<svg version="1.1" id="Capa_1" xmlns="http://www.w3.org/2000/svg" xmlns:xlink="http://www.w3.org/1999/xlink" x="0px" y="0px"
	 viewBox="0 0 1392 516" style="enable-background:new 0 0 1392 516;" xml:space="preserve">
<style type="text/css">
	.st0{fill:#FFFFFF;}
	.st1{fill:#EFEDED;}
</style>
<g>
	<path class="st0" d="M121.2,180.3c1-2.6,1.8-5.2,3-7.7c3.9-8.2,10.4-14.1,19.4-14.1c24.6-0.2,49.5-1.5,73.7,1.7
		c46.1,6.2,78.7,54,70.6,99.8c-8.1,45.2-43.2,74.7-89.2,74.7c-9,0-17.9,0-27.4,0c0,15.3,0.1,29.8,0,44.4c0,3.6-0.1,7.3-1,10.7
		c-2.8,10.3-12.6,17.4-23.2,17.6c-10.5,0.2-19.8-6.4-23.4-16.5c-0.7-2-1.5-4.1-2.2-6.1C121.2,316.6,121.2,248.5,121.2,180.3z
		 M171.4,285.1c10.5,0,20.3,0.1,30,0c19-0.2,34.8-14.1,37.7-33c2.8-18.7-8.3-38.1-26.7-42.1c-13.2-2.9-27.2-2-41-2.8
		C171.4,233.9,171.4,259.1,171.4,285.1z"/>
	<path class="st0" d="M656.9,175.6c13.7-11.5,29.6-18.2,48-18.3c40.6-0.3,74.3,32.1,75,72.8c0.4,26.8,0.2,53.7,0.1,80.5
		c-0.1,14.6-10.9,25.4-24.9,25.3c-14.2-0.1-24.3-10.6-24.3-25.6c-0.1-25.8,0.1-51.7-0.1-77.5c-0.1-12.9-8.2-22.9-20.4-25.5
		c-10.6-2.3-22.4,3.9-26.9,14.6c-1.3,3-1.8,6.6-1.8,9.9c-0.1,26.2,0,52.5-0.1,78.7c-0.1,11-5,19.4-15.4,23.6
		c-9.8,3.9-18.9,2.2-26.6-5.2c-5.4-5.1-7.4-11.7-7.3-19c0.1-23,0.1-46.1,0-69.1c0-4.4,0-8.8-0.6-13.2c-1.5-11.8-12.8-20.9-25-20.6
		c-12.6,0.3-23.1,10.5-23.8,23.4c-0.4,7.6-0.1,15.2-0.1,22.8c0,19,0.1,38.1,0,57.1c-0.1,10.7-4.6,19.1-14.6,23.5
		c-9.2,4-18.1,2.8-25.9-3.6c-5.7-4.7-8.7-11-8.7-18.4c-0.1-27.6-0.8-55.3,0.2-82.9c1.1-29.4,15.6-51.5,42.2-64.2
		c26.7-12.7,52.5-9.4,76.5,8c1.3,0.9,2.5,1.9,3.8,2.9C656.1,175.5,656.4,175.5,656.9,175.6z"/>
	<path class="st0" d="M862.2,269.3c13.9,19.6,39.3,23.4,58.6,9.3c6-4.4,12.3-6.8,19.6-5.5c10,1.8,16.6,7.7,19.1,17.6
		c2.7,10.4-0.6,19-8.9,25.6c-11.5,9.1-24.6,15-39,17.5c-48.4,8.4-94.7-23.5-103.5-71.1c-9.1-49.2,22-95.9,70.4-105.9
		c54.5-11.2,107.5,32.5,106.7,87.9c-0.2,14.6-10.3,24.5-25.4,24.5c-30.2,0.1-60.5,0-90.7,0C867,269.3,865,269.3,862.2,269.3z
		 M929.2,221c-18.2-25.8-54.6-20.7-66.4,0C884.8,221,906.7,221,929.2,221z"/>
	<path class="st0" d="M1134.1,247.1c-0.1-49.1,39.5-89.1,88.2-89.3c49-0.1,88.9,39.8,88.9,89.1c0,49.2-40.1,89.6-88.8,89.4
		C1173.7,336.1,1134.2,296.1,1134.1,247.1z M1222.8,286.5c21.6-0.1,39.2-18,39.1-39.6s-18.1-39.5-39.5-39.4
		c-21.6,0.1-39.1,18-39,39.7C1183.5,269,1201.1,286.5,1222.8,286.5z"/>
	<path class="st0" d="M1015.8,272.6c0-11.6-0.3-23.2,0.1-34.8c1.5-43.7,37.3-79.1,80.4-79.7c12.2-0.2,22,6.9,25.3,18.2
		c3,10.4-1.1,22.1-10.7,27.6c-4,2.3-9,3.6-13.6,3.9c-19.2,1.4-32.1,14.8-32.2,34.2c-0.1,23,0.1,46.1-0.1,69.1
		c-0.1,11.1-6.4,19.8-16.4,23.5c-9.1,3.4-19.7,0.8-26.4-6.6c-4.5-4.9-6.6-10.8-6.6-17.5C1015.7,297.8,1015.7,285.2,1015.8,272.6
		C1015.7,272.6,1015.7,272.6,1015.8,272.6z"/>
	<path class="st0" d="M1048.2,416.7c-8.9,8.3-18.4,8.8-28,4.5c-9.8-4.3-13.1-13-13.4-23c-0.1-4.2,0.2-8.4,1.1-12.5
		c4.1-19.6,27.2-27.6,41.2-12c0.2-1.2,0.3-2.1,0.5-2.9c1.2-4.3,4.3-5.6,8.3-5.1c3.9,0.5,6.1,2.9,6.1,6.9c0,17.4,0.4,34.9-0.2,52.3
		c-0.4,13.1-9,22.5-22,23.7c-7.3,0.6-15-1.1-22.3-2.7c-2.7-0.6-6-3.3-7.1-5.9c-1.1-2.5-0.8-7,0.9-9c1.3-1.6,5.6-0.9,8.5-0.6
		c1.3,0.1,2.6,1.8,3.7,2.9c4.6,4.3,10,4.9,15.6,2.7c5.2-2,6.4-6.8,7.1-11.7C1048.4,422.2,1048.2,420,1048.2,416.7z M1048.8,395
		c-0.5-2.9-0.9-5.7-1.6-8.3c-1.3-5-4.5-7.9-9.8-8.2c-5.4-0.3-10,1.2-12.4,6.5c-2.8,6.3-3.2,12.8-0.5,19.2c2.1,5.1,6.1,7.9,11.8,7.6
		c5.5-0.3,9.4-3.2,10.9-8.6C1047.9,400.5,1048.3,397.7,1048.8,395z"/>
	<path class="st0" d="M955.8,399.3c0,6.2,2.1,10.7,7.3,13.1c5.8,2.6,11.7,2.4,17.2-1.1c1.5-1,2.7-3,4.2-3.3c3-0.5,6.8-1.2,9.2,0.2
		c3.4,1.9,2.7,5.9,0.7,9.1c-0.7,1.2-1.7,2.2-2.8,3.1c-11.2,9.5-34.2,8.3-44.4-2.2c-10.3-10.5-10.7-31.7-0.6-43
		c8.7-9.7,19.9-11.4,31.9-8.5c10.6,2.5,17.4,9.4,20,20.1c2.4,9.7,0.2,12.4-9.7,12.5C978,399.3,967,399.3,955.8,399.3z M983.3,389.5
		c-1.1-8-5.8-12.3-13-12.4c-7.7-0.1-12.7,4.3-14,12.4C965.4,389.5,974.3,389.5,983.3,389.5z"/>
	<path class="st0" d="M1116.3,416.9c-5.9,6.6-12,10.1-20.1,9.9c-11.7-0.3-19.4-7-19.9-18.7c-0.5-11.6-0.2-23.2-0.1-34.8
		c0-5.1,3-7.6,8-7.8c5.2-0.1,8.1,2.5,8.3,8.1c0.2,9,0,18,0.1,27c0.1,8.6,3.4,12.8,10,12.8c6.8,0,12-5.4,12.2-12.9
		c0.2-8.4,0-16.8,0.1-25.2c0.1-6.9,2.8-9.9,8.5-9.8c5.5,0.1,7.9,2.9,7.9,9.7c0.1,14,0,28,0,42c0,4.7-0.7,9-6.6,9.5
		C1118.5,427.3,1116.6,423.4,1116.3,416.9z"/>
	<path class="st0" d="M1214.4,426.8c-19.1,0.1-30.1-10.8-30.3-30.1c-0.2-18.8,11.5-31,29.7-31.2c18.3-0.1,30.2,11.9,30.3,30.6
		C1244.2,415.5,1233.3,426.8,1214.4,426.8z M1200.7,395.9c0,1.2-0.1,2.4,0,3.6c0.6,9.1,5.7,15.1,13,15.3c7.2,0.2,12.3-5,13.7-13.9
		c0.2-1.6,0.4-3.2,0.4-4.8c0-11.4-5.2-18.4-13.6-18.4C1205.6,377.6,1200.6,384.3,1200.7,395.9z"/>
	<path class="st0" d="M905.3,427.5c-4.8-1.3-10.8-2.3-16.2-4.7c-3.2-1.4-6.3-4.5-7.8-7.7c-1-2.1,0.1-6.5,1.9-8.2
		c1.4-1.3,5.4-0.5,8,0.2c1.7,0.5,2.7,3,4.5,3.9c3.5,1.7,7.1,3.5,10.9,4.1c4,0.6,8.8-0.4,9.2-5.5c0.4-4.7-4.3-4.9-7.7-5.9
		c-5.8-1.6-11.6-2.9-17.3-4.9c-6.5-2.3-10.1-7.1-10.4-14c-0.3-6.8,2.4-12.3,8.5-15.4c12-6.1,24-5.1,35.6,1.2c1.8,1,4,3,4.2,4.8
		c0.3,2.6-0.3,7-2,7.8c-2.4,1.2-6.9,1.1-9-0.4c-4.6-3.4-9.1-6.2-14.8-4.8c-2.3,0.5-4.1,3-6.1,4.6c1.7,1.6,3.1,4,5.1,4.8
		c5.3,1.9,10.9,2.7,16.2,4.5c10.2,3.4,14.1,8.1,13.9,16.3c-0.1,8.1-5.1,14.2-14.3,17.1C914.1,426.3,910.3,426.6,905.3,427.5z"/>
	<path class="st0" d="M1277.1,427.7c-5.4-1.4-10.9-2.5-16-4.4c-2.9-1.1-5.5-3.3-7.6-5.6c-3-3.3-3.5-7.5,0.1-10.7
		c3.5-3.2,7.2-1.8,10.1,1.3c4.1,4.5,8.7,7.7,15.2,6.9c1.4-0.2,3.1-0.1,4-0.9c1.5-1.3,3.6-3.2,3.6-4.9c0-1.5-2.1-3.9-3.7-4.5
		c-5.9-2-12-3.1-17.9-4.9c-11.4-3.5-16.6-12.7-12.1-22.5c1.6-3.5,5-7.1,8.4-8.7c11.4-5.4,22.9-4.3,34,1.5c1,0.5,2,1.4,2.8,2.2
		c3,3.2,3.6,6.8,0.5,10.2c-2.9,3.2-6.7,3-9.7,0.3c-4.3-3.8-8.8-6.6-14.6-5.3c-2.4,0.5-4.4,2.8-6.5,4.2c1.8,1.8,3.2,4.4,5.3,5.2
		c4.2,1.7,8.9,2.3,13.3,3.5c11.7,3.2,17.4,9.4,16.8,18c-0.7,9.2-8.7,16.4-19.8,17.7c-2,0.2-4,0-6,0
		C1277.3,427,1277.2,427.3,1277.1,427.7z"/>
	<path class="st0" d="M1159.3,376.9c2.1-3.2,3.5-5.9,5.5-8c4.9-5,13.1-4.2,15.9,1.3c2.6,5.3-0.4,10.6-6.4,11.3
		c-10.9,1.4-13.1,3.5-13.5,14.6c-0.3,7.2,0,14.4-0.2,21.6c-0.1,6.6-2.6,9.2-8.4,9.1c-5.4-0.1-7.8-2.6-7.8-9c-0.1-13.8,0-27.6,0-41.4
		c0-7.6,2.1-10.8,7.2-10.8C1156.6,365.5,1158.7,368.4,1159.3,376.9z"/>
	<path class="st1" d="M356.6,180.8v41.6c0,12.8-10.5,23.3-23.3,23.3h-3.8c-12.8,0-23.3-10.5-23.3-23.3v-41.6
		c0-12.8,10.5-23.3,23.3-23.3h3.8C346.1,157.5,356.6,168,356.6,180.8z"/>
	<path class="st0" d="M350.1,164.9c11.6-2.4,23.2-5.7,35-6.9c15.2-1.5,26.7,9.2,27.6,23.8c0.8,13.7-10.2,25-25.2,25.8
		c-19,1-32.1,14.4-32.2,33.4c-0.2,22.8,0,45.7-0.1,68.5c-0.1,16.4-11.4,27.2-27,26c-12.6-0.9-22.2-11.3-22.3-24.6
		c-0.1-32.6-0.5-46-0.1-78.6c0.6-45.2,44-65.9,44.6-65.5C350.2,166.1,350.1,165.5,350.1,164.9z"/>
	<path class="st0" d="M454.7,215.9c-10.9-1-18.7-5.8-22.6-15.4c-4-10-2.4-19.5,5.3-27.1c8.6-8.4,17.5-16.5,26.7-24.2
		c7.7-6.5,16.8-7.6,25.9-3c9.2,4.6,14,12.2,14,22.7c0,47.3,0,94.6-0.1,141.9c0,14.7-10.5,25.4-24.7,25.3
		c-14-0.1-24.5-10.9-24.6-25.7c-0.1-29.1,0-58.1,0-87.2C454.7,220.9,454.7,218.7,454.7,215.9z"/>
	<path class="st1" d="M454.8,202.5l-0.4-32.4c0-10.6,1.7-13.5,6.5-18.5c5.4-5.7,11.3-7.5,13.6-8c0.5-0.1,1-0.2,1.6-0.2
		c23.1-1.2,27.3,17.1,27.8,20.7c0.1,0.3,0.1,0.7,0.1,1c0.2,4-0.3,7.4-1,10c-0.9,3.5-2.9,6.6-5.6,9.1l-19.7,18.3
		c-0.1,0.1-0.3,0.3-0.4,0.4l-8.2,6.7c-0.1,0.1-0.1,0.1-0.2,0.2c-3.2,2.4-11.6,6.6-14,5.3C454.5,214.7,454.8,206.2,454.8,202.5z"/>
</g>
</svg>
