<?xml version="1.0" encoding="utf-8"?>
<!-- Generator: Adobe Illustrator 17.0.0, SVG Export Plug-In . SVG Version: 6.00 Build 0)  -->
<!DOCTYPE svg PUBLIC "-//W3C//DTD SVG 1.1//EN" "http://www.w3.org/Graphics/SVG/1.1/DTD/svg11.dtd">
<svg version="1.1" id="Capa_1" xmlns="http://www.w3.org/2000/svg" xmlns:xlink="http://www.w3.org/1999/xlink" x="0px" y="0px"
	 width="60px" height="24px" viewBox="0 0 60 24" enable-background="new 0 0 60 24" xml:space="preserve">
<g id="ZURICH">
	<path fill="#FFFFFF" d="M30.245,0.077c-3.561,0-6.448,2.887-6.448,6.448c0,1.47,0.492,2.825,1.321,3.91l5.36-7.044l-0.576,0.001
		h-0.573c-0.612,0-1.186,0.042-1.599,0.123c-0.251,0.049-0.475,0.141-0.657,0.268c-0.214,0.15-0.482,0.469-0.656,0.781
		c-0.02,0.036-0.049,0.092-0.087,0.166l-0.314-0.069l0.525-2.024h6.714L27.92,9.77c0.347-0.031,0.485-0.037,0.766-0.037
		c0.217,0,0.545,0.013,0.985,0.039l0.948,0.056c0.342,0.02,0.631,0.031,0.849,0.031c0.49,0,0.808-0.038,1.123-0.134
		c0.245-0.075,0.478-0.188,0.69-0.334c0.374-0.258,0.739-0.674,0.956-1.09c0.022-0.042,0.056-0.106,0.097-0.191l0.284,0.073
		c-0.091,0.353-0.141,0.488-0.283,0.804c-0.287,0.641-0.61,1.069-1.055,1.399c-0.457,0.338-0.963,0.505-1.562,0.514L31.628,10.9
		c-0.443,0-0.786-0.037-1.847-0.2c-1.08-0.166-1.629-0.222-2.172-0.222c-0.364,0-0.701,0.027-1.05,0.083
		c-0.463,0.075-0.645,0.129-1.065,0.321c1.179,1.285,2.871,2.09,4.752,2.09c3.561,0,6.448-2.887,6.448-6.448
		S33.806,0.077,30.245,0.077L30.245,0.077z"/>
	<path fill="#FFFFFF" d="M18.082,17.442h-4.936l-0.606,1.34c0.202-0.108,0.283-0.146,0.46-0.216c0.28-0.112,0.588-0.199,0.887-0.251
		c0.259-0.045,0.497-0.066,0.885-0.077c0.173-0.005,0.335-0.007,0.487-0.007h0.731l-3.84,5.488h5.428l0.626-1.432
		c-0.218,0.125-0.296,0.166-0.462,0.241c-0.315,0.142-0.66,0.248-1.014,0.31c-0.28,0.049-0.595,0.077-0.987,0.087
		c-0.131,0.003-0.298,0.005-0.502,0.005h-0.962L18.082,17.442L18.082,17.442z"/>
	<path fill="#FFFFFF" d="M34.397,23.718c-0.098-0.085-0.132-0.125-0.194-0.221c-0.04-0.062-0.072-0.126-0.097-0.191
		c-0.054-0.143-0.087-0.353-0.087-0.552v-0.335v-3.445l0.003-0.368c0.003-0.42,0.014-0.535,0.067-0.706
		c0.021-0.067,0.051-0.133,0.09-0.196c0.065-0.107,0.109-0.156,0.236-0.261h-2.016c0.132,0.113,0.174,0.158,0.234,0.248
		c0.042,0.064,0.075,0.133,0.097,0.204c0.047,0.152,0.061,0.303,0.064,0.676c0.002,0.191,0.002,0.317,0.002,0.378v3.46v0.299
		c0,0.22-0.038,0.455-0.099,0.606c-0.026,0.064-0.059,0.126-0.099,0.184c-0.048,0.069-0.08,0.107-0.191,0.221L34.397,23.718
		L34.397,23.718z"/>
	<path fill="#FFFFFF" d="M40.7,17.499c-0.155-0.05-0.216-0.066-0.383-0.102c-0.36-0.076-0.709-0.111-1.103-0.111
		c-0.675,0-1.257,0.108-1.79,0.333c-0.316,0.133-0.606,0.306-0.862,0.512c-0.774,0.623-1.194,1.525-1.194,2.565
		c0,1.009,0.405,1.881,1.146,2.465c0.612,0.483,1.398,0.726,2.345,0.726c0.591,0,1.141-0.088,1.761-0.281
		c0.023-0.007,0.057-0.018,0.102-0.032v-1.141c-0.15,0.101-0.202,0.133-0.293,0.186c-0.12,0.07-0.249,0.134-0.385,0.192
		c-0.379,0.16-0.723,0.233-1.095,0.233c-0.65,0-1.206-0.232-1.617-0.676c-0.407-0.439-0.626-1.049-0.626-1.739
		c0-0.658,0.204-1.268,0.567-1.694c0.157-0.184,0.35-0.342,0.569-0.465c0.355-0.199,0.767-0.301,1.214-0.301
		c0.384,0,0.756,0.075,1.128,0.226c0.232,0.095,0.317,0.141,0.517,0.284L40.7,17.499L40.7,17.499z"/>
	<path fill="#FFFFFF" d="M46.203,20.87v1.531c0,0.34-0.006,0.464-0.027,0.639c-0.012,0.097-0.035,0.188-0.067,0.271
		c-0.045,0.117-0.12,0.225-0.226,0.328c-0.019,0.018-0.048,0.045-0.087,0.08h2.006c-0.084-0.083-0.114-0.118-0.169-0.194
		c-0.05-0.07-0.089-0.139-0.117-0.206c-0.06-0.146-0.076-0.257-0.082-0.566c-0.003-0.186-0.005-0.294-0.005-0.326l0.005-3.452V18.6
		c0-0.276,0.022-0.489,0.069-0.663c0.022-0.081,0.055-0.159,0.099-0.231c0.066-0.108,0.114-0.158,0.249-0.263h-2.048
		c0.118,0.098,0.159,0.144,0.229,0.256c0.045,0.073,0.08,0.146,0.104,0.219c0.049,0.147,0.067,0.33,0.067,0.659v0.388v1.138h-2.814
		v-1.146c0-0.347,0.005-0.574,0.017-0.743c0.007-0.104,0.024-0.195,0.05-0.274c0.044-0.136,0.158-0.322,0.261-0.43
		c0.015-0.016,0.038-0.038,0.07-0.067h-2.011c0.12,0.124,0.152,0.161,0.206,0.241c0.044,0.064,0.08,0.136,0.107,0.214
		c0.056,0.159,0.064,0.245,0.07,0.663l0.005,0.398v3.435c0,0.35-0.006,0.503-0.025,0.661c-0.01,0.082-0.031,0.165-0.062,0.249
		c-0.052,0.136-0.125,0.244-0.241,0.353c-0.015,0.014-0.038,0.035-0.069,0.062h1.986c-0.086-0.09-0.116-0.127-0.167-0.206
		c-0.038-0.06-0.071-0.126-0.099-0.196c-0.066-0.165-0.085-0.284-0.092-0.549c-0.003-0.133-0.005-0.259-0.005-0.375V20.87
		L46.203,20.87L46.203,20.87z"/>
	<path fill="#FFFFFF" d="M18.937,17.442c0.124,0.101,0.167,0.148,0.229,0.253c0.04,0.068,0.07,0.142,0.09,0.219
		c0.024,0.094,0.037,0.191,0.04,0.288c0.002,0.069,0.004,0.199,0.005,0.39l0.002,0.363v1.794c0,0.634,0.005,0.852,0.025,1.106
		c0.035,0.45,0.178,0.824,0.44,1.153c0.265,0.333,0.625,0.583,1.059,0.736c0.337,0.119,0.716,0.177,1.145,0.177
		c0.472,0,0.933-0.071,1.271-0.197c0.355-0.132,0.697-0.361,0.935-0.627c0.289-0.323,0.453-0.716,0.507-1.215
		c0.032-0.299,0.042-0.567,0.042-1.123v-1.804L24.723,18.6l0-0.05c0-0.316,0.026-0.515,0.057-0.622
		c0.065-0.222,0.178-0.352,0.281-0.432c0.04-0.031,0.052-0.039,0.072-0.054h-1.859c0.076,0.114,0.101,0.163,0.137,0.273
		c0.024,0.074,0.041,0.153,0.052,0.236c0.029,0.223,0.04,0.506,0.04,1.041v1.948c0,0.542-0.013,0.813-0.052,1.064
		c-0.026,0.168-0.081,0.323-0.162,0.457c-0.158,0.263-0.435,0.456-0.773,0.539c-0.135,0.034-0.285,0.05-0.445,0.05
		c-0.324,0-0.603-0.067-0.852-0.204c-0.158-0.087-0.286-0.199-0.373-0.326c-0.172-0.251-0.222-0.504-0.229-1.148l-0.007-0.79v-1.591
		c0-0.535,0.011-0.825,0.04-1.041c0.022-0.165,0.072-0.312,0.154-0.452c0.007-0.013,0.019-0.032,0.035-0.057L18.937,17.442
		L18.937,17.442z"/>
	<path fill="#FFFFFF" d="M27.781,22.428c0,0.115,0.001,0.22,0.002,0.316c0.005,0.29,0.027,0.441,0.082,0.579
		c0.027,0.067,0.063,0.131,0.107,0.192c0.056,0.076,0.082,0.107,0.174,0.204H26.15c0.116-0.106,0.152-0.144,0.209-0.219
		c0.046-0.061,0.083-0.128,0.109-0.199c0.052-0.138,0.072-0.309,0.072-0.607v-0.266v-3.485v-0.368c0-0.333-0.018-0.527-0.062-0.668
		c-0.025-0.079-0.062-0.156-0.109-0.229c-0.059-0.09-0.1-0.135-0.211-0.236h1.621c0.2,0,0.394,0.002,0.582,0.007
		c0.5,0.013,0.792,0.043,1.074,0.109c0.401,0.094,0.761,0.294,1.019,0.564c0.281,0.294,0.425,0.644,0.425,1.03
		c0,0.162-0.026,0.325-0.077,0.483c-0.092,0.283-0.247,0.508-0.494,0.716c-0.219,0.184-0.458,0.322-0.773,0.448
		c-0.111,0.044-0.157,0.06-0.278,0.097l0.974,1.146c0.118,0.139,0.271,0.31,0.457,0.512c0.294,0.318,0.49,0.519,0.711,0.728
		c0.095,0.09,0.186,0.172,0.271,0.246c0.081,0.07,0.123,0.105,0.229,0.189h-0.49h-0.298c-0.117,0-0.225-0.002-0.326-0.005
		c-0.272-0.009-0.443-0.049-0.624-0.146c-0.21-0.114-0.424-0.283-0.649-0.514c-0.07-0.072-0.172-0.184-0.306-0.338
		c-0.119-0.136-0.206-0.237-0.261-0.303l-1.163-1.394L27.781,22.428L27.781,22.428L27.781,22.428z M27.882,20.49
		c0.09,0,0.2-0.01,0.328-0.028c0.338-0.049,0.566-0.123,0.791-0.256c0.117-0.069,0.215-0.148,0.293-0.236
		c0.161-0.181,0.244-0.422,0.244-0.707c0-0.328-0.11-0.591-0.323-0.771c-0.122-0.104-0.267-0.181-0.425-0.226
		c-0.237-0.068-0.536-0.105-0.846-0.105c-0.051,0-0.085,0.001-0.163,0.003v2.324C27.83,20.49,27.851,20.49,27.882,20.49
		L27.882,20.49z"/>
</g>
</svg>
