<?xml version="1.0" encoding="utf-8"?>
<!-- Generator: Adobe Illustrator 23.0.1, SVG Export Plug-In . SVG Version: 6.00 Build 0)  -->
<svg version="1.1" id="Capa_1" xmlns="http://www.w3.org/2000/svg" xmlns:xlink="http://www.w3.org/1999/xlink" x="0px" y="0px"
	 width="60px" height="24px" viewBox="0 0 60 24" style="enable-background:new 0 0 60 24;" xml:space="preserve">
<style type="text/css">
	.st0{fill:#00913E;}
</style>
<g>
	<path class="st0" d="M7.42612,7.71349c0-0.35839,0.11189-0.69039,0.30093-0.96361l1.64932-2.39849
		c0,0,0.02138-0.03206,0.02939-0.04142C9.41244,4.30128,9.4218,4.29092,9.44418,4.29092c0.0227,0,0.03273,0.01036,0.04041,0.01737
		c0.00702,0.01103,0.03006,0.04309,0.03006,0.04309L9.85568,4.8427c0.0521,0.07415,0.13393,0.11457,0.21777,0.11457
		c0.05345,0,0.10688-0.01537,0.15364-0.04843C10.347,4.826,10.37772,4.65867,10.29422,4.53876L9.66929,3.64129
		C9.5858,3.52037,9.41947,3.49165,9.29755,3.57483C9.2715,3.59252,9.23442,3.63862,9.23442,3.63862L3.557,11.87218
		c-0.06145,0.08852-0.06946,0.20274-0.01836,0.29927c0.05144,0.09653,0.15029,0.15731,0.25852,0.15731l1.91853-0.002l2.2916-3.33304
		C7.65124,8.68144,7.42612,8.22485,7.42612,7.71349 M9.33497,9.30535c0-0.36306,0.11322-0.69773,0.30662-0.97329l1.51136-2.19742
		c0.03474-0.04676,0.05813-0.10254,0.05813-0.16601c0-0.15364-0.12392-0.27522-0.27723-0.27522
		c-0.0982,0-0.1847,0.05278-0.23247,0.13027l-4.47267,6.50508h2.47164l1.20542-1.75252
		C9.55507,10.26428,9.33497,9.81204,9.33497,9.30535 M15.38681,11.87218l-1.45828-2.11892
		c-0.0471-0.07984-0.1316-0.13495-0.2308-0.13495c-0.14897,0-0.26855,0.12158-0.26855,0.26788
		c0,0.06412,0.02171,0.11957,0.05746,0.16499l0.98397,1.42954c0.00168,0.00167,0.002,0.00367,0.002,0.00367l0.16267,0.23548
		c0.01035,0.01469,0.01136,0.0334,0.00401,0.05144c-0.00969,0.01669-0.02505,0.02672-0.04476,0.02672h-2.94125
		c-0.14496-0.00335-0.29058-0.04643-0.41917-0.13361c-0.34236-0.23747-0.42953-0.70575-0.19339-1.04911l1.63228-2.37177
		c0.03206-0.04441,0.0521-0.09753,0.0521-0.15832c0-0.1473-0.12091-0.26787-0.26853-0.26787
		c-0.09453,0-0.1777,0.05044-0.22479,0.1229l-3.01707,4.3865l5.93227,0.00267c0.10721,0,0.20742-0.05978,0.25818-0.15698
		C15.45528,12.07794,15.44726,11.9617,15.38681,11.87218"/>
	<path class="st0" d="M25.23295,12.3288h-1.22175c-0.70056,0-0.93844-0.62813-0.93844-0.62813l-0.68667-1.76995h-2.75229
		l-0.92157,2.39808h-1.0694c0,0,2.45848-5.96087,3.27311-7.94583c0.04015-0.09981,0.1317-0.27203,0.32757-0.27203
		c0.18086,0.003,0.68704,0,0.68704,0L25.23295,12.3288z M21.02965,6.40546c0,0-0.9332,2.3373-1.11706,2.82546h2.1977
		C21.92644,8.74275,21.02965,6.40546,21.02965,6.40546"/>
	<path class="st0" d="M36.34688,8.53127l0.00301,3.7973h-1.94631V4.44729c0,0-0.01088-0.3332,0.35759-0.3332h2.36168
		c0.30019,0,0.55685,0.01126,0.77147,0.02401c0.21389,0.01801,0.397,0.03865,0.55122,0.06904
		c0.15496,0.03489,0.28854,0.0758,0.4045,0.12758c0.11482,0.05178,0.22251,0.11182,0.32607,0.18461
		c0.23827,0.17561,0.42401,0.38986,0.56358,0.64615c0.13771,0.25515,0.20863,0.56359,0.20863,0.92118
		c0,0.57786-0.15947,1.04727-0.47427,1.41348c-0.31895,0.36247-0.77411,0.61913-1.36584,0.76997
		c0.3801,0.67354,2.5279,4.05846,2.5279,4.05846h-1.44687c-0.7636,0-1.05215-0.65514-1.05215-0.65514l-1.68477-3.14216H36.34688z
		 M37.54649,5.03565c-0.48742-0.28668-1.19961-0.24352-1.19961-0.24352l0.00788,3.24834c0,0,0.6848,0.06154,1.227-0.29492
		c0.35233-0.23415,0.6469-0.64577,0.6469-1.36808C38.22866,5.65028,37.91647,5.25291,37.54649,5.03565"/>
	<path class="st0" d="M25.83755,4.45633c0,0-0.00264-0.34521,0.36547-0.34521c0.96246,0,3.34965,0,4.2322,0.00301v0.627
		c0,0.45478-0.41314,0.40074-0.41314,0.40074c-0.3801,0-2.23561,0.00113-2.23561,0.00113v2.41309h2.60296v0.66078
		c0,0,0.02476,0.35984-0.38048,0.35984h-2.22248l0.00188,3.75191h-1.95079V4.45633z"/>
	<path class="st0" d="M31.37419,4.50861c0,0-0.04616-0.39737,0.35534-0.39737h1.59921v8.21748h-1.95455V4.50861z"/>
	<path class="st0" d="M42.40186,12.32872h-1.11629l1.18646-7.95857c0,0,0.03865-0.25891,0.34296-0.25891h0.65814l2.7403,5.73498
		l2.76918-5.73498h0.72007c0.26566,0,0.32269,0.25891,0.32269,0.25891l0.98348,7.95857h-1.94705c0,0-0.37862-4.53875-0.4728-5.47344
		h-0.02364l-2.62471,5.47344h-0.45066c0,0-2.13842-4.44382-2.58982-5.35449h-0.02251L42.40186,12.32872z"/>
	<path class="st0" d="M51.89956,4.40778c0,0,0.02214-0.29719,0.36361-0.29719h4.2318v0.67504
		c0,0.31819-0.28779,0.35459-0.28779,0.35459h-2.39396v2.41572h2.63485v0.61875c0,0.406-0.31594,0.40338-0.31594,0.40338
		l-2.31891-0.00151v2.74141l2.68175,0.003v0.66153c0,0,0.00301,0.34633-0.35871,0.34633h-4.23408L51.89956,4.40778z"/>
	<g>
		<path class="st0" d="M17.48978,18.1084v-0.212h0.32556v0.212c0,0.53098,0.21957,0.8707,0.75746,0.8707
			c0.47403,0,0.70051-0.3045,0.70051-0.8493v-0.14155c0-0.62973-0.23339-0.88452-0.80683-1.35196
			c-0.58035-0.45987-0.91283-0.80651-0.91283-1.45763v-0.0711c0-0.64389,0.38218-1.01916,0.98361-1.01916
			c0.63697,0,0.99809,0.36803,0.99809,1.03364v0.16262h-0.32556v-0.16262c0-0.50958-0.24063-0.75054-0.67253-0.75054
			c-0.41741,0-0.65804,0.25479-0.65804,0.72223v0.07045c0,0.52406,0.24063,0.77161,0.79268,1.21733
			c0.64389,0.50958,0.93423,0.82099,0.93423,1.58536v0.15603c0,0.74297-0.37527,1.13931-1.03331,1.13931
			C17.85089,19.26219,17.48978,18.80923,17.48978,18.1084z"/>
		<path class="st0" d="M23.92437,18.11564v-1.5215c0-0.71499,0.36803-1.1324,0.98393-1.1324
			c0.61558,0,0.96254,0.35355,0.96254,1.111v0.79268h-1.62091v0.75021c0,0.55204,0.19126,0.86345,0.67253,0.86345
			c0.41049,0,0.63697-0.24063,0.63697-0.68635v-0.09941h0.31141v0.09217c0,0.65837-0.35387,0.96254-0.94838,0.96254
			C24.27825,19.24804,23.92437,18.83754,23.92437,18.11564z M24.24994,17.09648h1.29535v-0.52373
			c0-0.58035-0.20541-0.84239-0.63697-0.84239c-0.4388,0-0.65837,0.32589-0.65837,0.86378V17.09648z"/>
		<path class="st0" d="M30.19635,19.61607h0.32556c0.02107,0.3891,0.24755,0.58727,0.66529,0.58727
			c0.45296,0,0.70051-0.24755,0.70051-0.81375v-0.70051c-0.12015,0.2831-0.3891,0.52341-0.80683,0.52341
			c-0.55896,0-0.90592-0.35355-0.90592-1.06854v-1.59951c0-0.71466,0.38218-1.08269,0.94147-1.08269
			c0.41741,0,0.65804,0.23339,0.77128,0.50234v-0.4602h0.32557v3.89295c0,0.73606-0.3891,1.07578-1.01916,1.07578
			C30.55713,20.47261,30.21741,20.15396,30.19635,19.61607z M31.8877,18.12288v-1.55013c0-0.50958-0.25479-0.83514-0.7219-0.83514
			c-0.41741,0-0.66529,0.25479-0.66529,0.81375v1.5926c0,0.5662,0.24788,0.79992,0.65113,0.79992
			C31.59769,18.94387,31.8877,18.62522,31.8877,18.12288z"/>
		<path class="st0" d="M38.52047,19.20557H38.1949v-0.46711c-0.11324,0.27586-0.38219,0.50958-0.76437,0.50958
			c-0.48818,0-0.77128-0.2831-0.77128-0.92007v-2.82408h0.32557v2.81717c0,0.44572,0.16986,0.64389,0.53789,0.64389
			c0.3891,0,0.6722-0.2831,0.6722-0.70051v-2.76055h0.32557V19.20557z"/>
		<path class="st0" d="M42.98751,15.50388h0.32557v0.50958c0.12048-0.31141,0.37527-0.5234,0.80683-0.53789v0.3045
			c-0.48127,0.0214-0.80683,0.24063-0.80683,0.79959v2.62591h-0.32557V15.50388z"/>
		<path class="st0" d="M48.21202,18.12979V16.5869c0-0.71499,0.40325-1.12516,1.01916-1.12516
			c0.62282,0,1.02607,0.40325,1.02607,1.11792v1.54322c0,0.72157-0.4105,1.12516-1.03331,1.12516
			C48.60112,19.24804,48.21202,18.83063,48.21202,18.12979z M49.92477,18.12979v-1.53565c0-0.54513-0.24063-0.85654-0.6936-0.85654
			c-0.44604,0-0.69359,0.31141-0.69359,0.8493v1.54289c0,0.53098,0.24063,0.8493,0.68635,0.8493
			C49.68414,18.97909,49.92477,18.66077,49.92477,18.12979z"/>
		<path class="st0" d="M54.51197,18.2855v-0.09217h0.31141v0.09217c0,0.4602,0.20508,0.6936,0.61557,0.6936
			c0.38219,0,0.5662-0.20508,0.5662-0.63697v-0.04938c0-0.38251-0.21924-0.57344-0.65837-0.87761
			c-0.50234-0.33972-0.77819-0.59451-0.77819-1.11857v-0.02831c0-0.52341,0.35355-0.80651,0.8279-0.80651
			c0.49543,0,0.8493,0.25479,0.8493,0.88452v0.09908h-0.31832v-0.09908c0-0.43156-0.19817-0.60866-0.53098-0.60866
			c-0.32556,0-0.52373,0.16986-0.52373,0.52373v0.02831c0,0.37494,0.19093,0.55204,0.65113,0.85621
			c0.45296,0.31141,0.79268,0.5876,0.79268,1.13964v0.04938c0,0.58068-0.2831,0.91316-0.87761,0.91316
			C54.83721,19.24804,54.51197,18.90832,54.51197,18.2855z"/>
	</g>
</g>
</svg>
