<?xml version="1.0" encoding="utf-8"?>
<!-- Generator: Adobe Illustrator 16.0.0, SVG Export Plug-In . SVG Version: 6.00 Build 0)  -->
<!DOCTYPE svg PUBLIC "-//W3C//DTD SVG 1.1//EN" "http://www.w3.org/Graphics/SVG/1.1/DTD/svg11.dtd">
<svg version="1.1" id="Capa_1" xmlns="http://www.w3.org/2000/svg" xmlns:xlink="http://www.w3.org/1999/xlink" x="0px" y="0px"
	 width="441px" height="163px" viewBox="0 0 441 163" enable-background="new 0 0 441 163" xml:space="preserve">
<g>
	<path fill="#0082CA" d="M152.4995,55.1001c-2.8003,0-5.5-0.5-7.8999-1.6001c-2.4004-1-4.5-2.5-6.2002-4.2002
		c-1.7002-1.7998-3.1001-3.7998-4.1001-6.1997s-1.5-4.8999-1.5-7.6001v-0.1001c0-2.6997,0.5-5.1997,1.5-7.6001
		c1-2.3999,2.3999-4.5,4.2002-6.2998c1.7998-1.7998,3.8999-3.2002,6.3999-4.2998c2.5-1,5.2002-1.6001,8.2002-1.6001
		c3.8999,0,7.1997,0.7998,9.7998,2.2998s5.3999,4.3003,6.8999,7.2002l-9.5,5.6997c-0.8999-1.2998-1.8999-2.1997-3-2.8999
		c-1.1001-0.6997-2.3999-1-4-1c-1.1001,0-2.1001,0.2002-3,0.7002c-0.8999,0.3999-1.6997,1-2.2998,1.7998
		c-0.7002,0.8003-1.2002,1.7002-1.5,2.7002c-0.3999,1-0.6001,2.1001-0.6001,3.1997v0.1001c0,1.2002,0.2002,2.3003,0.6001,3.3999
		c0.3999,1,0.8999,2,1.5,2.7002c0.6997,0.7998,1.3999,1.3999,2.3999,1.7998c0.8999,0.4004,2,0.7002,3.1001,0.7002
		c1.6001,0,2.8999-0.2998,4-1s2.1997-1.7002,3.1997-2.8999l9.2002,5.6001c-1.6001,2.8999-4.2998,5.5-7,7.0996
		C159.9995,54.2998,156.5996,55.1001,152.4995,55.1001z"/>
	<path fill="#0082CA" d="M174.9995,16.5h12.1997v7.6001c1.1001-2.6001,2.5-4.6001,4.4004-6.1001
		c1.8999-1.5,4.3999-2.2002,7.5-2.1001V27.5h-1.1001c-3.5,0-6.2002,1-8,3.1001c-1.8999,2-2.8003,5.2998-2.8003,9.6001v14h-12.1997
		V16.5z"/>
	<path fill="#0082CA" d="M213.499,55c-1.7998,0-3.5-0.2998-5-0.7998s-2.8994-1.3003-4-2.2002c-1.0996-1-2-2.2002-2.6992-3.6001
		c-0.7002-1.3999-1.0005-3.1001-1.0005-5v-0.1001c0-2,0.3999-3.6997,1.1001-5.1997s1.7002-2.7002,3-3.7002
		s2.7998-1.6997,4.5996-2.1997c1.8008-0.5,3.8008-0.8003,6.1006-0.8003c1.7998,0,9.0996,0.2002,9.0996,0.2002
		c0-2-0.5996-3.1001-1.7998-4.2002s-3.0996-1.6001-5.7002-1.6001c-4.2998,0-9.0996,2.2002-10.7002,2.8003l-3.3994-8.3999
		c2.0996-0.9004,5.5-2.4004,7.8994-2.9004c2.4004-0.5,5.1006-1.0996,8.4004-1.0996c5,0,6.2002,0.5,8.5996,1.1997
		c8.9004,2.3999,9.2002,10.8003,9.2002,15.1001v21.7002h-12.5v-3.9004c-1.2998,1.4004-2.7998,2.6001-4.5996,3.5
		C218.0996,54.6001,215.999,55,213.499,55z M217.499,46.2998c2.2002,0,3.7002-0.5,5-1.5996c1.3008-1.1001,2.3008-2.5,2.3008-4.3003
		v-2c-3.4004,0-9.2002-0.6001-10.7002,0.6001c-1.1006,0.8999-1.7002,1.8999-1.7002,3.2002v0.0996c0,1.2002,0.5,2.2002,1.5,2.9004
		C214.7998,46,215.999,46.2998,217.499,46.2998z"/>
	<path fill="#0082CA" d="M269.1992,54.6001c-7.7998,0-10.7002-4.3999-11.2998-5.1001v4.6001h-12.7002V3h12.7002l-0.0996,18.5
		c0.6992-0.7998,4-5.2998,11.2998-5.2998c2.2002,0,4.3994,0.5,6.3994,1.3999s4,2,5.6006,3.6997
		C282.6992,23,283.999,24.6001,284.8994,27s1.4004,5.1001,1.4004,8.2002v0.0996c0,3.1001-0.5,5.8003-1.4004,8.3003
		c-0.9004,2.3999-2.0996,4.5-3.5996,6.1997C279.6992,51.5,275.1992,54.6001,269.1992,54.6001z M265.6992,44.2998
		c2.2998,0,4.1006-0.7998,5.7002-2.5c1.5-1.6997,2.2998-3.8999,2.2998-6.5996v-0.1001c0-2.7002-0.7998-4.8003-2.2998-6.5
		c-1.5-1.7002-3.4004-2.5-5.7002-2.5c-1.0996,0-2.0996,0.1997-3.0996,0.6997c-1,0.4004-1.7998,1.1001-2.5,1.9004
		C259.3994,29.5,258.7998,30.5,258.3994,31.5c-0.4004,1.1001-0.5996,2.2998-0.5996,3.6001v0.1001c0,1.2998,0.1992,2.5,0.5996,3.6997
		c0.4004,1.1001,1,2.1001,1.7002,2.8999c0.7002,0.8003,1.5996,1.4004,2.5,1.9004
		C263.5996,44.1001,264.5996,44.2998,265.6992,44.2998z"/>
	<path fill="#0082CA" d="M292.1992,16.5h12.5v37.7002h-12.5V16.5z M305.0996,7.2002c0-3.6001-2.9004-6.5-6.5-6.5
		c-3.6006,0-6.5,2.8999-6.5,6.5c0,3.5996,2.8994,6.5,6.5,6.5C302.1992,13.7002,305.0996,10.7002,305.0996,7.2002z"/>
	<path fill="#0082CA" d="M350.7998,162.2998h-50.4004l-48.0996-71.3994h22.3994L350.7998,162.2998z"/>
	<path fill="#0082CA" d="M442.5,162.2998h-51.1006l-92.7998-71.3994h22.2998L442.5,162.2998z"/>
	<path fill="#0082CA" d="M233.2998,90.9004h-12.5h-3.7002h-12.5l-13.5,71.3994h26h3.7002h25.8994L233.2998,90.9004z"/>
	<path fill="#0082CA" d="M86.9995,162.2998h50.5l48-71.3994h-22.3003L86.9995,162.2998z"/>
	<path fill="#0082CA" d="M-1.2007,162.2998h51l92.8999-71.3994h-22.2998L-1.2007,162.2998z"/>
</g>
</svg>
