<?xml version="1.0" encoding="utf-8"?>
<!-- Generator: Adobe Illustrator 16.0.0, SVG Export Plug-In . SVG Version: 6.00 Build 0)  -->
<!DOCTYPE svg PUBLIC "-//W3C//DTD SVG 1.1//EN" "http://www.w3.org/Graphics/SVG/1.1/DTD/svg11.dtd">
<svg version="1.1" id="Capa_1" xmlns="http://www.w3.org/2000/svg" xmlns:xlink="http://www.w3.org/1999/xlink" x="0px" y="0px"
	 width="60px" height="24px" viewBox="0 0 60 24" enable-background="new 0 0 60 24" xml:space="preserve">
<g>
	<g>
		<path fill="#223C7E" d="M12.606,18.0586h4.1934c0.0234-0.5186,0.1094-1.2051,0.1992-1.6465l-0.3633-0.0439
			c-0.2207,0.5088-0.5508,1.3486-1.3809,1.3486h-0.4297c-0.2422,0-0.4082-0.0234-0.4082-0.2227v-1.8438
			c0-0.0986,0.0645-0.165,0.2773-0.165h0.1973c0.6191,0,0.6523,0.2979,0.6953,0.8271h0.3535c-0.043-0.4521-0.043-1.5342,0-1.8975
			h-0.3301c-0.043,0.3857-0.0898,0.7275-0.707,0.7275h-0.1992c-0.207,0-0.2754-0.0557-0.2754-0.166v-1.5449
			c0-0.166,0.0547-0.2217,0.2754-0.2217h0.541c0.7285,0,0.9395,0.2344,1.2129,1.0615h0.3438
			c-0.0449-0.3877-0.0566-1.0615-0.0449-1.4023H12.606v0.3428c0.3086,0.0107,0.6074,0.0107,0.6074,0.2637v3.9756
			c0,0.2529-0.3086,0.2529-0.6074,0.2656V18.0586L12.606,18.0586z"/>
		<path fill="#223C7E" d="M17.2544,18.0586h2.9805l0.2422-0.917h-0.2539c-0.0449,0.8506-1.2598,0.707-1.2598,0.707
			c-0.2969,0-0.3418-0.1094-0.3418-0.2314v-3.0371c0-0.1758,0.0332-0.1982,0.3887-0.1865v-0.1777h-1.7109v0.1777
			c0.2188,0,0.4063-0.0117,0.4395,0.1865v3.1035c0,0.1865-0.2656,0.2197-0.4844,0.2314V18.0586L17.2544,18.0586z"/>
		<path fill="#223C7E" d="M19.395,19.8027h1.9219l0.0449-0.3418c-0.5098-0.0215-0.6973-0.0879-0.707-0.2764
			c-0.0117-0.166,0.1543-0.4746,0.3301-0.7178c0.0332-0.0449,0.0781-0.0781,0.1426-0.0781h1.791
			c0.0781,0,0.1543,0.0225,0.1875,0.1426l0.0449,0.2451c0.0098,0.1094,0.043,0.2969,0.043,0.3301
			c0.0215,0.209,0.0117,0.3193-0.6738,0.3438l-0.043,0.3418h2.7148l0.0449-0.3418c-0.5859-0.0127-0.75-0.0225-0.9063-0.8066
			l-0.8066-4.0527h-0.6934c-0.0449,0.1221-0.0977,0.2764-0.1992,0.4316l-2.0332,3.3447c-0.627,1.0254-0.75,1.0703-1.1465,1.0703
			L19.395,19.8027z M22.9399,17.7061c0.0234,0.1201,0.0449,0.209,0.0449,0.2754c0,0.0459-0.0215,0.0791-0.1445,0.0791h-1.4336
			c-0.0996,0-0.1445-0.0127-0.1445-0.0791c0-0.0332,0.0215-0.0889,0.0566-0.1426l1.248-2.043L22.9399,17.7061z"/>
		<path fill="#223C7E" d="M27.2017,18.3672c0.3848,0,0.5293,0.0664,0.5293,0.2324c0,0.0996-0.166,0.8379-0.166,0.8379
			c-0.209,0.1885-0.7402,0.21-0.9492,0.1563c-0.5078-0.1436-0.8047-0.5186-0.873-1.293c-0.1113-1.1924,0.7832-2.1748,1.5566-2.1963
			c0.3652-0.0117,1.291,0.0439,1.2246,0.9375h0.2559c0.0762-0.4521,0.0977-0.5059,0.1543-0.9375
			c0.043-0.166-0.1113-0.1328-0.1113-0.1328c-0.0664,0.0234-0.0547,0.1328-0.2305,0.0791c0,0-0.8848-0.3877-1.9219-0.168
			c0,0-1.7227,0.2549-1.8535,2.043c0,0-0.166,1.8438,1.9297,1.9541c0.6523,0.0332,1.2051-0.1748,1.5469-0.3428l0.1309-0.6611
			c0.0781-0.5068,0.2441-0.5186,0.541-0.5313l0.0117-0.1973h-1.7773v0.2197H27.2017L27.2017,18.3672z"/>
		<path fill="#223C7E" d="M29.6313,18.0029c-0.0449,0.3311-0.0566,0.6074-0.0332,0.8291c0.0762,0.7842,0.8164,1.0596,1.4995,1.0596
			c0.9961,0,1.4375-0.3545,1.6465-1.7666l0.1777-1.126c0.1094-0.7393,0.1426-0.9277,0.5742-0.9277l0.0313-0.1885h-1.3242
			l-0.0332,0.1885c0.4102,0.0215,0.498,0.166,0.5195,0.3877c0.0117,0.1211-0.0449,0.376-0.0996,0.7061l-0.1309,0.8496
			c-0.2012,1.3027-0.5859,1.5459-1.1602,1.5459c-0.4414,0-0.7715-0.2305-0.8042-0.6514c-0.0117-0.1309,0-0.3096,0.021-0.5068
			l0.2852-1.9658c0.0117-0.0771,0.0332-0.1533,0.0781-0.1768c0.0762-0.0557,0.2539-0.165,0.5313-0.1885l0.0332-0.1865h-2.1753
			l-0.0332,0.1865c0.584,0.0234,0.6172,0.1768,0.6172,0.2549c0,0.0332-0.0117,0.1328-0.0215,0.2539L29.6313,18.0029z"/>
		<path fill="#223C7E" d="M33.373,19.8027h2.0098l0.0332-0.2637h-0.2207c-0.2539,0-0.3418-0.0781-0.3535-0.2217
			c-0.0117-0.0645,0.0117-0.1885,0.0117-0.2217l0.4199-2.6592c0.0215-0.1221,0.0449-0.166,0.0781-0.1992
			c0.0547-0.0781,0.2422-0.0781,0.4512-0.0781l0.0332-0.2656h-2.0293l-0.0332,0.2656c0.2422,0.0117,0.4082,0.0449,0.4609,0.0781
			c0.0469,0.0332,0.0566,0.0771,0.0684,0.1416c0.0117,0.0684-0.0215,0.2988-0.0547,0.5762l-0.2441,1.5117
			c-0.043,0.2871-0.1211,0.6406-0.1309,0.7178c-0.0898,0.332-0.123,0.3652-0.3555,0.3652h-0.0977L33.373,19.8027z"/>
		<path fill="#223C7E" d="M35.6152,19.8027h3.4102c0.0352-0.375,0.123-0.7842,0.2324-1.1924l-0.3418-0.0215
			c-0.3867,0.8613-0.5195,0.9609-1.1699,0.9609c-0.5742,0-0.6406-0.0459-0.6523-0.166c-0.0117-0.0996,0.0332-0.4746,0.0977-0.8838
			l0.3652-2.1318c0.0117-0.043,0.0215-0.0869,0.0547-0.1309c0.0566-0.0664,0.2441-0.0762,0.5078-0.0762l0.0332-0.2656h-2.0977
			l-0.0332,0.2656c0.2441,0.0098,0.4082,0.043,0.4648,0.0762c0.0449,0.0313,0.0547,0.0771,0.0664,0.1436
			c0,0.0664-0.0215,0.2988-0.0566,0.5742l-0.2422,1.5137c-0.0449,0.2852-0.123,0.6387-0.1328,0.7178
			c-0.0879,0.3301-0.1211,0.3633-0.3535,0.3633H35.668L35.6152,19.8027z"/>
		<path fill="#223C7E" d="M39.2148,19.8027h1.4785l0.0332-0.2656c-0.3867-0.0205-0.5313-0.0645-0.541-0.2197
			c-0.0098-0.1309,0.1211-0.3633,0.2539-0.5518c0.0215-0.0332,0.0547-0.0557,0.1113-0.0557h1.3789
			c0.0664,0,0.1211,0.0225,0.1445,0.1094l0.0332,0.1895c0.0098,0.0869,0.0332,0.2314,0.0332,0.2529
			c0.0098,0.1553,0.0098,0.2549-0.5195,0.2656l-0.0332,0.2646h2.0859l0.0352-0.2646c-0.4531-0.0107-0.5859-0.0215-0.6973-0.6182
			l-0.6191-3.124h-0.5293c-0.0313,0.0977-0.0762,0.21-0.1543,0.3301l-1.5566,2.584c-0.4863,0.7959-0.5742,0.8291-0.8828,0.8291
			L39.2148,19.8027z M41.9395,18.1914c0.0234,0.0889,0.0352,0.166,0.0352,0.209c0,0.0332-0.0215,0.0654-0.1113,0.0654h-1.1035
			c-0.0762,0-0.1094-0.0107-0.1094-0.0547c0-0.0332,0.0117-0.0664,0.043-0.1104l0.9492-1.5801L41.9395,18.1914z"/>
		<path fill="#223C7E" d="M19.3618,22.1211c0.1113-0.1553,0.2559-0.2197,0.4316-0.2197c0.2305,0,0.3965,0.0977,0.5059,0.2988
			c0.0566,0.1094,0.0898,0.2305,0.0996,0.3398h-0.2871c-0.0215-0.0889-0.0449-0.1533-0.0645-0.1973
			c-0.0566-0.0781-0.1328-0.1221-0.2324-0.1221c-0.1113,0-0.1875,0.0566-0.2441,0.166c-0.0645,0.1104-0.0879,0.2764-0.0879,0.4736
			c0,0.2109,0.0332,0.3643,0.1016,0.4639c0.0645,0.0996,0.1406,0.1553,0.2422,0.1553c0.0996,0,0.1758-0.043,0.2305-0.1328
			c0.0332-0.0449,0.0566-0.1221,0.0781-0.207h0.2871c-0.0234,0.1973-0.0898,0.3633-0.1875,0.4834
			c-0.0996,0.1221-0.2324,0.1885-0.3984,0.1885c-0.1992,0-0.3535-0.0889-0.4629-0.2529c-0.1113-0.166-0.166-0.4092-0.166-0.6973
			C19.1743,22.54,19.2407,22.2979,19.3618,22.1211"/>
		<path fill="#223C7E" d="M21.5356,23.3242c0.0664-0.1094,0.0996-0.2754,0.0996-0.4746c0-0.208-0.0332-0.3633-0.0996-0.4736
			c-0.0645-0.1113-0.1543-0.165-0.2637-0.165c-0.1113,0-0.2109,0.0537-0.2773,0.165c-0.0664,0.1104-0.0996,0.2764-0.0996,0.4736
			c0,0.2109,0.0332,0.3652,0.0996,0.4746c0.0664,0.1123,0.1543,0.166,0.2773,0.166C21.3833,23.4902,21.4712,23.4365,21.5356,23.3242
			 M21.7153,23.6006c-0.0996,0.1445-0.2539,0.2109-0.4531,0.2109c-0.2012,0-0.3438-0.0781-0.4531-0.2109
			c-0.1445-0.1748-0.2109-0.4297-0.2109-0.7617c0-0.3311,0.0664-0.585,0.2109-0.7627c0.0996-0.1416,0.252-0.208,0.4531-0.208
			c0.1992,0,0.3418,0.0664,0.4531,0.208c0.1426,0.166,0.207,0.4209,0.207,0.7627C21.9224,23.1709,21.8579,23.4258,21.7153,23.6006"
			/>
		<polygon fill="#223C7E" points="23.106,21.9346 23.5142,21.9346 23.5142,23.7666 23.2505,23.7666 23.2505,22.5303 23.2505,22.376 
			23.2505,22.2314 22.9849,23.7764 22.7075,23.7764 22.4536,22.2314 22.4536,22.376 22.4536,22.5303 22.4536,23.7666 
			22.1899,23.7666 22.1899,21.9346 22.6079,21.9346 22.8618,23.3799 		"/>
		<path fill="#223C7E" d="M24.5532,22.3096c-0.0332-0.0449-0.0898-0.0654-0.1563-0.0654h-0.2656v0.5391h0.2656
			c0.0664,0,0.123-0.0205,0.1563-0.0664c0.0313-0.0439,0.0547-0.1104,0.0547-0.209C24.6079,22.4199,24.5845,22.3535,24.5532,22.3096
			 M24.772,22.9717c-0.0762,0.0889-0.1973,0.1328-0.3516,0.1328h-0.2891v0.6621h-0.2852v-1.834h0.5957
			c0.1426,0,0.2539,0.0459,0.3301,0.1436c0.0898,0.0996,0.123,0.2422,0.123,0.4414C24.895,22.7295,24.8501,22.8828,24.772,22.9717"
			/>
		<path fill="#223C7E" d="M25.3911,23.0713h0.3535l-0.1777-0.7178L25.3911,23.0713z M25.4028,21.9346h0.3184l0.4863,1.832h-0.3086
			l-0.0879-0.376h-0.5098l-0.0977,0.376h-0.2969L25.4028,21.9346z"/>
		<path fill="#223C7E" d="M26.4282,21.9346h0.2988l0.5508,1.2803v-1.2803h0.2656v1.832h-0.2871l-0.5625-1.3027v1.3027h-0.2656
			V21.9346L26.4282,21.9346z M26.9243,21.46c0.0117,0,0.0332,0.0098,0.0449,0.0205l0.0898,0.0459
			c0.0215,0.0098,0.0449,0.0205,0.0547,0.0205h0.0234c0.0313,0,0.0547-0.0107,0.0645-0.0332
			c0.0117-0.0205,0.0215-0.0449,0.0215-0.0762h0.123c-0.0117,0.0889-0.0332,0.165-0.0664,0.2197
			c-0.0332,0.0557-0.0781,0.0869-0.1426,0.0869c-0.0234,0-0.0449,0-0.0781-0.0205c-0.0215-0.0107-0.0449-0.0107-0.0566-0.0215
			l-0.0762-0.0332c-0.0117,0-0.0215-0.0098-0.0332-0.0098h-0.0332c-0.0215,0-0.0449,0.0098-0.0547,0.0313
			c-0.0098,0.0225-0.0234,0.0449-0.0332,0.0762h-0.1211c0.0098-0.0869,0.0332-0.1533,0.0547-0.1973
			c0.0449-0.0762,0.0996-0.1221,0.1758-0.1221C26.9028,21.4473,26.9126,21.4473,26.9243,21.46"/>
		<rect x="27.8423" y="21.9346" fill="#223C7E" width="0.2871" height="1.832"/>
		<path fill="#223C7E" d="M28.8149,23.0713h0.3516l-0.1758-0.7178L28.8149,23.0713z M28.8364,21.9346h0.3203l0.4863,1.832h-0.3105
			l-0.0898-0.376h-0.5059l-0.0996,0.376h-0.2988L28.8364,21.9346z"/>
		<path fill="#223C7E" d="M30.6563,22.2441v1.1924h0.2656c0.1328,0,0.2324-0.0898,0.2871-0.2656
			c0.0332-0.0996,0.0449-0.2217,0.0449-0.3545c0-0.1865-0.0215-0.332-0.0664-0.4297c-0.0449-0.0996-0.1328-0.1553-0.2656-0.1553
			h-0.2656V22.2441L30.6563,22.2441z M31.1758,21.9678c0.0996,0.0439,0.1777,0.1221,0.2324,0.2324
			c0.0449,0.0889,0.0781,0.1885,0.0996,0.2988c0.0215,0.1094,0.0215,0.207,0.0215,0.3066c0,0.2451-0.0332,0.4541-0.1113,0.6201
			c-0.0977,0.2324-0.2539,0.3418-0.4629,0.3418h-0.5972v-1.833h0.5972C31.0547,21.9326,31.1211,21.9453,31.1758,21.9678"/>
		<polygon fill="#223C7E" points="32.8203,22.2539 32.0938,22.2539 32.0938,22.6396 32.7559,22.6396 32.7559,22.9609 
			32.0938,22.9609 32.0938,23.4346 32.8555,23.4346 32.8555,23.7666 31.8066,23.7666 31.8066,21.9346 32.8203,21.9346 		"/>
		<path fill="#223C7E" d="M33.9043,23.1914c0.0117,0.0898,0.0195,0.1455,0.0547,0.1885c0.043,0.0771,0.1328,0.1104,0.2422,0.1104
			c0.0664,0,0.1211-0.0107,0.166-0.0332c0.0781-0.0313,0.1211-0.1104,0.1211-0.208c0-0.0674-0.0195-0.1113-0.0547-0.1445
			c-0.0449-0.0332-0.0996-0.0664-0.1875-0.0869l-0.1445-0.0459c-0.1426-0.0439-0.2422-0.0889-0.2969-0.1436
			c-0.0898-0.0889-0.1445-0.2197-0.1445-0.3975c0-0.1641,0.0449-0.2969,0.1328-0.4072c0.0879-0.1113,0.2207-0.167,0.3965-0.167
			c0.1426,0,0.2656,0.0557,0.375,0.1553c0.0996,0.0977,0.1543,0.2549,0.168,0.4395h-0.2773c0-0.1084-0.0449-0.1846-0.1113-0.2305
			c-0.043-0.0332-0.0977-0.043-0.166-0.043c-0.0762,0-0.1309,0.0205-0.1758,0.0557c-0.0449,0.0439-0.0664,0.0977-0.0664,0.166
			c0,0.0645,0.0215,0.1094,0.0664,0.1426c0.0332,0.0215,0.0879,0.0439,0.1758,0.0771l0.2422,0.0771
			c0.0996,0.0332,0.1875,0.0762,0.2344,0.1318c0.0762,0.0898,0.1211,0.21,0.1211,0.376s-0.0449,0.3086-0.1445,0.4189
			c-0.0977,0.1113-0.2305,0.166-0.4082,0.166c-0.1758,0-0.3203-0.0547-0.4199-0.166c-0.0977-0.1104-0.1543-0.2529-0.1543-0.4521
			h0.2539v0.0205H33.9043z"/>
		<polygon fill="#223C7E" points="36.0352,22.2539 35.3066,22.2539 35.3066,22.6396 35.9785,22.6396 35.9785,22.9609 
			35.3066,22.9609 35.3066,23.4346 36.0684,23.4346 36.0684,23.7666 35.0293,23.7666 35.0293,21.9346 36.0352,21.9346 		"/>
		<path fill="#223C7E" d="M37.2715,22.4971c-0.0234-0.1221-0.0781-0.21-0.1563-0.2637c-0.043-0.0352-0.0977-0.0459-0.1523-0.0459
			c-0.1113,0-0.2012,0.0566-0.2773,0.166c-0.0684,0.1104-0.1113,0.2764-0.1113,0.5068c0,0.2217,0.0332,0.3877,0.1211,0.4746
			c0.0781,0.0889,0.168,0.1445,0.2676,0.1445c0.0977,0,0.1758-0.0332,0.2305-0.1113c0.0664-0.0771,0.0996-0.1768,0.1113-0.2861
			h-0.3203v-0.3096h0.5742v0.9814h-0.1992l-0.0332-0.2305c-0.0547,0.0889-0.1113,0.1436-0.1543,0.1865
			c-0.0781,0.0664-0.166,0.0898-0.2773,0.0898c-0.1875,0-0.3301-0.0898-0.4512-0.2539c-0.123-0.167-0.1758-0.3975-0.1758-0.6963
			c0-0.2969,0.0664-0.5293,0.1875-0.7178c0.1191-0.1758,0.2852-0.2637,0.4844-0.2637c0.1758,0,0.3203,0.0547,0.4199,0.1768
			c0.1094,0.1201,0.166,0.2646,0.1758,0.4395h-0.2637V22.4971L37.2715,22.4971z"/>
		<path fill="#223C7E" d="M37.877,21.9346h0.2871v1.124c0,0.123,0.0117,0.2227,0.0352,0.2783
			c0.0332,0.0977,0.1094,0.1533,0.2305,0.1533s0.1895-0.0557,0.2324-0.1533c0.0234-0.0557,0.0332-0.1553,0.0332-0.2783v-1.124
			h0.2871v1.124c0,0.1992-0.0234,0.3447-0.0664,0.4541c-0.0879,0.1992-0.2422,0.2988-0.4863,0.2988
			c-0.2305,0-0.3984-0.0996-0.4844-0.2988c-0.0449-0.1094-0.0684-0.2549-0.0684-0.4541V21.9346L37.877,21.9346z"/>
		<path fill="#223C7E" d="M39.5879,22.2422v0.499h0.3223c0.0664,0,0.1094-0.0117,0.1426-0.0352
			c0.0566-0.0332,0.0879-0.0977,0.0879-0.209c0-0.1104-0.0313-0.1875-0.0879-0.2197c-0.0332-0.0215-0.0762-0.0332-0.1426-0.0332
			h-0.3223V22.2422z M40.207,21.9785c0.0547,0.0332,0.0996,0.0762,0.1328,0.1309c0.0332,0.0449,0.0566,0.0996,0.0664,0.1553
			c0.0215,0.0557,0.0215,0.1221,0.0215,0.1865c0,0.0889-0.0117,0.1787-0.0566,0.2549c-0.0332,0.0889-0.0879,0.1436-0.166,0.1768
			c0.0684,0.0332,0.1113,0.0889,0.1328,0.1426c0.0215,0.0664,0.043,0.1563,0.043,0.2891v0.1201c0,0.0889,0,0.1426,0.0137,0.1777
			c0.0098,0.0439,0.0195,0.0771,0.0547,0.0977v0.0439h-0.3203c-0.0117-0.0439-0.0117-0.0771-0.0215-0.0977
			c-0.0117-0.0576-0.0117-0.0996-0.0117-0.1553v-0.1768c0-0.1221-0.0215-0.1992-0.043-0.2324
			c-0.0332-0.0332-0.0898-0.0557-0.1777-0.0557h-0.2988v0.7178h-0.2734v-1.833h0.6719
			C40.0742,21.9346,40.1523,21.9453,40.207,21.9785"/>
		<path fill="#223C7E" d="M41.6094,23.3242c0.0664-0.1094,0.0996-0.2754,0.0996-0.4746c0-0.208-0.0332-0.3633-0.0996-0.4736
			c-0.0645-0.1113-0.1543-0.165-0.2754-0.165c-0.1094,0-0.2109,0.0537-0.2754,0.165c-0.0684,0.1104-0.0996,0.2764-0.0996,0.4736
			c0,0.2109,0.0313,0.3652,0.0996,0.4746c0.0645,0.1123,0.1543,0.166,0.2754,0.166S41.543,23.4365,41.6094,23.3242 M41.7871,23.6006
			c-0.0996,0.1445-0.2539,0.2109-0.4531,0.2109s-0.3438-0.0781-0.4531-0.2109c-0.1445-0.1748-0.209-0.4297-0.209-0.7617
			c0-0.3311,0.0645-0.585,0.209-0.7627c0.0996-0.1416,0.2539-0.208,0.4531-0.208s0.3418,0.0664,0.4531,0.208
			c0.1328,0.166,0.209,0.4209,0.209,0.7627C41.9961,23.1709,41.9297,23.4258,41.7871,23.6006"/>
		<path fill="#223C7E" d="M42.4688,23.1914c0.0137,0.0898,0.0234,0.1455,0.0566,0.1885c0.0449,0.0771,0.1211,0.1104,0.2422,0.1104
			c0.0664,0,0.123-0.0107,0.168-0.0332c0.0762-0.0313,0.1211-0.1104,0.1211-0.208c0-0.0674-0.0215-0.1113-0.0566-0.1445
			c-0.043-0.0332-0.0977-0.0664-0.1875-0.0869l-0.1426-0.0459c-0.1445-0.0439-0.2441-0.0889-0.2988-0.1436
			c-0.0879-0.0889-0.1426-0.2197-0.1426-0.3975c0-0.1641,0.043-0.2969,0.1309-0.4072c0.0898-0.1113,0.2207-0.167,0.3984-0.167
			c0.1445,0,0.2656,0.0557,0.375,0.1553c0.0977,0.0977,0.1543,0.2549,0.166,0.4395h-0.2773c0-0.1084-0.043-0.1846-0.1094-0.2305
			c-0.043-0.0332-0.0996-0.043-0.166-0.043c-0.0762,0-0.1328,0.0205-0.1758,0.0557c-0.0449,0.0439-0.0664,0.0977-0.0664,0.166
			c0,0.0645,0.0215,0.1094,0.0664,0.1426c0.0332,0.0215,0.0879,0.0439,0.1758,0.0771l0.2422,0.0771
			c0.0996,0.0332,0.1875,0.0762,0.2324,0.1318c0.0762,0.0898,0.1211,0.21,0.1211,0.376s-0.0449,0.3086-0.1426,0.4189
			c-0.0996,0.1113-0.2324,0.166-0.4082,0.166c-0.1777,0-0.3203-0.0547-0.4199-0.166c-0.0996-0.1104-0.1543-0.2529-0.1543-0.4521
			h0.2539L42.4688,23.1914L42.4688,23.1914L42.4688,23.1914z"/>
		<path fill="#B51745" d="M13.7427,7.3818c0,0,1.3027-0.6846,5.2559-1.7993c0,0,3.6875-1.061,8.3242-1.4575
			c0,0,2.8496-0.354,5.9741,0.0547c0,0,2.5723,0.2104,2.4297,2.397c0,0-0.1543,1.2256-0.9492,2.3394
			c0,0-0.4102,0.6743-0.4316,1.0703c0,0-0.2188,0.6084,0.498,0.5308c0,0,3.9297-0.7944,8.2031-0.7061
			c0,0,1.1152-0.1216,1.8105,0.6172c0,0,0.3652,0.6084,1.0703,0.6084c0,0,2.0215,0.022,2.0664,1.105
			c0,0-0.0996,0.8379-0.7969,1.3896c0,0-0.1211-0.3301-1.4785-0.3633c0,0-2.6719-0.1436-4.3828,1.1367
			c0,0-0.0566,0.0332-0.0781-0.0127c0,0-0.0098-0.043,0.0449-0.1094c0,0,1.3926-1.5352,4.7363-1.4785
			c0,0,0.5176,0.0117,1.0039,0.0889c0,0,0.3535-0.498-0.0645-0.8506c0,0-0.3301-0.2861-1.3691-0.3965
			c0,0-1.0156-0.0557-1.3145-0.4419c0,0-0.166-0.4854-0.7285-0.5396c0,0-0.8379-0.1226-2.7813-0.0454
			c0,0-2.5176,0.1211-4.9785,0.5518c0,0-1.2148,0.1768-1.6582,0.2432c0,0-0.5625,0.0767-0.6602-0.3208
			c0,0-0.1563-0.4521,0.2656-1.1812c0,0,0.25-0.5186,0.6934-1.292c0,0,0.4531-0.8281,0.5625-1.6558c0,0,0.3438-1.5122-2.6367-1.7441
			c0,0-1.2148-0.1323-3.812-0.1987c0,0-3.1777,0.0439-5.8828,0.5186c0,0-3.7656,0.6519-6.0938,1.269
			c0,0-1.7891,0.4531-2.7734,0.7739c0,0-0.1543,0.0547-0.1758,0C13.6333,7.4927,13.6333,7.4375,13.7427,7.3818"/>
		<polygon fill="#B51745" points="42.041,14.8564 42.0293,14.4482 42.1074,14.8564 42.2051,14.8564 42.2949,14.4482 
			42.2832,14.8564 42.3926,14.8564 42.3926,14.3379 42.2285,14.3379 42.1621,14.6465 42.0957,14.3379 41.9199,14.3379 
			41.9199,14.8564 		"/>
		<path fill="#B51745" d="M42.625,14.4268c0.0547,0,0.0898,0,0.0898,0.0664c0,0.0332-0.0117,0.0645-0.0449,0.0645H42.625V14.4268
			L42.625,14.4268z M42.625,14.6572h0.0449c0.0332,0,0.0449,0.0225,0.0449,0.0576v0.1211c0,0.0098,0,0.0225,0.0098,0.0322h0.1328
			v-0.0098c-0.0117,0-0.0117-0.0127-0.0117-0.0225c-0.0117-0.0332-0.0117-0.1211-0.0117-0.166c0-0.0332-0.0215-0.0566-0.0645-0.0664
			c0.0547-0.0234,0.0645-0.0664,0.0645-0.1221c0-0.0986-0.0547-0.1416-0.1543-0.1416H42.502v0.5283h0.123V14.6572L42.625,14.6572z"
			/>
	</g>
	<g>
		<path fill="#223C7E" d="M13.6353,0.0889h0.4199l1.0039,2.3081h-0.5723l-0.1992-0.4888h-0.8965L13.1997,2.397h-0.5605
			L13.6353,0.0889z M13.8306,0.7607l-0.2813,0.7168h0.5664L13.8306,0.7607z"/>
		<path fill="#223C7E" d="M16.8931,2.2637c0,0.2998-0.0762,0.5273-0.2285,0.6826c-0.1504,0.1553-0.3809,0.2334-0.6875,0.2334
			c-0.1426,0-0.2813-0.0161-0.418-0.0474c-0.1367-0.0317-0.2637-0.0933-0.3789-0.1846l0.2715-0.4038
			c0.0762,0.063,0.1563,0.1128,0.2383,0.1499c0.084,0.0366,0.1758,0.0552,0.2754,0.0552c0.1504,0,0.2598-0.0361,0.332-0.1089
			c0.0703-0.0728,0.1055-0.166,0.1055-0.2788V2.208H16.397c-0.0566,0.0762-0.127,0.1299-0.2109,0.1611
			c-0.084,0.0317-0.1621,0.0474-0.2363,0.0474c-0.1172,0-0.2227-0.02-0.3184-0.0601s-0.1797-0.0972-0.248-0.1694
			c-0.0684-0.0728-0.1211-0.1592-0.1563-0.2598c-0.0371-0.0991-0.0547-0.2095-0.0547-0.3291c0-0.1035,0.0156-0.2065,0.0488-0.3062
			c0.0352-0.0996,0.082-0.1885,0.1445-0.2642c0.0605-0.0762,0.1367-0.1377,0.2266-0.1841c0.0898-0.0469,0.1895-0.0703,0.3027-0.0703
			c0.0684,0,0.1328,0.0078,0.1914,0.0229c0.0566,0.0151,0.1074,0.0347,0.1543,0.0586c0.0449,0.0239,0.084,0.0508,0.1172,0.0796
			c0.0313,0.0298,0.0586,0.0586,0.0781,0.0869h0.0059v-0.209h0.4512V2.2637z M15.6606,1.5947c0,0.0527,0.0098,0.1021,0.0293,0.1489
			c0.0176,0.0469,0.0469,0.0879,0.082,0.1235c0.0352,0.0361,0.0781,0.0649,0.125,0.0864c0.0469,0.0225,0.0977,0.0327,0.1543,0.0327
			c0.0547,0,0.1055-0.0103,0.1523-0.0327c0.0488-0.0215,0.0898-0.0503,0.127-0.0864c0.0352-0.0356,0.0625-0.0767,0.084-0.1235
			c0.0176-0.0469,0.0273-0.0962,0.0273-0.1489c0-0.0518-0.0098-0.1011-0.0273-0.1479c-0.0215-0.0469-0.0488-0.0879-0.084-0.124
			c-0.0371-0.0356-0.0781-0.0645-0.127-0.0859c-0.0469-0.022-0.0977-0.0332-0.1523-0.0332c-0.0566,0-0.1074,0.0112-0.1543,0.0332
			c-0.0469,0.0215-0.0898,0.0503-0.125,0.0859c-0.0352,0.0361-0.0645,0.0771-0.082,0.124
			C15.6704,1.4937,15.6606,1.543,15.6606,1.5947z"/>
		<path fill="#223C7E" d="M18.7837,2.1235c-0.0781,0.0996-0.1777,0.1768-0.2969,0.231c-0.1211,0.0542-0.2441,0.082-0.373,0.082
			c-0.1191,0-0.2344-0.02-0.3438-0.0591c-0.1055-0.0391-0.2012-0.0952-0.2793-0.168c-0.0801-0.0728-0.1426-0.1602-0.1875-0.2622
			c-0.0449-0.1025-0.0684-0.2158-0.0684-0.3418c0-0.1265,0.0234-0.2407,0.0684-0.3433c0.0449-0.1016,0.1074-0.189,0.1875-0.2617
			c0.0781-0.0732,0.1738-0.1289,0.2793-0.1685c0.1094-0.0386,0.2246-0.0586,0.3438-0.0586c0.1133,0,0.2168,0.02,0.3086,0.0586
			c0.0938,0.0396,0.1719,0.0952,0.2344,0.1685c0.0645,0.0728,0.1152,0.1602,0.1484,0.2617
			c0.0352,0.1025,0.0527,0.2168,0.0527,0.3433v0.1523h-1.1348c0.0195,0.0942,0.0625,0.168,0.127,0.2236
			c0.0664,0.0552,0.1465,0.0835,0.2422,0.0835c0.0801,0,0.1484-0.0186,0.2031-0.0542s0.1035-0.082,0.1445-0.1387L18.7837,2.1235z
			 M18.3696,1.4253c0.002-0.0825-0.0254-0.1528-0.082-0.2114s-0.1289-0.0884-0.2188-0.0884c-0.0547,0-0.1016,0.0088-0.1426,0.0264
			s-0.0781,0.0396-0.1055,0.0669c-0.0313,0.0273-0.0527,0.0586-0.0684,0.0942c-0.0176,0.0361-0.0254,0.0737-0.0293,0.1123H18.3696z"
			/>
		<path fill="#223C7E" d="M19.1548,0.8125h0.4707v0.2153h0.0059c0.0137-0.0303,0.0371-0.0605,0.0645-0.0918
			c0.0273-0.0298,0.0605-0.0571,0.1016-0.0811c0.0391-0.0239,0.084-0.0435,0.1328-0.0586c0.0508-0.0151,0.1055-0.0229,0.1641-0.0229
			c0.123,0,0.2227,0.019,0.2988,0.0576c0.0762,0.0381,0.1367,0.0903,0.1777,0.1577c0.043,0.0674,0.0723,0.1465,0.0859,0.2378
			c0.0156,0.0918,0.0234,0.1899,0.0234,0.2969V2.397h-0.4883V1.6216c0-0.0459-0.002-0.0933-0.0059-0.1426
			c-0.0039-0.0488-0.0117-0.0938-0.0293-0.1353c-0.0156-0.041-0.0391-0.0752-0.0742-0.1006
			c-0.0332-0.0264-0.082-0.0396-0.1465-0.0396c-0.0625,0-0.1133,0.0112-0.1523,0.0347c-0.0391,0.0225-0.0684,0.0532-0.0898,0.0913
			c-0.0215,0.0376-0.0332,0.0811-0.041,0.1284c-0.0059,0.0479-0.0098,0.0981-0.0098,0.1504V2.397h-0.4883V0.8125z"/>
		<path fill="#223C7E" d="M22.106,1.2036h-0.4316v0.5288c0,0.0435,0.002,0.083,0.0078,0.1191
			c0.0039,0.0347,0.0137,0.0664,0.0293,0.0923c0.0137,0.0264,0.0371,0.0464,0.0703,0.0605c0.0313,0.0142,0.0742,0.021,0.125,0.021
			c0.0254,0,0.0605-0.0024,0.1016-0.0083c0.043-0.0054,0.0762-0.0176,0.0977-0.0371v0.4077
			c-0.0547,0.0195-0.1113,0.0322-0.1699,0.0386c-0.0586,0.0068-0.1172,0.0103-0.1719,0.0103c-0.084,0-0.1602-0.0093-0.2285-0.0264
			c-0.0703-0.0176-0.1309-0.0454-0.1836-0.0835c-0.0527-0.0376-0.0918-0.0874-0.1211-0.1484
			C21.2017,2.1177,21.186,2.0439,21.186,1.957V1.2036h-0.3125V0.8125h0.3125V0.3433h0.4883v0.4692h0.4316V1.2036z"/>
		<path fill="#223C7E" d="M23.8521,2.1235c-0.0762,0.0996-0.1758,0.1768-0.2969,0.231c-0.1191,0.0542-0.2422,0.082-0.3711,0.082
			c-0.1211,0-0.2344-0.02-0.3438-0.0591c-0.1074-0.0391-0.2012-0.0952-0.2793-0.168c-0.0801-0.0728-0.1406-0.1602-0.1875-0.2622
			c-0.0469-0.1025-0.0684-0.2158-0.0684-0.3418c0-0.1265,0.0215-0.2407,0.0684-0.3433c0.0469-0.1016,0.1074-0.189,0.1875-0.2617
			c0.0781-0.0732,0.1719-0.1289,0.2793-0.1685c0.1094-0.0386,0.2227-0.0586,0.3438-0.0586c0.1133,0,0.2168,0.02,0.3086,0.0586
			c0.0938,0.0396,0.1699,0.0952,0.2344,0.1685c0.0645,0.0728,0.1152,0.1602,0.1484,0.2617
			c0.0352,0.1025,0.0527,0.2168,0.0527,0.3433v0.1523h-1.1348c0.0195,0.0942,0.0625,0.168,0.1289,0.2236
			c0.0625,0.0552,0.1426,0.0835,0.2383,0.0835c0.082,0,0.1484-0.0186,0.2051-0.0542s0.1035-0.082,0.1445-0.1387L23.8521,2.1235z
			 M23.4399,1.4253c0-0.0825-0.0254-0.1528-0.082-0.2114s-0.1309-0.0884-0.2188-0.0884c-0.0527,0-0.1016,0.0088-0.1426,0.0264
			c-0.043,0.0176-0.0762,0.0396-0.1074,0.0669c-0.0293,0.0273-0.0508,0.0586-0.0684,0.0942
			c-0.0156,0.0361-0.0254,0.0737-0.0273,0.1123H23.4399z"/>
		<path fill="#223C7E" d="M26.1841,2.1982h-0.0078c-0.0527,0.085-0.125,0.1455-0.2148,0.1821
			c-0.0918,0.0371-0.1855,0.0562-0.2852,0.0562c-0.0742,0-0.1465-0.0112-0.2129-0.0313c-0.0684-0.021-0.1309-0.0513-0.1836-0.0928
			c-0.0508-0.0415-0.0918-0.0928-0.123-0.1538c-0.0293-0.0601-0.0449-0.1309-0.0449-0.2114c0-0.0913,0.0156-0.1685,0.0508-0.2314
			c0.0332-0.063,0.0781-0.1152,0.1367-0.1567c0.0586-0.041,0.123-0.0728,0.1973-0.0962c0.0742-0.022,0.1504-0.0396,0.2305-0.0503
			c0.0781-0.0107,0.1582-0.0176,0.2383-0.02c0.0781-0.002,0.1504-0.0029,0.2188-0.0029c0-0.0869-0.0313-0.1558-0.0918-0.207
			c-0.0625-0.0508-0.1367-0.0767-0.2207-0.0767c-0.0801,0-0.1543,0.0171-0.2207,0.0513c-0.0664,0.0327-0.127,0.0796-0.1777,0.1382
			l-0.2598-0.2676c0.0898-0.085,0.1973-0.1484,0.3184-0.1909c0.123-0.042,0.248-0.0635,0.3789-0.0635
			c0.1426,0,0.2598,0.0181,0.3516,0.0542c0.0938,0.0356,0.168,0.0884,0.2227,0.1577c0.0566,0.0698,0.0938,0.1548,0.1152,0.2563
			c0.0215,0.1006,0.0332,0.2173,0.0332,0.3501V2.397h-0.4492V2.1982z M26.0649,1.7026c-0.0391,0-0.084,0.002-0.1406,0.0049
			c-0.0547,0.0029-0.1074,0.0127-0.1602,0.0278c-0.0488,0.0151-0.0938,0.0386-0.1289,0.0679
			c-0.0371,0.0308-0.0547,0.0732-0.0547,0.1274c0,0.0591,0.0254,0.1025,0.0762,0.1309c0.0488,0.0278,0.1016,0.042,0.1563,0.042
			c0.0469,0,0.0938-0.0063,0.1387-0.0195s0.082-0.0317,0.1191-0.0552c0.0332-0.0239,0.0625-0.0547,0.082-0.0913
			c0.0195-0.0371,0.0313-0.0806,0.0313-0.1304V1.7026H26.0649z"/>
		<path fill="#223C7E" d="M28.4653,2.397h-0.4688V2.1816h-0.0059c-0.0195,0.0308-0.041,0.061-0.0684,0.0913
			c-0.0254,0.0313-0.0586,0.0576-0.0996,0.0815c-0.0391,0.0239-0.082,0.0435-0.1328,0.0586
			c-0.0488,0.0156-0.1055,0.0234-0.1621,0.0234c-0.125,0-0.2246-0.0195-0.3027-0.0571c-0.0762-0.0386-0.1367-0.0908-0.1777-0.1582
			c-0.0449-0.0674-0.0723-0.147-0.0859-0.2378c-0.0156-0.0913-0.0215-0.1904-0.0215-0.2969v-0.874h0.4883v0.7759
			c0,0.0459,0.002,0.0928,0.0059,0.1421c0.002,0.0488,0.0137,0.0938,0.0293,0.1353s0.041,0.0747,0.0742,0.1011
			c0.0352,0.0259,0.082,0.0386,0.1465,0.0386c0.0625,0,0.1152-0.0112,0.1523-0.0337c0.0391-0.0229,0.0703-0.0532,0.0898-0.0913
			c0.0215-0.0381,0.0352-0.0811,0.041-0.1289s0.0098-0.0977,0.0098-0.1499V0.8125h0.4883V2.397z"/>
		<path fill="#223C7E" d="M29.8911,1.2036h-0.4316v0.5288c0,0.0435,0.0039,0.083,0.0078,0.1191
			c0.0039,0.0347,0.0137,0.0664,0.0293,0.0923c0.0156,0.0264,0.0391,0.0464,0.0703,0.0605s0.0723,0.021,0.125,0.021
			c0.0254,0,0.0605-0.0024,0.1035-0.0083c0.041-0.0054,0.0742-0.0176,0.0957-0.0371v0.4077
			c-0.0547,0.0195-0.1113,0.0322-0.1699,0.0386c-0.0586,0.0068-0.1152,0.0103-0.1719,0.0103c-0.084,0-0.1582-0.0093-0.2305-0.0264
			c-0.0684-0.0176-0.1289-0.0454-0.1816-0.0835c-0.0508-0.0376-0.0918-0.0874-0.1211-0.1484
			c-0.0293-0.0605-0.0449-0.1343-0.0449-0.2212V1.2036h-0.3125V0.8125h0.3125V0.3433h0.4883v0.4692h0.4316V1.2036z"/>
		<path fill="#223C7E" d="M30.0806,1.6055c0-0.1265,0.0234-0.2407,0.0684-0.3433c0.0449-0.1016,0.1074-0.189,0.1875-0.2617
			c0.0801-0.0732,0.1733-0.1289,0.2808-0.1685c0.1055-0.0386,0.2207-0.0586,0.3418-0.0586c0.123,0,0.2383,0.02,0.3438,0.0586
			c0.1094,0.0396,0.2031,0.0952,0.2813,0.1685c0.0801,0.0728,0.1426,0.1602,0.1875,0.2617
			c0.0449,0.1025,0.0684,0.2168,0.0684,0.3433c0,0.126-0.0234,0.2393-0.0684,0.3418c-0.0449,0.1021-0.1074,0.1895-0.1875,0.2622
			c-0.0781,0.0728-0.1719,0.1289-0.2813,0.168c-0.1055,0.0391-0.2207,0.0591-0.3438,0.0591c-0.1211,0-0.2363-0.02-0.3418-0.0591
			c-0.1074-0.0391-0.2007-0.0952-0.2808-0.168s-0.1426-0.1602-0.1875-0.2622C30.104,1.8447,30.0806,1.7314,30.0806,1.6055z
			 M30.5684,1.6055c0,0.1187,0.0352,0.2158,0.1035,0.2896s0.1641,0.1104,0.2871,0.1104c0.125,0,0.2207-0.0366,0.2891-0.1104
			s0.1035-0.1709,0.1035-0.2896c0-0.1201-0.0352-0.2173-0.1035-0.2905c-0.0684-0.0742-0.1641-0.1113-0.2891-0.1113
			c-0.123,0-0.2188,0.0371-0.2871,0.1113C30.6035,1.3882,30.5684,1.4854,30.5684,1.6055z"/>
		<path fill="#223C7E" d="M32.127,0.8125h0.4883v0.2544h0.0059c0.0547-0.0977,0.1152-0.1714,0.1875-0.2197
			c0.0723-0.0493,0.1621-0.0737,0.2715-0.0737c0.0273,0,0.0547,0.001,0.084,0.0034c0.0273,0.0024,0.0547,0.0063,0.0781,0.0132
			v0.4468c-0.0352-0.0112-0.0684-0.019-0.1035-0.0249c-0.0332-0.0054-0.0684-0.0083-0.1055-0.0083
			c-0.0918,0-0.166,0.0132-0.2207,0.0396c-0.0547,0.0254-0.0977,0.062-0.127,0.1089c-0.0293,0.0474-0.0469,0.103-0.0566,0.168
			c-0.0078,0.0649-0.0137,0.1372-0.0137,0.2153V2.397H32.127V0.8125z"/>
		<path fill="#223C7E" d="M33.4219,0.314c0-0.0786,0.0273-0.145,0.082-0.2007c0.0566-0.0552,0.123-0.083,0.2012-0.083
			s0.1445,0.0278,0.2012,0.083c0.0547,0.0557,0.082,0.1221,0.082,0.2007c0,0.0776-0.0273,0.145-0.082,0.2002
			c-0.0566,0.0552-0.123,0.083-0.2012,0.083s-0.1445-0.0278-0.2012-0.083C33.4492,0.459,33.4219,0.3916,33.4219,0.314z
			 M33.4609,0.8125h0.4883V2.397h-0.4883V0.8125z"/>
		<path fill="#223C7E" d="M34.2402,1.9082l0.8203-0.7046h-0.8008V0.8125h1.3691v0.4697l-0.8613,0.7231h0.8809V2.397h-1.4082V1.9082z
			"/>
		<path fill="#223C7E" d="M36.9258,2.1982H36.918c-0.0527,0.085-0.125,0.1455-0.2148,0.1821
			c-0.0898,0.0371-0.1855,0.0562-0.2871,0.0562c-0.0742,0-0.1426-0.0112-0.2109-0.0313c-0.0703-0.021-0.1309-0.0513-0.1816-0.0928
			c-0.0527-0.0415-0.0938-0.0928-0.125-0.1538c-0.0293-0.0601-0.0449-0.1309-0.0449-0.2114c0-0.0913,0.0176-0.1685,0.0508-0.2314
			s0.0781-0.1152,0.1367-0.1567c0.0586-0.041,0.123-0.0728,0.1973-0.0962c0.0742-0.022,0.1504-0.0396,0.2285-0.0503
			c0.0801-0.0107,0.1602-0.0176,0.2383-0.02c0.0801-0.002,0.1543-0.0029,0.2207-0.0029c0-0.0869-0.0313-0.1558-0.0918-0.207
			c-0.0625-0.0508-0.1367-0.0767-0.2207-0.0767c-0.0801,0-0.1543,0.0171-0.2207,0.0513c-0.0664,0.0327-0.125,0.0796-0.1758,0.1382
			l-0.2617-0.2676c0.0898-0.085,0.1973-0.1484,0.3203-0.1909c0.1191-0.042,0.2461-0.0635,0.377-0.0635
			c0.1426,0,0.2598,0.0181,0.3535,0.0542c0.0918,0.0356,0.166,0.0884,0.2207,0.1577c0.0566,0.0698,0.0938,0.1548,0.1172,0.2563
			c0.0215,0.1006,0.0313,0.2173,0.0313,0.3501V2.397h-0.4492V2.1982z M36.8047,1.7026c-0.0352,0-0.082,0.002-0.1387,0.0049
			c-0.0547,0.0029-0.1074,0.0127-0.1602,0.0278c-0.0488,0.0151-0.0938,0.0386-0.1309,0.0679
			c-0.0352,0.0308-0.0527,0.0732-0.0527,0.1274c0,0.0591,0.0273,0.1025,0.0762,0.1309c0.0488,0.0278,0.0996,0.042,0.1563,0.042
			c0.0488,0,0.0938-0.0063,0.1387-0.0195c0.043-0.0132,0.084-0.0317,0.1172-0.0552c0.0371-0.0239,0.0645-0.0547,0.084-0.0913
			c0.0215-0.0371,0.0313-0.0806,0.0313-0.1304V1.7026H36.8047z"/>
		<path fill="#223C7E" d="M39.3457,2.397h-0.4512V2.189h-0.0059c-0.0195,0.0273-0.0449,0.0566-0.0781,0.0859
			c-0.0313,0.0293-0.0664,0.0557-0.1094,0.0796s-0.0879,0.0435-0.1406,0.0586c-0.0508,0.0156-0.1035,0.0234-0.1582,0.0234
			c-0.1172,0-0.2227-0.0205-0.3184-0.061c-0.0957-0.04-0.1797-0.0962-0.2461-0.1689c-0.0684-0.0732-0.1211-0.1597-0.1582-0.2593
			c-0.0371-0.1001-0.0566-0.21-0.0566-0.3291c0-0.1113,0.0176-0.2168,0.0508-0.3184c0.0332-0.1006,0.082-0.1904,0.1426-0.2686
			c0.0625-0.0781,0.1387-0.1411,0.2285-0.1875c0.0879-0.0469,0.1895-0.0703,0.3027-0.0703c0.1016,0,0.1973,0.0161,0.2852,0.0474
			c0.0879,0.0317,0.1602,0.0854,0.2168,0.1611h0.0059v-1.0493h0.4902V2.397z M38.8945,1.6055c0-0.1201-0.0352-0.2173-0.1035-0.2905
			c-0.0684-0.0742-0.1641-0.1113-0.2871-0.1113c-0.125,0-0.2207,0.0371-0.2891,0.1113c-0.0684,0.0732-0.1035,0.1704-0.1035,0.2905
			c0,0.1187,0.0352,0.2158,0.1035,0.2896s0.1641,0.1104,0.2891,0.1104c0.123,0,0.2188-0.0366,0.2871-0.1104
			S38.8945,1.7241,38.8945,1.6055z"/>
		<path fill="#223C7E" d="M39.6758,1.6055c0-0.1265,0.0234-0.2407,0.0703-0.3433c0.0449-0.1016,0.1074-0.189,0.1855-0.2617
			c0.0801-0.0732,0.1738-0.1289,0.2813-0.1685c0.1094-0.0386,0.2227-0.0586,0.3438-0.0586c0.123,0,0.2363,0.02,0.3457,0.0586
			c0.1055,0.0396,0.1992,0.0952,0.2793,0.1685c0.0801,0.0728,0.1426,0.1602,0.1875,0.2617
			c0.0449,0.1025,0.0684,0.2168,0.0684,0.3433c0,0.126-0.0234,0.2393-0.0684,0.3418c-0.0449,0.1021-0.1074,0.1895-0.1875,0.2622
			s-0.1738,0.1289-0.2793,0.168c-0.1094,0.0391-0.2227,0.0591-0.3457,0.0591c-0.1211,0-0.2344-0.02-0.3438-0.0591
			c-0.1074-0.0391-0.2012-0.0952-0.2813-0.168c-0.0781-0.0728-0.1406-0.1602-0.1855-0.2622
			C39.6992,1.8447,39.6758,1.7314,39.6758,1.6055z M40.166,1.6055c0,0.1187,0.0352,0.2158,0.1035,0.2896
			s0.1641,0.1104,0.2871,0.1104c0.125,0,0.2207-0.0366,0.2891-0.1104s0.1035-0.1709,0.1035-0.2896
			c0-0.1201-0.0352-0.2173-0.1035-0.2905c-0.0684-0.0742-0.1641-0.1113-0.2891-0.1113c-0.123,0-0.2188,0.0371-0.2871,0.1113
			C40.2012,1.3882,40.166,1.4854,40.166,1.6055z"/>
		<path fill="#223C7E" d="M42.7344,0.8125h0.4512v0.209h0.0059c0.0195-0.0283,0.0449-0.0571,0.0762-0.0869
			c0.0332-0.0288,0.0684-0.0557,0.1113-0.0796c0.041-0.0239,0.0898-0.0435,0.1387-0.0586c0.0508-0.0151,0.1035-0.0229,0.1582-0.0229
			c0.1191,0,0.2246,0.0205,0.3203,0.0605s0.1777,0.0967,0.2461,0.1694s0.123,0.1592,0.1582,0.2588
			c0.0391,0.1006,0.0566,0.21,0.0566,0.3296c0,0.1108-0.0176,0.2173-0.0508,0.3179c-0.0332,0.1011-0.082,0.1909-0.1426,0.2686
			c-0.0625,0.0786-0.1387,0.1411-0.2266,0.188c-0.0898,0.0464-0.1914,0.0703-0.3047,0.0703c-0.1016,0-0.1973-0.0161-0.2852-0.0479
			c-0.0879-0.0308-0.1602-0.0845-0.2168-0.1611h-0.0059v0.9131h-0.4902V0.8125z M43.1855,1.6055
			c0,0.1187,0.0352,0.2158,0.1035,0.2896c0.0664,0.0737,0.1641,0.1104,0.2871,0.1104s0.2207-0.0366,0.2891-0.1104
			s0.1016-0.1709,0.1016-0.2896c0-0.1201-0.0332-0.2173-0.1016-0.2905c-0.0684-0.0742-0.166-0.1113-0.2891-0.1113
			s-0.2207,0.0371-0.2871,0.1113C43.2207,1.3882,43.1855,1.4854,43.1855,1.6055z"/>
		<path fill="#223C7E" d="M44.6836,1.6055c0-0.1265,0.0234-0.2407,0.0684-0.3433c0.0469-0.1016,0.1094-0.189,0.1895-0.2617
			c0.0781-0.0732,0.1719-0.1289,0.2793-0.1685c0.1074-0.0386,0.2227-0.0586,0.3438-0.0586s0.2363,0.02,0.3457,0.0586
			c0.1055,0.0396,0.1992,0.0952,0.2793,0.1685c0.0781,0.0728,0.1426,0.1602,0.1875,0.2617
			c0.0469,0.1025,0.0684,0.2168,0.0684,0.3433c0,0.126-0.0215,0.2393-0.0684,0.3418c-0.0449,0.1021-0.1094,0.1895-0.1875,0.2622
			c-0.0801,0.0728-0.1738,0.1289-0.2793,0.168c-0.1094,0.0391-0.2246,0.0591-0.3457,0.0591s-0.2363-0.02-0.3438-0.0591
			s-0.2012-0.0952-0.2793-0.168c-0.0801-0.0728-0.1426-0.1602-0.1895-0.2622C44.707,1.8447,44.6836,1.7314,44.6836,1.6055z
			 M45.1738,1.6055c0,0.1187,0.0332,0.2158,0.1016,0.2896c0.0703,0.0737,0.166,0.1104,0.2891,0.1104
			c0.125,0,0.2188-0.0366,0.2891-0.1104c0.0684-0.0737,0.1016-0.1709,0.1016-0.2896c0-0.1201-0.0332-0.2173-0.1016-0.2905
			c-0.0703-0.0742-0.1641-0.1113-0.2891-0.1113c-0.123,0-0.2188,0.0371-0.2891,0.1113C45.207,1.3882,45.1738,1.4854,45.1738,1.6055z
			"/>
		<path fill="#223C7E" d="M46.7305,0.8125h0.4902v0.2544h0.0078c0.0508-0.0977,0.1133-0.1714,0.1836-0.2197
			c0.0723-0.0493,0.1641-0.0737,0.2715-0.0737c0.0273,0,0.0566,0.001,0.084,0.0034c0.0293,0.0024,0.0566,0.0063,0.0801,0.0132
			v0.4468c-0.0352-0.0112-0.0703-0.019-0.1035-0.0249c-0.0352-0.0054-0.0684-0.0083-0.1074-0.0083
			c-0.0918,0-0.166,0.0132-0.2207,0.0396c-0.0527,0.0254-0.0957,0.062-0.125,0.1089c-0.0293,0.0474-0.0488,0.103-0.0566,0.168
			c-0.0098,0.0649-0.0137,0.1372-0.0137,0.2153V2.397h-0.4902V0.8125z"/>
	</g>
</g>
</svg>
