<?xml version="1.0" encoding="utf-8"?>
<!-- Generator: Adobe Illustrator 16.0.0, SVG Export Plug-In . SVG Version: 6.00 Build 0)  -->
<!DOCTYPE svg PUBLIC "-//W3C//DTD SVG 1.1//EN" "http://www.w3.org/Graphics/SVG/1.1/DTD/svg11.dtd">
<svg version="1.1" id="Capa_1" xmlns="http://www.w3.org/2000/svg" xmlns:xlink="http://www.w3.org/1999/xlink" x="0px" y="0px"
	 width="60px" height="24px" viewBox="0 0 60 24" enable-background="new 0 0 60 24" xml:space="preserve">
<g>
	<path fill="#00337F" d="M27.7354,15.7598c0-0.4336,0.0781-0.5879-0.4067-0.8457l-0.3345-0.166v-0.2969h3.3398v0.2969
		l-0.3398,0.1348c-0.5063,0.207-0.5063,0.2637-0.4961,0.877l0.0054,2.4688l-0.124,0.1172
		c-0.5815,0.1504-1.9419,0.5215-3.1689,0.5215c-2.8135,0-4.1997-1.459-4.1997-4.6133c0-3.3906,1.9585-4.8594,4.5298-4.8594
		c0.6899,0,1.9429,0,2.8135,0.7368c0.2891,0.2427,0.3154,0.5151,0.3154,0.6235c0,0.2061-0.042,0.248-0.084,0.3301l-0.6226,1.2109
		h-0.2314c0-0.5977-0.6963-2.1899-2.5054-2.1899c-2.0972,0-2.2002,1.4629-2.2002,3.937c0,2.1641,0.2266,4.1113,2.7314,4.1113
		c0.8086,0,0.958-0.4258,0.978-0.9063V15.7598z"/>
	<path fill="#00337F" d="M31.168,18.3867l0.5977-0.2422c0.4902-0.1895,0.4902-0.5449,0.4902-1.334V11.126
		c0-0.4375-0.124-0.6543-0.4639-0.8867l-0.5469-0.3647V9.5757h2.4795L33.875,9.668c0.2725,0.3652,0.8389,1.3496,1.6016,2.3813
		l2.6279,3.5757c0.1084,0.1504,0.166,0.2168,0.2158,0.2168c0.1084,0,0.1084-0.1348,0.1084-0.3809v-4.3242
		c0-0.623-0.0098-0.7471-0.54-0.9639l-0.7783-0.2983V9.5757h3.1182v0.2988l-0.3965,0.1484
		c-0.584,0.2324-0.6963,0.3667-0.6963,1.2632v5.3604c0,0.8184,0.0146,1.6484,0.0146,1.9316l-0.0928,0.1074h-0.7617l-0.1504-0.1074
		c-0.124-0.1504-0.8291-1.1445-1.5508-2.1074l-3.1846-4.2573c-0.1748-0.2319-0.2578-0.356-0.3252-0.356
		c-0.123,0-0.123,0.1396-0.123,0.3301v4.8652c0,0.6543,0,0.8594,0.5723,1.0527l0.8037,0.2813v0.2988H31.168V18.3867z"/>
	<path fill="#00337F" d="M41.0264,18.3867l0.5977-0.1992c0.4492-0.1504,0.4648-0.3965,0.4648-1.2539v-5.8799
		c0-0.6494,0-0.8145-0.4648-0.9629l-0.5977-0.2163V9.5757h4.5098c1.5771,0,3.123,0.3389,3.123,2.4058
		c0,1.8916-1.4111,3.0615-3.6182,3.0615c-0.0918,0-0.2158-0.0156-0.2979-0.0156l-0.2012-0.4902l0.1084-0.1074
		c0.9883-0.0254,2.1885-0.4336,2.0195-2.3452c-0.1338-1.4888-0.5664-1.7671-1.7881-1.7671c-0.8301,0-0.8867,0.123-0.8867,0.4639
		v6.1523c0,0.9121-0.0156,1.1035,0.5313,1.2539l0.7051,0.1992v0.2988h-4.2051V18.3867z"/>
	<rect x="22.0107" y="19.9082" fill="#00337F" width="28.6602" height="0.1895"/>
	<path fill="#FB6C06" d="M16.4146,14.084c0,0.8398-0.6807,1.5215-1.5259,1.5215c-0.8398,0-1.52-0.6816-1.52-1.5215
		s0.6802-1.5195,1.52-1.5195C15.7339,12.5645,16.4146,13.2441,16.4146,14.084"/>
	<path fill="#FB6C06" d="M12.3584,11.5435H9.0703l0.6646,2.0366h1.6387v-0.0059c1.6597,0,3.0049-1.3447,3.0098-3.0098V8.9312
		l-2.0249-0.665V11.5435z"/>
	<path fill="#FB6C06" d="M12.3481,16.6191v3.2832l2.0356-0.6582v-1.6406h-0.0054c0-1.6582-1.3452-3.0039-3.0093-3.0078H9.7349
		l-0.6646,2.0234H12.3481z"/>
	<path fill="#FB6C06" d="M17.4243,16.625h3.2876l-0.6699-2.0293h-1.6338h-0.0049c-1.6592,0.0039-3.0044,1.3496-3.0044,3.0078v0.0059
		v1.6289l2.0254,0.6641V16.625z"/>
	<path fill="#FB6C06" d="M17.4292,11.5542V8.2715l-2.0303,0.6597v1.6387c0.0049,1.6597,1.3506,3.0044,3.0093,3.0083h0.0054h1.6284
		l0.6694-2.0239H17.4292z"/>
	<path fill="#00337F" d="M49.9219,9.7241c0.3145,0,0.5723,0.2524,0.5723,0.6133c0,0.3564-0.2578,0.6133-0.5723,0.6133v0.145
		c0.417,0,0.7568-0.3408,0.7568-0.7583c0-0.4229-0.3398-0.7617-0.7568-0.7617V9.7241z M49.9219,10.4507V10.271h0.0049
		c0.0977,0,0.1758-0.0156,0.1758-0.1294c0-0.103-0.0938-0.1187-0.1709-0.1187h-0.0098V9.8994h0.0254
		c0.2061,0,0.3193,0.0728,0.3193,0.2524c0,0.1494-0.0869,0.2222-0.2266,0.2324l0.2324,0.3809h-0.165L49.9219,10.4507z
		 M49.9219,10.9507c-0.3193,0-0.5771-0.2568-0.5771-0.6133c0-0.3608,0.2578-0.6133,0.5771-0.6133V9.5757
		c-0.4229,0-0.7627,0.3389-0.7627,0.7617c0,0.4175,0.3398,0.7583,0.7627,0.7583V10.9507z M49.9219,9.8994v0.1235h-0.1338v0.248
		h0.1338v0.1797l-0.0361-0.0566h-0.0977v0.3711H49.627V9.8994H49.9219z"/>
	<path fill="#00337F" d="M22.7017,23.9453c-0.3223,0-0.5215-0.0918-0.5952-0.1348c-0.0664-0.0762-0.1118-0.3281-0.1118-0.5664
		c0.0244-0.0449,0.105-0.0488,0.1328-0.0098c0.0698,0.2266,0.3047,0.5488,0.6025,0.5488c0.2588,0,0.3779-0.1777,0.3779-0.3535
		c0-0.2832-0.2661-0.4512-0.4766-0.5566c-0.252-0.127-0.5283-0.3359-0.5283-0.6816c-0.0034-0.3965,0.3047-0.6699,0.8125-0.6699
		c0.1157,0,0.2588,0.0137,0.3989,0.0566c0.0454,0.0137,0.0771,0.0195,0.1191,0.0273c0.0278,0.0762,0.063,0.2656,0.063,0.502
		c-0.0176,0.041-0.105,0.0449-0.1367,0.0098c-0.0596-0.1797-0.21-0.4355-0.4619-0.4355c-0.2314,0-0.3574,0.1523-0.3574,0.3281
		c0,0.1602,0.1436,0.3066,0.3184,0.3984l0.2319,0.1211c0.2163,0.1152,0.4932,0.3184,0.4932,0.7051
		C23.584,23.666,23.2305,23.9453,22.7017,23.9453"/>
	<path fill="#093071" d="M26.4409,22.4883c0,0.0977,0.0034,0.1035,0.0977,0.1035h0.2422c0.1821,0,0.2241-0.0234,0.2588-0.1914
		l0.0176-0.0879c0.0244-0.0273,0.1123-0.0273,0.1299,0.0039c-0.0068,0.1113-0.0107,0.2383-0.0107,0.3711
		s0.0039,0.2598,0.0107,0.3711c-0.0176,0.0313-0.1055,0.0352-0.1299,0.0039l-0.0176-0.0879
		c-0.0347-0.168-0.0767-0.1973-0.2588-0.1973h-0.2422c-0.0942,0-0.0977,0.0039-0.0977,0.1094v0.416
		c0,0.1621,0.0142,0.2734,0.0562,0.334c0.0454,0.0625,0.1118,0.0898,0.3682,0.0898c0.3042,0,0.4229-0.0098,0.6152-0.4063
		c0.0278-0.0371,0.1162-0.0234,0.1299,0.0176c-0.0137,0.1816-0.0977,0.4668-0.1475,0.5605
		c-0.1851-0.0059-0.521-0.0098-0.8086-0.0098h-0.4546c-0.1685,0-0.3398,0.0039-0.6021,0.0098c-0.0278-0.0195-0.0278-0.1035,0-0.123
		l0.1641-0.0234c0.1577-0.0254,0.1787-0.0449,0.1787-0.3672v-1.3066c0-0.3184-0.021-0.3398-0.1787-0.3711l-0.0874-0.0176
		c-0.0313-0.0215-0.0283-0.1016,0.0068-0.123c0.1646,0.0078,0.3364,0.0117,0.5044,0.0117h0.7422
		c0.2241,0,0.4233-0.0039,0.4697-0.0117c0.0024,0.0566,0.0269,0.3086,0.0444,0.5449c-0.0137,0.0371-0.0942,0.043-0.1294,0.0117
		c-0.0381-0.1211-0.0869-0.2266-0.1323-0.2773c-0.0664-0.0664-0.1719-0.1074-0.3438-0.1074h-0.2798
		c-0.1157,0-0.1157,0.0078-0.1157,0.1367V22.4883z"/>
	<path fill="#00337F" d="M31.7949,23.4922c0,0.1465,0.0059,0.2168,0.0723,0.2324c0.0146,0.0137,0.0117,0.0742-0.0098,0.084
		c-0.0605,0.0098-0.1504,0.0195-0.2451,0.0527c-0.1221,0.0371-0.4238,0.084-0.6201,0.084c-0.2383,0-0.4404-0.0254-0.6895-0.123
		c-0.4097-0.1641-0.689-0.5527-0.689-1.0586c0-0.4375,0.1953-0.8223,0.6157-1.0566c0.2383-0.1289,0.5215-0.1855,0.8193-0.1855
		c0.3887,0,0.5801,0.084,0.6924,0.084c0.0107,0.1055,0.0146,0.3496,0.0498,0.5645c-0.0146,0.0371-0.1094,0.041-0.1328,0.0078
		c-0.1123-0.332-0.332-0.4961-0.6582-0.4961c-0.5566,0-0.8262,0.4629-0.8262,1.0176c0,0.5,0.1719,0.7969,0.3984,0.9512
		c0.168,0.1133,0.3506,0.1328,0.4805,0.1328c0.1992,0,0.2412-0.0391,0.2412-0.2656v-0.2207c0-0.1895-0.0205-0.209-0.1895-0.2344
		l-0.1543-0.0215c-0.0381-0.0195-0.0381-0.1016,0-0.1211c0.249,0.0059,0.4209,0.0098,0.5928,0.0098
		c0.167,0,0.3389-0.0039,0.459-0.0098c0.0273,0.0195,0.0273,0.1016,0,0.1211l-0.082,0.0137
		c-0.1055,0.0176-0.125,0.0527-0.125,0.2422V23.4922z"/>
	<path fill="#00337F" d="M34.2803,22.082c0-0.3262-0.0215-0.3477-0.1787-0.3789l-0.0869-0.0176
		c-0.0283-0.0215-0.0322-0.0977,0.0068-0.1191c0.168,0.0078,0.3428,0.0117,0.5107,0.0117c0.1719,0,0.3438-0.0039,0.5107-0.0117
		c0.0283,0.0215,0.0283,0.0977,0,0.1191l-0.084,0.0137c-0.1572,0.0293-0.1777,0.0566-0.1777,0.3828v0.8086
		c0,0.4102,0.0449,0.8613,0.5771,0.8613c0.4482,0,0.585-0.3926,0.585-0.8711V22.457c0-0.2832-0.0146-0.5508-0.0527-0.6406
		c-0.0313-0.0742-0.1084-0.0957-0.2031-0.1133l-0.0947-0.0176c-0.0273-0.0273-0.0205-0.0977,0-0.1191
		c0.1895,0.0078,0.3262,0.0117,0.4697,0.0117c0.1299,0,0.2598-0.0039,0.3926-0.0117c0.0205,0.0215,0.0273,0.0918,0,0.1191
		l-0.0635,0.0137c-0.0908,0.0215-0.1582,0.043-0.1895,0.1172c-0.0391,0.0898-0.0518,0.3574-0.0518,0.6406v0.3906
		c0,0.3301-0.0322,0.6309-0.2246,0.8438c-0.1543,0.166-0.4102,0.2539-0.6934,0.2539c-0.2656,0-0.5039-0.043-0.6924-0.1953
		c-0.1836-0.1523-0.2598-0.4121-0.2598-0.793V22.082z"/>
	<path fill="#00337F" d="M38.7441,22.1445c0-0.3496-0.0068-0.3887-0.1543-0.4102l-0.0947-0.0137
		c-0.0342-0.0176-0.0342-0.1055,0.0068-0.123c0.2637-0.0156,0.5371-0.0313,0.8691-0.0313c0.2979,0,0.5537,0.0469,0.6865,0.127
		c0.2031,0.1191,0.3066,0.293,0.3066,0.5176c0,0.3125-0.209,0.4453-0.3701,0.5254c-0.0352,0.0176-0.0352,0.0391-0.0176,0.0781
		c0.2305,0.4688,0.375,0.7305,0.5439,0.875c0.0908,0.0742,0.1816,0.0938,0.2334,0.0977c0.0322,0.0176,0.0322,0.0703,0.0146,0.0918
		c-0.0566,0.0234-0.168,0.0293-0.2764,0.0293c-0.3232,0-0.5254-0.1152-0.6797-0.3672c-0.1123-0.1855-0.1934-0.3555-0.2734-0.543
		c-0.043-0.0918-0.0986-0.1211-0.1855-0.1211c-0.123,0-0.1299,0.0059-0.1299,0.0762v0.4316c0,0.3223,0.0215,0.3457,0.1787,0.375
		l0.0938,0.0156c0.0254,0.0176,0.0254,0.1035,0,0.123c-0.1846-0.0059-0.3457-0.0098-0.5137-0.0098
		c-0.1748,0-0.3291,0.0039-0.5117,0.0098c-0.0273-0.0195-0.0273-0.1055,0-0.123l0.0947-0.0156
		c0.1582-0.0293,0.1787-0.0527,0.1787-0.375V22.1445z M39.2236,22.5898c0,0.123,0.0107,0.1328,0.2168,0.1328
		c0.127,0,0.2002-0.0313,0.2676-0.0977c0.0596-0.0605,0.126-0.1719,0.126-0.3789c0-0.3145-0.1875-0.5176-0.46-0.5176
		c-0.1436,0-0.1504,0.0098-0.1504,0.1777V22.5898z"/>
	<path fill="#00337F" d="M45.04,22.7227c0,0.7637-0.5117,1.2227-1.2646,1.2227c-0.7031,0-1.2148-0.4629-1.2148-1.1953
		c0-0.6934,0.5186-1.2285,1.25-1.2285C44.5381,21.5215,45.04,22.0117,45.04,22.7227 M43.7822,21.6816
		c-0.4297,0-0.6611,0.4043-0.6611,0.9883c0,0.4277,0.1504,1.1133,0.7207,1.1133c0.459,0,0.6367-0.4473,0.6367-1.0156
		C44.4785,22.1699,44.2168,21.6816,43.7822,21.6816"/>
	<path fill="#00337F" d="M47.8223,23.9453c-0.3213,0-0.5215-0.0918-0.5947-0.1348c-0.0674-0.0762-0.1123-0.3281-0.1123-0.5664
		c0.0244-0.0449,0.1055-0.0488,0.1338-0.0098c0.0693,0.2266,0.3047,0.5488,0.6016,0.5488c0.2598,0,0.3779-0.1777,0.3779-0.3535
		c0-0.2832-0.2656-0.4512-0.4756-0.5566c-0.252-0.127-0.5283-0.3359-0.5283-0.6816c-0.0039-0.3965,0.3047-0.6699,0.8125-0.6699
		c0.1152,0,0.2588,0.0137,0.3984,0.0566c0.0459,0.0137,0.0771,0.0195,0.1191,0.0273c0.0283,0.0762,0.0625,0.2656,0.0625,0.502
		c-0.0166,0.041-0.1045,0.0449-0.1357,0.0098c-0.0596-0.1797-0.21-0.4355-0.4619-0.4355c-0.2314,0-0.3574,0.1523-0.3574,0.3281
		c0,0.1602,0.1436,0.3066,0.3174,0.3984l0.2324,0.1211c0.2168,0.1152,0.4932,0.3184,0.4932,0.7051
		C48.7051,23.666,48.3525,23.9453,47.8223,23.9453"/>
	<path fill="#00337F" d="M13.7813,2.5771l-0.1724-0.5645h-0.8638l-0.1714,0.5645h-0.5415l0.8364-2.3794h0.6143l0.8394,2.3794
		H13.7813z M13.4893,1.5918c-0.1587-0.5112-0.2485-0.8003-0.2681-0.8677c-0.02-0.0669-0.0347-0.1191-0.043-0.1582
		c-0.0356,0.1382-0.1377,0.4805-0.3062,1.0259H13.4893z"/>
	<path fill="#00337F" d="M16.0923,0.7651v0.251l-0.2837,0.0732c0.0518,0.0811,0.0776,0.1719,0.0776,0.272
		c0,0.1943-0.0674,0.3462-0.2036,0.4546c-0.1353,0.1089-0.3232,0.1631-0.5645,0.1631l-0.0894-0.0049l-0.0728-0.0083
		c-0.0508,0.0391-0.0762,0.082-0.0762,0.1299c0,0.0718,0.0908,0.1069,0.2725,0.1069H15.46c0.1987,0,0.3506,0.043,0.4546,0.1279
		c0.104,0.0854,0.1567,0.2109,0.1567,0.376c0,0.2119-0.0884,0.3765-0.2651,0.4922c-0.1768,0.1172-0.4302,0.1758-0.7607,0.1758
		c-0.2529,0-0.4463-0.0444-0.5796-0.1318c-0.1333-0.0894-0.2002-0.2114-0.2002-0.3711c0-0.1084,0.0342-0.1997,0.1021-0.2734
		c0.0684-0.0732,0.168-0.126,0.3003-0.1567c-0.0513-0.0215-0.0952-0.0581-0.1328-0.1064c-0.0381-0.0493-0.0571-0.1016-0.0571-0.1567
		c0-0.0688,0.02-0.1265,0.0601-0.1724s0.0977-0.0913,0.1733-0.1357c-0.0947-0.041-0.1704-0.1069-0.2261-0.1973
		c-0.0557-0.0908-0.0835-0.1982-0.0835-0.3208c0-0.1982,0.064-0.3511,0.1929-0.459c0.1284-0.1074,0.3125-0.1621,0.5508-0.1621
		c0.0513,0,0.1113,0.0049,0.1807,0.0137c0.0703,0.0093,0.1147,0.0161,0.1338,0.0205H16.0923z M14.6934,2.833
		c0,0.0684,0.0327,0.1216,0.0986,0.1606c0.0654,0.0396,0.1567,0.0586,0.2739,0.0586c0.1777,0,0.3169-0.0244,0.4175-0.0732
		c0.1001-0.0483,0.1499-0.1152,0.1499-0.1997c0-0.0679-0.0298-0.1147-0.0889-0.1406c-0.0596-0.0259-0.1514-0.0391-0.2759-0.0391
		h-0.2559c-0.0908,0-0.1665,0.0215-0.2275,0.0645C14.7246,2.7061,14.6934,2.7632,14.6934,2.833 M14.8735,1.3584
		c0,0.0981,0.0225,0.1763,0.0674,0.2334s0.1128,0.0859,0.2046,0.0859c0.0938,0,0.1611-0.0288,0.2046-0.0859
		c0.043-0.0571,0.0645-0.1353,0.0645-0.2334c0-0.2178-0.0889-0.3276-0.269-0.3276C14.9644,1.0308,14.8735,1.1406,14.8735,1.3584"/>
	<path fill="#00337F" d="M17.144,2.6094c-0.2915,0-0.5195-0.0806-0.6836-0.2417c-0.1646-0.1606-0.2466-0.3887-0.2466-0.6836
		c0-0.3032,0.0762-0.5381,0.2275-0.7041c0.1519-0.1655,0.3623-0.2485,0.6299-0.2485c0.2559,0,0.4556,0.0723,0.5977,0.2188
		c0.1431,0.1455,0.2144,0.3472,0.2144,0.604v0.2397h-1.1689c0.0059,0.1411,0.0479,0.2505,0.125,0.3291
		c0.0776,0.0786,0.187,0.1191,0.3276,0.1191c0.1089,0,0.2119-0.0122,0.3096-0.0347c0.0972-0.0229,0.1987-0.0591,0.3047-0.1089
		v0.3828c-0.0869,0.043-0.1787,0.0752-0.2778,0.0962C17.4053,2.5986,17.2856,2.6094,17.144,2.6094 M17.0742,1.083
		c-0.105,0-0.187,0.0332-0.2456,0.0996c-0.0601,0.0664-0.0942,0.1606-0.1025,0.2822h0.6938
		c-0.0024-0.1216-0.0337-0.2158-0.0957-0.2822C17.2627,1.1162,17.1797,1.083,17.0742,1.083"/>
	<path fill="#00337F" d="M19.8916,2.5771H19.397V1.5186c0-0.1304-0.0229-0.2285-0.0693-0.2939s-0.1206-0.0981-0.2222-0.0981
		c-0.1382,0-0.2388,0.0464-0.2998,0.1387c-0.0615,0.0918-0.0928,0.2451-0.0928,0.4595v0.8525h-0.4937v-1.812h0.377l0.0664,0.2314
		h0.0283c0.0547-0.0874,0.1304-0.1528,0.2275-0.1982C19.0151,0.7529,19.125,0.731,19.248,0.731
		c0.2109,0,0.3701,0.0571,0.4795,0.1709c0.1094,0.1143,0.1641,0.2788,0.1641,0.4932V2.5771z"/>
	<path fill="#00337F" d="M21.0977,2.2153c0.0864,0,0.1895-0.0186,0.311-0.0562v0.3677c-0.1235,0.0552-0.2749,0.0825-0.4541,0.0825
		c-0.1978,0-0.3418-0.0503-0.4316-0.1499c-0.0898-0.1001-0.1353-0.2495-0.1353-0.4497V1.1362h-0.2368v-0.209l0.2725-0.1655
		l0.1426-0.3823h0.3159v0.3857h0.5073v0.3711h-0.5073v0.8735c0,0.0703,0.0195,0.1221,0.0591,0.1553
		C20.98,2.1987,21.0327,2.2153,21.0977,2.2153"/>
	<path fill="#00337F" d="M22.5283,2.6094c-0.291,0-0.519-0.0806-0.6836-0.2417c-0.1646-0.1606-0.2466-0.3887-0.2466-0.6836
		c0-0.3032,0.0762-0.5381,0.2275-0.7041c0.1519-0.1655,0.3618-0.2485,0.6299-0.2485c0.2563,0,0.4556,0.0723,0.5981,0.2188
		c0.1426,0.1455,0.2139,0.3472,0.2139,0.604v0.2397h-1.1689c0.0059,0.1411,0.0474,0.2505,0.125,0.3291
		c0.0781,0.0786,0.187,0.1191,0.3276,0.1191c0.1089,0,0.2124-0.0122,0.3096-0.0347c0.0977-0.0229,0.1987-0.0591,0.3047-0.1089
		v0.3828c-0.0864,0.043-0.1787,0.0752-0.2773,0.0962C22.79,2.5986,22.6699,2.6094,22.5283,2.6094 M22.4585,1.083
		c-0.1045,0-0.187,0.0332-0.2456,0.0996c-0.0596,0.0664-0.0938,0.1606-0.1025,0.2822h0.6938
		C22.8013,1.3433,22.77,1.249,22.7085,1.1826S22.5635,1.083,22.4585,1.083"/>
	<path fill="#00337F" d="M25.5493,2.5771l-0.0952-0.2466h-0.0127c-0.0835,0.105-0.1694,0.1777-0.2573,0.2183
		c-0.0879,0.041-0.2026,0.0605-0.3442,0.0605c-0.1738,0-0.311-0.0493-0.4111-0.1489c-0.0996-0.0996-0.1499-0.2407-0.1499-0.4248
		c0-0.1919,0.0674-0.334,0.2021-0.4253c0.1343-0.0913,0.3369-0.1416,0.6089-0.1519l0.3145-0.0098V1.3691
		c0-0.1831-0.0947-0.2749-0.2827-0.2749c-0.1445,0-0.3149,0.0435-0.5103,0.1309l-0.1636-0.334
		c0.208-0.1089,0.4395-0.1631,0.6934-0.1631c0.2432,0,0.4297,0.0527,0.5596,0.1587c0.1294,0.106,0.1938,0.2671,0.1938,0.4824v1.208
		H25.5493z M25.4043,1.7378l-0.1919,0.0063c-0.1436,0.0044-0.251,0.0303-0.3213,0.0776c-0.0703,0.0479-0.105,0.1201-0.105,0.2173
		c0,0.1392,0.0801,0.209,0.2402,0.209c0.1138,0,0.2061-0.0327,0.2744-0.0991c0.0688-0.0654,0.1035-0.1533,0.1035-0.2622V1.7378z"/>
	<path fill="#00337F" d="M27.6201,2.5771l-0.0664-0.2319h-0.0254c-0.0532,0.084-0.1284,0.1499-0.2241,0.1953
		c-0.0981,0.0459-0.209,0.0693-0.3335,0.0693c-0.2124,0-0.373-0.0571-0.481-0.1714c-0.1084-0.1138-0.1626-0.2783-0.1626-0.4917
		V0.7651h0.4946v1.0586c0,0.1304,0.0234,0.2285,0.0693,0.2939c0.0469,0.0654,0.1211,0.0977,0.2227,0.0977
		c0.1377,0,0.2383-0.0459,0.3003-0.1382c0.061-0.0923,0.0918-0.2451,0.0918-0.4595V0.7651H28v1.812H27.6201z"/>
	<path fill="#00337F" d="M29.2163,2.2153c0.0864,0,0.1895-0.0186,0.3105-0.0562v0.3677c-0.123,0.0552-0.2739,0.0825-0.4531,0.0825
		c-0.1982,0-0.3423-0.0503-0.4326-0.1499c-0.0898-0.1001-0.1353-0.2495-0.1353-0.4497V1.1362H28.269v-0.209l0.2725-0.1655
		l0.1426-0.3823h0.3164v0.3857h0.5073v0.3711h-0.5073v0.8735c0,0.0703,0.019,0.1221,0.0591,0.1553
		C29.0991,2.1987,29.1504,2.2153,29.2163,2.2153"/>
	<path fill="#00337F" d="M31.4746,1.668c0,0.2944-0.0791,0.5254-0.2344,0.6914c-0.1563,0.167-0.373,0.25-0.6504,0.25
		c-0.1738,0-0.3262-0.0381-0.459-0.1143c-0.1338-0.0757-0.2358-0.186-0.3076-0.3276c-0.0708-0.1436-0.1064-0.3096-0.1064-0.4995
		c0-0.2964,0.0767-0.5264,0.2324-0.6904c0.1533-0.1646,0.3711-0.2466,0.6514-0.2466c0.1729,0,0.3271,0.0381,0.46,0.1138
		c0.1328,0.0752,0.2354,0.1836,0.3066,0.3257C31.4375,1.3115,31.4746,1.4775,31.4746,1.668 M30.2217,1.668
		c0,0.1792,0.0283,0.3149,0.0869,0.4063c0.0596,0.0923,0.1563,0.1382,0.2891,0.1382c0.1309,0,0.2256-0.0459,0.2832-0.1367
		c0.0586-0.0918,0.0859-0.2271,0.0859-0.4077c0-0.1792-0.0283-0.314-0.0859-0.4038c-0.0586-0.0894-0.1543-0.1348-0.2871-0.1348
		c-0.1318,0-0.2266,0.0454-0.2852,0.1338C30.25,1.3525,30.2217,1.4873,30.2217,1.668"/>
	<path fill="#00337F" d="M32.8262,0.731c0.0684,0,0.123,0.0049,0.168,0.0146L32.957,1.209c-0.04-0.0103-0.0889-0.0161-0.1465-0.0161
		c-0.1572,0-0.2803,0.0405-0.3691,0.1216c-0.0869,0.0806-0.1309,0.1943-0.1309,0.3403v0.9224h-0.4951v-1.812h0.375l0.0723,0.3047
		h0.0244c0.0566-0.1021,0.1328-0.1831,0.2285-0.2456C32.6104,0.7617,32.7148,0.731,32.8262,0.731"/>
	<path fill="#00337F" d="M33.2354,0.2969c0-0.1611,0.0898-0.2417,0.2686-0.2417c0.1807,0,0.2695,0.0806,0.2695,0.2417
		c0,0.0762-0.0225,0.1362-0.0664,0.1787C33.6611,0.5186,33.5938,0.54,33.5039,0.54C33.3252,0.54,33.2354,0.4585,33.2354,0.2969
		 M33.75,2.5771h-0.4941v-1.812H33.75V2.5771z"/>
	<polygon fill="#00337F" points="35.4639,2.5771 34.0332,2.5771 34.0332,2.2852 34.8721,1.1431 34.083,1.1431 34.083,0.7651 
		35.4346,0.7651 35.4346,1.0859 34.6182,2.1992 35.4639,2.1992 	"/>
	<path fill="#00337F" d="M36.9072,2.5771l-0.0957-0.2466h-0.0146c-0.082,0.105-0.167,0.1777-0.2568,0.2183
		c-0.0869,0.041-0.2021,0.0605-0.3428,0.0605c-0.1748,0-0.3115-0.0493-0.4111-0.1489s-0.1504-0.2407-0.1504-0.4248
		c0-0.1919,0.0684-0.334,0.2012-0.4253c0.1357-0.0913,0.3389-0.1416,0.6094-0.1519l0.3145-0.0098V1.3691
		c0-0.1831-0.0947-0.2749-0.2822-0.2749c-0.1445,0-0.3154,0.0435-0.5107,0.1309l-0.1631-0.334
		c0.208-0.1089,0.4395-0.1631,0.6943-0.1631c0.2422,0,0.4297,0.0527,0.5586,0.1587s0.1943,0.2671,0.1943,0.4824v1.208H36.9072z
		 M36.7607,1.7378l-0.1914,0.0063c-0.1445,0.0044-0.251,0.0303-0.3203,0.0776c-0.0713,0.0479-0.1064,0.1201-0.1064,0.2173
		c0,0.1392,0.0811,0.209,0.2402,0.209c0.1143,0,0.207-0.0327,0.2744-0.0991c0.0693-0.0654,0.1035-0.1533,0.1035-0.2622V1.7378z"/>
	<path fill="#00337F" d="M38.2686,2.6094c-0.2139,0-0.3809-0.0825-0.502-0.2476c-0.1221-0.165-0.1836-0.3945-0.1836-0.6875
		c0-0.2969,0.0635-0.5283,0.1865-0.6943c0.124-0.1655,0.2939-0.249,0.5107-0.249c0.2295,0,0.4023,0.0884,0.5225,0.2656h0.0166
		c-0.0254-0.1343-0.0371-0.2554-0.0371-0.3613V0.0552h0.4961v2.522h-0.3789l-0.0967-0.2354h-0.0205
		C38.6689,2.52,38.498,2.6094,38.2686,2.6094 M38.4414,2.2153c0.127,0,0.2188-0.0361,0.2773-0.1099
		c0.0596-0.0737,0.0908-0.1982,0.0967-0.3745V1.6777c0-0.1948-0.0303-0.334-0.0898-0.4185c-0.0586-0.0845-0.1572-0.126-0.292-0.126
		c-0.1113,0-0.1963,0.0464-0.2568,0.1401c-0.0615,0.0928-0.0918,0.229-0.0918,0.4072s0.0313,0.312,0.0928,0.4009
		C38.2383,2.1714,38.3271,2.2153,38.4414,2.2153"/>
	<path fill="#00337F" d="M41.375,1.668c0,0.2944-0.0771,0.5254-0.2324,0.6914c-0.1572,0.167-0.3721,0.25-0.6504,0.25
		c-0.1748,0-0.3271-0.0381-0.4609-0.1143c-0.1328-0.0757-0.2344-0.186-0.3057-0.3276c-0.0723-0.1436-0.1064-0.3096-0.1064-0.4995
		c0-0.2964,0.0762-0.5264,0.2305-0.6904C40.0049,0.813,40.2217,0.731,40.501,0.731c0.1748,0,0.3281,0.0381,0.4609,0.1138
		c0.1328,0.0752,0.2354,0.1836,0.3057,0.3257C41.3398,1.3115,41.375,1.4775,41.375,1.668 M40.1221,1.668
		c0,0.1792,0.0293,0.3149,0.0889,0.4063c0.0586,0.0923,0.1533,0.1382,0.2881,0.1382c0.1309,0,0.2256-0.0459,0.2832-0.1367
		c0.0576-0.0918,0.0869-0.2271,0.0869-0.4077c0-0.1792-0.0293-0.314-0.0869-0.4038c-0.0586-0.0894-0.1533-0.1348-0.2871-0.1348
		c-0.1318,0-0.2266,0.0454-0.2852,0.1338C40.1514,1.3525,40.1221,1.4873,40.1221,1.668"/>
	<path fill="#00337F" d="M43.5088,2.6094c-0.2129,0-0.3799-0.0771-0.501-0.2314h-0.0264c0.0176,0.1509,0.0264,0.2383,0.0264,0.2622
		v0.7344h-0.4951V0.7651h0.4023L42.9844,1h0.0234c0.1152-0.1792,0.2871-0.269,0.5137-0.269c0.2129,0,0.3809,0.083,0.502,0.248
		c0.1221,0.1655,0.1816,0.3945,0.1816,0.689c0,0.1934-0.0283,0.3608-0.085,0.5039c-0.0566,0.1426-0.1377,0.2515-0.2422,0.3262
		C43.7734,2.5723,43.6494,2.6094,43.5088,2.6094 M43.3623,1.1265c-0.1221,0-0.2109,0.0376-0.2666,0.1128
		c-0.0566,0.0747-0.0859,0.1992-0.0879,0.3716v0.0537c0,0.1943,0.0283,0.334,0.0869,0.418c0.0576,0.085,0.1494,0.127,0.2744,0.127
		c0.2207,0,0.332-0.1826,0.332-0.5479c0-0.1787-0.0273-0.312-0.082-0.4014C43.5654,1.1709,43.4795,1.1265,43.3623,1.1265"/>
	<path fill="#00337F" d="M46.1943,1.668c0,0.2944-0.0781,0.5254-0.2344,0.6914c-0.1553,0.167-0.3721,0.25-0.6494,0.25
		c-0.1748,0-0.3271-0.0381-0.46-0.1143c-0.1338-0.0757-0.2354-0.186-0.3066-0.3276c-0.0723-0.1436-0.1064-0.3096-0.1064-0.4995
		c0-0.2964,0.0762-0.5264,0.2314-0.6904C44.8232,0.813,45.04,0.731,45.3203,0.731c0.1738,0,0.3271,0.0381,0.46,0.1138
		c0.1328,0.0752,0.2354,0.1836,0.3057,0.3257C46.1582,1.3115,46.1943,1.4775,46.1943,1.668 M44.9404,1.668
		c0,0.1792,0.0293,0.3149,0.0889,0.4063c0.0596,0.0923,0.1553,0.1382,0.2881,0.1382c0.1309,0,0.2256-0.0459,0.2842-0.1367
		c0.0576-0.0918,0.0859-0.2271,0.0859-0.4077c0-0.1792-0.0293-0.314-0.0869-0.4038c-0.0586-0.0894-0.1533-0.1348-0.2861-0.1348
		s-0.2275,0.0454-0.2861,0.1338C44.9697,1.3525,44.9404,1.4873,44.9404,1.668"/>
	<path fill="#00337F" d="M47.5469,0.731c0.0684,0,0.123,0.0049,0.168,0.0146L47.6768,1.209
		c-0.04-0.0103-0.0879-0.0161-0.1455-0.0161c-0.1572,0-0.2813,0.0405-0.3691,0.1216c-0.0879,0.0806-0.1328,0.1943-0.1328,0.3403
		v0.9224h-0.4941v-1.812h0.376l0.0723,0.3047h0.0244c0.0557-0.1021,0.1318-0.1831,0.2275-0.2456S47.4346,0.731,47.5469,0.731"/>
</g>
</svg>
