<?xml version="1.0" encoding="utf-8"?>
<!-- Generator: Adobe Illustrator 23.0.2, SVG Export Plug-In . SVG Version: 6.00 Build 0)  -->
<svg version="1.1" id="Capa_1" xmlns="http://www.w3.org/2000/svg" xmlns:xlink="http://www.w3.org/1999/xlink" x="0px" y="0px"
	 viewBox="0 0 60 24" style="enable-background:new 0 0 60 24;" xml:space="preserve">
<style type="text/css">
	.st0{fill:#929292;}
	.st1{fill:#016830;}
	.st2{fill:#E3061D;}
</style>
<g>
	<g>
		<path class="st0" d="M11.9,22.5l0.5-0.6c0.5,0.4,0.9,0.6,1.5,0.6c0.5,0,0.8-0.2,0.8-0.6v0c0-0.3-0.2-0.5-1.1-0.7
			c-1-0.2-1.6-0.5-1.6-1.4v0c0-0.8,0.7-1.4,1.6-1.4c0.7,0,1.2,0.2,1.7,0.6L15,19.6c-0.4-0.3-0.9-0.5-1.3-0.5c-0.5,0-0.8,0.3-0.8,0.6
			v0c0,0.4,0.2,0.5,1.1,0.7c1,0.2,1.5,0.6,1.5,1.4v0c0,0.9-0.7,1.4-1.7,1.4C13.2,23.3,12.5,23,11.9,22.5z M17.1,18.4h3.5v0.7h-2.7
			v1.2h2.4v0.7h-2.4v1.3h2.7v0.7h-3.6C17.1,23.2,17.1,18.4,17.1,18.4z M21.8,20.8L21.8,20.8c0-1.3,1-2.5,2.5-2.5
			c0.8,0,1.3,0.2,1.8,0.6l-0.5,0.6c-0.4-0.3-0.7-0.5-1.3-0.5c-0.9,0-1.5,0.8-1.5,1.7v0c0,1,0.6,1.7,1.6,1.7c0.4,0,0.9-0.1,1.2-0.4
			v-0.9h-1.2v-0.7h2v2c-0.5,0.4-1.1,0.7-2,0.7C22.8,23.3,21.8,22.2,21.8,20.8z M27.8,21.2v-2.7h0.8v2.7c0,0.9,0.5,1.4,1.2,1.4
			c0.7,0,1.2-0.4,1.2-1.3v-2.7h0.8v2.7c0,1.4-0.8,2.1-2.1,2.1C28.6,23.3,27.8,22.5,27.8,21.2z M33.5,18.4h2.1c0.6,0,1.1,0.2,1.4,0.5
			c0.3,0.3,0.4,0.6,0.4,1v0c0,0.8-0.5,1.3-1.1,1.4l1.3,1.8h-1l-1.2-1.7h-1.1v1.7h-0.8L33.5,18.4L33.5,18.4z M35.6,20.8
			c0.6,0,1-0.3,1-0.8l0,0c0-0.5-0.4-0.8-1-0.8h-1.2v1.6H35.6z M38.6,20.8L38.6,20.8c0-1.4,1-2.5,2.5-2.5c1.5,0,2.5,1.1,2.5,2.4v0
			c0,1.3-1,2.5-2.5,2.5C39.7,23.3,38.6,22.2,38.6,20.8z M42.7,20.8L42.7,20.8c0-0.9-0.7-1.7-1.6-1.7c-0.9,0-1.6,0.8-1.6,1.7v0
			c0,0.9,0.7,1.7,1.6,1.7C42.1,22.5,42.7,21.7,42.7,20.8z M44.7,22.5l0.5-0.6c0.5,0.4,0.9,0.6,1.5,0.6c0.5,0,0.8-0.2,0.8-0.6v0
			c0-0.3-0.2-0.5-1.1-0.7c-1-0.2-1.6-0.5-1.6-1.4v0c0-0.8,0.7-1.4,1.6-1.4c0.7,0,1.2,0.2,1.7,0.6l-0.4,0.6c-0.4-0.3-0.9-0.5-1.3-0.5
			c-0.5,0-0.8,0.3-0.8,0.6v0c0,0.4,0.2,0.5,1.1,0.7c1,0.2,1.5,0.6,1.5,1.4v0c0,0.9-0.7,1.4-1.7,1.4C45.9,23.3,45.3,23,44.7,22.5z"/>
		<path class="st1" d="M28.3,15.2h5.4c5.8,0,8.7-3,8.7-7.3v0c0-4.3-2.9-7.1-8.6-7.1h-5.5L28.3,15.2L28.3,15.2z M33.1,11.2V4.7h0.8
			c2.2,0,3.6,1,3.6,3.2V8c0,2.3-1.4,3.2-3.6,3.2H33.1z"/>
		<path id="path34_6_" class="st1" d="M43.6,15.2h4.8V0.8h-4.8V15.2z"/>
		<path id="path34_5_" class="st2" d="M16.7,10.4h4.8V5.6h-4.8C16.7,5.6,16.7,10.4,16.7,10.4z"/>
		<path id="path34_4_" class="st1" d="M21.5,15.2h4.8V0.8h-4.8V15.2z"/>
	</g>
	<path id="path34_2_" class="st1" d="M11.9,15.2h4.8V0.8h-4.8V15.2z"/>
</g>
</svg>
