<?xml version="1.0" encoding="utf-8"?>
<!-- Generator: Adobe Illustrator 23.0.1, SVG Export Plug-In . SVG Version: 6.00 Build 0)  -->
<svg version="1.1" id="Capa_1" xmlns="http://www.w3.org/2000/svg" xmlns:xlink="http://www.w3.org/1999/xlink" x="0px" y="0px"
	  width="60px" height="24px" viewBox="0 0 60 24" style="enable-background:new 0 0 60 24;" xml:space="preserve">
<style type="text/css">
	.st0{fill:#807F83;}
	.st1{fill-rule:evenodd;clip-rule:evenodd;fill:#00467F;}
	.st2{fill:#A1A1A4;}
	.st3{fill:#00467F;}
</style>
<g>
	<g>
		<path class="st0" d="M41.98706,22.41508v-0.21599l0.012,0.012c0.144,0,0.25199-0.048,0.34799-0.15599
			c0.084-0.096,0.13199-0.23999,0.13199-0.39598c0-0.17999-0.048-0.31199-0.14399-0.43198
			c-0.084-0.108-0.20399-0.15599-0.34798-0.16799v-0.21599h0.024c0.12,0,0.21599,0.024,0.31199,0.048
			c0.096,0.036,0.17999,0.096,0.25199,0.17999c0.072,0.072,0.132,0.15599,0.16799,0.25199
			c0.036,0.09599,0.048,0.19199,0.048,0.29999c0,0.10799-0.024,0.21599-0.06,0.31199s-0.096,0.17999-0.17999,0.26399
			c-0.072,0.072-0.16799,0.132-0.26399,0.16799C42.19106,22.39109,42.09506,22.41508,41.98706,22.41508L41.98706,22.41508z
			 M43.06702,22.33109l-0.12-0.32399c0.10799,0.072,0.21599,0.13199,0.31199,0.16799c0.096,0.036,0.17999,0.048,0.26399,0.048
			c0.10799,0,0.19199-0.024,0.25199-0.06c0.06-0.036,0.096-0.096,0.096-0.16799c0-0.084-0.10799-0.17999-0.32399-0.26399
			c-0.048-0.024-0.096-0.036-0.132-0.048c-0.12-0.048-0.21599-0.12-0.27599-0.17999c-0.048-0.072-0.084-0.144-0.084-0.23999
			c0-0.132,0.048-0.23999,0.15599-0.31199c0.096-0.084,0.23999-0.12,0.40798-0.12c0.06,0,0.12,0,0.19199,0.012
			c0.072,0.012,0.132,0.024,0.20399,0.036v0.26399c-0.07199-0.036-0.14399-0.072-0.21599-0.084
			c-0.07199-0.024-0.14399-0.024-0.20399-0.024c-0.07199,0-0.13199,0.012-0.17999,0.048c-0.036,0.036-0.07199,0.072-0.07199,0.13199
			c0,0.084,0.09599,0.15599,0.27599,0.21599c0.072,0.036,0.132,0.048,0.17999,0.072c0.132,0.048,0.21599,0.12,0.28799,0.17999
			c0.06,0.072,0.084,0.14399,0.084,0.23999c0,0.14399-0.06,0.26399-0.19199,0.35999c-0.132,0.084-0.29999,0.13199-0.51598,0.13199
			c-0.072,0-0.14399-0.012-0.21599-0.024C43.19901,22.39109,43.13902,22.36709,43.06702,22.33109z M41.98706,20.84315v0.21599
			h-0.012c-0.132,0-0.25199,0.048-0.33599,0.15599c-0.084,0.096-0.132,0.21599-0.132,0.37199
			c0,0.17999,0.048,0.32399,0.14399,0.44398c0.084,0.12,0.20399,0.16799,0.34799,0.16799v0.21599c-0.012,0-0.012,0-0.024,0
			c-0.12,0-0.21599-0.012-0.31199-0.048c-0.084-0.036-0.17999-0.084-0.25199-0.16799c-0.072-0.072-0.132-0.15599-0.16799-0.25199
			c-0.036-0.096-0.048-0.19199-0.048-0.29999c0-0.108,0.024-0.21599,0.06-0.31199c0.036-0.096,0.096-0.17999,0.17999-0.26399
			c0.072-0.072,0.15599-0.13199,0.26399-0.16799C41.78307,20.86715,41.89107,20.84315,41.98706,20.84315L41.98706,20.84315z
			 M37.49925,23.09906v-0.17999c0.024,0,0.036,0,0.06,0c0.15599,0,0.28799-0.036,0.39598-0.10799
			c0.09599-0.072,0.15599-0.15599,0.15599-0.26399c0-0.096-0.048-0.16799-0.13199-0.21599c-0.084-0.048-0.21599-0.084-0.39598-0.084
			c-0.012,0-0.036,0.012-0.084,0.012V22.0791c0.024,0,0.07199,0,0.10799,0c0.048-0.012,0.084-0.012,0.096-0.012
			c0.20399,0,0.37199,0.036,0.50398,0.13199c0.132,0.084,0.19199,0.19199,0.19199,0.32399c0,0.16799-0.084,0.31199-0.25199,0.41998
			c-0.15599,0.10799-0.37199,0.15599-0.63597,0.15599H37.49925L37.49925,23.09906z M37.49925,21.9351v-0.20399
			c0.012,0,0.024,0,0.024,0c0.096,0,0.17999-0.024,0.23999-0.096c0.06-0.06,0.096-0.13199,0.096-0.22799
			c0-0.108-0.036-0.19199-0.108-0.26399c-0.07199-0.072-0.15599-0.096-0.25199-0.108v-0.19199c0.024,0,0.036,0,0.07199,0
			c0.048,0,0.132,0,0.23999,0.012c0.108,0.012,0.19199,0.012,0.23999,0.012c0.048,0,0.096-0.012,0.15599-0.012
			c0.06-0.012,0.132-0.012,0.20399-0.024l-0.096,0.23999c-0.012,0.012-0.012,0.012-0.024,0.012c-0.012,0-0.024,0-0.048,0
			c-0.036,0-0.084,0-0.14399-0.012c-0.048-0.012-0.12-0.012-0.19199-0.024c0.096,0.048,0.15599,0.10799,0.20399,0.16799
			c0.036,0.072,0.06,0.132,0.06,0.21599c0,0.096-0.024,0.17999-0.084,0.25199c-0.06,0.072-0.14399,0.13199-0.23999,0.17999
			c-0.084,0.036-0.17999,0.06-0.28799,0.072c-0.012,0.012-0.012,0.012-0.012,0.012h-0.012
			C37.52325,21.9351,37.51125,21.9351,37.49925,21.9351L37.49925,21.9351z M39.56316,22.17509
			c-0.072,0.084-0.14399,0.132-0.21599,0.17999c-0.072,0.036-0.15599,0.06-0.23999,0.06c-0.15599,0-0.28799-0.048-0.39598-0.15599
			c-0.096-0.09599-0.15599-0.22799-0.15599-0.39598v-0.68397c0-0.072-0.012-0.12-0.024-0.15599c-0.024-0.048-0.048-0.084-0.084-0.12
			h0.036c0.06,0,0.12,0,0.17999-0.012c0.048-0.012,0.12-0.012,0.16799-0.024v0.82796c0,0.15599,0.036,0.27599,0.084,0.34799
			s0.14399,0.10799,0.26399,0.10799c0.132,0,0.21599-0.036,0.27599-0.096c0.048-0.072,0.084-0.17999,0.084-0.33599v-0.53998
			c0-0.072-0.012-0.12-0.024-0.15599c-0.024-0.048-0.036-0.084-0.084-0.12h0.036c0.048,0,0.10799,0,0.15599-0.012
			c0.048-0.012,0.12-0.012,0.17999-0.024v1.18795c0,0.072,0.012,0.12,0.024,0.16799c0.012,0.036,0.036,0.084,0.072,0.10799h-0.024
			c-0.036,0-0.084,0.012-0.14399,0.012c-0.048,0.012-0.12,0.012-0.19199,0.024L39.56316,22.17509L39.56316,22.17509z
			 M41.0151,21.16714c-0.024-0.012-0.048-0.024-0.07199-0.036c-0.024-0.012-0.048-0.012-0.084-0.012
			c-0.108,0-0.17999,0.036-0.23999,0.10799c-0.048,0.072-0.084,0.17999-0.084,0.31199v0.53998c0,0.072,0.012,0.12,0.024,0.15599
			c0.012,0.048,0.036,0.084,0.07199,0.12h-0.47998c0.036-0.036,0.072-0.072,0.084-0.12c0.012-0.036,0.024-0.096,0.024-0.15599
			v-0.91196c0-0.072-0.012-0.12-0.024-0.15599c-0.012-0.048-0.036-0.084-0.084-0.12h0.036c0.048,0,0.096,0,0.15599-0.012
			c0.048-0.012,0.12-0.012,0.17999-0.024l0.024,0.22799c0.036-0.072,0.084-0.132,0.14399-0.17999
			c0.048-0.036,0.12-0.048,0.19199-0.048c0.024,0,0.036,0,0.06,0c0.012,0.012,0.036,0.012,0.072,0.012L41.0151,21.16714
			L41.0151,21.16714z M37.49925,20.84315v0.19199c-0.012,0-0.012,0-0.024,0c-0.108,0-0.19199,0.024-0.25199,0.084
			s-0.084,0.132-0.084,0.22799c0,0.10799,0.036,0.19199,0.10799,0.26399c0.072,0.072,0.15599,0.096,0.25199,0.10799v0.20399
			c-0.084,0.012-0.12,0.036-0.12,0.084c0,0.024,0.012,0.036,0.024,0.048c0.024,0.012,0.048,0.012,0.084,0.012h0.012v0.17999h-0.036
			c-0.06,0-0.12,0-0.17999,0c-0.072,0-0.132-0.012-0.17999-0.036c-0.036-0.024-0.06-0.072-0.06-0.12s0.024-0.096,0.06-0.13199
			c0.036-0.036,0.096-0.06,0.17999-0.084c-0.132-0.024-0.23999-0.084-0.32399-0.17999c-0.084-0.09599-0.12-0.20399-0.12-0.32399
			c0-0.15599,0.06-0.29999,0.19199-0.38398C37.15126,20.90315,37.30725,20.86715,37.49925,20.84315L37.49925,20.84315z
			 M37.49925,22.91906v0.17999c-0.23999,0-0.43198-0.048-0.57598-0.13199c-0.15599-0.084-0.23999-0.19199-0.23999-0.32399
			c0-0.072,0.024-0.132,0.084-0.17999c0.06-0.048,0.132-0.072,0.20399-0.072c0.024,0,0.048,0,0.072,0.012
			c0.024,0.012,0.06,0.012,0.096,0.024c-0.048,0.012-0.072,0.024-0.096,0.048s-0.036,0.072-0.036,0.12
			c0,0.084,0.048,0.16799,0.15599,0.22799C37.25926,22.88307,37.36725,22.91906,37.49925,22.91906L37.49925,22.91906z
			 M35.91531,22.41508v-0.23999c0.06,0.012,0.12,0.024,0.19199,0.024c0.072,0,0.15599-0.012,0.23999-0.036
			c0.084-0.024,0.17999-0.072,0.27599-0.12l-0.15599,0.28799c-0.084,0.036-0.16799,0.06-0.23999,0.072
			c-0.07199,0.024-0.14399,0.024-0.20399,0.024C35.98731,22.42708,35.95131,22.42708,35.91531,22.41508L35.91531,22.41508z
			 M35.91531,21.59912v-0.20399h0.38398c-0.012-0.10799-0.048-0.19199-0.12-0.25199c-0.072-0.072-0.15599-0.096-0.25199-0.096
			c-0.012,0-0.012,0-0.024,0v-0.20399c0.012,0,0.024,0,0.036,0c0.20399,0,0.35999,0.072,0.47998,0.20399
			s0.17999,0.32399,0.17999,0.55198H35.91531z M33.59941,22.31909l-0.096-0.38398c0.12,0.084,0.23999,0.14399,0.34798,0.17999
			c0.12,0.036,0.22799,0.06,0.33599,0.06c0.14399,0,0.25199-0.024,0.34798-0.084c0.084-0.072,0.132-0.14399,0.132-0.23999
			c0-0.036-0.012-0.06-0.012-0.084c-0.012-0.024-0.024-0.048-0.036-0.084c-0.036-0.048-0.15599-0.132-0.37199-0.23999
			c-0.048-0.024-0.09599-0.048-0.13199-0.072c-0.20399-0.096-0.33599-0.19199-0.40799-0.28799
			c-0.07199-0.084-0.12-0.19199-0.12-0.31199c0-0.16799,0.072-0.29999,0.20399-0.40798
			c0.13199-0.096,0.32399-0.14399,0.55198-0.14399c0.072,0,0.14399,0,0.21599,0.012c0.084,0.012,0.17999,0.024,0.26399,0.036
			v0.34798c-0.084-0.06-0.16799-0.12-0.25199-0.14399c-0.084-0.036-0.17999-0.048-0.26399-0.048
			c-0.12,0-0.20399,0.024-0.28799,0.084c-0.072,0.048-0.10799,0.12-0.10799,0.20399c0,0.072,0.024,0.132,0.084,0.19199
			c0.048,0.048,0.17999,0.13199,0.37199,0.21599c0.012,0.012,0.024,0.012,0.048,0.024
			c0.16799,0.084,0.28799,0.14399,0.37199,0.21599c0.06,0.048,0.10799,0.108,0.14399,0.17999c0.036,0.072,0.048,0.144,0.048,0.21599
			c0,0.17999-0.084,0.33599-0.23999,0.45598c-0.15599,0.13199-0.35999,0.19199-0.59998,0.19199
			c-0.084,0-0.15599-0.012-0.25199-0.024C33.8034,22.37909,33.7074,22.35509,33.59941,22.31909L33.59941,22.31909z
			 M35.91531,20.83115v0.20399c-0.096,0.012-0.19199,0.036-0.25199,0.096c-0.072,0.06-0.12,0.14399-0.132,0.26399h0.38398v0.20399
			h-0.40798c0.012,0.19199,0.072,0.32399,0.17999,0.43198c0.06,0.072,0.14399,0.12,0.22799,0.14399v0.23999
			c-0.19199-0.012-0.35999-0.084-0.49198-0.21599c-0.15599-0.14399-0.23999-0.33599-0.23999-0.56398
			c0-0.23999,0.072-0.41998,0.21599-0.57598C35.54333,20.91515,35.72332,20.84315,35.91531,20.83115z"/>
		<g>
			<rect x="16.87209" y="23.80703" class="st0" width="27.31088" height="0.17999"/>
		</g>
		<path class="st1" d="M19.02,4.48782l0.77997-0.49198l0.81597,0.50398l-0.036-0.27599l-0.49198-0.33599
			c0,0-0.17999-0.15599-0.19199-0.31199l-0.024-3.49186c0,0-0.024-0.084-0.096-0.084c-0.084,0-0.108,0.048-0.108,0.084
			l0.012,3.49186c0,0,0,0.072-0.108,0.17999L18.996,4.19983v0.28799H19.02L19.02,4.48782z"/>
		<path class="st1" d="M20.69993,4.9438l-0.80397-0.50398c0,0-0.13199-0.084-0.13199-0.16799L19.032,4.7758
			c0,0-0.012,0.024-0.036,0.048v0.29999l0.77997-0.49198l1.00796,0.64797L20.69993,4.9438z"/>
		<path class="st1" d="M18.55202,5.96376l1.18795-0.64797l1.54794,0.89996V5.95176l-1.40394-0.85196
			c0,0-0.10799-0.108-0.10799-0.17999l-1.10396,0.64797c0,0-0.084,0.13199-0.19199,0.15599v0.25199L18.55202,5.96376
			L18.55202,5.96376z"/>
		<path class="st1" d="M21.29991,6.50373l-1.36794-0.77997c0,0-0.13199-0.108-0.13199-0.17999l-1.29595,0.75597
			c0,0-0.012,0.06-0.06,0.096l-0.144,0.32399h0.048l1.42794-0.79197l1.52394,0.85196V6.50373z"/>
		<path class="st1" d="M19.79997,6.13175l-1.54794,0.86396c0,0-0.036,0.108-0.132,0.15599l-0.06,0.31199l1.70393-0.91196
			l1.94392,1.00796V7.2957l-1.81193-1.00796C19.89597,6.28774,19.79997,6.21575,19.79997,6.13175z"/>
		<path class="st1" d="M21.70789,7.94368l-1.78793-0.88796c0,0-0.12-0.13199-0.15599-0.25199l-1.72793,0.92396l-0.012,0.45598
			l1.75193-0.89996l1.91992,0.98396L21.70789,7.94368z"/>
		<path class="st1" d="M21.71989,8.67565l-1.73993-0.85196c0,0-0.19199-0.096-0.19199-0.23999l-1.76393,0.88796v0.44398
			l1.77593-0.87596l1.93192,0.94796L21.71989,8.67565z"/>
		<path class="st1" d="M21.73189,9.39562l-1.73993-0.81597c0,0-0.16799-0.072-0.17999-0.20399l-1.77593,0.83997l-0.012,0.44398
			l1.78793-0.81597l1.93192,0.86396L21.73189,9.39562z"/>
		<path class="st1" d="M21.74389,10.13959l-1.69193-0.70797c0,0-0.20399-0.072-0.25199-0.27599l-1.78793,0.76797l-0.012,0.45598
			l1.77593-0.73197l1.96792,0.76797V10.13959z"/>
		<path class="st1" d="M21.74389,10.89556l-1.70393-0.69597c0,0-0.19199-0.06-0.22799-0.28799l-1.82393,0.76797l-0.012,0.44398
			l1.73993-0.74397l2.02792,0.81597V10.89556L21.74389,10.89556z"/>
		<path class="st1" d="M21.74389,11.66352l-1.66793-0.65997c0,0-0.16799,0-0.26399-0.29999l-1.81193,0.69597
			c0,0,0,0.012-0.012,0.024l-0.012,0.45598l1.79993-0.65997l1.99192,0.71997L21.74389,11.66352z"/>
		<path class="st1" d="M21.75589,12.3475l-1.69193-0.58798c0,0-0.20399-0.06-0.27599-0.26399l-1.77593,0.64797
			c0,0-0.012,0.024-0.036,0.048l-0.012,0.40798l1.89592-0.61197l1.91992,0.65997L21.75589,12.3475z"/>
		<path class="st1" d="M21.75589,13.11547l-1.67993-0.53998c0,0-0.22799-0.06-0.27599-0.27599l-1.82393,0.59998
			c0,0-0.012,0.024-0.036,0.06l-0.012,0.43198l1.89592-0.55198l1.91992,0.57598L21.75589,13.11547z"/>
		<path class="st1" d="M21.75589,13.84743l-1.67993-0.47998c0,0-0.20399-0.048-0.27599-0.29999l-1.83592,0.55198
			c0,0,0,0.012-0.024,0.036l-0.012,0.46798l0,0l1.89592-0.52798l1.95592,0.53998L21.75589,13.84743z"/>
		<path class="st1" d="M21.76789,14.56741l-1.70393-0.43198c0,0-0.20399-0.048-0.26399-0.25199l-1.82393,0.47998
			c0,0-0.012,0.036-0.036,0.072l-0.012,0.44398l1.89592-0.49198l1.96792,0.47998L21.76789,14.56741z"/>
		<path class="st1" d="M21.76789,15.32337l-1.69193-0.40798c0,0-0.25199-0.06-0.25199-0.22799l-1.90792,0.46798l-0.012,0.43198
			l1.93192-0.43198l1.94392,0.43198L21.76789,15.32337z"/>
		<path class="st1" d="M21.79189,16.06734l-1.70393-0.32399c0,0-0.20399-0.048-0.27599-0.26399l-1.89592,0.39598
			c0,0,0,0.024-0.012,0.048l-0.012,0.41998l1.94392-0.37199l1.96792,0.35998L21.79189,16.06734z"/>
		<path class="st1" d="M21.81589,16.82331l-1.69193-0.29999c0,0-0.22799-0.036-0.32399-0.23999l-1.84792,0.29999
			c0,0-0.024,0.06-0.084,0.10799l-0.012,0.34799l-0.012,0.024h0.108l1.91992-0.28799l1.93192,0.33599L21.81589,16.82331z"/>
		<path class="st1" d="M19.82397,17.0393l-2.14791,0.31199l-0.33599,0.47998l0,0h0.17999l2.3759-0.29999l2.3759,0.34799
			l-0.012-0.27599l-2.12391-0.29999C20.13596,17.30329,19.91996,17.26729,19.82397,17.0393z"/>
		<path class="st1" d="M22.28387,18.59924v-0.31199l0,0l-2.13591-0.21599c0,0-0.26399-0.048-0.29999-0.26399l-2.3159,0.26399
			c0,0-0.048,0.12-0.19199,0.17999v0.32399h0.22799l2.4119-0.25199L22.28387,18.59924z"/>
		<path class="st1" d="M22.30787,19.34321l-0.012-0.29999l-2.06392-0.15599c0,0-0.28799,0.036-0.37198-0.26399l-2.31591,0.17999
			c0,0-0.048,0.15599-0.20399,0.21599v0.31199h0.048l2.66389-0.17999L22.30787,19.34321z"/>
		<path class="st1" d="M19.84797,19.39121l-2.5079,0.15599v0.036l-0.43198,0.45598v0.048h0.19199l3.05988-0.10799l2.87988,0.13199
			v-0.29999l-2.83188-0.12C20.19595,19.6912,19.94396,19.6912,19.84797,19.39121z"/>
		<path class="st1" d="M16.90809,20.84315l3.22787-0.048l2.91588,0.048v-0.27599l-2.79589-0.024c0,0-0.26399,0.012-0.38399-0.32399
			l-2.86788,0.084c0,0-0.024,0.072-0.096,0.13199C16.90809,20.42317,16.90809,20.84315,16.90809,20.84315z"/>
		<path class="st1" d="M16.90809,21.53912h0.20399l2.99988,0.096l2.93988-0.06v-0.29999l-2.83188,0.024
			c0,0-0.26399,0.024-0.35998-0.22799h-2.79589c0,0-0.048,0.072-0.15599,0.12
			C16.90809,21.20313,16.90809,21.53912,16.90809,21.53912z"/>
		<path class="st1" d="M16.90809,21.91111v0.37199h0.20399l2.97588,0.19199l2.98788-0.14399V22.0431l-2.98788,0.036
			c0,0-0.19199,0.024-0.20399-0.19199l-2.91588-0.084C16.96808,21.81511,16.95609,21.86311,16.90809,21.91111z"/>
		<path class="st1" d="M20.23195,22.93106c0,0-0.29999,0.036-0.35999-0.21599l-2.86788-0.16799c0,0-0.024,0.06-0.096,0.10799
			v0.33599l3.02388,0.23999l3.14387-0.19199v-0.31199L20.23195,22.93106z"/>
		<path class="st0" d="M24.32378,18.92323c-0.048,0-0.12-0.012-0.19199-0.012c-0.072-0.012-0.15599-0.024-0.25199-0.036V17.1833
			c0-0.12,0.012-0.21599,0.036-0.27599c0.024-0.06,0.06-0.10799,0.12-0.15599h-0.68397c0.048,0.048,0.096,0.096,0.12,0.15599
			s0.036,0.15599,0.036,0.27599v1.57194c0,0.12-0.012,0.21599-0.036,0.27599c-0.024,0.048-0.06,0.096-0.12,0.14399h1.48794
			l0.17999-0.46798c-0.108,0.072-0.21599,0.12-0.32399,0.15599C24.56377,18.89923,24.45578,18.92323,24.32378,18.92323z
			 M26.62769,18.87523c-0.048-0.048-0.072-0.15599-0.072-0.34798v-0.40798c0-0.16799-0.012-0.28799-0.036-0.37199
			c-0.036-0.072-0.084-0.14399-0.15599-0.19199c-0.048-0.036-0.12-0.072-0.19199-0.084c-0.072-0.024-0.144-0.036-0.23999-0.036
			c-0.048,0-0.096,0-0.14399,0.012c-0.048,0.012-0.12,0.012-0.17999,0.024l-0.22799,0.35999
			c0.084-0.036,0.17999-0.072,0.25199-0.09599c0.084-0.024,0.14399-0.036,0.20399-0.036c0.12,0,0.21599,0.024,0.28799,0.072
			c0.072,0.036,0.096,0.096,0.096,0.17999c0,0.048-0.024,0.096-0.072,0.132c-0.06,0.036-0.15599,0.072-0.32399,0.10799
			c-0.024,0.012-0.072,0.012-0.108,0.024c-0.23999,0.048-0.39598,0.12-0.46798,0.19199c-0.036,0.036-0.072,0.084-0.096,0.14399
			c-0.024,0.048-0.036,0.108-0.036,0.16799c0,0.14399,0.06,0.27599,0.17999,0.38398c0.12,0.096,0.25199,0.14399,0.43198,0.14399
			h0.012c0.29999,0,0.47998-0.14399,0.55198-0.20399c0.012,0.024,0.036,0.048,0.06,0.072c0.072,0.072,0.19199,0.096,0.37198,0.096
			l0.14399-0.21599C26.74768,18.94723,26.67569,18.92323,26.62769,18.87523z M26.14771,18.93523
			c-0.048,0.012-0.09599,0.024-0.13199,0.024c-0.024,0-0.048,0.012-0.072,0.012c-0.024,0-0.048,0-0.06,0
			c-0.108,0-0.20399-0.024-0.27599-0.084c-0.072-0.048-0.12-0.12-0.12-0.21599c0-0.13199,0.21599-0.26399,0.65997-0.38398
			c0.036-0.012,0.072-0.024,0.084-0.024v0.50398c0,0.048,0,0.084,0.012,0.12C26.21971,18.91123,26.18371,18.92323,26.14771,18.93523
			z"/>
		<path class="st2" d="M36.59929,15.97135c0.096,0,0.17999-0.036,0.25199-0.108c0.072-0.072,0.096-0.15599,0.096-0.26399
			c0-0.096-0.036-0.19199-0.10799-0.26399c-0.072-0.072-0.15599-0.108-0.25199-0.108s-0.19199,0.036-0.26399,0.108
			c-0.072,0.072-0.10799,0.15599-0.10799,0.26399c0,0.096,0.036,0.19199,0.10799,0.26399
			C36.40729,15.92335,36.49129,15.97135,36.59929,15.97135z M29.43558,18.82723c-0.096,0-0.20399-0.012-0.32399-0.024
			c-0.13199-0.012-0.26399-0.024-0.43198-0.048v-2.89188c0-0.20399,0.012-0.35999,0.06-0.46798
			c0.036-0.096,0.096-0.19199,0.19199-0.26399h-1.13995c0.084,0.084,0.14399,0.16799,0.19199,0.26399
			c0.036,0.096,0.06,0.25199,0.06,0.46798v2.69989c0,0.20399-0.024,0.35999-0.06,0.46798
			c-0.036,0.096-0.096,0.19199-0.19199,0.26399h2.5079l0.28799-0.81597c-0.17999,0.12-0.35999,0.20399-0.55198,0.26399
			C29.84356,18.80323,29.63957,18.82723,29.43558,18.82723z M36.89927,18.75523v-2.4359c-0.096,0.024-0.20399,0.036-0.32399,0.048
			c-0.12,0.012-0.26399,0.012-0.44398,0.024c0.072,0.072,0.132,0.144,0.15599,0.22799c0.036,0.084,0.048,0.19199,0.048,0.32399
			v1.81193c0,0.132-0.012,0.23999-0.048,0.32399c-0.036,0.084-0.084,0.15599-0.15599,0.21599h0.97196
			c-0.072-0.072-0.132-0.14399-0.15599-0.21599C36.91127,18.98322,36.89927,18.88723,36.89927,18.75523z M40.34313,18.75523
			v-1.36794c0-0.31199-0.096-0.57598-0.29999-0.76797c-0.20399-0.19199-0.46798-0.29999-0.79197-0.29999
			c-0.16799,0-0.32399,0.036-0.47998,0.12c-0.14399,0.072-0.29999,0.19199-0.45598,0.34798l-0.024-0.46798
			c-0.132,0.024-0.23999,0.036-0.34798,0.048c-0.10799,0.012-0.21599,0.024-0.31199,0.024h-0.072
			c0.072,0.072,0.12,0.144,0.15599,0.22799s0.048,0.19199,0.048,0.32399v1.81193c0,0.132-0.012,0.23999-0.048,0.32399
			c-0.024,0.084-0.084,0.15599-0.15599,0.21599h0.97196c-0.072-0.072-0.132-0.14399-0.15599-0.21599
			c-0.024-0.084-0.048-0.19199-0.048-0.32399v-1.09196c0-0.31199,0.06-0.52798,0.16799-0.65997
			c0.12-0.132,0.29999-0.20399,0.56398-0.20399c0.25199,0,0.43198,0.072,0.53998,0.21599
			c0.12,0.14399,0.16799,0.38398,0.16799,0.69597v1.04396c0,0.132-0.012,0.23999-0.048,0.32399
			c-0.036,0.084-0.084,0.15599-0.15599,0.21599h0.98396c-0.072-0.072-0.132-0.14399-0.15599-0.21599
			C40.36713,18.98322,40.34313,18.88723,40.34313,18.75523z M44.07498,17.2313c-0.084-0.19199-0.19199-0.35999-0.33599-0.50398
			c-0.14399-0.14399-0.31199-0.26399-0.50398-0.33599c-0.17999-0.072-0.39598-0.10799-0.62397-0.10799h-0.036
			c-0.20399,0.012-0.40798,0.048-0.59998,0.12c-0.20399,0.084-0.38398,0.19199-0.52798,0.33599
			c-0.15599,0.15599-0.28799,0.32399-0.35999,0.51598c-0.084,0.19199-0.132,0.40798-0.132,0.62397
			c0,0.19199,0.036,0.39598,0.12,0.57598s0.19199,0.34799,0.33599,0.49198c0.15599,0.14399,0.31199,0.26399,0.50398,0.33599
			c0.17999,0.072,0.39598,0.10799,0.62397,0.10799c0.012,0,0.024,0,0.036-0.012c0.20399,0,0.40799-0.036,0.59998-0.12
			c0.20399-0.084,0.38398-0.19199,0.52798-0.32399c0.15599-0.15599,0.28799-0.32399,0.35998-0.51598
			c0.084-0.19199,0.12-0.40798,0.12-0.62398C44.18297,17.60328,44.14698,17.41129,44.07498,17.2313z M43.28301,18.67124
			c-0.17999,0.20399-0.40799,0.29999-0.68398,0.29999h-0.024c-0.28799-0.012-0.51598-0.12-0.69597-0.33599
			c-0.19199-0.22799-0.27599-0.52798-0.27599-0.88796c0-0.29999,0.084-0.53998,0.26399-0.74397s0.40798-0.29999,0.68397-0.29999
			h0.024c0.28799,0.012,0.51598,0.10799,0.69597,0.32399c0.19199,0.21599,0.28799,0.50398,0.28799,0.85197
			C43.559,18.21526,43.46301,18.46725,43.28301,18.67124z M34.83536,15.44337h-0.17999
			c-0.012,0.34799-0.084,0.61198-0.21599,0.81597s-0.32399,0.31199-0.55198,0.32399v0.21599h0.38398v1.70393
			c0,0.28799,0.072,0.51598,0.21599,0.64797c0.14399,0.14399,0.37199,0.21599,0.65997,0.21599c0.036,0,0.096-0.012,0.17999-0.012
			c0.012,0,0.012,0,0.012,0l0.29999-0.41998c-0.048,0.012-0.096,0.024-0.14399,0.024c-0.048,0.012-0.084,0.012-0.132,0.012
			c-0.17999,0-0.31199-0.06-0.40798-0.17999c-0.084-0.12-0.132-0.31199-0.132-0.57598v-1.41594h0.41998
			c0.10799,0,0.20399,0.012,0.26399,0.036c0.072,0.012,0.132,0.048,0.17999,0.084v-0.53998h-0.86396L34.83536,15.44337
			L34.83536,15.44337z M33.16742,18.19126v-0.68397c0-0.27599-0.024-0.47998-0.072-0.62397
			c-0.06-0.12-0.132-0.23999-0.26399-0.32399c-0.096-0.072-0.20399-0.108-0.32399-0.14399c-0.10799-0.036-0.25199-0.06-0.39598-0.06
			c-0.084,0-0.15599,0-0.25199,0.012c-0.096,0.012-0.19199,0.024-0.28799,0.036l-0.38398,0.61197
			c0.14399-0.072,0.28799-0.11999,0.41998-0.15599c0.132-0.048,0.25199-0.06,0.34798-0.06c0.20399,0,0.35999,0.036,0.47998,0.10799
			c0.10799,0.072,0.16799,0.16799,0.16799,0.29999c0,0.096-0.048,0.16799-0.12,0.22799
			c-0.09599,0.06-0.27599,0.10799-0.53998,0.17999c-0.048,0.012-0.108,0.024-0.19199,0.036
			c-0.40798,0.096-0.67197,0.20399-0.79197,0.32399c-0.072,0.072-0.12,0.144-0.15599,0.23999
			c-0.036,0.096-0.06,0.17999-0.06,0.28799c0,0.25199,0.096,0.46798,0.28799,0.64797
			c0.19199,0.15599,0.43198,0.23999,0.71997,0.23999c0.012,0,0.024,0,0.024,0c0.50398,0.012,0.80396-0.22799,0.91196-0.34798
			c0.024,0.048,0.06,0.084,0.10799,0.10799c0.12,0.108,0.32399,0.15599,0.62397,0.15599l0.25199-0.37199
			c-0.20399-0.012-0.33599-0.06-0.40798-0.13199C33.20342,18.70724,33.16742,18.51524,33.16742,18.19126z M32.47145,18.89923
			c-0.084,0.024-0.16799,0.036-0.22799,0.048c-0.048,0.012-0.084,0.012-0.12,0.012c-0.048,0-0.084,0-0.096,0
			c-0.19199,0-0.34798-0.048-0.45598-0.144c-0.12-0.09599-0.19199-0.20399-0.19199-0.35999
			c0-0.22799,0.37198-0.44398,1.10395-0.64797c0.072-0.024,0.108-0.036,0.144-0.036v0.85197c0,0.072,0,0.13199,0.012,0.19199
			C32.59145,18.85123,32.53145,18.87523,32.47145,18.89923z"/>
	</g>
	<g>
		<path class="st3" d="M32.43546,4.8598v0.024c-0.096,0.012-0.17999,0.036-0.26399,0.072s-0.15599,0.084-0.22799,0.15599
			c0.09599,0.084,0.15599,0.17999,0.20399,0.27599c0.048,0.096,0.06,0.21599,0.06,0.33599c0,0.14399-0.036,0.28799-0.108,0.43198
			c-0.07199,0.14399-0.15599,0.26399-0.27599,0.34799c-0.108,0.096-0.23999,0.15599-0.39598,0.20399
			c-0.15599,0.048-0.32399,0.072-0.51598,0.072c-0.072,0-0.15599,0-0.22799-0.012c-0.072-0.012-0.15599-0.012-0.22799-0.024
			c-0.048,0.012-0.084,0.024-0.132,0.024c-0.036,0.012-0.084,0.012-0.12,0.012c-0.084,0-0.14399-0.012-0.19199-0.024
			c-0.048-0.012-0.06-0.036-0.06-0.06c0-0.012,0.012-0.024,0.024-0.036c0.012-0.012,0.036-0.012,0.06-0.012
			c0.036,0,0.10799,0.012,0.19199,0.024c0.09599,0.024,0.16799,0.024,0.21599,0.036c0.096-0.012,0.19199-0.072,0.27599-0.15599
			c0.084-0.084,0.17999-0.20399,0.26399-0.35999c0.024-0.048,0.084-0.15599,0.17999-0.34799
			c0.096-0.17999,0.17999-0.32399,0.26399-0.43198c0.06-0.072,0.10799-0.14399,0.17999-0.19199
			c0.06-0.06,0.132-0.108,0.19199-0.15599c-0.072-0.06-0.15599-0.096-0.25199-0.13199s-0.19199-0.048-0.29999-0.048
			c-0.12,0-0.23999,0.024-0.34798,0.06c-0.12,0.048-0.21599,0.096-0.31199,0.17999c-0.108,0.084-0.17999,0.19199-0.23999,0.31199
			s-0.084,0.25199-0.084,0.38398c0,0.12,0.024,0.21599,0.084,0.28799c0.06,0.072,0.13199,0.108,0.21599,0.108
			c0.144,0,0.25199-0.072,0.33599-0.20399c0.084-0.13199,0.13199-0.31199,0.13199-0.53998h0.012v0.084
			c0,0.072-0.012,0.15599-0.036,0.25199c-0.024,0.084-0.06,0.16799-0.096,0.22799c-0.06,0.084-0.12,0.15599-0.20399,0.20399
			c-0.084,0.048-0.16799,0.072-0.26399,0.072c-0.12,0-0.21599-0.036-0.29999-0.12c-0.072-0.084-0.108-0.19199-0.108-0.31199
			s0.036-0.23999,0.096-0.35999s0.14399-0.22799,0.26399-0.32399s0.25199-0.17999,0.39598-0.22799
			c0.14399-0.06,0.29999-0.084,0.45598-0.084c0.096,0,0.19199,0.012,0.28799,0.036c0.096,0.024,0.19199,0.072,0.28799,0.12
			c0.096-0.06,0.20399-0.108,0.28799-0.13199C32.25546,4.8958,32.33946,4.8718,32.43546,4.8598z M31.89548,5.15979
			c-0.09599,0.096-0.22799,0.28799-0.35999,0.55198c-0.072,0.14399-0.13199,0.25199-0.17999,0.32399
			c-0.13199,0.21599-0.26399,0.37198-0.38398,0.47998c-0.13199,0.108-0.28799,0.17999-0.46798,0.21599
			c0.048,0.012,0.108,0.024,0.16799,0.024s0.12,0.012,0.19199,0.012c0.17999,0,0.33599-0.036,0.46798-0.096
			c0.132-0.06,0.25199-0.15599,0.35999-0.28799c0.096-0.12,0.16799-0.25199,0.22799-0.39598s0.084-0.29999,0.084-0.44398
			c0-0.084-0.012-0.15599-0.024-0.22799C31.95547,5.26779,31.93147,5.20779,31.89548,5.15979z"/>
		<path class="st3" d="M33.50341,6.08375c-0.16799,0.22799-0.33599,0.40798-0.51598,0.52798
			c-0.17999,0.12-0.34798,0.19199-0.50398,0.19199c-0.084,0-0.16799-0.024-0.21599-0.084c-0.06-0.06-0.084-0.13199-0.084-0.21599
			s0.024-0.17999,0.072-0.26399c0.048-0.084,0.12-0.16799,0.20399-0.23999c0.072-0.06,0.15599-0.108,0.23999-0.13199
			c0.084-0.036,0.16799-0.048,0.23999-0.048s0.132,0.012,0.16799,0.048c0.048,0.024,0.06,0.072,0.06,0.12
			c0,0.084-0.06,0.15599-0.17999,0.21599s-0.29999,0.13199-0.56398,0.17999c0,0,0,0.012,0,0.024c0,0.024,0,0.036,0,0.048
			c0,0.084,0.024,0.14399,0.06,0.19199c0.048,0.048,0.096,0.072,0.17999,0.072c0.10799,0,0.23999-0.06,0.38398-0.16799
			c0.14399-0.108,0.29999-0.26399,0.44398-0.46798L33.50341,6.08375z M32.43546,6.34774
			c0.15599-0.036,0.27599-0.108,0.38398-0.19199c0.096-0.084,0.14399-0.16799,0.14399-0.25199c0-0.024,0-0.048-0.024-0.048
			c-0.012-0.012-0.036-0.024-0.048-0.024c-0.072,0-0.15599,0.048-0.25199,0.14399
			C32.54345,6.08375,32.47145,6.21575,32.43546,6.34774z"/>
		<path class="st3" d="M33.29942,6.50373c-0.012,0.012-0.024,0.024-0.036,0.036c-0.012,0.012-0.012,0.036-0.012,0.06
			c0,0.048,0.012,0.096,0.048,0.13199c0.036,0.036,0.084,0.048,0.14399,0.048c0.072,0,0.132-0.024,0.17999-0.072
			c0.048-0.048,0.072-0.096,0.072-0.16799c0-0.036-0.012-0.06-0.024-0.096c-0.012-0.036-0.036-0.072-0.072-0.12l-0.012-0.012
			c-0.07199-0.096-0.10799-0.16799-0.10799-0.22799c0-0.084,0.036-0.14399,0.10799-0.20399c0.072-0.06,0.15599-0.084,0.26399-0.084
			c0.084,0,0.15599,0.024,0.20399,0.06c0.048,0.036,0.084,0.084,0.084,0.14399c0,0.048-0.012,0.084-0.048,0.12
			c-0.036,0.036-0.084,0.048-0.132,0.048c-0.012,0-0.024,0-0.036,0s-0.024-0.012-0.036-0.012c0.024-0.036,0.036-0.06,0.048-0.096
			c0.012-0.024,0.012-0.06,0.012-0.084c0-0.048-0.012-0.084-0.036-0.108s-0.06-0.048-0.096-0.048s-0.072,0.012-0.096,0.048
			c-0.024,0.036-0.036,0.072-0.036,0.12c0,0.036,0,0.06,0.012,0.096s0.036,0.072,0.072,0.12c0,0,0.012,0.012,0.024,0.024
			c0.072,0.096,0.10799,0.17999,0.10799,0.23999s-0.024,0.12-0.06,0.16799c-0.036,0.048-0.096,0.084-0.15599,0.096v0.012
			c0.144-0.024,0.27599-0.096,0.41998-0.21599c0.144-0.12,0.27599-0.27599,0.40799-0.49198l0.012,0.012
			c-0.15599,0.23999-0.31199,0.43198-0.47998,0.55198c-0.16799,0.12-0.34798,0.17999-0.52798,0.17999
			c-0.12,0-0.21599-0.024-0.27599-0.072c-0.06-0.048-0.096-0.12-0.096-0.20399c0-0.06,0.024-0.12,0.06-0.15599
			c0.036-0.048,0.084-0.06,0.132-0.06c0.036,0,0.06,0.012,0.084,0.036s0.036,0.048,0.036,0.084s-0.012,0.06-0.024,0.072
			c-0.012,0.012-0.036,0.036-0.072,0.036C33.33542,6.51573,33.32342,6.51573,33.29942,6.50373L33.29942,6.50373z"/>
		<path class="st3" d="M34.93135,6.55173c-0.06,0.072-0.132,0.13199-0.20399,0.17999c-0.07199,0.048-0.14399,0.06-0.20399,0.06
			c-0.072,0-0.12-0.024-0.15599-0.072s-0.06-0.108-0.06-0.17999c0-0.096,0.024-0.17999,0.06-0.26399
			c0.036-0.084,0.096-0.15599,0.16799-0.22799c0.072-0.072,0.15599-0.13199,0.25199-0.16799c0.084-0.036,0.17999-0.06,0.26399-0.06
			c0.06,0,0.10799,0.012,0.14399,0.048s0.06,0.072,0.06,0.12l0.61198-1.01996l0.27599-0.012l-0.86396,1.36794
			c-0.06,0.096-0.096,0.16799-0.12,0.21599c-0.024,0.06-0.036,0.096-0.036,0.13199c0,0.024,0.012,0.036,0.024,0.048
			c0.012,0.012,0.024,0.024,0.048,0.024c0.06,0,0.16799-0.06,0.31199-0.19199c0.14399-0.13199,0.27599-0.28799,0.41998-0.49198
			l0.012,0.012c-0.15599,0.22799-0.31199,0.40798-0.45598,0.52798s-0.26399,0.17999-0.37199,0.17999
			c-0.06,0-0.096-0.012-0.132-0.036s-0.048-0.072-0.048-0.12c0-0.012,0-0.024,0-0.036
			C34.93135,6.57573,34.93135,6.56373,34.93135,6.55173z M34.67936,6.69573c0.036,0,0.084-0.024,0.14399-0.06
			c0.06-0.048,0.10799-0.096,0.15599-0.16799c0.06-0.084,0.10799-0.16799,0.14399-0.25199c0.036-0.096,0.048-0.16799,0.048-0.22799
			c0-0.048-0.012-0.084-0.036-0.108c-0.024-0.024-0.048-0.036-0.084-0.036c-0.048,0-0.084,0.012-0.132,0.048
			c-0.048,0.036-0.096,0.072-0.14399,0.13199c-0.072,0.084-0.132,0.17999-0.16799,0.26399c-0.036,0.096-0.06,0.16799-0.06,0.23999
			c0,0.048,0.012,0.096,0.036,0.13199C34.60736,6.68373,34.63136,6.69573,34.67936,6.69573z"/>
		<path class="st3" d="M37.03127,6.08375c-0.16799,0.22799-0.33599,0.40798-0.51598,0.52798
			c-0.17999,0.12-0.34798,0.19199-0.50398,0.19199c-0.084,0-0.16799-0.024-0.21599-0.084c-0.06-0.06-0.084-0.13199-0.084-0.21599
			s0.024-0.17999,0.072-0.26399c0.048-0.084,0.12-0.16799,0.20399-0.23999c0.072-0.06,0.15599-0.108,0.23999-0.13199
			c0.084-0.036,0.16799-0.048,0.23999-0.048s0.132,0.012,0.16799,0.048c0.048,0.024,0.06,0.072,0.06,0.12
			c0,0.084-0.06,0.15599-0.17999,0.21599s-0.29999,0.13199-0.56398,0.17999c0,0,0,0.012,0,0.024c0,0.024,0,0.036,0,0.048
			c0,0.084,0.024,0.14399,0.06,0.19199c0.048,0.048,0.096,0.072,0.17999,0.072c0.10799,0,0.23999-0.06,0.38398-0.16799
			c0.14399-0.108,0.29999-0.26399,0.44398-0.46798L37.03127,6.08375z M35.96331,6.34774
			c0.15599-0.036,0.27599-0.108,0.38398-0.19199c0.096-0.084,0.14399-0.16799,0.14399-0.25199c0-0.024,0-0.048-0.024-0.048
			c-0.012-0.012-0.036-0.024-0.048-0.024c-0.072,0-0.15599,0.048-0.25199,0.14399
			C36.0713,6.08375,35.99931,6.21575,35.96331,6.34774z"/>
		<path class="st3" d="M37.90723,6.76772l0.62397-1.00796c0-0.012,0.024-0.048,0.072-0.096l0.024-0.024
			c-0.096,0.048-0.19199,0.096-0.31199,0.14399c-0.12,0.048-0.23999,0.084-0.35999,0.12l-0.012-0.036
			c0.19199-0.048,0.37199-0.108,0.55198-0.19199c0.17999-0.084,0.34798-0.19199,0.51598-0.31199l0.024,0.024l-0.81597,1.35594
			l0.23999-0.024l-0.012,0.024c-0.06,0-0.13199,0.012-0.20399,0.012C38.15922,6.75572,38.05122,6.75572,37.90723,6.76772z"/>
		<path class="st3" d="M38.36321,6.83972c0.024,0.14399,0.07199,0.26399,0.14399,0.34799
			c0.072,0.084,0.16799,0.11999,0.28799,0.11999c0.19199,0,0.39598-0.096,0.62397-0.28799
			c0.21599-0.19199,0.43198-0.46798,0.63597-0.81597l-0.012-0.012c-0.06,0.084-0.132,0.15599-0.20399,0.20399
			c-0.072,0.048-0.14399,0.072-0.22799,0.072c-0.096,0-0.16799-0.024-0.21599-0.084c-0.06-0.06-0.084-0.13199-0.084-0.22799
			c0-0.108,0.024-0.20399,0.084-0.31199c0.048-0.108,0.132-0.20399,0.22799-0.28799c0.072-0.06,0.14399-0.108,0.21599-0.14399
			s0.14399-0.048,0.21599-0.048c0.10799,0,0.17999,0.036,0.23999,0.108c0.06,0.072,0.084,0.16799,0.084,0.28799
			c0,0.084-0.012,0.17999-0.048,0.26399c-0.024,0.096-0.072,0.19199-0.132,0.28799c-0.072,0.13199-0.15599,0.23999-0.25199,0.34799
			c-0.096,0.108-0.20399,0.20399-0.31199,0.29999c-0.15599,0.108-0.31199,0.20399-0.47998,0.26399
			c-0.168,0.06-0.32399,0.096-0.46798,0.096s-0.25199-0.024-0.34798-0.084c-0.084-0.06-0.132-0.13199-0.132-0.22799
			c0-0.048,0.012-0.084,0.036-0.12C38.27922,6.87572,38.31521,6.85172,38.36321,6.83972z M40.00714,5.39978
			c-0.036,0-0.084,0.012-0.12,0.036c-0.048,0.024-0.084,0.06-0.12,0.096c-0.072,0.084-0.132,0.17999-0.16799,0.29999
			c-0.048,0.12-0.072,0.22799-0.072,0.32399c0,0.084,0.012,0.14399,0.048,0.19199c0.036,0.048,0.072,0.072,0.132,0.072
			c0.036,0,0.084-0.012,0.12-0.036s0.084-0.06,0.12-0.108c0.072-0.084,0.132-0.17999,0.17999-0.28799
			c0.036-0.108,0.06-0.21599,0.06-0.33599c0-0.072-0.012-0.13199-0.048-0.17999C40.10314,5.42378,40.05514,5.39978,40.00714,5.39978
			z"/>
		<path class="st3" d="M40.54712,6.40774c0-0.13199,0.036-0.25199,0.10799-0.38398c0.072-0.13199,0.16799-0.25199,0.29999-0.37198
			c0.10799-0.096,0.20399-0.16799,0.31199-0.21599c0.10799-0.048,0.20399-0.072,0.31199-0.072c0.108,0,0.19199,0.036,0.25199,0.096
			s0.096,0.14399,0.096,0.25199c0,0.14399-0.036,0.27599-0.10799,0.41998c-0.072,0.13199-0.17999,0.26399-0.32399,0.38398
			c-0.096,0.084-0.20399,0.15599-0.31199,0.20399c-0.10799,0.048-0.20399,0.072-0.27599,0.072
			c-0.10799,0-0.19199-0.036-0.25199-0.096C40.57112,6.62373,40.54712,6.52773,40.54712,6.40774z M41.44709,5.41178
			c-0.072,0-0.14399,0.036-0.22799,0.096c-0.084,0.06-0.15599,0.14399-0.22799,0.25199c-0.06,0.096-0.10799,0.20399-0.14399,0.31199
			s-0.048,0.21599-0.048,0.31199c0,0.108,0.024,0.19199,0.06,0.25199s0.096,0.084,0.17999,0.084
			c0.072,0,0.14399-0.024,0.21599-0.072c0.072-0.048,0.14399-0.12,0.20399-0.21599c0.06-0.096,0.12-0.20399,0.15599-0.33599
			c0.036-0.12,0.06-0.23999,0.06-0.34799s-0.024-0.19199-0.06-0.25199C41.57908,5.43578,41.51908,5.41178,41.44709,5.41178z"/>
		<path class="st3" d="M42.49104,5.93976c0.072-0.084,0.132-0.14399,0.20399-0.17999c0.072-0.036,0.14399-0.06,0.21599-0.06
			c0.084,0,0.15599,0.024,0.21599,0.084c0.048,0.06,0.084,0.14399,0.084,0.23999s-0.024,0.19199-0.072,0.28799
			c-0.048,0.096-0.12,0.17999-0.20399,0.26399c-0.072,0.072-0.15599,0.12-0.23999,0.15599c-0.084,0.036-0.15599,0.06-0.22799,0.06
			c-0.096,0-0.17999-0.036-0.22799-0.096c-0.048-0.06-0.084-0.15599-0.084-0.27599c0-0.19199,0.048-0.37198,0.15599-0.56398
			c0.10799-0.19199,0.25199-0.35998,0.45598-0.51598c0.14399-0.108,0.28799-0.20399,0.45598-0.26399
			c0.16799-0.072,0.31199-0.096,0.45598-0.096c0.10799,0,0.20399,0.024,0.26399,0.072c0.06,0.048,0.096,0.108,0.096,0.17999
			c0,0.048-0.012,0.096-0.048,0.13199c-0.036,0.036-0.072,0.06-0.132,0.072v-0.012c0.012-0.048,0.012-0.084,0.012-0.108
			c0-0.084-0.024-0.15599-0.084-0.21599s-0.132-0.084-0.22799-0.084c-0.15599,0-0.32399,0.084-0.51598,0.25199
			C42.83903,5.41178,42.65903,5.65177,42.49104,5.93976L42.49104,5.93976z M42.80303,5.75976c-0.036,0-0.084,0.012-0.12,0.036
			c-0.048,0.024-0.084,0.06-0.132,0.12c-0.072,0.072-0.132,0.16799-0.16799,0.27599c-0.036,0.108-0.06,0.21599-0.06,0.32399
			c0,0.084,0.012,0.14399,0.048,0.19199s0.072,0.072,0.132,0.072c0.036,0,0.084-0.012,0.12-0.036c0.036-0.024,0.084-0.06,0.12-0.096
			c0.07199-0.072,0.13199-0.16799,0.16799-0.28799c0.036-0.12,0.06-0.22799,0.06-0.33599c0-0.084-0.012-0.14399-0.048-0.19199
			C42.89902,5.77176,42.86303,5.75976,42.80303,5.75976z"/>
	</g>
</g>
</svg>
