<?xml version="1.0" encoding="iso-8859-1"?>
<!-- Generator: Adobe Illustrator 17.0.0, SVG Export Plug-In . SVG Version: 6.00 Build 0)  -->
<!DOCTYPE svg PUBLIC "-//W3C//DTD SVG 1.1//EN" "http://www.w3.org/Graphics/SVG/1.1/DTD/svg11.dtd" [
	<!ENTITY st0 "fill:#82027E;">
	<!ENTITY st1 "fill:#009193;">
]>
<svg version="1.1" xmlns="http://www.w3.org/2000/svg" xmlns:xlink="http://www.w3.org/1999/xlink" x="0px" y="0px"
	 width="945.68945px" height="288.80801px" viewBox="0 0 945.68945 288.80801"
	 style="enable-background:new 0 0 945.68945 288.80801;" xml:space="preserve">
<g id="Logo">
	<g>
		<g>
			<path style="&st0;" d="M227.10995,191.02216c-6.55653,1.33337-10.62146,4.9294-30.65552,10.97464
				c-19.39984,4.92941-52.76723,3.5538-79.46369-8.05927c-20.64137-8.59052-51.82798-21.92949-51.82798-21.92949l-21.88711-9.76001
				l-4.50288,14.33911c0,0,34.35901,13.02266,61.9072,31.2543c12.48303,8.26003,47.03136,29.96344,47.03136,29.96344
				s16.42661,11.96626,23.90401,11.92099c6.50706-0.11296,11.96901-7.01691,20.64413-15.30513
				c10.59903-9.47176,15.4437-14.77692,26.98181-24.25157c7.68512-6.85881,11.60036-10.43227,12.52411-12.0905
				C233.99147,194.08159,230.8671,190.27367,227.10995,191.02216"/>
			<path style="&st0;" d="M136.77907,162.62654c-18.72469,0.00563-48.52715-8.47177-48.52715-63.16061
				c-0.01273-34.88156,13.64126-62.36266,48.50025-63.19661c38.88866,0.79722,48.53282,27.10736,48.54973,63.17405
				C186.13527,135.04593,173.67191,163.42043,136.77907,162.62654 M229.9857,99.6191
				c0.02835-35.03473-23.74579-77.52792-93.0753-78.3344c-61.19662,1.65822-93.02164,35.12946-92.99489,78.40223
				c1.65403,61.75882,57.17118,78.32962,93.0753,78.32109C195.82167,177.98546,231.58463,143.81998,229.9857,99.6191"/>
			<rect x="0" y="279.84753" style="&st0;" width="8.94501" height="8.95209"/>
			<rect x="21.85746" y="279.84753" style="&st0;" width="8.94081" height="8.95209"/>
			<rect x="43.71925" y="279.84753" style="&st0;" width="8.9505" height="8.95209"/>
			<rect x="65.58943" y="279.84753" style="&st0;" width="8.94067" height="8.95209"/>
			<rect x="87.44689" y="279.84753" style="&st0;" width="8.94487" height="8.95209"/>
			<rect x="109.30998" y="279.84753" style="&st0;" width="8.94067" height="8.95209"/>
			<rect x="131.17162" y="279.84753" style="&st0;" width="8.94356" height="8.95209"/>
			<rect x="153.03328" y="279.84753" style="&st0;" width="8.9492" height="8.95209"/>
			<rect x="174.89507" y="279.84753" style="&st0;" width="8.93503" height="8.95209"/>
			<rect x="196.75673" y="279.84753" style="&st0;" width="8.94081" height="8.95209"/>
			<rect x="218.61273" y="279.84753" style="&st0;" width="8.95484" height="8.95209"/>
			<rect x="240.48293" y="279.84753" style="&st0;" width="8.93791" height="8.95209"/>
			<rect x="262.32202" y="279.86734" style="&st0;" width="8.95065" height="8.94067"/>
			<path style="&st0;" d="M0,271.32211h271.30939V0H0V271.32211z M262.39548,262.40677H8.91955V8.92302h253.47592V262.40677z"/>
		</g>
		<g>
			<path style="&st1;" d="M937.71265,272.77411c-1.00842,0-1.97455,0.25699-2.91528,0.77682
				c-0.9787,0.51416-1.73022,1.25699-2.24573,2.21463c-0.53668,0.94922-0.80225,1.95486-0.80225,2.98593
				c0,1.02545,0.2627,2.01419,0.79102,2.95486c0.52673,0.94635,1.25696,1.68353,2.21881,2.21463
				c0.93378,0.51984,1.9281,0.78537,2.95905,0.77121c1.02271,0.00562,2.01416-0.24863,2.9718-0.77121
				c0.96619-0.53671,1.69781-1.26828,2.23169-2.2175c0.50562-0.94635,0.77972-1.93216,0.77972-2.9689
				c-0.01416-1.01981-0.28119-2.02545-0.81647-2.97467c-0.51984-0.95764-1.27539-1.70337-2.23169-2.22028
				C939.68439,273.0311,938.71698,272.78247,937.71265,272.77411 M937.71265,271.57913c1.21478,0,2.38428,0.30502,3.54669,0.92377
				c1.12854,0.61859,2.0296,1.50275,2.67657,2.63553c0.63696,1.15259,0.96039,2.36734,0.96039,3.60455
				c0,1.24588-0.31635,2.41248-0.9209,3.55655c-0.66095,1.14694-1.54236,2.02542-2.6864,2.66675
				c-1.13281,0.62424-2.31921,0.94067-3.56219,0.94342c-1.24011-0.00562-2.43506-0.31628-3.57349-0.94632
				c-1.13696-0.62424-2.03381-1.51691-2.66095-2.64694c-0.6413-1.14679-0.94635-2.32758-0.9563-3.57346
				c-0.00708-1.23721,0.315-2.43781,0.9563-3.60455c0.65808-1.13278,1.54803-2.01694,2.70044-2.63278
				C935.3327,271.8927,936.51636,271.57913,937.71265,271.57913"/>
			<path style="&st1;" d="M935.78046,278.36737l1.53674,0.00839c0.72607,0,1.21753-0.11862,1.47455-0.33051
				c0.27972-0.20898,0.40393-0.50565,0.40393-0.85028c0-0.23157-0.04797-0.43219-0.17224-0.61023
				c-0.12714-0.18079-0.31647-0.31357-0.55365-0.40961c-0.22046-0.07895-0.64276-0.12714-1.25989-0.12988h-1.42944V278.36737z
				 M934.56586,282.69785l-0.01276-7.6864l2.63983,0.01691c0.90967,0,1.57477,0.05078,1.96893,0.19772
				c0.39832,0.14694,0.72589,0.39267,0.97455,0.75137c0.23877,0.34753,0.3559,0.7204,0.3559,1.12149
				c0,0.55365-0.19495,1.048-0.59875,1.47177c-0.40826,0.41525-0.93793,0.64694-1.61163,0.69772
				c0.28387,0.11859,0.49579,0.24863,0.66534,0.41525c0.3092,0.29663,0.6933,0.80228,1.13544,1.50287l0.95056,1.51416
				l-1.53107-0.00287l-0.69067-1.21188c-0.53943-0.9491-0.96887-1.53949-1.29803-1.77972
				c-0.22595-0.18918-0.56073-0.26541-0.99152-0.26831h-0.74152v3.25717L934.56586,282.69785z"/>
		</g>
		<g>
			<path style="&st1;" d="M330.78574,263.89273v5.38138c-3.58908,1.95761-7.73312,2.93781-12.43082,2.93781
				c-3.8179,0-7.05524-0.76831-9.71344-2.29941c-2.66098-1.53397-4.76553-3.64691-6.31644-6.33914
				c-1.54803-2.69205-2.32339-5.60455-2.32339-8.73441c0-4.97742,1.77536-9.16109,5.32352-12.55376
				c3.548-3.39267,7.92374-5.09038,13.12708-5.09038c3.58908,0,7.57779,0.93781,11.96628,2.81355v5.26279
				c-3.99722-2.28535-7.90408-3.42667-11.7204-3.42667c-3.91537,0-7.16672,1.23445-9.75146,3.70624
				c-2.58621,2.47179-3.87863,5.56781-3.87863,9.28822c0,3.75134,1.27261,6.83334,3.81644,9.2486
				c2.54526,2.41522,5.7995,3.62146,9.76279,3.62146C322.79126,267.70901,326.83795,266.43784,330.78574,263.89273z"/>
			<path style="&st1;" d="M357.7392,237.1468c5.28116,0,9.67947,1.67226,13.19363,5.01416
				c3.5127,3.34465,5.26971,7.5367,5.26971,12.57906c0,5.03961-1.77249,9.21201-5.32065,12.51703
				c-3.54233,3.30228-8.01556,4.95486-13.41098,4.95486c-5.15259,0-9.44501-1.65259-12.87585-4.95486
				c-3.43073-3.30502-5.14694-7.44357-5.14694-12.41809c0-5.10745,1.72751-9.33334,5.18369-12.67799
				C348.0881,238.81906,352.45679,237.1468,357.7392,237.1468z M357.93561,241.79373c-3.91245,0-7.12723,1.22592-9.6456,3.67224
				c-2.51691,2.44633-3.77826,5.57071-3.77826,9.37299c0,3.68643,1.2641,6.7515,3.79099,9.20056
				c2.52545,2.44635,5.68787,3.66949,9.48593,3.66949c3.81357,0,6.99579-1.2486,9.54669-3.74295
				c2.5509-2.4971,3.82626-5.60455,3.82626-9.32483c0-3.62148-1.27536-6.66673-3.82626-9.13852
				S361.65024,241.79373,357.93561,241.79373z"/>
			<path style="&st1;" d="M413.56863,237.63551h4.57635v34.1837h-4.91959v-26.59897l-10.50992,13.21472h-0.90396l-10.6329-13.21472
				v26.59897h-4.89542v-34.1837h4.63278l11.36023,14.03958L413.56863,237.63551z"/>
			<path style="&st1;" d="M429.3992,271.81921v-34.23172h10.84042c3.26279,0,5.86447,0.87851,7.80661,2.64116
				c1.94067,1.7628,2.91248,4.12712,2.91248,7.09616c0,1.99146-0.49869,3.75136-1.49304,5.28534
				c-0.99567,1.53384-2.35724,2.64679-4.08618,3.34175c-1.73013,0.69208-4.20898,1.03964-7.43924,1.03964h-3.62149v14.82767
				H429.3992z M439.3837,241.94054h-5.06494v10.69493h5.35739c1.99146,0,3.52542-0.4689,4.60165-1.40671
				c1.07635-0.93781,1.61438-2.27971,1.61438-4.02544C445.89218,243.69479,443.72269,241.94054,439.3837,241.94054z"/>
			<path style="&st1;" d="M466.27802,237.44055h3.43777l15.32785,34.37866h-5.00705l-4.55801-10.12997h-14.58484l-4.27118,10.12997
				h-5.02832L466.27802,237.44055z M473.4686,257.33331l-5.51544-12.3815l-5.11584,12.3815H473.4686z"/>
			<path style="&st1;" d="M520.11163,237.63551h4.64819v34.1837h-4.21039l-22.85327-26.32777v26.32777h-4.60165v-34.1837h3.96613
				l23.05099,26.55095V237.63551z M516.70898,228.33601c-0.0155,1.97453-0.47308,3.51691-1.37,4.62422
				c-0.68512,0.86447-1.54108,1.29665-2.56927,1.29665c-0.89832,0-2.10455-0.32484-3.62146-0.97743
				c-1.51691-0.65245-2.65964-0.98018-3.4252-0.98018c-0.42508,0-0.79233,0.16386-1.10312,0.49146
				c-0.3107,0.325-0.49567,0.81647-0.56076,1.46616h-2.0564c0.2612-2.29939,0.73444-3.83612,1.41943-4.6102
				c0.685-0.77682,1.54947-1.16386,2.59329-1.16386c0.94632,0,2.48871,0.43231,4.62564,1.29665
				c1.09189,0.44069,1.87576,0.66096,2.34885,0.66096c0.4549,0,0.84467-0.15808,1.1626-0.47728
				c0.31775-0.31647,0.53387-0.85884,0.64825-1.62714H516.70898z"/>
			<path style="&st1;" d="M536.2854,237.63551h4.8941v34.1837h-4.8941V237.63551z M545.58344,227.77382l-5.52826,7.34189h-2.74304
				l3.30377-7.34189H545.58344z"/>
			<path style="&st1;" d="M563.83923,237.44055h3.43927l15.32782,34.37866h-5.00848l-4.55658-10.12997h-14.58484l-4.27118,10.12997
				h-5.02972L563.83923,237.44055z M571.02991,257.33331l-5.51697-12.3815l-5.11438,12.3815H571.02991z"/>
			<path style="&st1;" d="M608.64313,271.77121v-34.1357h11.52551c4.64825,0,8.32776,0.69772,11.03528,2.09039
				c2.7077,1.39543,4.86029,3.44908,6.46051,6.15532c1.59888,2.70912,2.39832,5.6611,2.39832,8.8588
				c0,2.28262-0.44055,4.46902-1.32343,6.55655c-0.87848,2.09036-2.13568,3.92374-3.76697,5.50574
				c-1.66388,1.63278-3.59747,2.86435-5.80084,3.69498c-1.2868,0.50836-2.47034,0.84451-3.54669,1.01691
				c-1.07764,0.17227-3.13129,0.25702-6.16803,0.25702H608.64313z M619.65448,241.99146h-6.11725v25.42383h6.26422
				c2.44635,0,4.34741-0.16663,5.70056-0.5029c1.35309-0.33322,2.48438-0.75702,3.38977-1.27118
				c0.90546-0.51404,1.73303-1.14679,2.48309-1.89542c2.41522-2.44922,3.62292-5.53961,3.62292-9.27406
				c0-3.67238-1.24152-6.66383-3.7204-8.98318c-0.91382-0.86433-1.96179-1.57332-3.14404-2.12712
				c-1.18372-0.55367-2.30518-0.92088-3.3645-1.10168C623.70813,242.08185,622.00336,241.99146,619.65448,241.99146z"/>
			<path style="&st1;" d="M650.33826,237.63551h19.38141v4.35594h-14.4859v10.42374h13.99719v4.38138h-13.99719v10.61871h14.95062
				v4.35593h-19.84613V237.63551z"/>
			<path style="&st1;" d="M706.10541,257.49716l-3.71881-2.25989c-2.33337-1.42377-3.99304-2.82483-4.98029-4.20348
				c-0.98724-1.37851-1.48016-2.96616-1.48016-4.7599c0-2.69206,0.93494-4.87848,2.80225-6.55927
				c1.86725-1.68094,4.29376-2.51981,7.27972-2.51981c2.85303,0,5.47308,0.80228,7.85443,2.40395v5.55365
				c-2.46466-2.36722-5.11438-3.55365-7.9519-3.55365c-1.6004,0-2.91254,0.36996-3.93927,1.1102
				c-1.02832,0.7401-1.54254,1.68643-1.54254,2.83902c0,1.02255,0.37866,1.98306,1.13574,2.8756
				c0.75696,0.89558,1.97449,1.83337,3.65253,2.81645l3.7373,2.21188c4.16949,2.48871,6.25427,5.66112,6.25427,9.5085
				c0,2.74298-0.91815,4.96902-2.75281,6.68091c-1.83484,1.71463-4.22186,2.57059-7.15686,2.57059
				c-3.37579,0-6.45203-1.03674-9.22607-3.11295v-6.21765c2.64276,3.35028,5.70203,5.02267,9.1767,5.02267
				c1.53387,0,2.8092-0.42651,3.82904-1.27972c1.01978-0.85303,1.52966-1.92087,1.52966-3.20624
				C710.60834,261.33618,709.10687,259.36438,706.10541,257.49716z"/>
			<path style="&st1;" d="M724.75116,237.63551h19.38135v4.35594h-14.4859v10.42374h13.99731v4.38138h-13.99731v10.61871h14.95056
				v4.35593h-19.84601V237.63551z"/>
			<path style="&st1;" d="M772.44476,254.98576h11.47754v14.48607c-4.21039,1.82483-8.38568,2.74008-12.52972,2.74008
				c-5.66107,0-10.18365-1.65259-13.56793-4.95486c-3.38556-3.30502-5.07764-7.37848-5.07764-12.22313
				c0-5.10744,1.75281-9.35605,5.26135-12.74872c3.50562-3.39267,7.90393-5.09038,13.18927-5.09038
				c1.92377,0,3.75146,0.20898,5.48029,0.62424c1.72882,0.41524,3.91522,1.17804,6.55945,2.2881v4.99159
				c-4.07928-2.36447-8.12439-3.548-12.13855-3.548c-3.73584,0-6.88428,1.27118-9.44641,3.81644
				c-2.55933,2.54512-3.84045,5.66949-3.84045,9.37283c0,3.88138,1.28113,7.05652,3.84045,9.51993
				c2.56213,2.46326,5.85736,3.69482,9.88715,3.69482c1.95758,0,4.29791-0.4491,7.02399-1.34741l0.46466-0.14694v-7.12149h-6.58344
				V254.98576z"/>
			<path style="&st1;" d="M819.01141,237.63551h4.91815v19.40404c0,2.62714-0.19208,4.6102-0.57343,5.94632
				c-0.38562,1.33902-0.8573,2.45197-1.42096,3.34177c-0.56213,0.88702-1.25134,1.68369-2.06781,2.38428
				c-2.70752,2.33337-6.2486,3.5-10.62012,3.5c-4.45343,0-8.02545-1.15823-10.71747-3.47455
				c-0.81653-0.71753-1.50708-1.52271-2.06934-2.40973c-0.56201-0.8898-1.0282-1.98019-1.39539-3.26828
				c-0.3645-1.28812-0.54803-3.31082-0.54803-6.06781v-19.35603h4.91815v19.40404c0,3.21463,0.36719,5.44907,1.10162,6.70624
				c0.73303,1.25424,1.85034,2.26263,3.35309,3.01981c1.50012,0.75989,3.26984,1.1384,5.30933,1.1384
				c2.90265,0,5.26843-0.75702,7.09613-2.27408c0.96185-0.81631,1.65533-1.77957,2.0777-2.88977
				c0.42651-1.10733,0.63837-3.00851,0.63837-5.70059V237.63551z"/>
			<path style="&st1;" d="M835.0144,271.81921v-34.1837h8.56506c3.45764,0,6.20331,0.85594,8.23169,2.56769
				c2.03241,1.71477,3.04797,4.03122,3.04797,6.9521c0,1.98871-0.49725,3.70898-1.49158,5.16095
				c-0.99567,1.45212-2.42365,2.53688-4.28247,3.25426c1.09045,0.72041,2.16095,1.69786,3.20477,2.93794
				s2.51276,3.40121,4.4054,6.48306c1.19214,1.94357,2.14404,3.40393,2.86304,4.38138l1.81079,2.44632h-5.82349l-1.49164-2.25134
				c-0.04932-0.08203-0.14679-0.22043-0.2937-0.41525l-0.95203-1.34756l-1.51544-2.4971l-1.63708-2.66949
				c-1.01129-1.40396-1.93781-2.51981-2.77686-3.35028c-0.84174-0.83063-1.60168-1.42941-2.27972-1.79663
				c-0.67786-0.36725-1.81628-0.55093-3.41797-0.55093h-1.27405v14.8786H835.0144z M841.37604,241.79373h-1.46893v10.79372h1.86157
				c2.47742,0,4.17932-0.21175,5.10162-0.63841c0.92102-0.42363,1.63855-1.06204,2.15259-1.92088
				c0.51416-0.85594,0.77118-1.83047,0.77118-2.92377c0-1.07622-0.28522-2.05075-0.8559-2.92377
				c-0.57056-0.87286-1.37433-1.48871-2.41107-1.8474C845.49182,241.97452,843.77429,241.79373,841.37604,241.79373z"/>
			<path style="&st1;" d="M883.06122,237.1468c5.28247,0,9.6795,1.67226,13.19366,5.01416
				c3.51416,3.34465,5.26971,7.5367,5.26971,12.57906c0,5.03961-1.77264,9.21201-5.31921,12.51703
				c-3.54523,3.30228-8.01831,4.95486-13.41388,4.95486c-5.15112,0-9.44214-1.65259-12.87585-4.95486
				c-3.42938-3.30502-5.14551-7.44357-5.14551-12.41809c0-5.10745,1.72754-9.33334,5.18372-12.67799
				C873.41016,238.81906,877.7774,237.1468,883.06122,237.1468z M883.25757,241.79373c-3.91235,0-7.12714,1.22592-9.64551,3.67224
				c-2.51837,2.44633-3.77686,5.57071-3.77686,9.37299c0,3.68643,1.2627,6.7515,3.78955,9.20056
				c2.52692,2.44635,5.68646,3.66949,9.48596,3.66949c3.81354,0,6.99579-1.2486,9.54803-3.74295
				c2.54938-2.4971,3.82495-5.60455,3.82495-9.32483c0-3.62148-1.27557-6.66673-3.82495-9.13852
				C890.10651,243.03093,886.97229,241.79373,883.25757,241.79373z"/>
			<path style="&st1;" d="M920.17017,257.49716l-3.71893-2.25989c-2.33325-1.42377-3.99292-2.82483-4.98163-4.20348
				c-0.98584-1.37851-1.47888-2.96616-1.47888-4.7599c0-2.69206,0.93378-4.87848,2.80225-6.55927
				c1.86597-1.68094,4.29388-2.51981,7.27972-2.51981c2.85461,0,5.47321,0.80228,7.85461,2.40395v5.55365
				c-2.46326-2.36722-5.11298-3.55365-7.95197-3.55365c-1.59894,0-2.91248,0.36996-3.93939,1.1102
				c-1.0282,0.7401-1.54236,1.68643-1.54236,2.83902c0,1.02255,0.37848,1.98306,1.13568,2.8756
				c0.75702,0.89558,1.97449,1.83337,3.65253,2.81645l3.73737,2.21188c4.17084,2.48871,6.25421,5.66112,6.25421,9.5085
				c0,2.74298-0.91669,4.96902-2.75281,6.68091c-1.83624,1.71463-4.2204,2.57059-7.15686,2.57059
				c-3.37701,0-6.45197-1.03674-9.22601-3.11295v-6.21765c2.6427,3.35028,5.70203,5.02267,9.17651,5.02267
				c1.534,0,2.80939-0.42651,3.82776-1.27972c1.02124-0.85303,1.53107-1.92087,1.53107-3.20624
				C924.67303,261.33618,923.17163,259.36438,920.17017,257.49716z"/>
		</g>
		<g>
			<path style="&st1;" d="M441.62885,191.23114l-19.68231,19.10783c-6.13754-0.32658-12.55161-1.41798-19.24234-3.28188
				c-6.69278-1.86014-13.48157-4.42738-20.36847-7.69392c-6.88873-3.26669-16.07761-8.85071-27.56845-16.75595
				c-16.65005-3.00519-30.37766-10.91043-41.18253-23.7157c-10.80859-12.80513-16.21008-27.57034-16.21008-44.29533
				c0-20.44917,6.95413-37.37028,20.8602-50.76348c13.90622-13.39307,31.50192-20.09163,52.78488-20.09163
				c21.15424,0,38.73257,6.65242,52.73874,19.94569c14.00415,13.29313,21.00632,30.00293,21.00632,50.12535
				c0,16.92111-5.28812,31.78625-15.86618,44.5914c-10.57806,12.80513-24.25766,20.87177-41.03644,24.20369l5.19003,1.96008
				c16.1275,6.20651,27.74896,9.30789,34.86636,9.30789C431.83469,193.8752,436.40424,192.9951,441.62885,191.23114z
				 M371.01974,62.36469c-15.40305,0-28.13138,4.96527-38.18295,14.89581c-10.05362,9.93054-15.07834,22.4399-15.07834,37.53168
				c0,14.69983,5.0574,26.93611,15.17624,36.70148c10.11697,9.76523,22.81262,14.6498,38.08505,14.6498
				c15.07834,0,27.77399-4.99593,38.08694-14.99576c10.31293-9.992,15.47043-22.30914,15.47043-36.9436
				c0-14.96104-5.05942-27.34355-15.17639-37.14349C399.28189,67.26082,386.49017,62.36469,371.01974,62.36469z"/>
			<path style="&st1;" d="M518.18292,182.60722v-11.56374c-3.78925,4.14664-8.11856,7.37096-12.98389,9.67685
				c-4.86908,2.30199-9.71909,3.45486-14.55374,3.45486c-5.68396,0-10.92593-1.42189-15.72977-4.26192
				c-4.79996-2.84393-8.42795-6.69856-10.87589-11.56389c-2.45197-4.86533-3.67599-12.9512-3.67599-24.25751V92.44846h17.83578
				v51.38207c0,9.46164,1.35477,16.07182,4.06796,19.82262c2.70941,3.75092,7.46133,5.62624,14.25781,5.62624
				c8.4913,0,15.71259-4.14664,21.65771-12.44383V92.44846h17.83575v90.15876H518.18292z"/>
			<path style="&st1;" d="M619.89154,128.41203v38.31949c0,3.07057,1.0434,4.60788,3.13593,4.60788
				c2.15594,0,5.52057-1.60268,10.09387-4.80385v10.87585c-4.05249,2.61714-7.30182,4.39658-9.74988,5.3419
				c-2.45184,0.94547-5.0152,1.42189-7.69397,1.42189c-7.64386,0-12.15179-3.0052-13.5238-9.01588
				c-7.58038,5.87994-15.64703,8.8199-24.20557,8.8199c-6.27203,0-11.50055-2.07144-15.67987-6.22185
				c-4.18134-4.15054-6.27191-9.36183-6.27191-15.63373c0-5.68004,2.04065-10.76073,6.12396-15.23787
				c4.08325-4.47336,9.88251-8.01674,17.39581-10.63388l22.83356-7.83986v-4.79996c0-10.84521-5.4245-16.26781-16.26764-16.26781
				c-9.73657,0-19.20776,5.0305-28.4198,15.09179v-19.50369c6.92334-8.16268,16.88861-12.248,29.88971-12.248
				c9.73456,0,17.54175,2.54801,23.42163,7.64403c1.96008,1.6332,3.72406,3.80849,5.29199,6.51777
				c1.56799,2.70942,2.56335,5.4226,2.98987,8.13202C619.67822,115.69136,619.89154,120.83728,619.89154,128.41203z
				 M602.34967,164.77145v-26.75171l-11.95581,4.60397c-6.07593,2.4174-10.37244,4.84999-12.88586,7.30197
				c-2.51721,2.44806-3.77393,5.50331-3.77393,9.16196c0,3.72388,1.19135,6.76378,3.57794,9.11568
				c2.38269,2.35202,5.47064,3.52805,9.25989,3.52805C592.25586,171.73137,597.51324,169.41014,602.34967,164.77145z
				 M615.38361,43.54887L593.2359,72.94853h-10.97595l13.22992-29.39966H615.38361z"/>
			<path style="&st1;" d="M646.03375,45.70102h17.83582v136.9062h-17.83582V45.70102z"/>
			<path style="&st1;" d="M700.90771,54.52482c2.94,0,5.45331,1.0107,7.54602,3.036c2.09052,2.0253,3.13593,4.50794,3.13593,7.4479
				c0,2.8746-1.04541,5.35723-3.13593,7.44791c-2.09271,2.09068-4.60602,3.13594-7.54602,3.13594
				c-2.74396,0-5.16119-1.06059-7.25189-3.18584c-2.09259-2.12149-3.13593-4.58865-3.13593-7.39801
				c0-2.74399,1.04333-5.17658,3.13593-7.30182C695.74652,55.58542,698.16376,54.52482,700.90771,54.52482z M692.08783,92.44846
				h17.83582v90.15876h-17.83582V92.44846z"/>
			<path style="&st1;" d="M723.14471,106.75619l33.5155-32.92756v18.61983h28.5177v16.07168h-28.5177v44.12639
				c0,10.30341,4.2774,15.45699,12.83795,15.45699c6.40253,0,13.16443-2.12148,20.28571-6.37183v16.66351
				c-6.85992,3.85463-14.34241,5.78-22.44177,5.78c-8.16846,0-14.96118-2.38269-20.38379-7.15575
				c-1.70044-1.43346-3.10321-3.05148-4.21387-4.84999c-1.11255-1.79477-2.04254-4.14665-2.79388-7.05595
				c-0.7514-2.9054-1.1261-8.44327-1.1261-16.60986v-39.98351h-15.67975V106.75619z"/>
			<path style="&st1;" d="M862.70087,128.41203v38.31949c0,3.07057,1.0434,4.60788,3.13599,4.60788
				c2.15588,0,5.52051-1.60268,10.09381-4.80385v10.87585c-4.05249,2.61714-7.30182,4.39658-9.74988,5.3419
				c-2.45197,0.94547-5.01532,1.42189-7.69391,1.42189c-7.64392,0-12.15186-3.0052-13.52386-9.01588
				c-7.58051,5.87994-15.64716,8.8199-24.20569,8.8199c-6.27191,0-11.50043-2.07144-15.67975-6.22185
				c-4.18134-4.15054-6.27203-9.36183-6.27203-15.63373c0-5.68004,2.04077-10.76073,6.12408-15.23787
				c4.08331-4.47336,9.88251-8.01674,17.39563-10.63388l22.83374-7.83986v-4.79996c0-10.84521-5.42444-16.26781-16.26776-16.26781
				c-9.73645,0-19.20776,5.0305-28.41962,15.09179v-19.50369c6.92328-8.16268,16.88837-12.248,29.88965-12.248
				c9.73456,0,17.54175,2.54801,23.42169,7.64403c1.9599,1.6332,3.72406,3.80849,5.29199,6.51777
				c1.56793,2.70942,2.56329,5.4226,2.98987,8.13202C862.48755,115.69136,862.70087,120.83728,862.70087,128.41203z
				 M845.159,164.77145v-26.75171l-11.95581,4.60397c-6.07593,2.4174-10.37256,4.84999-12.8858,7.30197
				c-2.51727,2.44806-3.77399,5.50331-3.77399,9.16196c0,3.72388,1.19135,6.76378,3.57794,9.11568
				c2.38269,2.35202,5.47064,3.52805,9.25989,3.52805C835.06519,171.73137,840.32245,169.41014,845.159,164.77145z"/>
			<path style="&st1;" d="M884.63617,176.13936v-19.20776c5.03064,3.52789,10.1745,6.38716,15.43384,8.57387
				c5.25934,2.19063,9.68652,3.28203,13.27985,3.28203c3.72388,0,6.92328-0.91075,9.60382-2.74399
				c2.67859-1.82542,4.01794-4.0159,4.01794-6.5639c0-2.61339-0.86658-4.78462-2.59796-6.51791
				c-1.73126-1.72939-5.47253-4.22734-11.21979-7.49403c-11.50055-6.4025-19.02917-11.87514-22.58789-16.41765
				c-3.56244-4.53874-5.34186-9.48854-5.34186-14.84591c0-6.9252,2.69409-12.57458,8.08588-16.95177
				c5.388-4.37733,12.33057-6.56796,20.82373-6.56796c8.81995,0,17.86847,2.48264,27.14569,7.44791v17.63979
				c-10.58386-6.40249-19.24231-9.60381-25.9696-9.60381c-3.4646,0-6.25659,0.73792-8.37982,2.20972
				c-2.12335,1.46817-3.18414,3.41653-3.18414,5.83379c0,2.09458,0.96088,4.09298,2.88428,5.98754
				c1.92352,1.8986,5.30548,4.18135,10.14001,6.85996l6.37183,3.62408c15.03027,8.49318,22.54749,17.89725,22.54749,28.21599
				c0,7.37862-2.89197,13.43919-8.67194,18.17392c-5.78387,4.73473-13.21649,7.10194-22.29572,7.10194
				c-5.35736,0-10.12854-0.5726-14.3078-1.71391C896.23273,181.31984,890.97156,179.20993,884.63617,176.13936z"/>
		</g>
	</g>
</g>
<g id="Comentarios">
</g>
</svg>
