<?xml version="1.0" encoding="utf-8"?>
<!-- Generator: Adobe Illustrator 17.0.0, SVG Export Plug-In . SVG Version: 6.00 Build 0)  -->
<!DOCTYPE svg PUBLIC "-//W3C//DTD SVG 1.1//EN" "http://www.w3.org/Graphics/SVG/1.1/DTD/svg11.dtd">
<svg version="1.1" id="Capa_1" xmlns="http://www.w3.org/2000/svg" xmlns:xlink="http://www.w3.org/1999/xlink" x="0px" y="0px"
	 width="125.996px" height="88.599px" viewBox="0 0 125.996 88.599" enable-background="new 0 0 125.996 88.599"
	 xml:space="preserve">
<g id="Capa_1_2_">
	<g id="Capa_1_1_">
	</g>
</g>
<g>
	<g>
		<g>
			<path fill="#FEFEFE" d="M44.104,88.6L44.104,88.6c-0.513,0-1.027-0.013-1.542-0.039c-3.157-0.166-6.087-1.164-8.711-2.967
				c-3.008-2.068-6.119-4.117-9.128-6.098c-1.566-1.031-3.132-2.062-4.692-3.101c-2-1.333-3.998-2.67-5.995-4.007
				c-2.827-1.892-5.654-3.783-8.489-5.663c-1.729-1.147-2.5-2.807-2.93-3.954c-0.991-2.644-1.388-5.296-1.771-8.241
				c-0.425-3.265-0.782-6.215-0.844-9.26c-0.03-1.487,0.176-2.901,0.382-4.089c0.249-1.428,0.922-2.703,2.059-3.899
				c3.751-3.948,7.494-7.907,11.236-11.866l2.327-2.461c1.073-1.134,2.143-2.271,3.212-3.408c2.332-2.479,4.665-4.957,7.028-7.405
				c2.503-2.592,5.876-4.201,10.026-4.785c2.958-0.415,5.958-0.755,8.859-1.084c1.081-0.122,2.161-0.244,3.241-0.371
				c4.398-0.513,8.796-1.02,13.196-1.52c2.615-0.296,5.23-0.589,7.845-0.882c3.981-0.446,7.963-0.893,11.943-1.351
				c2.094-0.241,4.186-0.497,6.277-0.754c3.595-0.439,7.312-0.895,10.989-1.264C99.489,0.044,100.354,0,101.194,0
				c9.066,0,15.982,5.04,18.974,13.829c1.234,3.627,1.608,7.311,1.97,10.873l0.056,0.544c0.679,6.646,1.466,13.402,2.227,19.937
				c0.172,1.47,0.366,2.933,0.558,4.38c0.469,3.538,0.912,6.88,1.018,10.052c-0.033,5.724-0.969,9.603-3.129,13.068
				c-3.105,4.982-7.843,7.973-14.08,8.888c-3.006,0.442-6.055,0.75-9.003,1.048c-1.397,0.142-2.794,0.282-4.189,0.438
				c-2.205,0.246-4.409,0.495-6.615,0.744c-2.249,0.254-4.499,0.509-6.75,0.759c-1.619,0.181-3.239,0.356-4.859,0.532
				c-1.929,0.21-3.858,0.419-5.788,0.636c-1.807,0.202-3.613,0.413-5.419,0.623c-3.619,0.422-7.361,0.858-11.06,1.222
				c-1.121,0.11-2.241,0.252-3.36,0.393C49.272,88.278,46.718,88.6,44.104,88.6z M101.193,5.002c-0.674,0-1.371,0.035-2.073,0.105
				c-3.623,0.363-7.312,0.815-10.88,1.252c-2.104,0.258-4.208,0.516-6.314,0.758c-3.985,0.459-7.971,0.906-11.958,1.353
				c-2.613,0.293-5.226,0.585-7.838,0.882c-4.394,0.498-8.787,1.005-13.179,1.518c-1.085,0.127-2.171,0.25-3.258,0.373
				c-2.869,0.325-5.835,0.661-8.727,1.066c-3.061,0.431-5.392,1.513-7.125,3.307c-2.349,2.433-4.666,4.896-6.983,7.359
				c-1.073,1.14-2.146,2.28-3.221,3.417l-2.326,2.461c-3.746,3.962-7.491,7.924-11.246,11.875c-0.574,0.604-0.706,1.018-0.757,1.311
				c-0.165,0.952-0.331,2.068-0.309,3.131c0.058,2.793,0.398,5.601,0.803,8.718c0.354,2.727,0.69,4.982,1.495,7.132
				c0.308,0.822,0.601,1.269,1.012,1.541c2.84,1.883,5.673,3.779,8.506,5.675c1.995,1.335,3.989,2.67,5.986,4
				c1.552,1.034,3.111,2.061,4.669,3.086c3.03,1.995,6.163,4.058,9.212,6.154c1.877,1.29,3.886,1.976,6.139,2.094
				c2.73,0.137,5.42-0.2,8.292-0.562c1.166-0.147,2.331-0.294,3.499-0.409c3.653-0.358,7.373-0.792,10.969-1.211
				c1.813-0.212,3.626-0.423,5.44-0.626c1.935-0.217,3.87-0.428,5.805-0.638c1.616-0.176,3.231-0.351,4.846-0.53
				c2.248-0.25,4.495-0.505,6.741-0.758c2.208-0.25,4.416-0.499,6.624-0.745c1.412-0.157,2.825-0.301,4.239-0.443
				c2.894-0.292,5.885-0.595,8.778-1.021c4.785-0.701,8.24-2.855,10.563-6.585c1.637-2.624,2.346-5.722,2.374-10.355
				c-0.096-2.828-0.523-6.051-0.976-9.464c-0.195-1.472-0.393-2.961-0.566-4.452c-0.764-6.557-1.553-13.331-2.235-20.013
				l-0.056-0.548c-0.349-3.435-0.678-6.679-1.728-9.766C113.142,8.71,108.084,5.002,101.193,5.002z"/>
		</g>
		<path fill="#EC202D" d="M123.494,59.699c-0.027,4.543-0.654,8.299-2.751,11.664c-2.844,4.564-7.129,6.975-12.321,7.737
			c-4.347,0.638-8.736,0.987-13.105,1.474c-4.456,0.496-8.91,1.007-13.365,1.503c-3.549,0.395-7.1,0.77-10.649,1.168
			c-5.481,0.614-10.955,1.302-16.444,1.841c-4.048,0.397-8.071,1.193-12.166,0.979c-2.705-0.141-5.154-0.969-7.425-2.53
			c-4.569-3.142-9.235-6.145-13.851-9.219c-4.833-3.218-9.649-6.463-14.488-9.673c-1.024-0.679-1.563-1.659-1.971-2.747
			c-0.929-2.479-1.294-5.078-1.633-7.686c-0.388-2.987-0.761-5.973-0.824-8.989c-0.025-1.217,0.139-2.416,0.346-3.61
			c0.178-1.025,0.695-1.854,1.407-2.604c4.532-4.769,9.048-9.552,13.568-14.332c3.405-3.601,6.78-7.231,10.222-10.795
			c2.331-2.414,5.325-3.589,8.576-4.046c4.003-0.562,8.026-0.978,12.042-1.447c4.395-0.513,8.791-1.02,13.187-1.519
			c6.597-0.748,13.196-1.474,19.792-2.233c5.745-0.661,11.477-1.437,17.23-2.014c8.817-0.884,15.923,3.184,18.93,12.017
			c1.202,3.532,1.53,7.201,1.904,10.865c0.681,6.666,1.456,13.321,2.232,19.976C122.513,50.424,123.35,55.35,123.494,59.699z
			 M24.992,42.895c-3.78,0.048-6.85,3.103-6.837,6.806c0.013,3.838,3.128,6.933,6.944,6.899c3.696-0.033,6.878-3.244,6.81-6.873
			C31.837,45.902,28.746,42.848,24.992,42.895z"/>
	</g>
	<g>
		<path fill="#FEFEFE" d="M24.699,58.1c-4.606,0-8.367-3.766-8.383-8.395c-0.016-4.523,3.715-8.252,8.318-8.311l0.106-0.001
			c4.507,0,8.244,3.726,8.33,8.305c0.04,2.104-0.825,4.222-2.371,5.812c-1.582,1.626-3.742,2.57-5.925,2.59H24.699L24.699,58.1z
			 M24.74,44.394c-3.031,0.038-5.434,2.416-5.424,5.302c0.01,2.979,2.425,5.404,5.383,5.404v1.5l0.048-1.5
			c1.388-0.013,2.774-0.625,3.802-1.682c0.992-1.02,1.546-2.354,1.522-3.663C30.015,46.799,27.624,44.394,24.74,44.394z"/>
	</g>
</g>
<g>
	<g>
		<path fill="#970009" d="M59.591,41.99c-0.052-0.411-0.026-0.804,0.08-1.18c0.106-0.375,0.266-0.711,0.484-1.01
			c0.217-0.297,0.485-0.542,0.802-0.736c0.316-0.193,0.672-0.314,1.062-0.364c0.392-0.05,0.764-0.02,1.121,0.088
			c0.355,0.108,0.677,0.279,0.968,0.512c0.289,0.234,0.529,0.52,0.72,0.857c0.19,0.338,0.313,0.713,0.364,1.124l2.023,16.002
			c0.052,0.412,0.028,0.805-0.073,1.179c-0.101,0.375-0.262,0.712-0.484,1.01c-0.223,0.298-0.492,0.544-0.81,0.737
			c-0.317,0.193-0.671,0.314-1.063,0.364c-0.391,0.05-0.764,0.02-1.12-0.088c-0.355-0.108-0.676-0.279-0.96-0.513
			c-0.285-0.234-0.522-0.52-0.712-0.859c-0.191-0.337-0.312-0.712-0.364-1.124l-0.801-6.215l-7.753,0.98l0.786,6.217
			c0.052,0.412,0.028,0.805-0.073,1.179c-0.1,0.375-0.261,0.712-0.484,1.01c-0.222,0.298-0.492,0.544-0.809,0.737
			s-0.672,0.314-1.063,0.364c-0.392,0.05-0.764,0.02-1.121-0.088c-0.355-0.108-0.675-0.279-0.959-0.514
			c-0.285-0.234-0.523-0.52-0.713-0.858c-0.19-0.337-0.312-0.712-0.364-1.124l-2.023-16.002c-0.052-0.411-0.028-0.804,0.073-1.179
			c0.1-0.374,0.26-0.71,0.478-1.009c0.217-0.297,0.484-0.542,0.801-0.736c0.317-0.193,0.672-0.314,1.063-0.364
			c0.392-0.05,0.764-0.02,1.121,0.088c0.354,0.108,0.677,0.279,0.967,0.512c0.29,0.234,0.53,0.52,0.72,0.857
			c0.19,0.338,0.313,0.713,0.364,1.124l0.694,5.495l7.753-0.98L59.591,41.99z"/>
		<path fill="#970009" d="M69.379,48.905c-0.21-1.656-0.179-3.214,0.09-4.676c0.269-1.461,0.786-2.755,1.552-3.882
			c0.764-1.126,1.783-2.061,3.056-2.803c1.272-0.742,2.812-1.227,4.619-1.455c1.755-0.222,3.342-0.142,4.755,0.24
			c1.415,0.382,2.637,1.02,3.668,1.915c1.031,0.894,1.866,2.015,2.505,3.362s1.067,2.873,1.283,4.579
			c0.212,1.676,0.18,3.245-0.094,4.708c-0.274,1.462-0.798,2.754-1.574,3.877c-0.776,1.122-1.801,2.05-3.075,2.782
			c-1.274,0.732-2.799,1.21-4.575,1.435c-1.737,0.219-3.308,0.143-4.717-0.23c-1.408-0.373-2.632-1-3.672-1.884
			c-1.039-0.883-1.881-1.998-2.525-3.344C70.031,52.182,69.599,50.641,69.379,48.905z M75.236,48.165
			c0.314,2.489,0.948,4.318,1.901,5.487c0.954,1.17,2.274,1.648,3.959,1.435c1.656-0.21,2.81-0.998,3.464-2.364
			c0.653-1.367,0.822-3.3,0.506-5.8c-0.152-1.204-0.385-2.263-0.701-3.177c-0.313-0.914-0.713-1.666-1.195-2.258
			c-0.483-0.591-1.054-1.016-1.714-1.274c-0.661-0.258-1.417-0.334-2.269-0.226c-0.843,0.107-1.552,0.367-2.126,0.781
			c-0.575,0.415-1.023,0.968-1.343,1.66c-0.32,0.693-0.519,1.521-0.596,2.484C75.047,45.878,75.084,46.961,75.236,48.165z"/>
		<path fill="#970009" d="M92.466,38.906c-0.291,0.037-0.574,0.02-0.849-0.053c-0.274-0.072-0.521-0.186-0.739-0.343
			c-0.219-0.156-0.401-0.347-0.547-0.574c-0.146-0.226-0.235-0.475-0.27-0.746c-0.035-0.271-0.009-0.536,0.075-0.797
			s0.213-0.494,0.386-0.699c0.172-0.205,0.383-0.377,0.63-0.516c0.248-0.138,0.517-0.226,0.809-0.263l13.743-1.737
			c0.29-0.036,0.574-0.019,0.848,0.053c0.274,0.073,0.52,0.186,0.739,0.343s0.4,0.35,0.547,0.581
			c0.147,0.232,0.237,0.482,0.272,0.753s0.008,0.535-0.076,0.789c-0.085,0.256-0.214,0.486-0.386,0.691
			c-0.173,0.205-0.384,0.377-0.63,0.515c-0.248,0.139-0.518,0.226-0.808,0.263l-4.035,0.51l1.889,14.948
			c0.052,0.412,0.028,0.805-0.073,1.179c-0.1,0.375-0.261,0.712-0.484,1.01c-0.222,0.298-0.492,0.544-0.809,0.737
			s-0.672,0.314-1.063,0.364c-0.392,0.05-0.764,0.02-1.121-0.088c-0.355-0.108-0.675-0.279-0.959-0.514
			c-0.285-0.234-0.523-0.52-0.713-0.858c-0.19-0.337-0.312-0.712-0.364-1.124L96.59,38.382L92.466,38.906z"/>
	</g>
	<g>
		<path fill="#FFFFFF" d="M59.235,41.516c-0.051-0.403-0.025-0.788,0.078-1.156c0.103-0.367,0.261-0.697,0.474-0.989
			c0.212-0.291,0.475-0.532,0.786-0.721c0.31-0.189,0.658-0.308,1.041-0.356c0.384-0.049,0.749-0.02,1.097,0.086
			s0.664,0.273,0.948,0.502c0.283,0.229,0.519,0.51,0.706,0.84c0.186,0.331,0.305,0.699,0.357,1.101l1.981,15.676
			c0.051,0.403,0.027,0.788-0.072,1.155c-0.099,0.368-0.257,0.697-0.474,0.989c-0.218,0.292-0.482,0.533-0.793,0.722
			s-0.657,0.308-1.041,0.356c-0.383,0.048-0.749,0.02-1.097-0.086s-0.662-0.273-0.94-0.503c-0.279-0.229-0.511-0.51-0.698-0.841
			c-0.187-0.33-0.305-0.698-0.357-1.101l-0.784-6.09l-7.595,0.96l0.77,6.091c0.051,0.403,0.027,0.788-0.072,1.155
			c-0.099,0.368-0.256,0.697-0.474,0.989s-0.482,0.533-0.792,0.722c-0.311,0.189-0.658,0.308-1.041,0.356
			c-0.384,0.049-0.749,0.02-1.097-0.086s-0.661-0.273-0.939-0.503c-0.279-0.229-0.512-0.51-0.699-0.841
			c-0.186-0.33-0.305-0.698-0.357-1.101L46.17,43.166c-0.051-0.403-0.027-0.788,0.071-1.155c0.099-0.367,0.255-0.696,0.468-0.988
			c0.212-0.291,0.474-0.532,0.785-0.721s0.658-0.308,1.041-0.356c0.384-0.049,0.749-0.02,1.097,0.086
			c0.347,0.106,0.664,0.273,0.947,0.502c0.284,0.229,0.519,0.51,0.706,0.84c0.186,0.331,0.305,0.699,0.357,1.101l0.68,5.382
			l7.595-0.96L59.235,41.516z"/>
		<path fill="#FFFFFF" d="M68.825,48.29c-0.205-1.622-0.176-3.149,0.088-4.581c0.264-1.431,0.77-2.699,1.52-3.803
			c0.749-1.104,1.746-2.019,2.994-2.745c1.247-0.727,2.755-1.202,4.525-1.426c1.72-0.218,3.274-0.139,4.659,0.235
			c1.386,0.375,2.584,0.999,3.593,1.876c1.01,0.875,1.828,1.974,2.454,3.293c0.627,1.319,1.046,2.815,1.257,4.486
			c0.208,1.642,0.177,3.179-0.091,4.612c-0.268,1.432-0.782,2.698-1.542,3.798c-0.76,1.099-1.764,2.008-3.012,2.725
			s-2.742,1.185-4.482,1.406c-1.701,0.215-3.241,0.14-4.621-0.225c-1.379-0.365-2.578-0.979-3.597-1.845
			c-1.018-0.865-1.842-1.957-2.474-3.275C69.464,51.5,69.04,49.991,68.825,48.29z M74.562,47.565c0.308,2.438,0.93,4.23,1.863,5.375
			c0.934,1.146,2.227,1.614,3.878,1.406c1.622-0.205,2.753-0.978,3.393-2.316c0.64-1.34,0.805-3.233,0.496-5.682
			c-0.149-1.18-0.377-2.217-0.686-3.112c-0.307-0.895-0.699-1.632-1.171-2.212c-0.473-0.579-1.033-0.995-1.678-1.248
			c-0.646-0.253-1.388-0.327-2.223-0.221c-0.826,0.105-1.52,0.36-2.083,0.765c-0.564,0.406-1.002,0.948-1.316,1.627
			c-0.313,0.679-0.508,1.49-0.583,2.434C74.376,45.324,74.413,46.385,74.562,47.565z"/>
		<path fill="#FFFFFF" d="M91.441,38.495c-0.286,0.036-0.563,0.019-0.831-0.052c-0.269-0.07-0.511-0.183-0.724-0.336
			c-0.215-0.153-0.393-0.34-0.536-0.561c-0.143-0.221-0.231-0.465-0.265-0.731c-0.034-0.265-0.009-0.526,0.074-0.78
			c0.083-0.255,0.209-0.484,0.378-0.685c0.169-0.202,0.375-0.369,0.618-0.505c0.242-0.135,0.506-0.221,0.792-0.257l13.464-1.702
			c0.285-0.036,0.562-0.019,0.831,0.052c0.268,0.071,0.51,0.183,0.724,0.336s0.392,0.343,0.536,0.569
			c0.143,0.226,0.233,0.472,0.266,0.738c0.034,0.265,0.008,0.523-0.075,0.773s-0.21,0.476-0.378,0.677
			c-0.17,0.202-0.376,0.369-0.618,0.505c-0.243,0.136-0.507,0.222-0.792,0.257l-3.952,0.5l1.851,14.644
			c0.051,0.403,0.027,0.788-0.072,1.155c-0.099,0.368-0.256,0.697-0.474,0.989s-0.482,0.533-0.792,0.722
			c-0.311,0.189-0.658,0.308-1.041,0.356c-0.384,0.049-0.749,0.02-1.097-0.086s-0.661-0.273-0.939-0.503
			c-0.279-0.229-0.512-0.51-0.699-0.841c-0.186-0.33-0.305-0.698-0.357-1.101l-1.851-14.644L91.441,38.495z"/>
		<g>
			<g>
				<path fill="#970009" d="M43.486,30.066c0.03,0.233,0.133,0.419,0.309,0.559s0.396,0.252,0.661,0.336s0.561,0.149,0.887,0.196
					s0.656,0.095,0.988,0.146c0.534,0.089,1.022,0.193,1.465,0.313c0.442,0.12,0.828,0.282,1.158,0.486s0.597,0.461,0.803,0.772
					s0.339,0.7,0.399,1.165c0.066,0.509,0.025,0.981-0.124,1.414s-0.393,0.818-0.734,1.153s-0.77,0.614-1.286,0.836
					s-1.109,0.377-1.778,0.464c-0.344,0.045-0.694,0.069-1.048,0.073c-0.355,0.004-0.699-0.012-1.034-0.047s-0.653-0.09-0.954-0.165
					s-0.567-0.167-0.798-0.28c-0.232-0.113-0.419-0.245-0.562-0.397s-0.227-0.322-0.251-0.511c-0.016-0.121-0.006-0.243,0.03-0.366
					s0.088-0.237,0.155-0.342s0.148-0.193,0.239-0.264c0.092-0.071,0.186-0.113,0.283-0.126c0.087-0.011,0.174-0.008,0.26,0.011
					c0.086,0.018,0.174,0.043,0.265,0.073c0.09,0.03,0.183,0.064,0.279,0.101c0.096,0.037,0.197,0.068,0.304,0.094
					c0.354,0.107,0.748,0.194,1.181,0.261s0.877,0.071,1.333,0.012c0.247-0.032,0.478-0.085,0.693-0.16s0.4-0.17,0.555-0.286
					s0.271-0.256,0.349-0.419s0.102-0.351,0.075-0.565c-0.021-0.16-0.068-0.299-0.143-0.418s-0.169-0.219-0.283-0.3
					c-0.114-0.081-0.244-0.148-0.389-0.201s-0.296-0.096-0.453-0.13l-0.342-0.074c-0.066-0.011-0.129-0.024-0.19-0.038
					c-0.061-0.014-0.127-0.027-0.197-0.037l-0.392-0.06c-0.085-0.009-0.158-0.018-0.218-0.027s-0.115-0.02-0.163-0.031
					c-0.048-0.011-0.095-0.022-0.141-0.033c-0.046-0.011-0.099-0.023-0.16-0.035l-0.715-0.151c-0.462-0.103-0.862-0.221-1.2-0.355
					s-0.62-0.297-0.848-0.489s-0.406-0.422-0.537-0.689c-0.131-0.267-0.22-0.584-0.268-0.953c-0.063-0.485-0.019-0.937,0.131-1.356
					c0.15-0.419,0.396-0.791,0.736-1.116c0.34-0.325,0.768-0.598,1.285-0.818c0.516-0.22,1.109-0.373,1.779-0.46
					c0.243-0.031,0.509-0.05,0.799-0.056s0.583,0.005,0.877,0.031c0.294,0.026,0.58,0.071,0.857,0.137s0.526,0.151,0.747,0.258
					s0.404,0.237,0.55,0.391c0.146,0.154,0.232,0.335,0.259,0.543c0.016,0.121,0.007,0.236-0.026,0.344s-0.083,0.203-0.152,0.286
					c-0.068,0.083-0.152,0.152-0.251,0.206c-0.099,0.055-0.204,0.089-0.316,0.104c-0.146,0.019-0.283,0.005-0.412-0.043
					c-0.243-0.087-0.468-0.159-0.675-0.216s-0.411-0.1-0.612-0.128s-0.406-0.041-0.615-0.039c-0.209,0.002-0.438,0.02-0.685,0.052
					c-0.233,0.03-0.459,0.081-0.68,0.151c-0.22,0.07-0.413,0.162-0.578,0.275c-0.165,0.113-0.294,0.246-0.384,0.401
					S43.46,29.863,43.486,30.066z"/>
				<path fill="#970009" d="M53.55,36.699c-0.247,0.032-0.461,0.008-0.642-0.072s-0.332-0.195-0.455-0.344s-0.219-0.323-0.29-0.521
					c-0.07-0.198-0.118-0.399-0.145-0.603l-0.899-6.933c-0.036-0.276-0.052-0.535-0.049-0.774c0.003-0.24,0.052-0.452,0.147-0.637
					c0.094-0.185,0.247-0.34,0.457-0.466c0.211-0.126,0.505-0.213,0.883-0.263l4.671-0.606c0.141-0.018,0.276-0.01,0.406,0.025
					c0.13,0.035,0.247,0.089,0.35,0.162s0.189,0.164,0.257,0.274c0.068,0.109,0.111,0.23,0.128,0.361s0.006,0.257-0.032,0.378
					s-0.098,0.23-0.18,0.327c-0.081,0.097-0.18,0.178-0.298,0.242s-0.246,0.106-0.387,0.124l-3.747,0.486l0.306,2.357l3.419-0.444
					c0.141-0.018,0.276-0.011,0.406,0.021c0.13,0.032,0.247,0.086,0.35,0.162c0.103,0.075,0.189,0.167,0.257,0.274
					s0.111,0.226,0.128,0.357s0.006,0.257-0.032,0.378c-0.039,0.121-0.098,0.23-0.18,0.327s-0.18,0.178-0.298,0.242
					c-0.117,0.065-0.246,0.106-0.387,0.124l-3.419,0.444l0.33,2.546l3.929-0.51c0.131-0.017,0.257-0.009,0.377,0.025
					s0.23,0.089,0.328,0.165c0.099,0.076,0.18,0.168,0.243,0.276s0.103,0.227,0.12,0.358s0.009,0.257-0.025,0.377
					s-0.089,0.229-0.165,0.325s-0.168,0.176-0.276,0.239s-0.227,0.103-0.358,0.12L53.55,36.699z"/>
				<path fill="#970009" d="M70.916,26.286c-0.293,1.123-0.556,2.124-0.787,3.002c-0.099,0.378-0.194,0.745-0.286,1.102
					s-0.175,0.676-0.249,0.957c-0.075,0.281-0.135,0.508-0.182,0.682l-0.063,0.252c-0.07,0.261-0.147,0.51-0.232,0.748
					c-0.085,0.238-0.189,0.45-0.313,0.636s-0.27,0.341-0.439,0.464c-0.169,0.123-0.372,0.2-0.61,0.231
					c-0.218,0.028-0.415,0.016-0.589-0.038s-0.341-0.148-0.499-0.283s-0.313-0.31-0.464-0.524c-0.151-0.215-0.307-0.467-0.468-0.757
					l-3.028-5.378l0.9,6.941c0.019,0.146,0.009,0.287-0.03,0.426c-0.039,0.138-0.101,0.261-0.185,0.368
					c-0.085,0.107-0.189,0.197-0.313,0.27s-0.258,0.119-0.404,0.137s-0.287,0.009-0.426-0.03c-0.138-0.039-0.261-0.099-0.368-0.182
					c-0.107-0.082-0.197-0.185-0.269-0.309s-0.119-0.258-0.137-0.404l-0.871-6.715c-0.055-0.422-0.083-0.809-0.084-1.162
					c-0.001-0.352,0.049-0.659,0.151-0.918s0.264-0.472,0.487-0.637c0.223-0.165,0.531-0.272,0.923-0.323
					c0.281-0.036,0.534-0.02,0.757,0.05c0.224,0.07,0.44,0.201,0.65,0.393c0.21,0.192,0.423,0.449,0.64,0.771
					c0.217,0.322,0.459,0.715,0.726,1.178l2.551,4.441l0.058-0.008l1.356-4.947c0.12-0.44,0.243-0.838,0.367-1.194
					s0.265-0.663,0.424-0.921c0.159-0.257,0.342-0.464,0.549-0.619c0.207-0.155,0.453-0.251,0.739-0.288
					c0.31-0.04,0.587-0.029,0.829,0.033c0.242,0.062,0.451,0.186,0.625,0.37c0.174,0.185,0.319,0.433,0.433,0.746
					c0.115,0.313,0.201,0.698,0.261,1.154l0.905,6.977c0.019,0.146,0.009,0.287-0.03,0.426c-0.039,0.138-0.101,0.261-0.185,0.368
					s-0.189,0.197-0.313,0.27s-0.258,0.119-0.404,0.137s-0.287,0.009-0.426-0.03s-0.261-0.099-0.368-0.182
					c-0.107-0.082-0.197-0.185-0.269-0.309s-0.119-0.258-0.137-0.404L70.916,26.286z"/>
				<path fill="#970009" d="M85.166,30.356c0.045,0.083,0.093,0.169,0.145,0.259c0.051,0.09,0.1,0.181,0.146,0.273
					c0.047,0.093,0.087,0.182,0.12,0.269s0.055,0.167,0.064,0.239c0.023,0.179,0.011,0.343-0.036,0.489
					c-0.048,0.147-0.121,0.275-0.22,0.384s-0.22,0.199-0.361,0.269s-0.294,0.116-0.459,0.137c-0.189,0.025-0.355,0.019-0.498-0.017
					s-0.275-0.105-0.397-0.207s-0.24-0.241-0.354-0.416s-0.239-0.392-0.377-0.65l-0.469-0.879l-4.118,0.534l-0.178,0.963
					c-0.051,0.288-0.11,0.532-0.175,0.733s-0.145,0.365-0.239,0.493s-0.209,0.227-0.343,0.296s-0.296,0.116-0.485,0.141
					c-0.165,0.021-0.325,0.016-0.479-0.016c-0.155-0.032-0.294-0.088-0.418-0.168c-0.124-0.08-0.227-0.185-0.311-0.315
					c-0.083-0.13-0.137-0.284-0.16-0.464c-0.009-0.073-0.009-0.155,0.001-0.248c0.01-0.093,0.026-0.19,0.047-0.291
					c0.021-0.101,0.045-0.202,0.072-0.302s0.051-0.195,0.074-0.287l1.271-5.543c0.12-0.519,0.239-0.979,0.357-1.382
					c0.118-0.402,0.261-0.748,0.428-1.036s0.373-0.516,0.618-0.683s0.554-0.275,0.927-0.324c0.349-0.045,0.654-0.032,0.915,0.04
					s0.506,0.215,0.736,0.43s0.46,0.506,0.691,0.876s0.492,0.826,0.784,1.37L85.166,30.356z M79.596,24.598l-0.994,4.886l3.23-0.419
					l-2.2-4.471L79.596,24.598z"/>
				<path fill="#970009" d="M89.451,30.88c0.021,0.16,0.01,0.313-0.033,0.459s-0.11,0.277-0.201,0.392
					c-0.091,0.115-0.202,0.212-0.332,0.291c-0.13,0.079-0.276,0.128-0.436,0.149s-0.313,0.01-0.459-0.033s-0.277-0.108-0.392-0.197
					s-0.211-0.198-0.287-0.329c-0.076-0.131-0.125-0.276-0.145-0.436l-1.031-7.945c-0.031-0.238-0.023-0.453,0.023-0.647
					c0.046-0.193,0.121-0.361,0.223-0.502c0.102-0.142,0.229-0.255,0.381-0.342s0.32-0.141,0.504-0.165
					c0.155-0.02,0.311-0.009,0.467,0.032c0.156,0.041,0.308,0.104,0.457,0.189c0.149,0.084,0.296,0.187,0.44,0.309
					c0.144,0.122,0.284,0.253,0.421,0.393l5.047,5.264l-0.754-5.813c-0.021-0.16-0.011-0.313,0.029-0.459s0.105-0.276,0.193-0.391
					c0.089-0.115,0.198-0.212,0.329-0.29c0.13-0.079,0.276-0.128,0.436-0.149c0.16-0.021,0.313-0.01,0.459,0.033
					c0.146,0.043,0.277,0.108,0.392,0.197s0.212,0.198,0.29,0.329c0.079,0.13,0.128,0.276,0.149,0.436l0.961,7.406
					c0.035,0.267,0.053,0.525,0.056,0.773c0.003,0.249-0.03,0.471-0.098,0.667s-0.18,0.361-0.335,0.495s-0.374,0.219-0.655,0.255
					c-0.15,0.02-0.301,0.009-0.451-0.03c-0.151-0.04-0.299-0.102-0.446-0.186c-0.147-0.085-0.292-0.188-0.436-0.31
					s-0.287-0.255-0.429-0.399l-5.101-5.331L89.451,30.88z"/>
				<path fill="#970009" d="M107.742,27.428c0.045,0.083,0.093,0.169,0.145,0.259c0.051,0.09,0.1,0.181,0.146,0.273
					c0.047,0.093,0.087,0.182,0.12,0.269c0.033,0.087,0.055,0.167,0.064,0.239c0.023,0.179,0.011,0.343-0.036,0.489
					s-0.121,0.275-0.22,0.384c-0.099,0.109-0.22,0.199-0.361,0.269s-0.294,0.116-0.459,0.137c-0.189,0.025-0.355,0.019-0.498-0.017
					s-0.275-0.105-0.397-0.207c-0.122-0.103-0.24-0.241-0.354-0.416c-0.114-0.175-0.239-0.392-0.377-0.65l-0.469-0.879l-4.118,0.534
					l-0.178,0.963c-0.051,0.288-0.11,0.532-0.175,0.733s-0.145,0.365-0.239,0.493s-0.209,0.227-0.343,0.296
					s-0.296,0.116-0.485,0.141c-0.165,0.021-0.325,0.016-0.479-0.016s-0.294-0.088-0.418-0.168s-0.227-0.185-0.311-0.315
					c-0.083-0.13-0.137-0.284-0.16-0.464c-0.009-0.073-0.009-0.155,0.001-0.248c0.01-0.093,0.026-0.19,0.047-0.291
					s0.045-0.202,0.072-0.302s0.051-0.195,0.074-0.287l1.271-5.543c0.12-0.519,0.239-0.979,0.357-1.382s0.261-0.748,0.428-1.036
					s0.373-0.516,0.618-0.683c0.245-0.167,0.554-0.275,0.927-0.324c0.349-0.045,0.654-0.032,0.915,0.04s0.506,0.215,0.736,0.43
					c0.23,0.214,0.46,0.506,0.691,0.876c0.23,0.37,0.492,0.826,0.784,1.37L107.742,27.428z M102.172,21.67l-0.994,4.886l3.23-0.419
					l-2.2-4.471L102.172,21.67z"/>
			</g>
			<g>
				<path fill="#FFFFFF" d="M42.563,29.142c0.03,0.233,0.133,0.419,0.309,0.559s0.396,0.252,0.661,0.336s0.561,0.149,0.887,0.196
					s0.656,0.095,0.988,0.146c0.534,0.089,1.022,0.193,1.465,0.313s0.828,0.282,1.158,0.486s0.597,0.461,0.803,0.772
					s0.339,0.7,0.399,1.165c0.066,0.509,0.025,0.981-0.124,1.414c-0.148,0.434-0.393,0.818-0.734,1.153s-0.77,0.614-1.286,0.836
					s-1.109,0.377-1.778,0.464c-0.344,0.045-0.694,0.069-1.048,0.073c-0.355,0.004-0.699-0.012-1.034-0.047s-0.653-0.09-0.954-0.165
					s-0.567-0.168-0.798-0.281c-0.232-0.113-0.419-0.245-0.562-0.397s-0.227-0.322-0.251-0.511c-0.016-0.121-0.006-0.243,0.03-0.366
					s0.088-0.237,0.155-0.342c0.068-0.105,0.148-0.193,0.239-0.264s0.186-0.113,0.283-0.126c0.087-0.011,0.174-0.008,0.26,0.011
					c0.086,0.018,0.174,0.043,0.265,0.073c0.09,0.03,0.183,0.064,0.279,0.101c0.096,0.037,0.197,0.068,0.304,0.094
					c0.354,0.107,0.748,0.194,1.181,0.261s0.877,0.071,1.333,0.012c0.247-0.032,0.478-0.085,0.693-0.16s0.4-0.17,0.555-0.286
					s0.271-0.256,0.349-0.419c0.077-0.163,0.102-0.351,0.075-0.565c-0.021-0.16-0.068-0.299-0.143-0.418s-0.169-0.219-0.283-0.3
					s-0.244-0.148-0.389-0.201s-0.296-0.096-0.453-0.13l-0.342-0.074c-0.066-0.011-0.129-0.024-0.19-0.038
					c-0.061-0.014-0.127-0.027-0.197-0.037l-0.392-0.06c-0.085-0.009-0.158-0.018-0.218-0.027c-0.06-0.009-0.115-0.02-0.163-0.031
					c-0.048-0.011-0.095-0.022-0.141-0.033c-0.046-0.011-0.099-0.023-0.16-0.035l-0.715-0.151c-0.462-0.103-0.862-0.221-1.2-0.355
					s-0.62-0.297-0.848-0.489s-0.406-0.422-0.537-0.689c-0.131-0.267-0.22-0.584-0.268-0.953c-0.063-0.485-0.019-0.937,0.131-1.356
					s0.396-0.791,0.736-1.116c0.34-0.325,0.768-0.598,1.285-0.818c0.516-0.22,1.109-0.373,1.779-0.46
					c0.243-0.031,0.509-0.05,0.799-0.056s0.583,0.005,0.877,0.031c0.294,0.026,0.58,0.071,0.857,0.137
					c0.277,0.065,0.526,0.151,0.747,0.258s0.404,0.237,0.55,0.391c0.146,0.154,0.232,0.335,0.259,0.543
					c0.016,0.121,0.007,0.236-0.026,0.344s-0.083,0.203-0.152,0.286c-0.068,0.083-0.152,0.152-0.251,0.206
					c-0.099,0.055-0.204,0.089-0.316,0.104c-0.146,0.019-0.283,0.005-0.412-0.043c-0.243-0.087-0.468-0.159-0.675-0.216
					s-0.411-0.1-0.612-0.128s-0.406-0.041-0.615-0.039s-0.438,0.02-0.685,0.052c-0.233,0.03-0.459,0.081-0.68,0.151
					c-0.22,0.07-0.413,0.162-0.578,0.275c-0.165,0.113-0.294,0.246-0.384,0.401C42.568,28.759,42.536,28.939,42.563,29.142z"/>
				<path fill="#FFFFFF" d="M52.626,35.775c-0.247,0.032-0.461,0.008-0.642-0.072c-0.181-0.08-0.332-0.195-0.455-0.344
					s-0.219-0.323-0.29-0.521s-0.118-0.399-0.145-0.603l-0.899-6.933c-0.036-0.276-0.052-0.535-0.049-0.774
					c0.003-0.24,0.052-0.452,0.147-0.637c0.094-0.185,0.247-0.34,0.457-0.466c0.211-0.126,0.505-0.213,0.883-0.263l4.671-0.606
					c0.141-0.018,0.276-0.01,0.406,0.025c0.13,0.035,0.247,0.089,0.35,0.162c0.103,0.073,0.189,0.164,0.257,0.274
					c0.068,0.109,0.111,0.23,0.128,0.361s0.006,0.257-0.032,0.378c-0.039,0.121-0.098,0.23-0.18,0.327
					c-0.081,0.097-0.18,0.178-0.298,0.242s-0.246,0.106-0.387,0.124l-3.747,0.486l0.306,2.357l3.419-0.444
					c0.141-0.018,0.276-0.011,0.406,0.021c0.13,0.032,0.247,0.086,0.35,0.162c0.103,0.075,0.189,0.167,0.257,0.274
					s0.111,0.226,0.128,0.357s0.006,0.257-0.032,0.378c-0.039,0.121-0.098,0.23-0.18,0.327c-0.081,0.097-0.18,0.178-0.298,0.242
					s-0.246,0.106-0.387,0.124l-3.419,0.444l0.33,2.546l3.929-0.51c0.131-0.017,0.257-0.009,0.377,0.025s0.23,0.089,0.328,0.165
					c0.099,0.076,0.18,0.168,0.243,0.276s0.103,0.227,0.12,0.358s0.009,0.257-0.025,0.377s-0.089,0.229-0.165,0.325
					s-0.168,0.176-0.276,0.239s-0.227,0.103-0.358,0.12L52.626,35.775z"/>
				<path fill="#FFFFFF" d="M69.992,25.362c-0.293,1.123-0.556,2.124-0.787,3.002c-0.099,0.378-0.194,0.745-0.286,1.102
					c-0.092,0.357-0.175,0.676-0.249,0.957c-0.075,0.281-0.135,0.508-0.182,0.682l-0.063,0.252c-0.07,0.261-0.147,0.51-0.232,0.748
					s-0.189,0.45-0.313,0.636s-0.27,0.341-0.439,0.464s-0.372,0.2-0.61,0.231c-0.218,0.028-0.415,0.016-0.589-0.038
					c-0.175-0.054-0.341-0.148-0.499-0.283c-0.158-0.135-0.313-0.31-0.464-0.524c-0.151-0.215-0.307-0.467-0.468-0.757l-3.028-5.378
					l0.9,6.941c0.019,0.146,0.009,0.287-0.03,0.426s-0.101,0.261-0.185,0.368s-0.189,0.197-0.313,0.27s-0.258,0.119-0.404,0.137
					s-0.287,0.009-0.426-0.03c-0.138-0.039-0.261-0.099-0.368-0.182c-0.107-0.082-0.197-0.185-0.269-0.309s-0.119-0.258-0.137-0.404
					l-0.871-6.715c-0.055-0.422-0.083-0.809-0.084-1.162c-0.001-0.352,0.049-0.659,0.151-0.918s0.264-0.472,0.487-0.637
					c0.223-0.165,0.531-0.272,0.923-0.323c0.281-0.036,0.534-0.02,0.757,0.05c0.224,0.07,0.44,0.201,0.65,0.393
					c0.21,0.192,0.423,0.449,0.64,0.771s0.459,0.715,0.726,1.178l2.551,4.441l0.058-0.008l1.356-4.947
					c0.121-0.44,0.243-0.838,0.367-1.194s0.265-0.663,0.424-0.921c0.159-0.257,0.342-0.464,0.549-0.619s0.453-0.251,0.739-0.288
					c0.31-0.04,0.587-0.029,0.829,0.033c0.242,0.062,0.451,0.186,0.625,0.37c0.174,0.185,0.319,0.433,0.433,0.746
					c0.115,0.313,0.201,0.698,0.261,1.154l0.905,6.977c0.019,0.146,0.009,0.287-0.03,0.426c-0.039,0.138-0.101,0.261-0.185,0.368
					c-0.085,0.107-0.189,0.197-0.313,0.27s-0.258,0.119-0.404,0.137s-0.287,0.009-0.426-0.03c-0.138-0.039-0.261-0.099-0.368-0.182
					c-0.107-0.082-0.197-0.185-0.269-0.309c-0.073-0.124-0.119-0.258-0.137-0.404L69.992,25.362z"/>
				<path fill="#FFFFFF" d="M84.243,29.432c0.045,0.083,0.093,0.169,0.145,0.259c0.051,0.09,0.1,0.181,0.146,0.273
					c0.047,0.093,0.087,0.182,0.12,0.269c0.033,0.087,0.055,0.167,0.064,0.239c0.023,0.179,0.011,0.343-0.036,0.489
					s-0.121,0.275-0.22,0.384s-0.22,0.199-0.361,0.269s-0.294,0.116-0.459,0.137c-0.189,0.025-0.355,0.019-0.498-0.017
					s-0.275-0.105-0.397-0.207c-0.122-0.103-0.24-0.241-0.354-0.416c-0.114-0.175-0.239-0.392-0.377-0.65l-0.469-0.879l-4.118,0.534
					l-0.178,0.963c-0.051,0.288-0.11,0.532-0.175,0.733c-0.065,0.201-0.145,0.365-0.239,0.493s-0.209,0.227-0.343,0.296
					s-0.296,0.116-0.485,0.141c-0.165,0.021-0.325,0.016-0.479-0.016s-0.294-0.088-0.418-0.168c-0.124-0.08-0.227-0.185-0.311-0.315
					c-0.083-0.13-0.137-0.284-0.16-0.464c-0.009-0.073-0.009-0.155,0.001-0.248s0.026-0.19,0.047-0.291s0.045-0.202,0.072-0.302
					s0.051-0.195,0.074-0.287l1.271-5.543c0.12-0.519,0.239-0.979,0.357-1.382c0.118-0.402,0.261-0.748,0.428-1.036
					s0.373-0.516,0.618-0.683c0.245-0.167,0.554-0.275,0.927-0.324c0.349-0.045,0.654-0.032,0.915,0.04s0.506,0.215,0.736,0.43
					c0.23,0.214,0.46,0.506,0.691,0.876c0.23,0.37,0.492,0.826,0.784,1.37L84.243,29.432z M78.672,23.674l-0.994,4.886l3.23-0.419
					l-2.2-4.471L78.672,23.674z"/>
				<path fill="#FFFFFF" d="M88.527,29.956c0.021,0.16,0.01,0.313-0.033,0.459s-0.11,0.277-0.201,0.392
					c-0.091,0.115-0.202,0.212-0.332,0.291s-0.276,0.128-0.436,0.149c-0.16,0.021-0.313,0.01-0.459-0.033s-0.277-0.108-0.392-0.197
					s-0.211-0.198-0.287-0.329c-0.076-0.131-0.125-0.276-0.145-0.436l-1.031-7.945c-0.031-0.238-0.023-0.453,0.023-0.647
					c0.046-0.193,0.121-0.361,0.223-0.502c0.102-0.142,0.229-0.255,0.381-0.342s0.32-0.141,0.504-0.165
					c0.155-0.02,0.311-0.009,0.467,0.032s0.308,0.104,0.457,0.189c0.149,0.084,0.296,0.187,0.44,0.309
					c0.144,0.122,0.284,0.253,0.421,0.393l5.047,5.264l-0.754-5.813c-0.021-0.16-0.011-0.313,0.029-0.459s0.105-0.276,0.193-0.391
					c0.089-0.115,0.198-0.212,0.329-0.29s0.276-0.128,0.436-0.149c0.16-0.021,0.313-0.01,0.459,0.033s0.277,0.108,0.392,0.197
					s0.212,0.198,0.29,0.329c0.079,0.13,0.128,0.276,0.149,0.436l0.961,7.406c0.035,0.267,0.053,0.525,0.056,0.773
					s-0.03,0.471-0.098,0.667s-0.18,0.361-0.335,0.495s-0.374,0.219-0.655,0.255c-0.15,0.02-0.301,0.009-0.451-0.03
					c-0.151-0.04-0.299-0.102-0.446-0.186c-0.147-0.085-0.292-0.188-0.436-0.31s-0.287-0.255-0.429-0.399l-5.101-5.331
					L88.527,29.956z"/>
				<path fill="#FFFFFF" d="M106.818,26.504c0.045,0.083,0.093,0.169,0.145,0.259s0.1,0.181,0.146,0.273
					c0.047,0.093,0.087,0.182,0.12,0.269s0.055,0.167,0.064,0.239c0.023,0.179,0.011,0.343-0.036,0.489
					c-0.048,0.147-0.121,0.275-0.22,0.384c-0.099,0.109-0.22,0.199-0.361,0.269s-0.294,0.116-0.459,0.137
					c-0.189,0.025-0.355,0.019-0.498-0.017s-0.275-0.105-0.397-0.207c-0.122-0.103-0.24-0.241-0.354-0.416s-0.239-0.392-0.377-0.65
					l-0.469-0.879l-4.118,0.534l-0.178,0.963c-0.051,0.288-0.11,0.532-0.175,0.733s-0.145,0.365-0.239,0.493
					s-0.209,0.227-0.343,0.296s-0.296,0.116-0.485,0.141c-0.165,0.021-0.325,0.016-0.479-0.016
					c-0.155-0.032-0.294-0.088-0.418-0.168s-0.227-0.185-0.311-0.315c-0.083-0.13-0.137-0.284-0.16-0.464
					c-0.009-0.073-0.009-0.155,0.001-0.248c0.01-0.093,0.026-0.19,0.047-0.291c0.021-0.101,0.045-0.202,0.072-0.302
					s0.051-0.195,0.074-0.287l1.271-5.543c0.12-0.519,0.239-0.979,0.357-1.382c0.118-0.402,0.261-0.748,0.428-1.036
					s0.373-0.516,0.618-0.683s0.554-0.275,0.927-0.324c0.349-0.045,0.654-0.032,0.915,0.04s0.506,0.215,0.736,0.43
					s0.46,0.506,0.691,0.876c0.23,0.37,0.492,0.826,0.784,1.37L106.818,26.504z M101.248,20.746l-0.994,4.886l3.23-0.419l-2.2-4.471
					L101.248,20.746z"/>
			</g>
		</g>
	</g>
</g>
<g>
	<path fill="#FFFFFF" d="M51.891,64.923c-0.084,0.301-0.16,0.569-0.225,0.804c-0.028,0.101-0.057,0.2-0.083,0.295
		s-0.05,0.18-0.071,0.256c-0.022,0.075-0.039,0.137-0.052,0.182l-0.019,0.068c-0.019,0.07-0.042,0.137-0.065,0.201
		c-0.025,0.064-0.052,0.12-0.086,0.169c-0.034,0.05-0.075,0.09-0.121,0.123c-0.045,0.032-0.101,0.052-0.165,0.06
		c-0.058,0.006-0.111,0.002-0.158-0.014c-0.047-0.015-0.091-0.041-0.133-0.078c-0.041-0.038-0.082-0.085-0.122-0.144
		c-0.04-0.058-0.08-0.127-0.122-0.205l-0.79-1.461l0.209,1.87c0.004,0.039,0.002,0.078-0.01,0.115
		c-0.01,0.037-0.028,0.069-0.051,0.098c-0.023,0.028-0.052,0.052-0.085,0.07c-0.035,0.02-0.071,0.032-0.11,0.036
		c-0.039,0.004-0.077,0.001-0.115-0.011c-0.036-0.011-0.069-0.028-0.097-0.05c-0.029-0.023-0.052-0.051-0.072-0.085
		c-0.018-0.034-0.03-0.071-0.035-0.11l-0.202-1.81c-0.013-0.114-0.018-0.218-0.018-0.313c0.003-0.094,0.017-0.177,0.045-0.246
		c0.029-0.069,0.073-0.126,0.135-0.169c0.06-0.044,0.144-0.072,0.249-0.083c0.076-0.008,0.144-0.002,0.204,0.017
		c0.059,0.021,0.118,0.057,0.172,0.109c0.056,0.053,0.112,0.124,0.169,0.21c0.056,0.089,0.12,0.196,0.189,0.32l0.665,1.207
		l0.016-0.002l0.389-1.325c0.035-0.116,0.069-0.224,0.103-0.319c0.036-0.095,0.074-0.178,0.119-0.246
		c0.043-0.068,0.094-0.122,0.15-0.162s0.122-0.067,0.199-0.075c0.084-0.009,0.158-0.004,0.224,0.013
		c0.064,0.018,0.12,0.051,0.166,0.102c0.045,0.051,0.083,0.119,0.113,0.203c0.029,0.085,0.052,0.189,0.065,0.312l0.21,1.88
		c0.004,0.039,0.001,0.078-0.011,0.115c-0.01,0.037-0.028,0.069-0.051,0.098c-0.023,0.028-0.051,0.052-0.086,0.071
		c-0.032,0.02-0.069,0.032-0.109,0.036c-0.039,0.004-0.078,0.001-0.114-0.011c-0.038-0.01-0.071-0.028-0.098-0.05
		c-0.029-0.023-0.052-0.051-0.072-0.085c-0.018-0.034-0.03-0.071-0.035-0.11L51.891,64.923z"/>
	<path fill="#FFFFFF" d="M53.695,66.911c-0.067,0.007-0.124,0.001-0.172-0.023c-0.049-0.021-0.089-0.054-0.12-0.094
		c-0.034-0.041-0.057-0.088-0.077-0.141c-0.017-0.054-0.029-0.108-0.035-0.163l-0.209-1.87c-0.008-0.075-0.012-0.144-0.009-0.208
		c0.001-0.065,0.016-0.121,0.042-0.172c0.026-0.048,0.068-0.09,0.125-0.123c0.057-0.033,0.137-0.055,0.239-0.066l1.259-0.141
		c0.038-0.004,0.074-0.002,0.11,0.009c0.034,0.009,0.065,0.025,0.092,0.045c0.027,0.019,0.05,0.045,0.069,0.074
		c0.017,0.03,0.028,0.063,0.032,0.097c0.004,0.037,0,0.07-0.01,0.102c-0.012,0.033-0.029,0.061-0.051,0.088
		c-0.022,0.025-0.049,0.047-0.08,0.063c-0.033,0.017-0.067,0.027-0.105,0.032l-1.01,0.113l0.071,0.636l0.921-0.103
		c0.038-0.004,0.075-0.002,0.109,0.008c0.035,0.009,0.066,0.024,0.094,0.045s0.05,0.046,0.068,0.074
		c0.018,0.03,0.028,0.062,0.032,0.097c0.004,0.035,0.001,0.069-0.01,0.102c-0.011,0.032-0.028,0.061-0.05,0.086
		c-0.022,0.026-0.049,0.048-0.081,0.065c-0.031,0.017-0.067,0.026-0.105,0.03l-0.921,0.103l0.077,0.688l1.059-0.119
		c0.034-0.004,0.069-0.001,0.1,0.007c0.033,0.011,0.062,0.025,0.089,0.046c0.026,0.021,0.046,0.046,0.064,0.076
		c0.015,0.029,0.025,0.062,0.029,0.096c0.004,0.037,0.001,0.07-0.007,0.101c-0.011,0.033-0.025,0.061-0.046,0.087
		c-0.021,0.025-0.046,0.046-0.076,0.063c-0.029,0.016-0.062,0.027-0.096,0.031L53.695,66.911z"/>
	<path fill="#FFFFFF" d="M56.629,64.084c-0.006-0.054-0.001-0.104,0.012-0.154c0.014-0.048,0.035-0.091,0.065-0.13
		c0.028-0.038,0.064-0.069,0.105-0.094c0.042-0.025,0.088-0.04,0.139-0.046c0.051-0.006,0.099-0.001,0.146,0.014
		c0.045,0.015,0.088,0.038,0.124,0.068c0.038,0.032,0.069,0.069,0.092,0.113c0.025,0.045,0.04,0.094,0.046,0.147l0.171,1.538
		c0.018,0.165,0.011,0.313-0.022,0.441c-0.032,0.131-0.088,0.242-0.167,0.334c-0.078,0.093-0.178,0.168-0.301,0.224
		c-0.123,0.057-0.266,0.095-0.43,0.113c-0.145,0.016-0.286,0.01-0.422-0.019c-0.137-0.03-0.26-0.086-0.367-0.172
		c-0.052-0.041-0.097-0.087-0.135-0.14c-0.036-0.052-0.058-0.101-0.063-0.148c-0.004-0.031,0-0.063,0.012-0.095
		c0.01-0.032,0.026-0.06,0.047-0.086c0.021-0.025,0.046-0.046,0.075-0.064c0.03-0.017,0.059-0.028,0.091-0.031
		c0.029-0.003,0.054,0.002,0.08,0.014s0.051,0.026,0.075,0.045c0.026,0.017,0.05,0.037,0.074,0.058
		c0.025,0.021,0.049,0.039,0.075,0.055c0.051,0.033,0.104,0.057,0.159,0.072c0.055,0.016,0.114,0.02,0.176,0.013
		c0.128-0.014,0.218-0.064,0.268-0.149c0.051-0.085,0.066-0.211,0.048-0.379L56.629,64.084z"/>
	<path fill="#FFFFFF" d="M57.859,65.004c-0.024-0.214-0.016-0.418,0.021-0.607c0.038-0.19,0.107-0.356,0.21-0.501
		c0.1-0.145,0.235-0.265,0.402-0.36c0.167-0.093,0.368-0.154,0.603-0.18c0.229-0.026,0.434-0.012,0.618,0.041
		c0.183,0.052,0.341,0.137,0.473,0.256c0.132,0.118,0.239,0.266,0.32,0.442c0.081,0.176,0.135,0.376,0.159,0.597
		c0.025,0.22,0.017,0.423-0.021,0.613c-0.038,0.19-0.108,0.356-0.211,0.502c-0.103,0.144-0.239,0.264-0.405,0.355
		c-0.168,0.093-0.367,0.152-0.598,0.178c-0.226,0.025-0.43,0.014-0.613-0.037c-0.182-0.051-0.341-0.135-0.474-0.253
		c-0.133-0.116-0.24-0.263-0.322-0.439C57.938,65.432,57.884,65.232,57.859,65.004z M58.622,64.919
		c0.036,0.326,0.115,0.564,0.237,0.718c0.122,0.155,0.293,0.219,0.513,0.194c0.216-0.024,0.367-0.125,0.455-0.301
		c0.087-0.177,0.114-0.427,0.077-0.754c-0.018-0.157-0.046-0.294-0.086-0.414c-0.038-0.119-0.089-0.218-0.151-0.296
		c-0.062-0.078-0.136-0.134-0.22-0.169c-0.086-0.035-0.184-0.046-0.295-0.033c-0.11,0.012-0.203,0.044-0.278,0.097
		c-0.076,0.052-0.136,0.124-0.179,0.213c-0.043,0.09-0.069,0.197-0.082,0.322C58.602,64.622,58.605,64.762,58.622,64.919z"/>
	<path fill="#FFFFFF" d="M61.991,65.596c0.006,0.054,0.002,0.104-0.012,0.152c-0.013,0.049-0.035,0.093-0.065,0.13
		c-0.029,0.039-0.065,0.07-0.106,0.095c-0.042,0.023-0.088,0.039-0.139,0.045c-0.051,0.006-0.099,0.001-0.146-0.013
		c-0.045-0.016-0.088-0.038-0.123-0.07c-0.038-0.03-0.067-0.068-0.092-0.113c-0.023-0.044-0.039-0.092-0.045-0.146l-0.236-2.108
		c-0.007-0.059,0-0.114,0.019-0.161c0.02-0.049,0.047-0.089,0.084-0.123c0.037-0.035,0.083-0.064,0.135-0.084
		c0.053-0.022,0.109-0.036,0.169-0.043l0.787-0.088c0.145-0.016,0.286-0.021,0.422-0.018c0.136,0.005,0.256,0.027,0.364,0.068
		c0.107,0.041,0.196,0.105,0.268,0.19c0.071,0.087,0.114,0.204,0.131,0.353c0.009,0.081,0.007,0.159-0.007,0.234
		c-0.014,0.076-0.043,0.145-0.087,0.208c-0.043,0.064-0.102,0.121-0.178,0.171c-0.075,0.051-0.171,0.092-0.284,0.124l0.001,0.008
		c0.084,0.001,0.157,0.009,0.22,0.022c0.061,0.014,0.115,0.035,0.161,0.064c0.046,0.028,0.084,0.065,0.115,0.109
		s0.059,0.098,0.084,0.159c0.023,0.064,0.045,0.134,0.065,0.215c0.02,0.08,0.039,0.172,0.061,0.274
		c0.005,0.029,0.01,0.056,0.015,0.083c0.004,0.026,0.009,0.053,0.011,0.078c0.006,0.058,0.006,0.109,0.002,0.157
		c-0.007,0.048-0.02,0.091-0.041,0.128c-0.024,0.037-0.056,0.067-0.1,0.092c-0.044,0.023-0.102,0.039-0.173,0.047
		c-0.065,0.007-0.122-0.001-0.168-0.026c-0.048-0.025-0.089-0.062-0.122-0.111c-0.036-0.049-0.064-0.108-0.087-0.174
		c-0.022-0.068-0.043-0.139-0.06-0.217c-0.027-0.112-0.051-0.206-0.072-0.281c-0.023-0.076-0.052-0.135-0.087-0.178
		c-0.035-0.044-0.081-0.073-0.139-0.085c-0.057-0.015-0.135-0.015-0.231-0.005l-0.399,0.045L61.991,65.596z M62.154,64.316
		c0.071-0.008,0.141-0.02,0.21-0.037c0.07-0.016,0.132-0.041,0.185-0.074c0.054-0.034,0.096-0.078,0.125-0.133
		c0.029-0.056,0.039-0.127,0.029-0.214c-0.011-0.098-0.036-0.171-0.075-0.217c-0.041-0.046-0.09-0.079-0.149-0.097
		s-0.126-0.027-0.2-0.024c-0.075,0.002-0.153,0.008-0.232,0.017l-0.296,0.033l0.087,0.781L62.154,64.316z"/>
	<path fill="#FFFFFF" d="M65.157,64.21c-0.027-0.238-0.015-0.455,0.033-0.65c0.05-0.196,0.13-0.365,0.241-0.509
		c0.111-0.144,0.249-0.26,0.414-0.347c0.166-0.089,0.352-0.144,0.559-0.167c0.163-0.018,0.307-0.024,0.43-0.018
		c0.124,0.007,0.226,0.024,0.31,0.05c0.084,0.026,0.149,0.062,0.193,0.105c0.045,0.044,0.07,0.094,0.076,0.15
		c0.004,0.038,0,0.071-0.012,0.102c-0.013,0.029-0.031,0.055-0.054,0.076c-0.024,0.021-0.05,0.037-0.08,0.05
		c-0.031,0.011-0.061,0.02-0.093,0.024c-0.02,0.002-0.038,0.003-0.055,0.005c-0.02,0.001-0.037,0-0.055-0.003
		c-0.051-0.008-0.1-0.015-0.147-0.022c-0.046-0.008-0.092-0.014-0.137-0.018c-0.044-0.004-0.09-0.007-0.133-0.008
		c-0.045-0.002-0.09,0.001-0.137,0.006c-0.099,0.011-0.189,0.036-0.274,0.076c-0.083,0.038-0.153,0.099-0.209,0.181
		c-0.056,0.082-0.095,0.188-0.118,0.32c-0.024,0.131-0.024,0.297-0.002,0.494c0.017,0.152,0.047,0.286,0.091,0.403
		c0.042,0.118,0.1,0.215,0.168,0.294c0.07,0.077,0.151,0.134,0.245,0.169c0.095,0.036,0.201,0.046,0.32,0.033
		c0.048-0.005,0.099-0.016,0.15-0.033s0.103-0.035,0.156-0.059c0.053-0.022,0.107-0.046,0.161-0.075
		c0.055-0.026,0.109-0.053,0.163-0.082c0.017-0.006,0.037-0.012,0.062-0.015c0.033-0.004,0.063,0,0.091,0.01
		c0.029,0.009,0.054,0.023,0.075,0.042c0.023,0.019,0.04,0.042,0.054,0.068c0.014,0.028,0.022,0.057,0.026,0.088
		c0.006,0.05-0.006,0.099-0.034,0.145c-0.029,0.046-0.068,0.09-0.119,0.129c-0.051,0.041-0.112,0.077-0.18,0.111
		c-0.069,0.033-0.14,0.062-0.214,0.089c-0.074,0.024-0.148,0.046-0.222,0.063c-0.075,0.016-0.144,0.028-0.208,0.035
		c-0.194,0.022-0.378,0.01-0.552-0.036c-0.175-0.045-0.33-0.125-0.467-0.235c-0.137-0.112-0.251-0.254-0.342-0.429
		C65.242,64.651,65.183,64.446,65.157,64.21z"/>
	<path fill="#FFFFFF" d="M68.035,63.866c-0.024-0.214-0.016-0.418,0.021-0.607c0.038-0.19,0.107-0.356,0.21-0.501
		c0.1-0.145,0.235-0.265,0.402-0.36c0.167-0.093,0.368-0.154,0.603-0.18c0.229-0.026,0.434-0.012,0.618,0.041
		c0.183,0.052,0.341,0.137,0.473,0.256c0.132,0.118,0.239,0.266,0.32,0.442c0.081,0.176,0.135,0.376,0.159,0.597
		c0.025,0.22,0.017,0.423-0.021,0.613c-0.038,0.19-0.108,0.356-0.211,0.502c-0.103,0.144-0.239,0.264-0.405,0.355
		c-0.168,0.093-0.367,0.152-0.598,0.178c-0.226,0.025-0.43,0.014-0.613-0.037c-0.182-0.051-0.341-0.135-0.474-0.253
		c-0.133-0.116-0.24-0.263-0.322-0.439C68.115,64.294,68.061,64.093,68.035,63.866z M68.799,63.78
		c0.036,0.326,0.115,0.564,0.237,0.718c0.122,0.155,0.293,0.219,0.513,0.194c0.216-0.024,0.367-0.125,0.455-0.301
		c0.087-0.177,0.114-0.427,0.077-0.754c-0.018-0.157-0.046-0.294-0.086-0.414c-0.038-0.119-0.089-0.218-0.151-0.296
		c-0.062-0.078-0.136-0.134-0.22-0.169c-0.086-0.035-0.184-0.046-0.295-0.033c-0.11,0.012-0.203,0.044-0.278,0.097
		c-0.076,0.052-0.136,0.124-0.179,0.213s-0.069,0.197-0.082,0.322C68.779,63.483,68.781,63.624,68.799,63.78z"/>
	<path fill="#FFFFFF" d="M71.848,62.748c0.007,0.063,0.033,0.114,0.081,0.153c0.045,0.039,0.105,0.07,0.176,0.094
		c0.07,0.024,0.149,0.042,0.238,0.055c0.086,0.014,0.175,0.029,0.265,0.045c0.143,0.026,0.274,0.057,0.393,0.091
		c0.118,0.034,0.221,0.08,0.309,0.136c0.087,0.056,0.158,0.127,0.212,0.212c0.054,0.084,0.089,0.19,0.103,0.316
		c0.015,0.136,0.002,0.263-0.041,0.379c-0.041,0.116-0.109,0.219-0.203,0.307c-0.093,0.089-0.21,0.161-0.35,0.218
		c-0.139,0.058-0.3,0.096-0.481,0.116c-0.093,0.01-0.186,0.016-0.282,0.016c-0.095-0.001-0.189-0.007-0.277-0.018
		c-0.091-0.011-0.176-0.027-0.257-0.049c-0.08-0.02-0.151-0.047-0.213-0.079c-0.062-0.03-0.112-0.067-0.15-0.109
		c-0.038-0.041-0.059-0.087-0.064-0.138c-0.004-0.033-0.001-0.065,0.01-0.098c0.01-0.033,0.025-0.064,0.043-0.092
		c0.019-0.027,0.041-0.051,0.066-0.07c0.024-0.019,0.05-0.029,0.077-0.032c0.024-0.003,0.046-0.001,0.069,0.004
		c0.023,0.005,0.046,0.012,0.071,0.021c0.023,0.008,0.048,0.018,0.075,0.029c0.025,0.01,0.052,0.019,0.081,0.025
		c0.095,0.032,0.2,0.057,0.317,0.076c0.115,0.022,0.234,0.024,0.359,0.01c0.065-0.007,0.129-0.021,0.186-0.039
		c0.059-0.02,0.109-0.044,0.15-0.075c0.043-0.03,0.075-0.067,0.096-0.111c0.022-0.042,0.029-0.093,0.023-0.151
		c-0.005-0.043-0.017-0.08-0.036-0.112c-0.019-0.032-0.044-0.06-0.075-0.083c-0.029-0.022-0.064-0.04-0.103-0.056
		c-0.039-0.014-0.08-0.027-0.122-0.037l-0.091-0.022c-0.018-0.003-0.034-0.007-0.05-0.012c-0.016-0.003-0.035-0.007-0.054-0.011
		l-0.105-0.017c-0.023-0.003-0.042-0.006-0.058-0.008c-0.016-0.003-0.031-0.006-0.043-0.01c-0.014-0.002-0.026-0.006-0.038-0.009
		c-0.012-0.004-0.026-0.006-0.042-0.011l-0.193-0.043c-0.124-0.03-0.231-0.063-0.321-0.1c-0.09-0.038-0.166-0.083-0.224-0.136
		c-0.062-0.053-0.108-0.115-0.142-0.188c-0.034-0.072-0.056-0.158-0.067-0.257c-0.015-0.131-0.002-0.251,0.041-0.365
		c0.042-0.111,0.11-0.211,0.203-0.295c0.094-0.087,0.21-0.157,0.349-0.214c0.141-0.057,0.3-0.096,0.481-0.116
		c0.065-0.007,0.136-0.011,0.215-0.011c0.078-0.001,0.157,0.004,0.237,0.012c0.078,0.009,0.155,0.022,0.23,0.041
		c0.074,0.02,0.14,0.044,0.199,0.073c0.059,0.03,0.108,0.066,0.147,0.108c0.038,0.042,0.061,0.091,0.067,0.147
		c0.004,0.033,0,0.064-0.008,0.092c-0.01,0.029-0.024,0.054-0.042,0.076c-0.02,0.022-0.042,0.04-0.069,0.054
		c-0.026,0.015-0.056,0.023-0.086,0.027c-0.039,0.004-0.075,0-0.11-0.014c-0.065-0.025-0.125-0.044-0.18-0.061
		c-0.056-0.016-0.11-0.029-0.164-0.037c-0.054-0.009-0.109-0.013-0.166-0.013c-0.056,0-0.117,0.004-0.184,0.011
		c-0.063,0.007-0.124,0.019-0.184,0.036c-0.059,0.018-0.112,0.042-0.156,0.072c-0.046,0.029-0.08,0.065-0.106,0.106
		C71.851,62.646,71.842,62.693,71.848,62.748z"/>
	<path fill="#FFFFFF" d="M73.867,62.295c-0.039,0.004-0.075,0.002-0.111-0.009c-0.035-0.009-0.068-0.024-0.095-0.045
		c-0.029-0.021-0.052-0.047-0.071-0.077c-0.018-0.03-0.029-0.062-0.033-0.097s0-0.07,0.011-0.103
		c0.012-0.034,0.029-0.064,0.052-0.091c0.022-0.026,0.05-0.048,0.083-0.066c0.033-0.017,0.067-0.029,0.106-0.033l1.79-0.2
		c0.038-0.004,0.074,0,0.111,0.009c0.034,0.011,0.066,0.026,0.095,0.046c0.027,0.021,0.051,0.046,0.07,0.077
		c0.019,0.03,0.031,0.063,0.035,0.098c0.004,0.035,0,0.069-0.012,0.102c-0.011,0.033-0.029,0.064-0.051,0.09
		c-0.024,0.026-0.052,0.048-0.083,0.065c-0.034,0.018-0.068,0.029-0.106,0.033l-0.526,0.059l0.218,1.948
		c0.006,0.054,0.002,0.104-0.012,0.152c-0.013,0.049-0.035,0.093-0.065,0.13c-0.029,0.039-0.065,0.07-0.106,0.095
		c-0.042,0.023-0.088,0.039-0.139,0.045c-0.051,0.006-0.099,0.001-0.146-0.013c-0.045-0.016-0.088-0.038-0.123-0.07
		c-0.038-0.03-0.067-0.068-0.092-0.113c-0.023-0.044-0.039-0.092-0.045-0.146l-0.218-1.948L73.867,62.295z"/>
	<path fill="#FFFFFF" d="M76.081,62.966c-0.024-0.214-0.016-0.418,0.021-0.607c0.038-0.19,0.107-0.356,0.21-0.501
		c0.1-0.145,0.235-0.265,0.402-0.36c0.167-0.093,0.368-0.154,0.603-0.18c0.229-0.026,0.434-0.012,0.618,0.041
		c0.183,0.052,0.341,0.137,0.473,0.256c0.132,0.118,0.239,0.266,0.32,0.442c0.081,0.176,0.135,0.376,0.159,0.597
		c0.025,0.22,0.017,0.423-0.021,0.613c-0.038,0.19-0.108,0.356-0.211,0.502c-0.103,0.144-0.239,0.264-0.405,0.355
		c-0.168,0.093-0.367,0.152-0.598,0.178c-0.226,0.025-0.43,0.014-0.613-0.037c-0.182-0.051-0.341-0.135-0.474-0.253
		c-0.133-0.116-0.24-0.263-0.322-0.439C76.161,63.394,76.107,63.193,76.081,62.966z M76.845,62.88
		c0.036,0.326,0.115,0.564,0.237,0.718c0.122,0.155,0.293,0.219,0.513,0.194c0.216-0.024,0.367-0.125,0.455-0.301
		c0.087-0.177,0.114-0.427,0.077-0.754c-0.018-0.157-0.046-0.294-0.086-0.414c-0.038-0.119-0.089-0.218-0.151-0.296
		c-0.062-0.078-0.136-0.134-0.22-0.169c-0.086-0.035-0.184-0.046-0.295-0.033c-0.11,0.012-0.203,0.044-0.278,0.097
		c-0.076,0.052-0.136,0.124-0.179,0.213c-0.043,0.09-0.069,0.197-0.082,0.322C76.825,62.583,76.828,62.723,76.845,62.88z"/>
	<path fill="#FFFFFF" d="M81.152,63.839c-0.067,0.007-0.124,0.001-0.172-0.023c-0.049-0.021-0.089-0.054-0.12-0.094
		c-0.034-0.041-0.057-0.088-0.077-0.141c-0.017-0.054-0.029-0.108-0.035-0.163l-0.209-1.87c-0.008-0.075-0.012-0.144-0.009-0.208
		c0.001-0.065,0.016-0.121,0.042-0.171c0.026-0.048,0.068-0.09,0.125-0.123s0.137-0.055,0.239-0.066l1.259-0.141
		c0.038-0.004,0.074-0.002,0.11,0.009c0.034,0.009,0.065,0.025,0.092,0.045c0.027,0.019,0.05,0.045,0.069,0.074
		c0.017,0.03,0.028,0.063,0.032,0.097c0.004,0.037,0,0.07-0.01,0.102c-0.012,0.033-0.029,0.061-0.051,0.088
		c-0.022,0.025-0.049,0.047-0.08,0.063c-0.033,0.017-0.067,0.027-0.105,0.032l-1.01,0.113l0.071,0.636l0.921-0.103
		c0.038-0.004,0.075-0.002,0.109,0.008c0.035,0.009,0.066,0.024,0.094,0.045c0.027,0.021,0.05,0.046,0.068,0.074
		c0.018,0.03,0.028,0.062,0.032,0.097c0.004,0.035,0.001,0.069-0.01,0.102c-0.011,0.032-0.028,0.061-0.05,0.086
		c-0.022,0.026-0.049,0.048-0.081,0.065c-0.031,0.017-0.067,0.026-0.105,0.03l-0.921,0.103l0.077,0.688l1.059-0.118
		c0.034-0.004,0.069-0.001,0.1,0.007c0.033,0.011,0.062,0.025,0.089,0.046c0.026,0.021,0.046,0.046,0.064,0.076
		c0.015,0.029,0.025,0.062,0.029,0.096c0.004,0.037,0.001,0.07-0.007,0.101c-0.011,0.033-0.025,0.061-0.046,0.087
		c-0.021,0.025-0.046,0.046-0.076,0.063c-0.029,0.016-0.062,0.027-0.096,0.031L81.152,63.839z"/>
	<path fill="#FFFFFF" d="M83.856,63.224c0.005,0.044,0.002,0.085-0.011,0.124c-0.012,0.038-0.03,0.074-0.056,0.104
		c-0.024,0.031-0.055,0.056-0.091,0.076c-0.035,0.021-0.074,0.033-0.118,0.038c-0.043,0.005-0.085,0.002-0.123-0.011
		c-0.04-0.011-0.075-0.03-0.104-0.055c-0.032-0.024-0.056-0.055-0.076-0.089c-0.02-0.036-0.032-0.075-0.037-0.119l-0.24-2.142
		c-0.007-0.063-0.004-0.121,0.01-0.173c0.013-0.052,0.034-0.097,0.062-0.134c0.029-0.038,0.064-0.068,0.104-0.09
		c0.042-0.023,0.087-0.038,0.137-0.043c0.042-0.005,0.083,0,0.126,0.011c0.041,0.013,0.081,0.029,0.121,0.054
		c0.04,0.022,0.079,0.051,0.118,0.085c0.037,0.033,0.074,0.07,0.11,0.107l1.334,1.44l-0.175-1.567
		c-0.005-0.043-0.002-0.085,0.01-0.123c0.011-0.04,0.029-0.075,0.053-0.104c0.024-0.032,0.055-0.056,0.089-0.078
		c0.036-0.02,0.074-0.033,0.119-0.038c0.042-0.005,0.083,0,0.123,0.011c0.039,0.013,0.074,0.03,0.104,0.056
		c0.03,0.023,0.056,0.053,0.076,0.089c0.021,0.035,0.033,0.074,0.038,0.118l0.223,1.997c0.008,0.072,0.012,0.142,0.011,0.208
		c0,0.068-0.011,0.127-0.03,0.179c-0.019,0.052-0.05,0.097-0.091,0.132c-0.044,0.035-0.102,0.056-0.178,0.065
		c-0.041,0.005-0.081,0.001-0.122-0.01c-0.04-0.011-0.08-0.028-0.118-0.053c-0.04-0.022-0.079-0.051-0.115-0.085
		c-0.039-0.033-0.077-0.07-0.114-0.109l-1.347-1.458L83.856,63.224z"/>
	<path fill="#FFFFFF" d="M88.069,60.933c0.007,0.063,0.033,0.114,0.081,0.153c0.045,0.039,0.105,0.07,0.176,0.094
		c0.07,0.024,0.149,0.042,0.238,0.055c0.086,0.014,0.175,0.029,0.265,0.045c0.143,0.026,0.274,0.057,0.393,0.091
		c0.118,0.034,0.221,0.08,0.309,0.136c0.087,0.056,0.158,0.127,0.212,0.212c0.054,0.084,0.089,0.19,0.103,0.316
		c0.015,0.136,0.002,0.263-0.041,0.379c-0.041,0.116-0.109,0.219-0.203,0.307s-0.21,0.161-0.35,0.218
		c-0.139,0.058-0.3,0.096-0.481,0.116c-0.093,0.01-0.186,0.016-0.282,0.016c-0.095-0.001-0.189-0.007-0.277-0.018
		c-0.091-0.011-0.176-0.027-0.257-0.049c-0.08-0.02-0.151-0.047-0.213-0.079c-0.062-0.03-0.112-0.067-0.15-0.109
		c-0.038-0.041-0.059-0.087-0.064-0.138c-0.004-0.033-0.001-0.065,0.01-0.098c0.01-0.033,0.025-0.064,0.043-0.092
		c0.019-0.027,0.041-0.051,0.066-0.07c0.024-0.019,0.05-0.029,0.077-0.032c0.024-0.003,0.046-0.001,0.069,0.004
		s0.046,0.012,0.071,0.021c0.023,0.008,0.048,0.018,0.075,0.029c0.025,0.01,0.052,0.019,0.081,0.025
		c0.095,0.032,0.2,0.057,0.317,0.076c0.115,0.022,0.234,0.024,0.359,0.01c0.065-0.007,0.129-0.021,0.186-0.039
		c0.059-0.02,0.109-0.044,0.15-0.075c0.043-0.03,0.075-0.067,0.096-0.111c0.022-0.042,0.029-0.093,0.023-0.151
		c-0.005-0.043-0.017-0.08-0.036-0.112c-0.019-0.032-0.044-0.06-0.075-0.083c-0.029-0.022-0.064-0.04-0.103-0.056
		c-0.039-0.014-0.08-0.027-0.122-0.037l-0.091-0.022c-0.018-0.003-0.034-0.007-0.05-0.012c-0.016-0.003-0.035-0.007-0.054-0.011
		l-0.105-0.017c-0.023-0.003-0.042-0.006-0.058-0.008c-0.016-0.003-0.031-0.006-0.043-0.01c-0.014-0.002-0.026-0.006-0.038-0.009
		c-0.012-0.004-0.026-0.006-0.042-0.011l-0.193-0.043c-0.124-0.03-0.231-0.063-0.321-0.1c-0.09-0.038-0.166-0.083-0.224-0.136
		c-0.062-0.053-0.108-0.115-0.142-0.188c-0.034-0.072-0.056-0.158-0.067-0.257c-0.015-0.131-0.002-0.251,0.041-0.365
		c0.042-0.111,0.11-0.211,0.203-0.295c0.094-0.087,0.21-0.157,0.349-0.214c0.141-0.057,0.3-0.096,0.481-0.116
		c0.065-0.007,0.136-0.011,0.215-0.011c0.078-0.001,0.157,0.004,0.237,0.012c0.078,0.009,0.155,0.022,0.23,0.041
		c0.074,0.02,0.14,0.044,0.199,0.073c0.059,0.03,0.108,0.066,0.147,0.108c0.038,0.042,0.061,0.091,0.067,0.147
		c0.004,0.033,0,0.063-0.008,0.092c-0.01,0.029-0.024,0.054-0.042,0.076c-0.02,0.022-0.042,0.04-0.069,0.054
		c-0.026,0.015-0.056,0.023-0.086,0.027c-0.039,0.004-0.075,0-0.11-0.014c-0.065-0.025-0.125-0.044-0.18-0.061
		c-0.056-0.016-0.11-0.029-0.164-0.037c-0.054-0.009-0.109-0.013-0.166-0.013c-0.056,0-0.117,0.004-0.184,0.011
		c-0.063,0.007-0.124,0.019-0.184,0.036c-0.059,0.018-0.112,0.042-0.156,0.072c-0.046,0.029-0.08,0.065-0.106,0.106
		C88.072,60.831,88.062,60.879,88.069,60.933z"/>
	<path fill="#FFFFFF" d="M90.743,62.766c-0.067,0.007-0.124,0.001-0.172-0.023c-0.049-0.021-0.089-0.054-0.12-0.094
		c-0.034-0.041-0.057-0.088-0.077-0.141c-0.017-0.054-0.029-0.108-0.035-0.163l-0.209-1.87c-0.008-0.075-0.012-0.144-0.009-0.208
		c0.001-0.065,0.016-0.121,0.042-0.172c0.026-0.048,0.068-0.09,0.125-0.123s0.137-0.055,0.239-0.066l1.259-0.141
		c0.038-0.004,0.074-0.002,0.11,0.009c0.034,0.009,0.065,0.025,0.092,0.045c0.027,0.019,0.05,0.045,0.069,0.074
		c0.017,0.03,0.028,0.063,0.032,0.097c0.004,0.037,0,0.07-0.01,0.102c-0.012,0.033-0.029,0.061-0.051,0.088
		c-0.022,0.025-0.049,0.047-0.08,0.063c-0.033,0.017-0.067,0.027-0.105,0.032l-1.01,0.113l0.071,0.636l0.921-0.103
		c0.038-0.004,0.075-0.002,0.109,0.008c0.035,0.009,0.066,0.024,0.094,0.045c0.027,0.021,0.05,0.046,0.068,0.074
		c0.018,0.03,0.028,0.062,0.032,0.097c0.004,0.035,0.001,0.069-0.01,0.102c-0.011,0.032-0.028,0.061-0.05,0.086
		c-0.022,0.026-0.049,0.048-0.081,0.065c-0.031,0.017-0.067,0.026-0.105,0.03l-0.921,0.103l0.077,0.688l1.059-0.119
		c0.034-0.004,0.069-0.001,0.1,0.007c0.033,0.011,0.062,0.025,0.089,0.046c0.026,0.021,0.046,0.046,0.064,0.076
		c0.015,0.029,0.025,0.062,0.029,0.096c0.004,0.037,0.001,0.07-0.007,0.101c-0.011,0.033-0.025,0.061-0.046,0.087
		c-0.021,0.025-0.046,0.046-0.076,0.063c-0.029,0.016-0.062,0.027-0.096,0.031L90.743,62.766z"/>
	<path fill="#FFFFFF" d="M95.004,60.736c0.051-0.006,0.094-0.004,0.127,0.007c0.034,0.009,0.06,0.028,0.08,0.055
		c0.02,0.026,0.036,0.06,0.047,0.101c0.01,0.041,0.019,0.089,0.025,0.144l0.065,0.585c0.011,0.102,0.013,0.189,0.008,0.26
		c-0.006,0.072-0.026,0.133-0.059,0.184c-0.033,0.051-0.081,0.095-0.147,0.132c-0.065,0.035-0.151,0.069-0.259,0.097
		c-0.046,0.013-0.096,0.028-0.149,0.042c-0.053,0.015-0.107,0.028-0.161,0.041c-0.056,0.013-0.11,0.026-0.163,0.035
		c-0.054,0.011-0.105,0.018-0.152,0.024c-0.23,0.026-0.44,0.02-0.632-0.019c-0.191-0.038-0.359-0.112-0.504-0.219
		c-0.145-0.108-0.262-0.251-0.353-0.432c-0.092-0.179-0.15-0.396-0.179-0.653c-0.023-0.204-0.016-0.401,0.024-0.589
		c0.039-0.187,0.112-0.356,0.219-0.505c0.108-0.148,0.25-0.273,0.43-0.372c0.18-0.1,0.399-0.164,0.656-0.193
		c0.084-0.009,0.168-0.015,0.25-0.015c0.085-0.002,0.164,0.001,0.243,0.007c0.077,0.006,0.153,0.016,0.226,0.029
		c0.072,0.013,0.14,0.028,0.2,0.046c0.063,0.018,0.11,0.047,0.143,0.086c0.034,0.04,0.053,0.084,0.059,0.134
		c0.009,0.081-0.009,0.145-0.054,0.193c-0.045,0.047-0.104,0.075-0.177,0.083c-0.037,0.004-0.086,0.002-0.148-0.006
		c-0.062-0.009-0.128-0.019-0.199-0.029c-0.07-0.012-0.143-0.021-0.215-0.028c-0.074-0.008-0.14-0.007-0.197,0
		c-0.145,0.016-0.266,0.052-0.362,0.111c-0.098,0.057-0.174,0.135-0.23,0.228c-0.055,0.096-0.092,0.208-0.108,0.336
		c-0.016,0.129-0.015,0.272,0.003,0.429c0.019,0.174,0.049,0.32,0.09,0.437c0.04,0.119,0.094,0.212,0.161,0.281
		c0.067,0.069,0.149,0.116,0.245,0.139c0.097,0.024,0.21,0.028,0.338,0.014c0.078-0.009,0.158-0.02,0.236-0.033
		c0.079-0.014,0.154-0.033,0.228-0.061L94.586,61.2l-0.264,0.03c-0.041,0.005-0.078,0.005-0.112,0.002
		c-0.035-0.004-0.066-0.012-0.093-0.025c-0.028-0.014-0.05-0.033-0.067-0.059c-0.017-0.025-0.029-0.056-0.033-0.096
		c-0.007-0.06,0.009-0.112,0.044-0.154c0.036-0.042,0.096-0.068,0.177-0.077c0.131-0.015,0.258-0.029,0.383-0.043
		C94.746,60.765,94.874,60.751,95.004,60.736z"/>
	<path fill="#FFFFFF" d="M97.413,59.521c-0.006-0.054-0.002-0.104,0.011-0.153c0.014-0.048,0.035-0.091,0.064-0.13
		c0.029-0.038,0.065-0.07,0.106-0.094c0.042-0.025,0.088-0.04,0.139-0.046c0.051-0.006,0.099-0.001,0.146,0.014
		c0.045,0.015,0.088,0.038,0.124,0.068c0.038,0.032,0.069,0.069,0.092,0.113c0.025,0.045,0.04,0.094,0.046,0.147l0.168,1.503
		c0.019,0.173,0.006,0.326-0.041,0.463c-0.046,0.135-0.119,0.252-0.219,0.35c-0.099,0.098-0.222,0.178-0.367,0.238
		c-0.147,0.06-0.309,0.099-0.487,0.119c-0.178,0.02-0.342,0.017-0.497-0.008c-0.154-0.026-0.29-0.075-0.41-0.147
		c-0.118-0.073-0.216-0.172-0.292-0.293c-0.076-0.124-0.123-0.272-0.143-0.447l-0.168-1.503c-0.006-0.054-0.002-0.104,0.012-0.154
		c0.013-0.048,0.035-0.091,0.064-0.13c0.029-0.038,0.064-0.069,0.106-0.094c0.041-0.024,0.087-0.04,0.139-0.046
		c0.05-0.006,0.099-0.001,0.145,0.014c0.047,0.015,0.088,0.038,0.125,0.068c0.037,0.032,0.067,0.069,0.092,0.113
		c0.024,0.045,0.038,0.094,0.044,0.147l0.169,1.49c0.011,0.094,0.034,0.174,0.07,0.238s0.081,0.117,0.131,0.153
		c0.052,0.039,0.108,0.065,0.17,0.079c0.061,0.014,0.123,0.018,0.185,0.011c0.063-0.007,0.122-0.024,0.18-0.052
		c0.057-0.028,0.107-0.065,0.149-0.115c0.042-0.047,0.074-0.108,0.097-0.179c0.021-0.071,0.028-0.154,0.017-0.248L97.413,59.521z"/>
	<path fill="#FFFFFF" d="M99.687,61.379c0.006,0.054,0.002,0.104-0.012,0.152c-0.013,0.049-0.035,0.093-0.065,0.13
		c-0.029,0.039-0.065,0.07-0.106,0.095c-0.042,0.023-0.088,0.039-0.139,0.045c-0.051,0.006-0.099,0.001-0.146-0.013
		c-0.045-0.016-0.088-0.038-0.123-0.07c-0.038-0.03-0.067-0.068-0.092-0.113c-0.023-0.044-0.039-0.092-0.045-0.146l-0.236-2.108
		c-0.007-0.059,0-0.114,0.019-0.161c0.02-0.049,0.047-0.089,0.084-0.123c0.037-0.035,0.083-0.064,0.135-0.084
		c0.053-0.022,0.109-0.036,0.169-0.043l0.787-0.088c0.145-0.016,0.286-0.021,0.422-0.018c0.136,0.005,0.256,0.027,0.364,0.068
		c0.107,0.041,0.196,0.105,0.268,0.19c0.071,0.087,0.114,0.204,0.131,0.353c0.009,0.081,0.007,0.159-0.007,0.234
		c-0.014,0.076-0.043,0.145-0.087,0.208c-0.043,0.064-0.102,0.121-0.178,0.171c-0.075,0.051-0.171,0.092-0.284,0.124l0.001,0.008
		c0.084,0.001,0.157,0.009,0.22,0.022c0.061,0.014,0.115,0.035,0.161,0.064c0.046,0.028,0.084,0.065,0.115,0.109
		c0.031,0.044,0.059,0.098,0.084,0.159c0.023,0.064,0.045,0.134,0.065,0.215c0.02,0.08,0.039,0.172,0.061,0.274
		c0.005,0.029,0.01,0.056,0.015,0.083c0.004,0.026,0.009,0.053,0.011,0.078c0.006,0.058,0.006,0.109,0.002,0.157
		c-0.007,0.048-0.02,0.091-0.041,0.128c-0.024,0.037-0.056,0.067-0.1,0.092c-0.044,0.023-0.102,0.039-0.173,0.047
		c-0.065,0.007-0.122-0.001-0.168-0.026c-0.048-0.025-0.089-0.062-0.122-0.111c-0.036-0.049-0.064-0.108-0.087-0.174
		c-0.022-0.068-0.043-0.139-0.06-0.217c-0.027-0.112-0.051-0.206-0.072-0.281c-0.023-0.076-0.052-0.135-0.087-0.178
		c-0.035-0.044-0.081-0.073-0.139-0.085c-0.057-0.015-0.135-0.015-0.231-0.005l-0.399,0.045L99.687,61.379z M99.849,60.099
		c0.071-0.008,0.141-0.02,0.21-0.037c0.07-0.016,0.132-0.041,0.185-0.074c0.054-0.034,0.096-0.078,0.125-0.133
		c0.029-0.056,0.039-0.127,0.029-0.214c-0.011-0.098-0.036-0.171-0.075-0.217c-0.041-0.046-0.09-0.079-0.149-0.097
		s-0.126-0.027-0.2-0.024c-0.075,0.002-0.153,0.008-0.232,0.017l-0.296,0.033l0.087,0.781L99.849,60.099z"/>
	<path fill="#FFFFFF" d="M101.531,60.119c-0.024-0.214-0.016-0.418,0.021-0.607c0.038-0.19,0.107-0.356,0.21-0.501
		c0.1-0.145,0.235-0.265,0.402-0.36c0.167-0.093,0.368-0.154,0.603-0.18c0.229-0.026,0.434-0.012,0.618,0.041
		c0.183,0.052,0.341,0.137,0.473,0.256c0.132,0.118,0.239,0.266,0.32,0.442c0.081,0.176,0.135,0.376,0.159,0.597
		c0.025,0.22,0.017,0.423-0.021,0.613c-0.038,0.19-0.108,0.356-0.211,0.502c-0.103,0.144-0.239,0.264-0.405,0.355
		c-0.168,0.093-0.367,0.152-0.598,0.178c-0.226,0.025-0.43,0.014-0.613-0.037c-0.182-0.051-0.341-0.135-0.474-0.253
		c-0.133-0.116-0.24-0.263-0.322-0.439C101.61,60.547,101.556,60.346,101.531,60.119z M102.294,60.033
		c0.036,0.326,0.115,0.564,0.237,0.718c0.122,0.155,0.293,0.219,0.513,0.194c0.216-0.024,0.367-0.125,0.455-0.301
		c0.087-0.177,0.114-0.427,0.077-0.754c-0.018-0.157-0.046-0.294-0.086-0.414c-0.038-0.119-0.089-0.218-0.151-0.296
		c-0.062-0.078-0.136-0.134-0.22-0.169c-0.086-0.035-0.184-0.046-0.295-0.033c-0.11,0.012-0.203,0.044-0.278,0.097
		c-0.076,0.052-0.136,0.124-0.179,0.213c-0.043,0.09-0.069,0.197-0.082,0.322C102.274,59.736,102.277,59.876,102.294,60.033z"/>
	<path fill="#FFFFFF" d="M105.343,59.001c0.007,0.063,0.033,0.114,0.081,0.153c0.045,0.039,0.105,0.07,0.176,0.094
		c0.07,0.024,0.149,0.042,0.238,0.055c0.086,0.014,0.175,0.029,0.265,0.045c0.143,0.026,0.274,0.057,0.393,0.091
		c0.118,0.034,0.221,0.08,0.309,0.136c0.087,0.056,0.158,0.127,0.212,0.212c0.054,0.084,0.089,0.19,0.103,0.316
		c0.015,0.136,0.002,0.263-0.041,0.379c-0.041,0.116-0.109,0.219-0.203,0.307c-0.093,0.089-0.21,0.161-0.35,0.218
		c-0.139,0.058-0.3,0.096-0.481,0.116c-0.093,0.01-0.186,0.016-0.282,0.016c-0.095-0.001-0.189-0.007-0.277-0.018
		c-0.091-0.011-0.176-0.027-0.257-0.049c-0.08-0.02-0.151-0.047-0.213-0.079c-0.062-0.03-0.112-0.067-0.15-0.109
		c-0.038-0.041-0.059-0.087-0.064-0.138c-0.004-0.033-0.001-0.065,0.01-0.098c0.01-0.033,0.025-0.064,0.043-0.092
		c0.019-0.027,0.041-0.051,0.066-0.07c0.024-0.019,0.05-0.029,0.077-0.032c0.024-0.003,0.046-0.001,0.069,0.004
		c0.023,0.005,0.046,0.012,0.071,0.021c0.023,0.008,0.048,0.018,0.075,0.029c0.025,0.01,0.052,0.019,0.081,0.025
		c0.095,0.032,0.2,0.057,0.317,0.076c0.115,0.022,0.234,0.024,0.359,0.01c0.065-0.007,0.129-0.021,0.186-0.039
		c0.059-0.02,0.109-0.044,0.15-0.075c0.043-0.03,0.075-0.067,0.096-0.111c0.022-0.042,0.029-0.093,0.023-0.151
		c-0.005-0.043-0.017-0.08-0.036-0.112c-0.019-0.032-0.044-0.06-0.075-0.083c-0.029-0.022-0.064-0.04-0.103-0.056
		c-0.039-0.014-0.08-0.027-0.122-0.037l-0.091-0.022c-0.018-0.003-0.034-0.007-0.05-0.012c-0.016-0.003-0.035-0.007-0.054-0.011
		l-0.105-0.017c-0.023-0.003-0.042-0.006-0.058-0.008c-0.016-0.003-0.031-0.006-0.043-0.01c-0.014-0.002-0.026-0.006-0.038-0.009
		c-0.012-0.004-0.026-0.006-0.042-0.011l-0.193-0.043c-0.124-0.03-0.231-0.063-0.321-0.1c-0.09-0.038-0.166-0.083-0.224-0.136
		c-0.062-0.053-0.108-0.115-0.142-0.188c-0.034-0.072-0.056-0.158-0.067-0.257c-0.015-0.131-0.002-0.251,0.041-0.365
		c0.042-0.111,0.11-0.211,0.203-0.295c0.094-0.087,0.21-0.157,0.349-0.214c0.141-0.057,0.3-0.096,0.481-0.116
		c0.065-0.007,0.136-0.011,0.215-0.011c0.078-0.001,0.157,0.004,0.237,0.012c0.078,0.009,0.155,0.022,0.23,0.041
		c0.074,0.02,0.14,0.044,0.199,0.073c0.059,0.03,0.108,0.066,0.147,0.108c0.038,0.042,0.061,0.091,0.067,0.147
		c0.004,0.033,0,0.064-0.008,0.092c-0.01,0.029-0.024,0.054-0.042,0.076c-0.02,0.022-0.042,0.04-0.069,0.054
		c-0.026,0.015-0.056,0.023-0.086,0.027c-0.039,0.004-0.075,0-0.11-0.014c-0.065-0.025-0.125-0.044-0.18-0.061
		c-0.056-0.016-0.11-0.029-0.164-0.037s-0.109-0.013-0.166-0.013c-0.056,0-0.117,0.004-0.184,0.011
		c-0.063,0.007-0.124,0.019-0.184,0.036c-0.059,0.018-0.112,0.042-0.156,0.072c-0.046,0.029-0.08,0.065-0.106,0.106
		C105.346,58.899,105.337,58.946,105.343,59.001z"/>
</g>
</svg>
