<?xml version="1.0" encoding="utf-8"?>
<!-- Generator: Adobe Illustrator 23.0.2, SVG Export Plug-In . SVG Version: 6.00 Build 0)  -->
<svg version="1.1" id="Capa_1" xmlns="http://www.w3.org/2000/svg" xmlns:xlink="http://www.w3.org/1999/xlink" x="0px" y="0px"
	 viewBox="0 0 511.8 511.8" style="enable-background:new 0 0 511.8 511.8;" xml:space="preserve">
<style type="text/css">
	.st0{fill:#5C6066;}
	.st1{fill:#FFCC5B;}
	.st2{fill:#EC9922;}
</style>
<polygon class="st0" points="151.4,221.2 39.6,431.8 141.1,422.4 190.2,511.7 302,301.2 "/>
<g>
	<polygon class="st0" points="360.4,221.2 472.2,431.8 370.7,422.4 321.6,511.7 209.8,301.2 	"/>
</g>
<circle class="st1" cx="255.9" cy="186.7" r="186.7"/>
<path class="st2" d="M351.9,145.2h-64.8l-20-61.7c-2.6-7.9-13.8-7.9-16.4,0l-20,61.7h-64.8c-8.3,0-11.8,10.7-5.1,15.6l52.4,38.1
	l-20,61.7c-2.6,7.9,6.5,14.5,13.2,9.6l52.4-38.1l52.4,38.1c6.8,4.9,15.8-1.7,13.2-9.6l-20-61.7l52.4-38.1
	C363.7,155.9,360.3,145.2,351.9,145.2z"/>
</svg>
