<?xml version="1.0" encoding="utf-8"?>
<!-- Generator: Adobe Illustrator 24.1.1, SVG Export Plug-In . SVG Version: 6.00 Build 0)  -->
<svg version="1.1" id="Capa_1" xmlns="http://www.w3.org/2000/svg" xmlns:xlink="http://www.w3.org/1999/xlink" x="0px" y="0px"
	 width="405.1526px" height="178.1695px" viewBox="0 0 405.1526 178.1695" style="enable-background:new 0 0 405.1526 178.1695;"
	 xml:space="preserve">
<style type="text/css">
	.st0{fill:#FFFFFF;}
	.st1{fill:#EDEDED;}
	.st2{fill:#DB2455;}
	.st3{fill:#FFFFFF;stroke:#DB2455;stroke-miterlimit:10;}
	.st4{fill:none;stroke:#FFFFFF;stroke-width:2;stroke-linecap:round;stroke-linejoin:round;stroke-miterlimit:10;}
</style>
<g>
	<path class="st0" d="M93.6855,74.0962c-0.1035,0.9923-0.1494,1.9948-0.3194,2.9755c-1.5085,8.6984-7.6346,11.7632-15.2814,7.2394
		c-3.3755-1.997-6.5655-4.6351-9.1498-7.5862C56.427,62.4422,49.0429,45.7736,47.0466,26.8735
		c-0.3775-3.5745,0.028-7.3492,0.7411-10.8971c1.48-7.3635,7.0733-9.9101,13.9166-6.6457c1.3408,0.6396,2.6372,1.4197,3.8413,2.2908
		C81.3889,23.0839,95.6665,54.7469,93.6855,74.0962z M83.7849,76.6256c6.7665-14.8953-15.2386-58.5881-27.0989-58.683
		C51.4214,33.9901,71.0666,73.7471,83.7849,76.6256z"/>
	<path class="st0" d="M40.815,26.9709c4.8632,9.4545,0.977,15.4919-6.0363,20.9848c-1.9565,1.5323-3.3914,5.0075-3.348,7.5623
		c0.1049,6.169,2.7111,11.764,7.4202,15.8211c1.7168,1.4791,4.8472,2.4272,7.0512,2.0352c8.7776-1.5614,16.2763-0.8681,19.938,8.916
		c-13.9551-4.8689-26.6788,0.6279-39.6188,5.946c-2.4415,1.0034-6.8671-0.0864-9.1152-1.834
		C8.6832,79.8557,4.8141,70.9198,5.7578,60.1251c0.3353-3.8353,2.2686-6.368,5.9114-7.8987
		c3.6733-1.5436,7.2192-3.4282,10.7066-5.3689C30.5815,42.291,37.2596,36.2211,40.815,26.9709z"/>
	<path class="st0" d="M29.7754,91.6581c2.9435-1.2925,5.2398-2.2084,7.4532-3.2934c3.6824-1.8053,6.6475-1.1855,9.0982,2.1954
		c2.3634,3.2605,5.4923,4.7919,9.6555,5.3481c2.2789,0.3045,4.5459,2.8022,6.0929,4.857c0.3453,0.4586-2.2693,3.2828-3.6874,4.8692
		c-0.634,0.7092-1.671,1.0649-2.5383,1.5575c-9.0612,5.1478-11.0978,4.7042-17.3266-3.7352
		C35.7635,99.7181,32.9886,95.991,29.7754,91.6581z"/>
	<path class="st4" d="M25.9244,170.2748c-4.4396-4.7274-8.49-9.0405-11.9886-12.7659
		c10.0074-8.6149,19.9188-17.1474,29.8303-25.6799c0.2526,0.2021,0.5053,0.4041,0.7579,0.6062
		C38.4192,144.8551,32.3143,157.275,25.9244,170.2748"/>
	<path class="st4" d="M47.9047,173.4012c2.128-11.9923,4.0939-23.0711,6.0599-34.1502c0.3068-0.0823,0.6137-0.1647,0.9205-0.247
		c3.5445,9.9528,7.089,19.9055,10.8691,30.5199C59.9348,170.7879,54.3954,171.9912,47.9047,173.4012"/>
	<path class="st4" d="M34.1901,128.6199c-4.109,2.4311-8.218,4.8623-12.6887,7.5074c-1.9647-2.0899-3.8228-4.0664-5.928-6.3057
		c1.2094-0.3873,1.8218-0.7175,2.4557-0.7656c5.2843-0.4017,10.5725-0.7515,15.8596-1.117
		C33.9891,128.1659,34.0896,128.3929,34.1901,128.6199z"/>
	<path class="st0" d="M69.9055,57.2272c-2.6457-5.9073-4.9138-10.9716-7.3913-16.5036c5.0196-0.808,7.9167,1.1775,9.7196,4.5257
		C74.306,49.0976,73.695,52.8803,69.9055,57.2272z"/>
	<path class="st4" d="M91.2068,36.0068c0.8555,2.3037,1.7581,4.084,2.1771,5.9718c2.2227,10.0054,5.4404,19.954,6.2027,30.0811
		c1.1122,14.7748-7.6691,22.0139-22.1259,19.6412c-4.725-0.7755-9.2953-2.4861-13.9416-3.7506
		c-1.7581-0.4785-3.5394-1.2747-5.2927-1.231c-1.2584,0.0315-2.4879,1.2173-3.7305,1.8882c0.1487,0.43,0.2974,0.8598,0.446,1.2897
		c6.5884-0.0063,11.1646,3.2107,12.9233,9.1733c2.1868,7.4137-4.2905,9.9233-8.9492,13.2188
		c0.5349,2.3229,1.2725,4.3946,1.4475,6.5128c0.0994,1.2012,0.3438,2.2422,0.7142,3.1582l-0.005-0.0003
		c0.5349,2.3229,1.3358,3.7881,1.5109,5.9063c0.4163,5.0349,3.3097,7.3265,7.8898,8.8726
		c8.0313,2.7111,15.8558,6.0328,23.7765,9.0739c10.9475,4.2033,21.904,8.3834,33.4286,12.7922
		c-1.3514-8.3145-2.5844-15.9001-3.8684-23.7991l-1.8718-9.0764l-0.0023-0.0001c1.7668-0.0641,2.8533-0.1318,3.9304-0.1277
		c52.7686,0.1951,194.2002,1.1474,246.968,1.4749c3.6699,0.0228,5.1519-0.9227,6.0241-4.616
		c4.8595-20.5751,10.0604-41.0691,15.0828-61.606c1.8809-7.6906,3.5956-15.4217,5.5925-24.0231
		C325.9826,36.8198,164.5251,36.0185,91.2068,36.0068z"/>
</g>
<g>
	<path class="st0" d="M107.4131,55.8248h6.361c0.8866,0,1.7251,0.0812,2.5154,0.2419c0.7898,0.1616,1.479,0.4393,2.0676,0.8342
		c0.5886,0.3958,1.0562,0.9277,1.4029,1.5966s0.5201,1.5116,0.5201,2.5272c0,1.0005-0.1616,1.8385-0.4837,2.5159
		c-0.3226,0.6764-0.7662,1.2168-1.3302,1.6202c-0.5645,0.4034-1.2334,0.6887-2.0076,0.8588
		c-0.7737,0.1691-1.6122,0.2532-2.5154,0.2532h-2.7568v6.6756h-3.7733V55.8248z M111.1864,63.0804h2.5149
		c0.3387,0,0.6651-0.0321,0.9797-0.0964c0.3146-0.0642,0.5961-0.1729,0.8465-0.3269c0.2499-0.153,0.4511-0.3628,0.6046-0.6283
		c0.1531-0.2664,0.2296-0.6009,0.2296-1.0043c0-0.4355-0.1006-0.786-0.3023-1.0515c-0.2017-0.2664-0.4591-0.4724-0.7737-0.6169
		c-0.3146-0.1455-0.6651-0.2381-1.052-0.2787c-0.3869-0.0397-0.7582-0.0605-1.1124-0.0605h-1.9348V63.0804z"/>
	<path class="st0" d="M129.5668,71.4726h-0.0487c-0.4029,0.6292-0.9395,1.0808-1.6084,1.3548
		c-0.6689,0.274-1.3746,0.411-2.1162,0.411c-0.548,0-1.0761-0.0765-1.5839-0.2296c-0.5078-0.1531-0.9556-0.3826-1.3425-0.6897
		c-0.3869-0.3061-0.6934-0.6849-0.9188-1.1365c-0.2263-0.4506-0.3387-0.975-0.3387-1.5721c0-0.6774,0.1247-1.2489,0.3746-1.7166
		c0.2499-0.4677,0.5886-0.855,1.0161-1.1611c0.427-0.3061,0.915-0.5442,1.4629-0.7133c0.548-0.1701,1.1167-0.2948,1.7053-0.3751
		c0.5886-0.0803,1.1767-0.1294,1.7657-0.1455c0.5881-0.0161,1.1323-0.0236,1.6325-0.0236c0-0.6453-0.2301-1.1573-0.6897-1.5361
		c-0.4592-0.3788-1.0033-0.5687-1.6325-0.5687c-0.5966,0-1.1408,0.1257-1.6325,0.3751c-0.4917,0.2504-0.931,0.5924-1.3179,1.0279
		l-1.9348-1.983c0.6774-0.6292,1.4672-1.1006,2.3704-1.4152c0.9027-0.3137,1.838-0.4714,2.8054-0.4714
		c1.0643,0,1.9386,0.1332,2.624,0.3996c0.6849,0.2655,1.2334,0.6566,1.6448,1.1724c0.4109,0.5168,0.6972,1.1488,0.8583,1.8989
		c0.1611,0.7492,0.2419,1.6165,0.2419,2.5999v5.9736h-3.3373V71.4726z M128.6717,67.7966c-0.2745,0-0.6165,0.0123-1.0279,0.0368
		c-0.411,0.0236-0.8063,0.0926-1.1852,0.205c-0.3788,0.1134-0.701,0.2825-0.9674,0.5083c-0.2659,0.2258-0.3987,0.5404-0.3987,0.9428
		c0,0.4355,0.1852,0.7586,0.556,0.9674c0.3708,0.2097,0.7577,0.3146,1.1611,0.3146c0.3543,0,0.6972-0.0482,1.0279-0.1455
		c0.3302-0.0964,0.6245-0.2334,0.8829-0.411c0.2574-0.1767,0.4629-0.4025,0.6164-0.6774c0.1531-0.274,0.2301-0.5961,0.2301-0.9674
		v-0.7737H128.6717z"/>
	<path class="st0" d="M147.5122,71.9563c0,2.2258-0.5607,3.9141-1.6812,5.0676c-1.1209,1.1526-2.8257,1.7289-5.1153,1.7289
		c-1.0482,0-2.0798-0.1171-3.0955-0.3505c-1.0161-0.2343-1.9514-0.6897-2.8054-1.367l2.0071-2.9986
		c0.5645,0.4676,1.1568,0.838,1.7775,1.1129c0.6207,0.274,1.3018,0.411,2.0439,0.411c1.1124,0,1.9306-0.2702,2.4549-0.8106
		c0.5234-0.5404,0.786-1.2291,0.786-2.068v-1.1365h-0.0486c-0.4195,0.565-0.9395,0.9636-1.5598,1.197
		c-0.6212,0.2343-1.2055,0.3514-1.7534,0.3514c-0.8706,0-1.6609-0.1493-2.3704-0.4478s-1.3179-0.7171-1.8257-1.2575
		c-0.5083-0.5404-0.8994-1.1809-1.1734-1.9225s-0.411-1.556-0.411-2.4431c0-0.7737,0.1247-1.5314,0.3751-2.273
		c0.2494-0.7416,0.6046-1.3944,1.0638-1.9594c0.4596-0.564,1.0199-1.0194,1.6812-1.3661c0.6609-0.3467,1.4105-0.5206,2.249-0.5206
		c0.5158,0,0.9877,0.0567,1.4152,0.1691c0.427,0.1134,0.8101,0.2589,1.1488,0.4355c0.3382,0.1776,0.6287,0.3751,0.8706,0.5924
		c0.2419,0.2182,0.4351,0.4317,0.5806,0.6415h0.0482v-1.5484h3.3378V71.9563z M138.37,66.9983c0,0.3873,0.0727,0.7539,0.2178,1.1006
		c0.145,0.3467,0.3505,0.6528,0.6164,0.9192c0.2664,0.2664,0.5725,0.4799,0.9192,0.6405c0.3467,0.1616,0.7293,0.2419,1.1488,0.2419
		c0.4029,0,0.7818-0.0803,1.1365-0.2419c0.3548-0.1606,0.6651-0.3741,0.9315-0.6405c0.2659-0.2664,0.4714-0.5725,0.6164-0.9192
		c0.145-0.3467,0.2178-0.7133,0.2178-1.1006c0-0.3864-0.0727-0.753-0.2178-1.0997s-0.3505-0.6538-0.6164-0.9192
		c-0.2664-0.2664-0.5768-0.4799-0.9315-0.6415c-0.3548-0.1606-0.7336-0.2419-1.1365-0.2419c-0.4195,0-0.8021,0.0812-1.1488,0.2419
		c-0.3467,0.1616-0.6528,0.3751-0.9192,0.6415c-0.2659,0.2655-0.4714,0.5725-0.6164,0.9192S138.37,66.6119,138.37,66.9983z"/>
	<path class="st0" d="M157.7906,71.4726h-0.0486c-0.4029,0.6292-0.9395,1.0808-1.6084,1.3548
		c-0.6689,0.274-1.3746,0.411-2.1162,0.411c-0.5479,0-1.0761-0.0765-1.5839-0.2296c-0.5078-0.1531-0.9556-0.3826-1.3425-0.6897
		c-0.3869-0.3061-0.6935-0.6849-0.9188-1.1365c-0.2263-0.4506-0.3387-0.975-0.3387-1.5721c0-0.6774,0.1247-1.2489,0.3746-1.7166
		c0.2499-0.4677,0.5886-0.855,1.0161-1.1611c0.427-0.3061,0.915-0.5442,1.4629-0.7133c0.548-0.1701,1.1167-0.2948,1.7053-0.3751
		c0.5886-0.0803,1.1767-0.1294,1.7657-0.1455c0.5881-0.0161,1.1323-0.0236,1.6325-0.0236c0-0.6453-0.23-1.1573-0.6897-1.5361
		c-0.4592-0.3788-1.0033-0.5687-1.6325-0.5687c-0.5966,0-1.1408,0.1257-1.6325,0.3751c-0.4917,0.2504-0.931,0.5924-1.3179,1.0279
		l-1.9348-1.983c0.6774-0.6292,1.4672-1.1006,2.3704-1.4152c0.9027-0.3137,1.838-0.4714,2.8054-0.4714
		c1.0643,0,1.9386,0.1332,2.624,0.3996c0.6849,0.2655,1.2334,0.6566,1.6448,1.1724c0.411,0.5168,0.6972,1.1488,0.8583,1.8989
		c0.1611,0.7492,0.2419,1.6165,0.2419,2.5999v5.9736h-3.3373V71.4726z M156.8954,67.7966c-0.2744,0-0.6164,0.0123-1.0279,0.0368
		c-0.411,0.0236-0.8063,0.0926-1.1852,0.205c-0.3788,0.1134-0.701,0.2825-0.9674,0.5083c-0.2659,0.2258-0.3987,0.5404-0.3987,0.9428
		c0,0.4355,0.1852,0.7586,0.556,0.9674c0.3708,0.2097,0.7577,0.3146,1.1611,0.3146c0.3543,0,0.6972-0.0482,1.0279-0.1455
		c0.3302-0.0964,0.6245-0.2334,0.8829-0.411c0.2574-0.1767,0.4629-0.4025,0.6164-0.6774c0.153-0.274,0.23-0.5961,0.23-0.9674
		v-0.7737H156.8954z"/>
	<path class="st0" d="M178.5655,64.096h-3.1928v3.9188c0,0.3222,0.0161,0.616,0.0487,0.8824
		c0.0321,0.2664,0.1044,0.496,0.2178,0.6897c0.1124,0.1927,0.2858,0.342,0.5196,0.4469s0.5442,0.1578,0.9315,0.1578
		c0.1932,0,0.4473-0.0208,0.7615-0.0605c0.3146-0.0406,0.5522-0.1332,0.7138-0.2787v3.0232
		c-0.4034,0.1455-0.8224,0.2419-1.2579,0.29c-0.435,0.0491-0.8625,0.0727-1.2815,0.0727c-0.6131,0-1.1771-0.0642-1.693-0.1937
		c-0.5163-0.1285-0.9674-0.3344-1.3543-0.616c-0.3873-0.2825-0.6897-0.649-0.907-1.1006c-0.2178-0.4516-0.3269-0.9995-0.3269-1.6448
		V64.096h-2.3217v-2.9023h2.3217v-3.4823h3.6278v3.4823h3.1928V64.096z"/>
	<path class="st0" d="M191.722,72.9483h-3.4828v-1.5966h-0.0482c-0.1294,0.2267-0.2943,0.4516-0.496,0.6774
		c-0.2017,0.2258-0.4473,0.428-0.7374,0.6046c-0.2905,0.1776-0.6212,0.3222-0.9915,0.4355
		c-0.3713,0.1124-0.7742,0.1691-1.2093,0.1691c-0.9192,0-1.6651-0.1408-2.2372-0.4232c-0.5725-0.2815-1.0161-0.6727-1.3302-1.1724
		c-0.3146-0.4998-0.5243-1.0883-0.6292-1.7657c-0.1049-0.6774-0.1568-1.4105-0.1568-2.2012v-6.4819h3.6278v5.7563
		c0,0.3392,0.0118,0.6897,0.0359,1.0524c0.0246,0.3628,0.0968,0.6972,0.2178,1.0033c0.1209,0.307,0.3061,0.5564,0.5565,0.7501
		c0.2499,0.1937,0.6084,0.29,1.0761,0.29s0.8465-0.085,1.137-0.2541c0.29-0.1691,0.5116-0.3949,0.6651-0.6774
		c0.153-0.2815,0.2537-0.5999,0.3023-0.9551c0.0482-0.3543,0.0723-0.7256,0.0723-1.112v-5.8536h3.6278V72.9483z"/>
	<path class="st0" d="M213.7789,72.9483h-3.3378v-1.5475h-0.0482c-0.1455,0.2097-0.3349,0.4232-0.5687,0.6405
		c-0.2338,0.2173-0.5078,0.4157-0.8219,0.5924c-0.3146,0.1776-0.6613,0.3222-1.0402,0.4355
		c-0.3788,0.1124-0.77,0.1691-1.1729,0.1691c-0.8706,0-1.6609-0.1493-2.3704-0.4469c-0.7095-0.2985-1.3179-0.718-1.8257-1.2584
		c-0.5083-0.5394-0.8994-1.1809-1.1734-1.9226c-0.274-0.7416-0.411-1.556-0.411-2.4422c0-0.8229,0.1247-1.6089,0.3751-2.3581
		c0.2494-0.7501,0.6046-1.4152,1.0638-1.9953c0.4596-0.581,1.0199-1.0439,1.6812-1.3907c0.6608-0.3467,1.4105-0.5206,2.249-0.5206
		c0.7577,0,1.4634,0.1171,2.1162,0.3505c0.6533,0.2343,1.1889,0.633,1.6084,1.1979h0.0487v-7.7885h3.6278V72.9483z M210.4411,67.071
		c0-0.8862-0.2541-1.6042-0.7619-2.1521c-0.5078-0.548-1.2211-0.8229-2.1403-0.8229s-1.6325,0.2749-2.1403,0.8229
		s-0.7619,1.266-0.7619,2.1521c0,0.8871,0.2541,1.6051,0.7619,2.1531s1.2211,0.8219,2.1403,0.8219s1.6325-0.274,2.1403-0.8219
		C210.187,68.6761,210.4411,67.9581,210.4411,67.071z"/>
	<path class="st0" d="M227.8059,70.9171c-0.5805,0.7416-1.3146,1.3141-2.2012,1.7166c-0.8866,0.4034-1.8059,0.6046-2.7568,0.6046
		c-0.9032,0-1.7534-0.1445-2.5517-0.4355c-0.7983-0.29-1.4918-0.7048-2.0799-1.2452c-0.589-0.5404-1.052-1.1885-1.3907-1.9471
		c-0.3387-0.7577-0.5078-1.6042-0.5078-2.5395c0-0.9343,0.1691-1.7808,0.5078-2.5395c0.3387-0.7577,0.8016-1.4067,1.3907-1.9471
		c0.5881-0.5394,1.2816-0.9551,2.0799-1.2452c0.7983-0.29,1.6486-0.4355,2.5517-0.4355c0.838,0,1.5999,0.1455,2.2853,0.4355
		c0.6849,0.29,1.2655,0.7057,1.7411,1.2452c0.4757,0.5404,0.8427,1.1894,1.1006,1.9471c0.2579,0.7586,0.3869,1.6051,0.3869,2.5395
		v1.1365h-8.4162c0.145,0.6934,0.4592,1.2461,0.9429,1.6571c0.4837,0.411,1.0803,0.6169,1.7898,0.6169
		c0.5966,0,1.1006-0.1332,1.5116-0.3996c0.4114-0.2655,0.77-0.6084,1.0765-1.0279L227.8059,70.9171z M224.7341,65.7408
		c0.0161-0.6122-0.1857-1.1365-0.6046-1.5721c-0.4195-0.4355-0.9594-0.6528-1.6202-0.6528c-0.4034,0-0.7582,0.0642-1.0643,0.1937
		c-0.3066,0.1294-0.5683,0.2938-0.786,0.496c-0.2178,0.2012-0.3869,0.4346-0.5078,0.701s-0.1899,0.5442-0.2055,0.8342H224.7341z"/>
	<path class="st0" d="M242.8972,72.9483h-3.3378v-1.5475h-0.0482c-0.1455,0.2097-0.3349,0.4232-0.5687,0.6405
		c-0.2338,0.2173-0.5078,0.4157-0.8219,0.5924c-0.3146,0.1776-0.6613,0.3222-1.0402,0.4355
		c-0.3788,0.1124-0.77,0.1691-1.1729,0.1691c-0.8706,0-1.6609-0.1493-2.3703-0.4469c-0.7095-0.2985-1.3179-0.718-1.8257-1.2584
		c-0.5083-0.5394-0.8994-1.1809-1.1734-1.9226c-0.274-0.7416-0.4109-1.556-0.4109-2.4422c0-0.8229,0.1247-1.6089,0.3751-2.3581
		c0.2494-0.7501,0.6046-1.4152,1.0638-1.9953c0.4596-0.581,1.0198-1.0439,1.6812-1.3907c0.6608-0.3467,1.4105-0.5206,2.249-0.5206
		c0.7577,0,1.4634,0.1171,2.1162,0.3505c0.6533,0.2343,1.189,0.633,1.6084,1.1979h0.0487v-7.7885h3.6278V72.9483z M239.5595,67.071
		c0-0.8862-0.2541-1.6042-0.7619-2.1521c-0.5078-0.548-1.2211-0.8229-2.1403-0.8229s-1.6325,0.2749-2.1403,0.8229
		s-0.7619,1.266-0.7619,2.1521c0,0.8871,0.2541,1.6051,0.7619,2.1531s1.2211,0.8219,2.1403,0.8219s1.6325-0.274,2.1403-0.8219
		C239.3053,68.6761,239.5595,67.9581,239.5595,67.071z"/>
	<path class="st0" d="M257.1175,72.9483h-3.4828v-1.5966h-0.0482c-0.1294,0.2267-0.2943,0.4516-0.496,0.6774
		c-0.2017,0.2258-0.4473,0.428-0.7374,0.6046c-0.2905,0.1776-0.6212,0.3222-0.9915,0.4355
		c-0.3713,0.1124-0.7742,0.1691-1.2093,0.1691c-0.9192,0-1.6651-0.1408-2.2372-0.4232c-0.5725-0.2815-1.0161-0.6727-1.3302-1.1724
		c-0.3146-0.4998-0.5243-1.0883-0.6292-1.7657c-0.1049-0.6774-0.1568-1.4105-0.1568-2.2012v-6.4819h3.6278v5.7563
		c0,0.3392,0.0118,0.6897,0.0359,1.0524c0.0246,0.3628,0.0968,0.6972,0.2178,1.0033c0.1209,0.307,0.3061,0.5564,0.5565,0.7501
		c0.2499,0.1937,0.6084,0.29,1.0761,0.29s0.8465-0.085,1.137-0.2541c0.29-0.1691,0.5116-0.3949,0.6651-0.6774
		c0.153-0.2815,0.2537-0.5999,0.3023-0.9551c0.0482-0.3543,0.0723-0.7256,0.0723-1.112v-5.8536h3.6278V72.9483z"/>
	<path class="st0" d="M267.6377,64.9916c-0.1776-0.2579-0.427-0.4724-0.7496-0.6415c-0.3226-0.1691-0.6694-0.2541-1.0397-0.2541
		c-0.9192,0-1.6325,0.2749-2.1408,0.8229c-0.5078,0.548-0.7615,1.266-0.7615,2.1521c0,0.8871,0.2537,1.6051,0.7615,2.1531
		c0.5083,0.548,1.2216,0.8219,2.1408,0.8219c0.4025,0,0.7497-0.0888,1.0397-0.2664c0.2905-0.1767,0.5399-0.3864,0.7496-0.6283
		l2.3945,2.5149c-0.5645,0.581-1.2296,0.9882-1.9953,1.2215c-0.7657,0.2334-1.4955,0.3505-2.1885,0.3505
		c-0.9032,0-1.7534-0.1445-2.5518-0.4355c-0.7983-0.29-1.4917-0.7048-2.0798-1.2452c-0.5891-0.5404-1.052-1.1885-1.3907-1.9471
		c-0.3387-0.7577-0.5078-1.6042-0.5078-2.5395c0-0.9343,0.1691-1.7808,0.5078-2.5395c0.3387-0.7577,0.8016-1.4067,1.3907-1.9471
		c0.5881-0.5394,1.2815-0.9551,2.0798-1.2452s1.6486-0.4355,2.5518-0.4355c0.693,0,1.4228,0.1171,2.1885,0.3505
		c0.7657,0.2343,1.4308,0.6415,1.9953,1.2216L267.6377,64.9916z"/>
	<path class="st0" d="M271.0964,57.4942c0-0.581,0.2055-1.077,0.6165-1.488c0.4114-0.411,0.907-0.6169,1.4875-0.6169
		s1.076,0.206,1.4875,0.6169c0.411,0.411,0.6165,0.907,0.6165,1.488c0,0.5801-0.2055,1.0761-0.6165,1.487
		c-0.4114,0.411-0.907,0.6169-1.4875,0.6169s-1.076-0.206-1.4875-0.6169C271.3019,58.5702,271.0964,58.0742,271.0964,57.4942z
		 M271.3864,61.1938h3.6278v11.7545h-3.6278V61.1938z"/>
	<path class="st0" d="M277.9647,54.6637h3.6278v7.7885h0.0486c0.419-0.565,0.9551-0.9636,1.6084-1.1979
		c0.6528-0.2334,1.3581-0.3505,2.1162-0.3505c0.838,0,1.5876,0.1738,2.249,0.5206c0.6608,0.3467,1.2215,0.8096,1.6812,1.3907
		c0.4591,0.5801,0.8139,1.2452,1.0638,1.9953c0.2499,0.7492,0.3751,1.5352,0.3751,2.3581c0,0.8862-0.137,1.7005-0.4109,2.4422
		c-0.2744,0.7416-0.6651,1.3831-1.1734,1.9226c-0.5078,0.5404-1.1167,0.9599-1.8257,1.2584
		c-0.71,0.2976-1.4998,0.4469-2.3704,0.4469c-0.4195,0-0.8144-0.0567-1.1852-0.1691c-0.3708-0.1134-0.7133-0.2579-1.0279-0.4355
		c-0.3141-0.1767-0.5886-0.3751-0.8219-0.5924c-0.2343-0.2173-0.4232-0.4308-0.5687-0.6405h-0.0482v1.5475h-3.3378V54.6637z
		 M281.3025,67.071c0,0.8871,0.2542,1.6051,0.7619,2.1531c0.5078,0.548,1.2211,0.8219,2.1403,0.8219s1.6325-0.274,2.1403-0.8219
		c0.5078-0.548,0.7619-1.266,0.7619-2.1531c0-0.8862-0.2542-1.6042-0.7619-2.1521c-0.5078-0.548-1.2211-0.8229-2.1403-0.8229
		s-1.6325,0.2749-2.1403,0.8229C281.5566,65.4668,281.3025,66.1848,281.3025,67.071z"/>
	<path class="st0" d="M292.911,54.6637h3.6278v18.2845h-3.6278V54.6637z"/>
	<path class="st0" d="M310.2763,70.9171c-0.5805,0.7416-1.3146,1.3141-2.2013,1.7166c-0.8866,0.4034-1.8058,0.6046-2.7567,0.6046
		c-0.9032,0-1.7534-0.1445-2.5518-0.4355c-0.7983-0.29-1.4917-0.7048-2.0798-1.2452c-0.5891-0.5404-1.052-1.1885-1.3907-1.9471
		c-0.3387-0.7577-0.5078-1.6042-0.5078-2.5395c0-0.9343,0.1691-1.7808,0.5078-2.5395c0.3387-0.7577,0.8016-1.4067,1.3907-1.9471
		c0.5881-0.5394,1.2815-0.9551,2.0798-1.2452s1.6486-0.4355,2.5518-0.4355c0.838,0,1.5999,0.1455,2.2853,0.4355
		c0.6849,0.29,1.2655,0.7057,1.7411,1.2452c0.4757,0.5404,0.8427,1.1894,1.1006,1.9471c0.2579,0.7586,0.3869,1.6051,0.3869,2.5395
		v1.1365h-8.4162c0.145,0.6934,0.4591,1.2461,0.9428,1.6571c0.4837,0.411,1.0803,0.6169,1.7898,0.6169
		c0.5966,0,1.1006-0.1332,1.5116-0.3996c0.4114-0.2655,0.77-0.6084,1.0765-1.0279L310.2763,70.9171z M307.2045,65.7408
		c0.0161-0.6122-0.1856-1.1365-0.6046-1.5721c-0.4195-0.4355-0.9594-0.6528-1.6202-0.6528c-0.4034,0-0.7581,0.0642-1.0643,0.1937
		c-0.3065,0.1294-0.5683,0.2938-0.786,0.496c-0.2178,0.2012-0.3869,0.4346-0.5078,0.701c-0.1209,0.2664-0.1899,0.5442-0.2055,0.8342
		H307.2045z"/>
	<path class="st0" d="M323.8197,54.6637v8.1267h0.0482c0.0803-0.2258,0.2177-0.4516,0.4109-0.6774
		c0.1937-0.2258,0.427-0.427,0.7015-0.6046c0.274-0.1767,0.5966-0.3222,0.9674-0.4355c0.3708-0.1124,0.7742-0.1691,1.2093-0.1691
		c0.9192,0,1.6604,0.1417,2.2253,0.4232c0.564,0.2825,1.0033,0.6736,1.3179,1.1734c0.3146,0.4998,0.5281,1.0883,0.641,1.7657
		c0.1124,0.6764,0.1691,1.4105,0.1691,2.2003v6.4819h-3.6278v-5.7563c0-0.3382-0.0118-0.6887-0.0364-1.0515
		c-0.0241-0.3628-0.0964-0.6972-0.2173-1.0043c-0.1209-0.3061-0.3066-0.5565-0.5565-0.7492c-0.2504-0.1937-0.6089-0.291-1.076-0.291
		c-0.4681,0-0.8465,0.085-1.137,0.2541c-0.29,0.1691-0.512,0.3958-0.6651,0.6774c-0.1535,0.2825-0.2537,0.6009-0.3023,0.9551
		c-0.0482,0.3552-0.0723,0.7256-0.0723,1.1129v5.8527h-3.6278V54.6637H323.8197z"/>
	<path class="st0" d="M341.4505,71.4726h-0.0487c-0.4029,0.6292-0.9395,1.0808-1.6084,1.3548
		c-0.6689,0.274-1.3746,0.411-2.1162,0.411c-0.5479,0-1.076-0.0765-1.5839-0.2296c-0.5078-0.1531-0.9556-0.3826-1.3425-0.6897
		c-0.3869-0.3061-0.6935-0.6849-0.9188-1.1365c-0.2263-0.4506-0.3387-0.975-0.3387-1.5721c0-0.6774,0.1247-1.2489,0.3746-1.7166
		c0.2499-0.4677,0.5886-0.855,1.0161-1.1611c0.427-0.3061,0.915-0.5442,1.4629-0.7133c0.5479-0.1701,1.1167-0.2948,1.7053-0.3751
		c0.5886-0.0803,1.1767-0.1294,1.7657-0.1455c0.5881-0.0161,1.1323-0.0236,1.6325-0.0236c0-0.6453-0.23-1.1573-0.6897-1.5361
		c-0.4591-0.3788-1.0033-0.5687-1.6325-0.5687c-0.5966,0-1.1408,0.1257-1.6325,0.3751c-0.4917,0.2504-0.931,0.5924-1.3179,1.0279
		l-1.9348-1.983c0.6774-0.6292,1.4672-1.1006,2.3704-1.4152c0.9027-0.3137,1.838-0.4714,2.8054-0.4714
		c1.0642,0,1.9386,0.1332,2.624,0.3996c0.6849,0.2655,1.2334,0.6566,1.6448,1.1724c0.4109,0.5168,0.6972,1.1488,0.8583,1.8989
		c0.1611,0.7492,0.2419,1.6165,0.2419,2.5999v5.9736h-3.3373V71.4726z M340.5553,67.7966c-0.2745,0-0.6165,0.0123-1.0279,0.0368
		c-0.4109,0.0236-0.8063,0.0926-1.1852,0.205c-0.3788,0.1134-0.701,0.2825-0.9674,0.5083c-0.266,0.2258-0.3987,0.5404-0.3987,0.9428
		c0,0.4355,0.1852,0.7586,0.556,0.9674c0.3708,0.2097,0.7577,0.3146,1.1611,0.3146c0.3543,0,0.6972-0.0482,1.0279-0.1455
		c0.3302-0.0964,0.6245-0.2334,0.8829-0.411c0.2574-0.1767,0.4629-0.4025,0.6165-0.6774c0.153-0.274,0.23-0.5961,0.23-0.9674
		v-0.7737H340.5553z"/>
	<path class="st0" d="M353.7123,64.6525c-0.5324-0.6604-1.2338-0.991-2.1044-0.991c-0.3065,0-0.6046,0.0718-0.8947,0.2173
		c-0.2905,0.1455-0.4355,0.3949-0.4355,0.7501c0,0.29,0.1488,0.5035,0.4474,0.6405c0.2985,0.137,0.6774,0.2579,1.137,0.3628
		s0.9509,0.2173,1.4752,0.3382c0.5239,0.1209,1.0156,0.3108,1.4752,0.5687c0.4596,0.2579,0.8384,0.6084,1.137,1.0524
		c0.2981,0.4431,0.4473,1.0354,0.4473,1.7771c0,0.7586-0.1658,1.3831-0.496,1.8744c-0.3307,0.4922-0.7539,0.8871-1.2697,1.1856
		c-0.5163,0.2985-1.0964,0.5073-1.7411,0.6283c-0.6453,0.1209-1.282,0.1814-1.9108,0.1814c-0.8224,0-1.6528-0.1171-2.4913-0.3505
		c-0.8385-0.2333-1.5475-0.649-2.1281-1.2452l2.2008-2.4431c0.3387,0.4195,0.7133,0.7378,1.1247,0.9551
		c0.411,0.2182,0.8904,0.3269,1.4388,0.3269c0.419,0,0.7983-0.0605,1.137-0.1814c0.3382-0.1209,0.5078-0.3429,0.5078-0.6651
		c0-0.3061-0.1493-0.5357-0.4473-0.6897c-0.2986-0.1531-0.6774-0.2815-1.137-0.3864c-0.4596-0.1049-0.9514-0.2182-1.4752-0.3392
		c-0.5244-0.1209-1.0156-0.3023-1.4752-0.5442s-0.8385-0.5839-1.137-1.0279c-0.2986-0.4431-0.4474-1.0354-0.4474-1.7771
		c0-0.6934,0.1412-1.2905,0.4232-1.7903c0.282-0.4998,0.6533-0.9107,1.1124-1.2329c0.4596-0.3231,0.9877-0.5602,1.5844-0.7142
		c0.5961-0.153,1.2008-0.2296,1.8139-0.2296c0.7737,0,1.556,0.1134,2.3458,0.3392c0.7898,0.2258,1.4592,0.6283,2.0076,1.2093
		L353.7123,64.6525z"/>
	<path class="st0" d="M366.2641,64.096h-3.1927v3.9188c0,0.3222,0.0161,0.616,0.0486,0.8824
		c0.0321,0.2664,0.1044,0.496,0.2178,0.6897c0.1124,0.1927,0.2858,0.342,0.5196,0.4469s0.5442,0.1578,0.9315,0.1578
		c0.1932,0,0.4473-0.0208,0.7615-0.0605c0.3146-0.0406,0.5522-0.1332,0.7137-0.2787v3.0232
		c-0.4034,0.1455-0.8224,0.2419-1.2579,0.29c-0.4351,0.0491-0.8625,0.0727-1.2815,0.0727c-0.6132,0-1.1772-0.0642-1.693-0.1937
		c-0.5163-0.1285-0.9674-0.3344-1.3543-0.616c-0.3874-0.2825-0.6897-0.649-0.907-1.1006c-0.2178-0.4516-0.3269-0.9995-0.3269-1.6448
		V64.096h-2.3217v-2.9023h2.3217v-3.4823h3.6278v3.4823h3.1927V64.096z"/>
	<path class="st0" d="M375.4787,71.4726H375.43c-0.4029,0.6292-0.9395,1.0808-1.6084,1.3548
		c-0.6689,0.274-1.3746,0.411-2.1162,0.411c-0.5479,0-1.0761-0.0765-1.5839-0.2296c-0.5078-0.1531-0.9556-0.3826-1.3425-0.6897
		c-0.3869-0.3061-0.6934-0.6849-0.9188-1.1365c-0.2263-0.4506-0.3387-0.975-0.3387-1.5721c0-0.6774,0.1247-1.2489,0.3746-1.7166
		c0.2499-0.4677,0.5886-0.855,1.0161-1.1611c0.427-0.3061,0.915-0.5442,1.463-0.7133c0.5479-0.1701,1.1167-0.2948,1.7053-0.3751
		c0.5886-0.0803,1.1767-0.1294,1.7657-0.1455c0.5881-0.0161,1.1323-0.0236,1.6325-0.0236c0-0.6453-0.23-1.1573-0.6897-1.5361
		c-0.4591-0.3788-1.0033-0.5687-1.6325-0.5687c-0.5966,0-1.1408,0.1257-1.6325,0.3751c-0.4917,0.2504-0.931,0.5924-1.3179,1.0279
		l-1.9348-1.983c0.6774-0.6292,1.4672-1.1006,2.3704-1.4152c0.9027-0.3137,1.838-0.4714,2.8054-0.4714
		c1.0642,0,1.9386,0.1332,2.624,0.3996c0.6849,0.2655,1.2333,0.6566,1.6448,1.1724c0.411,0.5168,0.6972,1.1488,0.8583,1.8989
		c0.1611,0.7492,0.2419,1.6165,0.2419,2.5999v5.9736h-3.3373V71.4726z M374.5835,67.7966c-0.2744,0-0.6164,0.0123-1.0279,0.0368
		c-0.411,0.0236-0.8063,0.0926-1.1852,0.205c-0.3788,0.1134-0.701,0.2825-0.9674,0.5083c-0.2659,0.2258-0.3987,0.5404-0.3987,0.9428
		c0,0.4355,0.1852,0.7586,0.556,0.9674c0.3708,0.2097,0.7577,0.3146,1.1611,0.3146c0.3543,0,0.6972-0.0482,1.0279-0.1455
		c0.3302-0.0964,0.6245-0.2334,0.8829-0.411c0.2574-0.1767,0.4629-0.4025,0.6164-0.6774c0.153-0.274,0.23-0.5961,0.23-0.9674
		v-0.7737H374.5835z"/>
	<path class="st0" d="M114.0886,101.9708h-1.7416V87.024l-3.0714,2.7086l-1.0883-1.3056l4.3534-3.5796h1.548V101.9708z"/>
	<path class="st0" d="M131.1635,101.9708H120.28v-2.0076l6.8201-6.941c0.2579-0.2579,0.5158-0.5319,0.7737-0.8219
		c0.2579-0.291,0.4917-0.5971,0.7015-0.9192c0.2093-0.3222,0.3788-0.6613,0.5078-1.0156c0.129-0.3552,0.1937-0.7256,0.1937-1.1129
		c0-0.4676-0.0845-0.8862-0.2541-1.2575c-0.1691-0.3713-0.4072-0.6849-0.7133-0.9438c-0.3066-0.257-0.6613-0.4554-1.0642-0.5924
		s-0.8304-0.205-1.2815-0.205c-0.871,0-1.6127,0.2419-2.2253,0.7256c-0.6127,0.4837-1.0076,1.1365-1.1852,1.9585l-1.838-0.1937
		c0.2419-1.2735,0.8262-2.273,1.7534-2.9986c0.9273-0.7256,2.0515-1.0883,3.3741-1.0883c0.693,0,1.35,0.0926,1.9707,0.2778
		c0.6207,0.1861,1.1691,0.4639,1.6448,0.8352c0.4752,0.3703,0.8545,0.8342,1.1365,1.3907c0.282,0.5555,0.4232,1.2055,0.4232,1.9462
		c0,0.6613-0.1006,1.266-0.3023,1.8139c-0.2017,0.5489-0.4634,1.0647-0.786,1.5484s-0.6892,0.9429-1.1002,1.3784
		c-0.4114,0.4355-0.8347,0.8625-1.2697,1.282l-5.3935,5.3444h8.9973V101.9708z"/>
	<path class="st0" d="M150.0522,98.7785l5.7804-13.9312h2.6604v17.1235h-1.7416V87.1695h-0.0482l-6.1914,14.8013h-0.9192
		l-6.1914-14.8013h-0.0482v14.8013h-1.7416V84.8473h2.6604L150.0522,98.7785z"/>
	<path class="st0" d="M163.6687,96.7463c0.0482,0.565,0.1852,1.0968,0.411,1.5966c0.2258,0.4998,0.5239,0.9315,0.8947,1.2943
		c0.3708,0.3628,0.7983,0.649,1.282,0.8578c0.4837,0.2097,1.0076,0.3146,1.5721,0.3146c0.8545,0,1.5919-0.1974,2.2131-0.5924
		c0.6202-0.3949,1.0921-0.8503,1.4147-1.3661l1.2334,1.0156c-0.6769,0.855-1.4233,1.4672-2.2372,1.8375
		c-0.8144,0.3713-1.6892,0.5564-2.624,0.5564c-0.8385,0-1.6165-0.1493-2.334-0.4469c-0.7175-0.2985-1.3345-0.7142-1.8503-1.2461
		c-0.5158-0.5319-0.923-1.1611-1.2211-1.8867c-0.2985-0.7256-0.4473-1.5154-0.4473-2.3694c0-0.855,0.145-1.6448,0.4351-2.3704
		c0.2905-0.7256,0.693-1.3548,1.2093-1.8867c0.5158-0.5319,1.1205-0.9466,1.8139-1.2452c0.693-0.2985,1.4431-0.4478,2.2494-0.4478
		c0.8545,0,1.6202,0.153,2.2976,0.4591c0.6769,0.307,1.2457,0.7142,1.7048,1.2215c0.4596,0.5083,0.8106,1.1044,1.0524,1.7903
		c0.2419,0.6849,0.3628,1.4143,0.3628,2.188v0.7256H163.6687z M171.3594,95.4407c0-1.0798-0.3226-1.9547-0.9674-2.6245
		c-0.6448-0.6689-1.548-1.0033-2.7086-1.0033c-0.5163,0-1.0161,0.1011-1.4998,0.3023c-0.4837,0.2022-0.907,0.4714-1.2697,0.8106
		c-0.3628,0.3382-0.6528,0.7256-0.8706,1.1601c-0.2178,0.4355-0.3264,0.8871-0.3264,1.3548H171.3594z"/>
	<path class="st0" d="M182.001,93.3368c-0.2419-0.4676-0.5645-0.838-0.9674-1.1129c-0.4034-0.274-0.8947-0.411-1.4752-0.411
		c-0.2744,0-0.5527,0.0321-0.8347,0.0964c-0.282,0.0652-0.5361,0.1663-0.7615,0.3023c-0.2263,0.1379-0.4077,0.3108-0.5442,0.5206
		c-0.1375,0.2097-0.206,0.4676-0.206,0.7737c0,0.5319,0.1852,0.9192,0.5565,1.1611c0.3708,0.2419,0.9268,0.4516,1.6689,0.6283
		l1.6202,0.3873c0.7898,0.1776,1.4469,0.5366,1.9712,1.0761c0.5238,0.5404,0.786,1.214,0.786,2.0199
		c0,0.6131-0.1252,1.1403-0.3751,1.5843c-0.2499,0.4431-0.5801,0.8059-0.9915,1.0883c-0.411,0.2815-0.8829,0.4875-1.4147,0.616
		c-0.5319,0.1294-1.0723,0.1937-1.6202,0.1937c-0.871,0-1.6812-0.1653-2.4308-0.496c-0.7496-0.3297-1.3907-0.8985-1.9225-1.7043
		l1.3784-0.9438c0.3222,0.5168,0.7293,0.9277,1.2216,1.2338c0.4913,0.3061,1.076,0.4591,1.7534,0.4591
		c0.3222,0,0.6443-0.0359,0.9674-0.1086c0.3222-0.0727,0.6084-0.1852,0.8583-0.3382c0.2499-0.153,0.4511-0.3514,0.6046-0.5933
		c0.153-0.2419,0.23-0.5234,0.23-0.8465c0-0.564-0.2097-0.9712-0.6292-1.2206c-0.4195-0.2504-0.9273-0.4478-1.5234-0.5933
		l-1.548-0.3628c-0.1937-0.0482-0.4558-0.1285-0.786-0.2419c-0.3307-0.1124-0.6528-0.2815-0.9674-0.5073
		c-0.3146-0.2258-0.5848-0.5206-0.8101-0.8833c-0.2263-0.3628-0.3387-0.8096-0.3387-1.3415c0-0.581,0.1167-1.0883,0.3505-1.5239
		s0.5479-0.7898,0.9433-1.0647c0.3949-0.274,0.8422-0.479,1.3425-0.616c0.4993-0.137,1.0156-0.206,1.548-0.206
		c0.7898,0,1.5234,0.153,2.2008,0.4591c0.6769,0.307,1.2008,0.8314,1.5721,1.5721L182.001,93.3368z"/>
	<path class="st0" d="M187.4186,96.7463c0.0482,0.565,0.1852,1.0968,0.411,1.5966s0.5239,0.9315,0.8947,1.2943
		c0.3708,0.3628,0.7983,0.649,1.282,0.8578c0.4837,0.2097,1.0076,0.3146,1.5721,0.3146c0.8545,0,1.5919-0.1974,2.2131-0.5924
		c0.6202-0.3949,1.0921-0.8503,1.4147-1.3661l1.2334,1.0156c-0.6769,0.855-1.4232,1.4672-2.2372,1.8375
		c-0.8144,0.3713-1.6892,0.5564-2.624,0.5564c-0.8385,0-1.6165-0.1493-2.334-0.4469c-0.7175-0.2985-1.3344-0.7142-1.8503-1.2461
		c-0.5158-0.5319-0.923-1.1611-1.2211-1.8867c-0.2985-0.7256-0.4473-1.5154-0.4473-2.3694c0-0.855,0.145-1.6448,0.4351-2.3704
		c0.2905-0.7256,0.693-1.3548,1.2093-1.8867c0.5158-0.5319,1.1205-0.9466,1.8139-1.2452c0.693-0.2985,1.4431-0.4478,2.2494-0.4478
		c0.8545,0,1.6202,0.153,2.2976,0.4591c0.6769,0.307,1.2457,0.7142,1.7048,1.2215c0.4596,0.5083,0.8106,1.1044,1.0524,1.7903
		c0.2419,0.6849,0.3628,1.4143,0.3628,2.188v0.7256H187.4186z M195.1093,95.4407c0-1.0798-0.3226-1.9547-0.9674-2.6245
		c-0.6448-0.6689-1.548-1.0033-2.7086-1.0033c-0.5163,0-1.0161,0.1011-1.4998,0.3023c-0.4837,0.2022-0.907,0.4714-1.2697,0.8106
		c-0.3628,0.3382-0.6528,0.7256-0.8706,1.1601c-0.2178,0.4355-0.3264,0.8871-0.3264,1.3548H195.1093z"/>
	<path class="st0" d="M205.7509,93.3368c-0.2419-0.4676-0.5645-0.838-0.9674-1.1129c-0.4034-0.274-0.8947-0.411-1.4752-0.411
		c-0.2744,0-0.5527,0.0321-0.8347,0.0964c-0.282,0.0652-0.5361,0.1663-0.7615,0.3023c-0.2263,0.1379-0.4077,0.3108-0.5442,0.5206
		c-0.1375,0.2097-0.2059,0.4676-0.2059,0.7737c0,0.5319,0.1852,0.9192,0.5565,1.1611c0.3708,0.2419,0.9268,0.4516,1.6689,0.6283
		l1.6202,0.3873c0.7898,0.1776,1.4469,0.5366,1.9712,1.0761c0.5238,0.5404,0.786,1.214,0.786,2.0199
		c0,0.6131-0.1252,1.1403-0.3751,1.5843c-0.2499,0.4431-0.5801,0.8059-0.9915,1.0883c-0.411,0.2815-0.8829,0.4875-1.4147,0.616
		c-0.5319,0.1294-1.0723,0.1937-1.6202,0.1937c-0.871,0-1.6812-0.1653-2.4308-0.496c-0.7497-0.3297-1.3907-0.8985-1.9226-1.7043
		l1.3784-0.9438c0.3222,0.5168,0.7293,0.9277,1.2215,1.2338c0.4913,0.3061,1.0761,0.4591,1.7534,0.4591
		c0.3222,0,0.6443-0.0359,0.9674-0.1086c0.3222-0.0727,0.6084-0.1852,0.8583-0.3382c0.2499-0.153,0.4511-0.3514,0.6046-0.5933
		c0.153-0.2419,0.23-0.5234,0.23-0.8465c0-0.564-0.2097-0.9712-0.6292-1.2206c-0.4195-0.2504-0.9273-0.4478-1.5234-0.5933
		l-1.548-0.3628c-0.1937-0.0482-0.4558-0.1285-0.786-0.2419c-0.3307-0.1124-0.6528-0.2815-0.9674-0.5073
		c-0.3146-0.2258-0.5848-0.5206-0.8101-0.8833c-0.2263-0.3628-0.3387-0.8096-0.3387-1.3415c0-0.581,0.1167-1.0883,0.3505-1.5239
		c0.2338-0.4355,0.5479-0.7898,0.9433-1.0647c0.3949-0.274,0.8422-0.479,1.3425-0.616c0.4993-0.137,1.0156-0.206,1.548-0.206
		c0.7898,0,1.5234,0.153,2.2008,0.4591c0.6769,0.307,1.2008,0.8314,1.5721,1.5721L205.7509,93.3368z"/>
	<path class="st0" d="M225.462,87.6768c-0.7582-1.112-1.8621-1.6684-3.3132-1.6684c-0.4516,0-0.8951,0.0605-1.3302,0.1814
		c-0.4355,0.1209-0.8266,0.3061-1.1729,0.5565c-0.3472,0.2504-0.6254,0.5725-0.8347,0.9674
		c-0.2097,0.3949-0.3141,0.8588-0.3141,1.3907c0,0.7737,0.2173,1.3746,0.6528,1.8016c0.4355,0.427,0.9754,0.7785,1.6202,1.0524
		c0.6448,0.274,1.3505,0.5196,2.1162,0.7369c0.7657,0.2182,1.4714,0.5083,2.1162,0.8711c0.6448,0.3628,1.1852,0.8427,1.6207,1.4388
		c0.4351,0.5971,0.6528,1.4114,0.6528,2.4431c0,0.7737-0.1653,1.471-0.4955,2.0917c-0.3307,0.6207-0.7662,1.1413-1.3061,1.5598
		c-0.5404,0.4195-1.145,0.7426-1.8139,0.9674c-0.6694,0.2258-1.3425,0.3392-2.0194,0.3392c-1.0487,0-2.0439-0.1974-2.9873-0.5924
		c-0.9429-0.3949-1.7454-1.0439-2.4063-1.9471l1.5961-1.1365c0.3699,0.6283,0.8838,1.1327,1.5432,1.5116
		c0.659,0.3788,1.4379,0.5678,2.3382,0.5678c0.4336,0,0.8682-0.068,1.3019-0.205c0.4336-0.137,0.8238-0.3392,1.1691-0.6046
		c0.3453-0.2664,0.6306-0.5933,0.8559-0.9797c0.2249-0.3873,0.3377-0.8304,0.3377-1.3302c0-0.5961-0.1252-1.0921-0.3751-1.488
		c-0.2504-0.3949-0.5805-0.7256-0.9915-0.991c-0.4114-0.2664-0.8791-0.4875-1.4029-0.6651
		c-0.5239-0.1776-1.0643-0.3543-1.6202-0.5319c-0.5565-0.1776-1.0968-0.3788-1.6207-0.6046
		c-0.5238-0.2258-0.9915-0.512-1.4025-0.8588c-0.4114-0.3467-0.7421-0.7822-0.9915-1.3066
		c-0.2504-0.5234-0.3751-1.1809-0.3751-1.9707c0-0.8219,0.1573-1.5399,0.4714-2.1521c0.3146-0.6131,0.7336-1.1205,1.2579-1.5239
		c0.5239-0.4034,1.1162-0.7019,1.7775-0.8947c0.6608-0.1937,1.3382-0.291,2.0317-0.291c0.9674,0,1.846,0.154,2.6363,0.4601
		c0.7898,0.3061,1.5234,0.8465,2.2008,1.6202L225.462,87.6768z"/>
	<path class="st0" d="M232.5485,86.2984c0,0.3392-0.1209,0.6169-0.3628,0.8342c-0.2419,0.2182-0.5083,0.3269-0.7983,0.3269
		s-0.5565-0.1086-0.7983-0.3269c-0.2419-0.2173-0.3628-0.495-0.3628-0.8342c0-0.3382,0.1209-0.6169,0.3628-0.8342
		c0.2419-0.2173,0.5083-0.3269,0.7983-0.3269s0.5564,0.1096,0.7983,0.3269C232.4276,85.6815,232.5485,85.9602,232.5485,86.2984z
		 M232.1858,101.9708h-1.5966v-11.319h1.5966V101.9708z"/>
	<path class="st0" d="M237.5547,90.6518c0.0321,0.307,0.052,0.6094,0.0605,0.907c0.008,0.2985,0.0123,0.6009,0.0123,0.907h0.0482
		c0.1771-0.3061,0.4029-0.5886,0.6774-0.8465c0.274-0.2579,0.5801-0.479,0.9188-0.6651c0.3387-0.1852,0.6972-0.3297,1.0765-0.4355
		c0.3784-0.1039,0.7534-0.1568,1.1243-0.1568c1.4511,0,2.5234,0.3836,3.2168,1.1488c0.693,0.7662,1.0402,1.8583,1.0402,3.2773
		v7.1829h-1.5966v-6.2636c0-1.2584-0.2173-2.2211-0.6528-2.8909c-0.4355-0.6689-1.2419-1.0033-2.4185-1.0033
		c-0.0808,0-0.3066,0.0321-0.6774,0.0964c-0.3708,0.0652-0.7615,0.2419-1.1729,0.5328c-0.411,0.29-0.778,0.7256-1.1002,1.3056
		c-0.3231,0.5801-0.4837,1.3869-0.4837,2.4185v5.8045h-1.5966v-8.8277c0-0.3061-0.0118-0.6934-0.0359-1.1611
		c-0.0246-0.4676-0.0529-0.9107-0.085-1.3302H237.5547z"/>
	<path class="st0" d="M258.5238,101.9708h-1.7416V84.8473h1.7416V101.9708z"/>
	<path class="st0" d="M264.9083,86.2984c0,0.3392-0.1209,0.6169-0.3628,0.8342c-0.2419,0.2182-0.5083,0.3269-0.7983,0.3269
		s-0.5565-0.1086-0.7983-0.3269c-0.2419-0.2173-0.3628-0.495-0.3628-0.8342c0-0.3382,0.1209-0.6169,0.3628-0.8342
		c0.2419-0.2173,0.5083-0.3269,0.7983-0.3269s0.5565,0.1096,0.7983,0.3269C264.7874,85.6815,264.9083,85.9602,264.9083,86.2984z
		 M264.5456,101.9708h-1.5966v-11.319h1.5966V101.9708z"/>
	<path class="st0" d="M269.9141,90.6518c0.0321,0.307,0.052,0.6094,0.0605,0.907c0.008,0.2985,0.0123,0.6009,0.0123,0.907h0.0482
		c0.1772-0.3061,0.403-0.5886,0.6774-0.8465c0.274-0.2579,0.5801-0.479,0.9188-0.6651c0.3387-0.1852,0.6972-0.3297,1.0765-0.4355
		c0.3784-0.1039,0.7534-0.1568,1.1242-0.1568c1.4511,0,2.5234,0.3836,3.2169,1.1488c0.693,0.7662,1.0402,1.8583,1.0402,3.2773
		v7.1829h-1.5966v-6.2636c0-1.2584-0.2173-2.2211-0.6528-2.8909c-0.4355-0.6689-1.2419-1.0033-2.4185-1.0033
		c-0.0808,0-0.3066,0.0321-0.6774,0.0964c-0.3708,0.0652-0.7614,0.2419-1.1729,0.5328c-0.411,0.29-0.778,0.7256-1.1002,1.3056
		c-0.3231,0.5801-0.4837,1.3869-0.4837,2.4185v5.8045h-1.5966v-8.8277c0-0.3061-0.0118-0.6934-0.0359-1.1611
		c-0.0246-0.4676-0.0529-0.9107-0.085-1.3302H269.9141z"/>
	<path class="st0" d="M287.6903,92.1029h-3.265v6.6756c0,0.4195,0.0401,0.7615,0.1209,1.0279
		c0.0803,0.2655,0.1932,0.4714,0.3387,0.6169c0.145,0.1445,0.3179,0.2456,0.5196,0.3023c0.2017,0.0567,0.4232,0.0841,0.6651,0.0841
		c0.274,0,0.5565-0.0397,0.8465-0.1209c0.2905-0.0803,0.5564-0.1852,0.7983-0.3146l0.0727,1.4757
		c-0.5971,0.274-1.3146,0.411-2.1526,0.411c-0.3066,0-0.6249-0.0406-0.9556-0.1209c-0.3307-0.0803-0.633-0.2334-0.907-0.4591
		c-0.274-0.2258-0.4998-0.5319-0.6769-0.9192c-0.1776-0.3873-0.266-0.8947-0.266-1.5239v-7.1347h-2.3944v-1.4511h2.3944v-3.1923
		h1.5962v3.1923h3.265V92.1029z"/>
	<path class="st0" d="M290.9795,96.7463c0.0482,0.565,0.1852,1.0968,0.4109,1.5966c0.2258,0.4998,0.5239,0.9315,0.8947,1.2943
		c0.3708,0.3628,0.7983,0.649,1.282,0.8578c0.4837,0.2097,1.0076,0.3146,1.5721,0.3146c0.8545,0,1.5919-0.1974,2.2131-0.5924
		c0.6202-0.3949,1.0921-0.8503,1.4147-1.3661l1.2334,1.0156c-0.6769,0.855-1.4232,1.4672-2.2372,1.8375
		c-0.8144,0.3713-1.6892,0.5564-2.624,0.5564c-0.8384,0-1.6165-0.1493-2.334-0.4469c-0.7175-0.2985-1.3344-0.7142-1.8503-1.2461
		s-0.923-1.1611-1.2211-1.8867c-0.2986-0.7256-0.4473-1.5154-0.4473-2.3694c0-0.855,0.145-1.6448,0.435-2.3704
		c0.2905-0.7256,0.693-1.3548,1.2093-1.8867c0.5158-0.5319,1.1205-0.9466,1.8139-1.2452c0.693-0.2985,1.4431-0.4478,2.2494-0.4478
		c0.8545,0,1.6202,0.153,2.2976,0.4591c0.6769,0.307,1.2457,0.7142,1.7048,1.2215c0.4596,0.5083,0.8106,1.1044,1.0524,1.7903
		c0.2419,0.6849,0.3628,1.4143,0.3628,2.188v0.7256H290.9795z M298.6701,95.4407c0-1.0798-0.3226-1.9547-0.9674-2.6245
		c-0.6448-0.6689-1.548-1.0033-2.7086-1.0033c-0.5163,0-1.0161,0.1011-1.4998,0.3023c-0.4837,0.2022-0.907,0.4714-1.2697,0.8106
		c-0.3628,0.3382-0.6528,0.7256-0.8706,1.1601c-0.2178,0.4355-0.3264,0.8871-0.3264,1.3548H298.6701z"/>
	<path class="st0" d="M303.4831,94.1832c0-0.4998-0.0123-1.008-0.0364-1.5239c-0.0241-0.5158-0.0444-1.1847-0.0605-2.0076h1.5721
		v2.1039h0.0482c0.1129-0.3061,0.274-0.5999,0.4837-0.8824c0.2097-0.2815,0.4634-0.5357,0.7619-0.7615
		c0.2981-0.2258,0.6448-0.4072,1.0402-0.5442c0.3949-0.137,0.8423-0.206,1.342-0.206c0.4516,0,0.8465,0.0482,1.1852,0.1455
		l-0.3141,1.5721c-0.2097-0.0812-0.5163-0.1209-0.9193-0.1209c-0.6131,0-1.1365,0.1171-1.5721,0.3505
		c-0.4355,0.2334-0.7983,0.5319-1.0883,0.8947c-0.29,0.3628-0.504,0.7539-0.641,1.1734c-0.137,0.4195-0.2055,0.8219-0.2055,1.2093
		v6.3846h-1.5962V94.1832z"/>
	<path class="st0" d="M312.0208,96.7463c0.0482,0.565,0.1852,1.0968,0.4109,1.5966s0.5239,0.9315,0.8947,1.2943
		c0.3708,0.3628,0.7983,0.649,1.282,0.8578c0.4837,0.2097,1.0076,0.3146,1.5721,0.3146c0.8545,0,1.5919-0.1974,2.213-0.5924
		c0.6202-0.3949,1.0921-0.8503,1.4148-1.3661l1.2334,1.0156c-0.6769,0.855-1.4232,1.4672-2.2372,1.8375
		c-0.8144,0.3713-1.6892,0.5564-2.624,0.5564c-0.8385,0-1.6165-0.1493-2.334-0.4469c-0.7175-0.2985-1.3344-0.7142-1.8503-1.2461
		s-0.923-1.1611-1.2211-1.8867c-0.2986-0.7256-0.4474-1.5154-0.4474-2.3694c0-0.855,0.145-1.6448,0.4351-2.3704
		c0.2905-0.7256,0.693-1.3548,1.2093-1.8867c0.5158-0.5319,1.1205-0.9466,1.8139-1.2452c0.693-0.2985,1.4431-0.4478,2.2494-0.4478
		c0.8545,0,1.6202,0.153,2.2976,0.4591c0.6769,0.307,1.2456,0.7142,1.7048,1.2215c0.4596,0.5083,0.8106,1.1044,1.0524,1.7903
		c0.2419,0.6849,0.3628,1.4143,0.3628,2.188v0.7256H312.0208z M319.7115,95.4407c0-1.0798-0.3226-1.9547-0.9674-2.6245
		c-0.6448-0.6689-1.548-1.0033-2.7086-1.0033c-0.5163,0-1.0161,0.1011-1.4998,0.3023c-0.4837,0.2022-0.907,0.4714-1.2697,0.8106
		c-0.3628,0.3382-0.6528,0.7256-0.8706,1.1601c-0.2177,0.4355-0.3264,0.8871-0.3264,1.3548H319.7115z"/>
	<path class="st0" d="M330.353,93.3368c-0.2419-0.4676-0.5645-0.838-0.9674-1.1129c-0.4034-0.274-0.8947-0.411-1.4752-0.411
		c-0.2744,0-0.5527,0.0321-0.8347,0.0964c-0.282,0.0652-0.5361,0.1663-0.7614,0.3023c-0.2263,0.1379-0.4077,0.3108-0.5442,0.5206
		c-0.1375,0.2097-0.2059,0.4676-0.2059,0.7737c0,0.5319,0.1852,0.9192,0.5564,1.1611c0.3708,0.2419,0.9268,0.4516,1.6689,0.6283
		l1.6202,0.3873c0.7898,0.1776,1.4469,0.5366,1.9712,1.0761c0.5239,0.5404,0.786,1.214,0.786,2.0199
		c0,0.6131-0.1252,1.1403-0.3751,1.5843c-0.2499,0.4431-0.58,0.8059-0.9915,1.0883c-0.411,0.2815-0.8829,0.4875-1.4148,0.616
		c-0.5319,0.1294-1.0723,0.1937-1.6202,0.1937c-0.871,0-1.6812-0.1653-2.4308-0.496c-0.7497-0.3297-1.3907-0.8985-1.9225-1.7043
		l1.3784-0.9438c0.3221,0.5168,0.7293,0.9277,1.2215,1.2338c0.4913,0.3061,1.0761,0.4591,1.7534,0.4591
		c0.3222,0,0.6443-0.0359,0.9674-0.1086c0.3221-0.0727,0.6084-0.1852,0.8583-0.3382s0.4511-0.3514,0.6046-0.5933
		c0.153-0.2419,0.23-0.5234,0.23-0.8465c0-0.564-0.2097-0.9712-0.6292-1.2206c-0.4195-0.2504-0.9272-0.4478-1.5234-0.5933
		l-1.548-0.3628c-0.1937-0.0482-0.4558-0.1285-0.786-0.2419c-0.3307-0.1124-0.6528-0.2815-0.9674-0.5073
		c-0.3146-0.2258-0.5848-0.5206-0.8101-0.8833c-0.2263-0.3628-0.3387-0.8096-0.3387-1.3415c0-0.581,0.1167-1.0883,0.3505-1.5239
		s0.548-0.7898,0.9433-1.0647c0.3949-0.274,0.8423-0.479,1.3425-0.616c0.4993-0.137,1.0156-0.206,1.5479-0.206
		c0.7898,0,1.5234,0.153,2.2008,0.4591c0.6769,0.307,1.2008,0.8314,1.5721,1.5721L330.353,93.3368z"/>
	<path class="st0" d="M335.7707,96.7463c0.0482,0.565,0.1852,1.0968,0.411,1.5966c0.2258,0.4998,0.5238,0.9315,0.8947,1.2943
		c0.3708,0.3628,0.7983,0.649,1.282,0.8578c0.4837,0.2097,1.0076,0.3146,1.5721,0.3146c0.8545,0,1.5919-0.1974,2.2131-0.5924
		c0.6202-0.3949,1.0921-0.8503,1.4147-1.3661l1.2334,1.0156c-0.6769,0.855-1.4232,1.4672-2.2372,1.8375
		c-0.8144,0.3713-1.6892,0.5564-2.624,0.5564c-0.8384,0-1.6165-0.1493-2.334-0.4469c-0.7175-0.2985-1.3344-0.7142-1.8503-1.2461
		c-0.5158-0.5319-0.923-1.1611-1.2211-1.8867c-0.2986-0.7256-0.4473-1.5154-0.4473-2.3694c0-0.855,0.145-1.6448,0.435-2.3704
		c0.2905-0.7256,0.693-1.3548,1.2093-1.8867c0.5158-0.5319,1.1205-0.9466,1.8139-1.2452c0.693-0.2985,1.4431-0.4478,2.2494-0.4478
		c0.8545,0,1.6202,0.153,2.2976,0.4591c0.6769,0.307,1.2456,0.7142,1.7048,1.2215c0.4596,0.5083,0.8106,1.1044,1.0525,1.7903
		c0.2419,0.6849,0.3628,1.4143,0.3628,2.188v0.7256H335.7707z M343.4613,95.4407c0-1.0798-0.3226-1.9547-0.9674-2.6245
		c-0.6448-0.6689-1.548-1.0033-2.7086-1.0033c-0.5163,0-1.0161,0.1011-1.4998,0.3023c-0.4837,0.2022-0.907,0.4714-1.2697,0.8106
		c-0.3628,0.3382-0.6528,0.7256-0.8706,1.1601c-0.2178,0.4355-0.3264,0.8871-0.3264,1.3548H343.4613z"/>
	<path class="st0" d="M354.1029,93.3368c-0.2419-0.4676-0.5645-0.838-0.9674-1.1129c-0.4034-0.274-0.8947-0.411-1.4752-0.411
		c-0.2745,0-0.5527,0.0321-0.8347,0.0964c-0.282,0.0652-0.5362,0.1663-0.7615,0.3023c-0.2263,0.1379-0.4077,0.3108-0.5442,0.5206
		c-0.1375,0.2097-0.206,0.4676-0.206,0.7737c0,0.5319,0.1852,0.9192,0.5565,1.1611c0.3708,0.2419,0.9268,0.4516,1.6689,0.6283
		l1.6202,0.3873c0.7898,0.1776,1.4469,0.5366,1.9712,1.0761c0.5239,0.5404,0.786,1.214,0.786,2.0199
		c0,0.6131-0.1252,1.1403-0.3751,1.5843c-0.2499,0.4431-0.5801,0.8059-0.9915,1.0883c-0.4109,0.2815-0.8829,0.4875-1.4148,0.616
		c-0.5319,0.1294-1.0723,0.1937-1.6202,0.1937c-0.8711,0-1.6812-0.1653-2.4308-0.496c-0.7496-0.3297-1.3907-0.8985-1.9225-1.7043
		l1.3784-0.9438c0.3221,0.5168,0.7293,0.9277,1.2216,1.2338c0.4913,0.3061,1.076,0.4591,1.7534,0.4591
		c0.3221,0,0.6443-0.0359,0.9674-0.1086c0.3221-0.0727,0.6084-0.1852,0.8583-0.3382c0.2499-0.153,0.4511-0.3514,0.6046-0.5933
		c0.153-0.2419,0.23-0.5234,0.23-0.8465c0-0.564-0.2097-0.9712-0.6292-1.2206c-0.4195-0.2504-0.9273-0.4478-1.5234-0.5933
		l-1.5479-0.3628c-0.1937-0.0482-0.4558-0.1285-0.786-0.2419c-0.3307-0.1124-0.6528-0.2815-0.9674-0.5073
		c-0.3146-0.2258-0.5848-0.5206-0.8101-0.8833c-0.2263-0.3628-0.3387-0.8096-0.3387-1.3415c0-0.581,0.1167-1.0883,0.3505-1.5239
		s0.5479-0.7898,0.9433-1.0647c0.3949-0.274,0.8422-0.479,1.3425-0.616c0.4993-0.137,1.0156-0.206,1.548-0.206
		c0.7898,0,1.5234,0.153,2.2008,0.4591c0.6769,0.307,1.2008,0.8314,1.5721,1.5721L354.1029,93.3368z"/>
</g>
</svg>
