<?xml version="1.0" encoding="utf-8"?>
<!-- Generator: Adobe Illustrator 24.1.1, SVG Export Plug-In . SVG Version: 6.00 Build 0)  -->
<svg version="1.1" id="Capa_1" xmlns="http://www.w3.org/2000/svg" xmlns:xlink="http://www.w3.org/1999/xlink" x="0px" y="0px"
	 width="405.1526px" height="178.1695px" viewBox="0 0 405.1526 178.1695" style="enable-background:new 0 0 405.1526 178.1695;"
	 xml:space="preserve">
<style type="text/css">
	.st0{fill:#FFFFFF;}
	.st1{fill:#016830;}
	.st2{fill:#EDEDED;}
	.st3{fill:#FFFFFF;stroke:#016830;stroke-linecap:round;stroke-linejoin:round;stroke-miterlimit:10;}
	.st4{fill:none;stroke:#FFFFFF;stroke-width:2;stroke-linecap:round;stroke-linejoin:round;stroke-miterlimit:10;}
	.st5{fill:#5D8958;}
	.st6{fill:#FFFFFF;stroke:#1A2E35;stroke-width:2;stroke-linecap:round;stroke-linejoin:round;stroke-miterlimit:10;}
</style>
<g>
	<path class="st0" d="M91.4689,75.5649c-0.1035,0.9923-0.1494,1.9948-0.3194,2.9755c-1.5085,8.6984-7.6346,11.7632-15.2814,7.2394
		c-3.3755-1.997-6.5655-4.6351-9.1498-7.5862C54.2104,63.911,46.8263,47.2423,44.83,28.3423
		c-0.3775-3.5745,0.028-7.3492,0.7411-10.8971c1.48-7.3635,7.0733-9.9101,13.9166-6.6457c1.3408,0.6396,2.6372,1.4197,3.8413,2.2908
		C79.1723,24.5526,93.4499,56.2157,91.4689,75.5649z M81.5683,78.0944c6.7665-14.8953-15.2386-58.5881-27.0989-58.683
		C49.2048,35.4589,68.85,75.2159,81.5683,78.0944z"/>
	<path class="st0" d="M38.5984,28.4396c4.8632,9.4545,0.977,15.4919-6.0363,20.9848c-1.9565,1.5323-3.3914,5.0075-3.348,7.5623
		c0.1049,6.169,2.7111,11.764,7.4202,15.8211c1.7168,1.4791,4.8472,2.4272,7.0512,2.0352c8.7776-1.5614,16.2763-0.8681,19.938,8.916
		c-13.9551-4.8689-26.6788,0.6279-39.6188,5.946c-2.4415,1.0034-6.8671-0.0864-9.1152-1.834
		C6.4666,81.3244,2.5975,72.3886,3.5412,61.5938c0.3353-3.8353,2.2686-6.368,5.9114-7.8987
		c3.6733-1.5436,7.2192-3.4282,10.7066-5.3689C28.3649,43.7598,35.0431,37.6898,38.5984,28.4396z"/>
	<path class="st0" d="M27.5588,93.1269c2.9435-1.2925,5.2398-2.2084,7.4532-3.2934c3.6824-1.8053,6.6475-1.1855,9.0982,2.1954
		c2.3634,3.2605,5.4923,4.7919,9.6555,5.348c2.2789,0.3045,4.5459,2.8022,6.0929,4.857c0.3453,0.4586-2.2693,3.2828-3.6874,4.8692
		c-0.634,0.7092-1.671,1.0649-2.5383,1.5575c-9.0611,5.1478-11.0978,4.7042-17.3266-3.7352
		C33.547,101.1869,30.772,97.4597,27.5588,93.1269z"/>
	<path class="st4" d="M23.7078,171.7435c-4.4396-4.7274-8.49-9.0405-11.9886-12.7659
		c10.0074-8.6149,19.9188-17.1474,29.8303-25.6799c0.2526,0.2021,0.5053,0.4041,0.7579,0.6062
		C36.2026,146.3238,30.0977,158.7437,23.7078,171.7435"/>
	<path class="st4" d="M45.6882,174.8699c2.128-11.9923,4.0939-23.0711,6.0599-34.1502c0.3068-0.0823,0.6137-0.1647,0.9205-0.247
		c3.5445,9.9528,7.089,19.9055,10.8691,30.5199C57.7182,172.2567,52.1788,173.46,45.6882,174.8699"/>
	<path class="st4" d="M31.9735,130.0886c-4.109,2.4311-8.218,4.8623-12.6887,7.5074c-1.9647-2.0899-3.8228-4.0664-5.928-6.3057
		c1.2094-0.3873,1.8218-0.7175,2.4557-0.7656c5.2843-0.4017,10.5726-0.7515,15.8596-1.117
		C31.7726,129.6347,31.873,129.8617,31.9735,130.0886z"/>
	<path class="st0" d="M67.6889,58.696c-2.6457-5.9073-4.9138-10.9716-7.3913-16.5036c5.0196-0.808,7.9167,1.1775,9.7196,4.5257
		C72.0895,50.5664,71.4784,54.3491,67.6889,58.696z"/>
	<path class="st4" d="M88.9902,37.4755c0.8555,2.3037,1.7581,4.084,2.1771,5.9718c2.2227,10.0054,5.4404,19.954,6.2027,30.0811
		c1.1122,14.7748-7.6691,22.0139-22.1259,19.6412c-4.725-0.7755-9.2953-2.4861-13.9416-3.7506
		c-1.7581-0.4785-3.5394-1.2747-5.2927-1.231c-1.2584,0.0315-2.4879,1.2173-3.7305,1.8882c0.1487,0.43,0.2974,0.8598,0.446,1.2897
		c6.5884-0.0063,11.1646,3.2107,12.9233,9.1733c2.1868,7.4137-4.2905,9.9233-8.9492,13.2188
		c0.5349,2.3229,1.2725,4.3946,1.4475,6.5128c0.0994,1.2012,0.3438,2.2422,0.7142,3.1582l-0.005-0.0003
		c0.5349,2.3229,1.3358,3.7881,1.5109,5.9063c0.4163,5.0349,3.3097,7.3265,7.8898,8.8726
		c8.0313,2.7111,15.8558,6.0328,23.7765,9.0739c10.9475,4.2033,21.904,8.3834,33.4286,12.7922
		c-1.3514-8.3145-2.5844-15.9001-3.8684-23.7991l-1.8718-9.0764l-0.0023-0.0001c1.7668-0.0641,2.8533-0.1318,3.9304-0.1277
		c52.7686,0.1951,194.2002,1.1474,246.968,1.4749c3.6699,0.0228,5.1519-0.9227,6.0241-4.616
		c4.8595-20.5751,10.0604-41.0691,15.0828-61.606c1.8809-7.6906,3.5956-15.4217,5.5925-24.0231
		C323.766,38.2886,162.3085,37.4873,88.9902,37.4755z"/>
</g>
<g>
	<path class="st0" d="M114.8563,58.508h2.7734l6.6221,15.2217h-3.7842l-1.3115-3.2246h-5.9126l-1.2686,3.2246h-3.6978
		L114.8563,58.508z M116.1463,62.9367l-1.8491,4.7295h3.7192L116.1463,62.9367z"/>
	<path class="st0" d="M128.638,74.5041c0,0.6729-0.0649,1.2793-0.1938,1.8164s-0.3438,0.9961-0.645,1.376
		c-0.3008,0.3799-0.6987,0.6738-1.1929,0.8818c-0.4946,0.207-1.1074,0.3115-1.8384,0.3115c-0.2441,0-0.4946-0.0107-0.7524-0.0322
		c-0.2583-0.0215-0.5088-0.0684-0.7524-0.1396l0.1719-2.8594c0.2578,0.1289,0.5376,0.1934,0.8384,0.1934
		c0.272,0,0.4873-0.0723,0.645-0.2148c0.1577-0.1436,0.272-0.3232,0.3442-0.5381c0.0713-0.2148,0.1143-0.4443,0.1289-0.6875
		c0.0142-0.2441,0.0215-0.4658,0.0215-0.667V63.2805h3.2251V74.5041z M125.1546,59.9914c0-0.5166,0.1831-0.957,0.5483-1.3223
		c0.3657-0.3652,0.8062-0.5488,1.3223-0.5488s0.957,0.1836,1.3223,0.5488c0.3657,0.3652,0.5483,0.8057,0.5483,1.3223
		c0,0.5156-0.1826,0.9561-0.5483,1.3223c-0.3652,0.3652-0.8062,0.5479-1.3223,0.5479s-0.9565-0.1826-1.3223-0.5479
		C125.3377,60.9475,125.1546,60.507,125.1546,59.9914z"/>
	<path class="st0" d="M141.0218,73.7297h-3.0962v-1.4189h-0.043c-0.1147,0.2012-0.2617,0.4014-0.4409,0.6016
		c-0.1792,0.2012-0.3975,0.3799-0.6558,0.5381c-0.2578,0.1572-0.5518,0.2861-0.8813,0.3867
		c-0.3301,0.1006-0.688,0.1504-1.0752,0.1504c-0.8169,0-1.48-0.125-1.9888-0.376s-0.9028-0.5986-1.1821-1.043
		c-0.2798-0.4443-0.4663-0.9678-0.5591-1.5693c-0.0933-0.6016-0.1396-1.2539-0.1396-1.9561v-5.7627h3.2246v5.1172
		c0,0.3008,0.0112,0.6123,0.0327,0.9355c0.0215,0.3223,0.0859,0.6201,0.1934,0.8916c0.1074,0.2725,0.272,0.4951,0.4946,0.667
		c0.2217,0.1719,0.5405,0.2578,0.9565,0.2578c0.4155,0,0.7524-0.0752,1.0103-0.2256c0.2583-0.1504,0.4551-0.3516,0.5913-0.6025
		c0.1362-0.25,0.2261-0.5332,0.269-0.8486s0.0645-0.6455,0.0645-0.9893v-5.2031h3.2251V73.7297z"/>
	<path class="st0" d="M149.2127,66.3557c-0.4727-0.5879-1.0962-0.8818-1.8701-0.8818c-0.2725,0-0.5376,0.0645-0.7954,0.1934
		c-0.2583,0.1289-0.3872,0.3516-0.3872,0.666c0,0.2588,0.1323,0.4482,0.3979,0.5703c0.2646,0.1221,0.6016,0.2295,1.0103,0.3223
		c0.4087,0.0938,0.8457,0.1934,1.3115,0.3008s0.9028,0.2764,1.3115,0.5059s0.7451,0.541,1.0103,0.9346
		c0.2651,0.3945,0.3979,0.9219,0.3979,1.5811c0,0.6738-0.147,1.2285-0.4409,1.666s-0.6699,0.7881-1.1284,1.0537
		c-0.459,0.2646-0.9751,0.4512-1.5483,0.5586s-1.1392,0.1611-1.6982,0.1611c-0.731,0-1.4692-0.1035-2.2144-0.3115
		c-0.7456-0.208-1.376-0.5771-1.8921-1.1074l1.9565-2.1709c0.3008,0.3721,0.6343,0.6553,0.9995,0.8486
		c0.3657,0.1934,0.792,0.29,1.2793,0.29c0.3726,0,0.7095-0.0537,1.0107-0.1611c0.3008-0.1074,0.4512-0.3037,0.4512-0.5908
		c0-0.2725-0.1328-0.4766-0.3975-0.6133c-0.2656-0.1357-0.6021-0.25-1.0107-0.3438c-0.4082-0.0928-0.8457-0.1934-1.3115-0.3008
		s-0.9028-0.2686-1.3115-0.4834c-0.4082-0.2158-0.7451-0.5195-1.0103-0.9141c-0.2656-0.3945-0.3979-0.9209-0.3979-1.5801
		c0-0.6162,0.1255-1.1465,0.3765-1.5918c0.2505-0.4434,0.5806-0.8096,0.9888-1.0957c0.4087-0.2871,0.8779-0.498,1.4082-0.6348
		c0.5303-0.1357,1.0679-0.2041,1.6128-0.2041c0.688,0,1.3828,0.1006,2.0854,0.3008c0.7021,0.2012,1.2969,0.5596,1.7842,1.0752
		L149.2127,66.3557z"/>
	<path class="st0" d="M160.3714,65.8606h-2.8379v3.4834c0,0.2871,0.0142,0.5479,0.043,0.7842s0.0933,0.4414,0.1934,0.6133
		s0.2544,0.3047,0.4624,0.3975c0.2075,0.0938,0.4839,0.1396,0.8276,0.1396c0.1724,0,0.3979-0.0176,0.6772-0.0537
		c0.2798-0.0352,0.4912-0.1182,0.6343-0.2471v2.6875c-0.3584,0.1289-0.731,0.2148-1.1177,0.2578
		c-0.3872,0.043-0.7671,0.0645-1.1396,0.0645c-0.5449,0-1.0464-0.0576-1.5049-0.1719c-0.459-0.1143-0.8604-0.2969-1.2041-0.5479
		c-0.3442-0.251-0.6128-0.5771-0.8062-0.9785c-0.1938-0.4014-0.2905-0.8887-0.2905-1.4619v-4.9668h-2.064v-2.5801h2.064v-3.0957
		h3.2251v3.0957h2.8379V65.8606z"/>
	<path class="st0" d="M168.5628,72.4182h-0.043c-0.3584,0.5586-0.835,0.9609-1.4297,1.2041s-1.2222,0.3652-1.8813,0.3652
		c-0.4873,0-0.9565-0.0684-1.4082-0.2041c-0.4512-0.1357-0.8491-0.3398-1.1929-0.6123c-0.3442-0.2725-0.6167-0.6094-0.8174-1.0107
		s-0.3008-0.8672-0.3008-1.3975c0-0.6025,0.1108-1.1104,0.333-1.5264s0.5234-0.7598,0.9033-1.0322
		c0.3794-0.2725,0.813-0.4834,1.3008-0.6348c0.4868-0.1504,0.9922-0.2607,1.5156-0.333c0.5229-0.0713,1.0459-0.1143,1.5693-0.1289
		c0.5234-0.0137,1.0068-0.0215,1.4512-0.0215c0-0.5732-0.2041-1.0283-0.6123-1.3652c-0.4087-0.3369-0.8926-0.5049-1.4517-0.5049
		c-0.5303,0-1.0142,0.1113-1.4512,0.333c-0.4375,0.2227-0.8276,0.5264-1.1719,0.9141l-1.7197-1.7637
		c0.6021-0.5586,1.3042-0.9775,2.1069-1.2578c0.8027-0.2793,1.6338-0.4189,2.4941-0.4189c0.9458,0,1.7231,0.1182,2.3325,0.3545
		s1.0967,0.585,1.4619,1.043c0.3657,0.459,0.6201,1.0215,0.7637,1.6875c0.1431,0.667,0.2148,1.4375,0.2148,2.3115v5.3105h-2.9673
		V72.4182z M167.7674,69.1506c-0.2437,0-0.5483,0.0107-0.9136,0.0322c-0.3657,0.0215-0.7168,0.082-1.0537,0.1826
		s-0.6235,0.251-0.8599,0.4512c-0.2363,0.2012-0.3545,0.4805-0.3545,0.8389c0,0.3867,0.1646,0.6738,0.4941,0.8594
		c0.3296,0.1865,0.6738,0.2803,1.0322,0.2803c0.3149,0,0.6196-0.043,0.9136-0.1299c0.2935-0.0859,0.5552-0.207,0.7847-0.3652
		c0.2295-0.1572,0.4121-0.3584,0.5483-0.6016c0.1362-0.2441,0.2041-0.5303,0.2041-0.8604v-0.6875H167.7674z"/>
	<path class="st0" d="M184.5159,73.7297h-2.9668v-1.376h-0.043c-0.1294,0.1865-0.2979,0.376-0.5054,0.5693
		c-0.208,0.1943-0.4517,0.3691-0.731,0.5273c-0.2798,0.1572-0.5879,0.2861-0.9248,0.3867s-0.6846,0.1504-1.0425,0.1504
		c-0.7739,0-1.4766-0.1328-2.1069-0.3975c-0.6309-0.2656-1.1719-0.6377-1.6235-1.1182c-0.4512-0.4805-0.7993-1.0498-1.0425-1.709
		c-0.2441-0.6592-0.3657-1.3828-0.3657-2.1719c0-0.7305,0.1108-1.4297,0.3335-2.0957c0.2217-0.667,0.5371-1.2578,0.9458-1.7744
		c0.4087-0.5156,0.9063-0.9277,1.4941-1.2363c0.5879-0.3076,1.2544-0.4619,1.9995-0.4619c0.6738,0,1.3008,0.1045,1.8813,0.3115
		c0.5806,0.208,1.0566,0.5625,1.4297,1.0645h0.043v-6.9229h3.2251V73.7297z M181.5491,68.5051c0-0.7881-0.2261-1.4258-0.6772-1.9131
		c-0.4517-0.4873-1.0859-0.7314-1.9028-0.7314s-1.4512,0.2441-1.9028,0.7314s-0.6772,1.125-0.6772,1.9131
		s0.2256,1.4268,0.6772,1.9141s1.0859,0.7305,1.9028,0.7305s1.4512-0.2432,1.9028-0.7305
		C181.3231,69.9319,181.5491,69.2932,181.5491,68.5051z"/>
	<path class="st0" d="M186.7088,68.5051c0-0.8311,0.1504-1.584,0.4517-2.2578c0.3008-0.6729,0.7129-1.25,1.2363-1.7305
		c0.5229-0.4795,1.1392-0.8486,1.8486-1.1074c0.7095-0.2578,1.4653-0.3867,2.2686-0.3867c0.8022,0,1.5586,0.1289,2.2681,0.3867
		c0.7095,0.2588,1.3257,0.6279,1.8491,1.1074c0.5229,0.4805,0.9351,1.0576,1.2363,1.7305c0.3008,0.6738,0.4512,1.4268,0.4512,2.2578
		c0,0.832-0.1504,1.584-0.4512,2.2578c-0.3013,0.6738-0.7134,1.251-1.2363,1.7305c-0.5234,0.4805-1.1396,0.8496-1.8491,1.1074
		s-1.4658,0.3867-2.2681,0.3867c-0.8032,0-1.5591-0.1289-2.2686-0.3867s-1.3257-0.627-1.8486-1.1074
		c-0.5234-0.4795-0.9355-1.0566-1.2363-1.7305C186.8592,70.0891,186.7088,69.3371,186.7088,68.5051z M189.9339,68.5051
		c0,0.7881,0.2256,1.4268,0.6772,1.9141s1.0859,0.7305,1.9028,0.7305s1.4512-0.2432,1.9028-0.7305
		c0.4512-0.4873,0.6772-1.126,0.6772-1.9141s-0.2261-1.4258-0.6772-1.9131c-0.4517-0.4873-1.0859-0.7314-1.9028-0.7314
		s-1.4512,0.2441-1.9028,0.7314S189.9339,67.717,189.9339,68.5051z"/>
	<path class="st0" d="M200.2108,63.2805h3.2246v1.6768h0.0435c0.3438-0.6445,0.7524-1.1279,1.2251-1.4512
		c0.4731-0.3223,1.0679-0.4834,1.7847-0.4834c0.186,0,0.3726,0.0078,0.5591,0.0215c0.186,0.0146,0.3579,0.043,0.5161,0.0859v2.9453
		c-0.2295-0.0713-0.4556-0.125-0.6772-0.1611c-0.2227-0.0352-0.4556-0.0537-0.6987-0.0537c-0.6167,0-1.104,0.0859-1.4624,0.2578
		s-0.6343,0.4121-0.8276,0.7207s-0.3188,0.6768-0.376,1.1074c-0.0576,0.4297-0.0864,0.9023-0.0864,1.4189v4.3643h-3.2246V63.2805z"
		/>
	<path class="st0" d="M215.7332,58.508h5.0313c1.2178,0,2.3755,0.1357,3.4722,0.4082s2.0532,0.7129,2.8701,1.3223
		s1.4653,1.4014,1.9458,2.376c0.48,0.9746,0.7202,2.1572,0.7202,3.5469c0,1.2334-0.2329,2.3193-0.6987,3.2578
		s-1.0933,1.7275-1.8813,2.3652s-1.6982,1.1211-2.7305,1.4512c-1.0317,0.3291-2.1143,0.4941-3.2466,0.4941h-5.4824V58.508z
		 M219.0872,70.634h1.7417c0.7739,0,1.4941-0.0791,2.1606-0.2363c0.6665-0.1582,1.2432-0.4199,1.731-0.7852
		c0.4868-0.3652,0.8706-0.8457,1.1499-1.4404c0.2798-0.5947,0.4194-1.3223,0.4194-2.1826c0-0.7451-0.1396-1.3936-0.4194-1.9453
		c-0.2793-0.5518-0.6558-1.0068-1.1284-1.3652c-0.4731-0.3584-1.0288-0.627-1.6665-0.8066
		c-0.6377-0.1787-1.3081-0.2686-2.0103-0.2686h-1.978V70.634z"/>
	<path class="st0" d="M231.428,59.9914c0-0.5166,0.1831-0.957,0.5483-1.3223c0.3657-0.3652,0.8062-0.5488,1.3223-0.5488
		s0.957,0.1836,1.3223,0.5488c0.3657,0.3652,0.5483,0.8057,0.5483,1.3223c0,0.5156-0.1826,0.9561-0.5483,1.3223
		c-0.3652,0.3652-0.8062,0.5479-1.3223,0.5479s-0.9565-0.1826-1.3223-0.5479C231.6111,60.9475,231.428,60.507,231.428,59.9914z
		 M231.6863,63.2805h3.2251v10.4492h-3.2251V63.2805z"/>
	<path class="st0" d="M248.1981,72.8479c0,1.9785-0.498,3.4795-1.4941,4.5049c-0.9966,1.0244-2.5122,1.5371-4.5474,1.5371
		c-0.9316,0-1.8491-0.1045-2.752-0.3115c-0.9028-0.208-1.7344-0.6133-2.4941-1.2148l1.7847-2.666
		c0.5015,0.415,1.0283,0.7451,1.5801,0.9883c0.5518,0.2441,1.1572,0.3662,1.8169,0.3662c0.9888,0,1.7163-0.2402,2.1821-0.7207
		s0.6987-1.0928,0.6987-1.8379v-1.0107h-0.043c-0.373,0.502-0.835,0.8564-1.3867,1.0645c-0.5518,0.207-1.0718,0.3115-1.5586,0.3115
		c-0.7739,0-1.4766-0.1318-2.1069-0.3975c-0.6309-0.2656-1.1719-0.6377-1.6235-1.1182c-0.4512-0.4805-0.7993-1.0498-1.0425-1.709
		c-0.2441-0.6592-0.3657-1.3838-0.3657-2.1719c0-0.6875,0.1108-1.3613,0.3335-2.0205c0.2217-0.6592,0.5371-1.2402,0.9458-1.7422
		c0.4087-0.501,0.9063-0.9063,1.4941-1.2148c0.5879-0.3076,1.2544-0.4619,1.9995-0.4619c0.4585,0,0.8779,0.0508,1.2578,0.1504
		c0.3799,0.1006,0.7202,0.2295,1.0215,0.3867c0.3008,0.1582,0.5586,0.334,0.7739,0.5273c0.2148,0.1934,0.3867,0.3838,0.5161,0.5693
		h0.043v-1.376h2.9668V72.8479z M240.0711,68.4406c0,0.3438,0.0645,0.6699,0.1934,0.9785s0.312,0.5801,0.5483,0.8164
		c0.2363,0.2373,0.5088,0.4268,0.8169,0.5703s0.6484,0.2148,1.0215,0.2148c0.3579,0,0.6948-0.0713,1.0103-0.2148
		s0.5913-0.333,0.8276-0.5703c0.2368-0.2363,0.4194-0.5078,0.5483-0.8164c0.1294-0.3086,0.1938-0.6348,0.1938-0.9785
		s-0.0645-0.6699-0.1938-0.9785c-0.1289-0.3076-0.3115-0.5801-0.5483-0.8164c-0.2363-0.2363-0.5122-0.4268-0.8276-0.5703
		c-0.3154-0.1426-0.6523-0.2148-1.0103-0.2148c-0.373,0-0.7134,0.0723-1.0215,0.2148c-0.3081,0.1436-0.5806,0.334-0.8169,0.5703
		s-0.4194,0.5088-0.5483,0.8164C240.1356,67.7707,240.0711,68.0969,240.0711,68.4406z"/>
	<path class="st0" d="M250.5628,59.9914c0-0.5166,0.1831-0.957,0.5483-1.3223c0.3657-0.3652,0.8062-0.5488,1.3223-0.5488
		s0.957,0.1836,1.3223,0.5488c0.3657,0.3652,0.5483,0.8057,0.5483,1.3223c0,0.5156-0.1826,0.9561-0.5483,1.3223
		c-0.3652,0.3652-0.8062,0.5479-1.3223,0.5479s-0.9565-0.1826-1.3223-0.5479C250.7459,60.9475,250.5628,60.507,250.5628,59.9914z
		 M250.8211,63.2805h3.2251v10.4492h-3.2251V63.2805z"/>
	<path class="st0" d="M263.4842,65.8606h-2.8379v3.4834c0,0.2871,0.0142,0.5479,0.043,0.7842s0.0933,0.4414,0.1934,0.6133
		s0.2544,0.3047,0.4624,0.3975c0.2075,0.0938,0.4839,0.1396,0.8276,0.1396c0.1724,0,0.3979-0.0176,0.6772-0.0537
		c0.2798-0.0352,0.4912-0.1182,0.6343-0.2471v2.6875c-0.3584,0.1289-0.731,0.2148-1.1177,0.2578
		c-0.3872,0.043-0.7671,0.0645-1.1396,0.0645c-0.5449,0-1.0464-0.0576-1.5049-0.1719c-0.459-0.1143-0.8604-0.2969-1.2041-0.5479
		c-0.3442-0.251-0.6128-0.5771-0.8062-0.9785c-0.1938-0.4014-0.2905-0.8887-0.2905-1.4619v-4.9668h-2.064v-2.5801h2.064v-3.0957
		h3.2251v3.0957h2.8379V65.8606z"/>
	<path class="st0" d="M271.6756,72.4182h-0.043c-0.3584,0.5586-0.835,0.9609-1.4297,1.2041s-1.2222,0.3652-1.8813,0.3652
		c-0.4873,0-0.9565-0.0684-1.4082-0.2041c-0.4512-0.1357-0.8491-0.3398-1.1929-0.6123c-0.3442-0.2725-0.6167-0.6094-0.8174-1.0107
		s-0.3008-0.8672-0.3008-1.3975c0-0.6025,0.1108-1.1104,0.333-1.5264s0.5234-0.7598,0.9033-1.0322
		c0.3794-0.2725,0.813-0.4834,1.3008-0.6348c0.4868-0.1504,0.9922-0.2607,1.5156-0.333c0.5229-0.0713,1.0459-0.1143,1.5693-0.1289
		c0.5234-0.0137,1.0068-0.0215,1.4512-0.0215c0-0.5732-0.2041-1.0283-0.6123-1.3652c-0.4087-0.3369-0.8926-0.5049-1.4517-0.5049
		c-0.5303,0-1.0142,0.1113-1.4512,0.333c-0.4375,0.2227-0.8276,0.5264-1.1719,0.9141l-1.7197-1.7637
		c0.6021-0.5586,1.3042-0.9775,2.1069-1.2578c0.8027-0.2793,1.6338-0.4189,2.4941-0.4189c0.9458,0,1.7231,0.1182,2.3325,0.3545
		s1.0967,0.585,1.4619,1.043c0.3657,0.459,0.6201,1.0215,0.7637,1.6875c0.1431,0.667,0.2148,1.4375,0.2148,2.3115v5.3105h-2.9673
		V72.4182z M270.8802,69.1506c-0.2437,0-0.5483,0.0107-0.9136,0.0322c-0.3657,0.0215-0.7168,0.082-1.0537,0.1826
		s-0.6235,0.251-0.8599,0.4512c-0.2363,0.2012-0.3545,0.4805-0.3545,0.8389c0,0.3867,0.1646,0.6738,0.4941,0.8594
		c0.3296,0.1865,0.6738,0.2803,1.0322,0.2803c0.3149,0,0.6196-0.043,0.9136-0.1299c0.2935-0.0859,0.5552-0.207,0.7847-0.3652
		c0.2295-0.1572,0.4121-0.3584,0.5483-0.6016c0.1362-0.2441,0.2041-0.5303,0.2041-0.8604v-0.6875H270.8802z"/>
	<path class="st0" d="M276.7068,57.4758h3.2251v16.2539h-3.2251V57.4758z"/>
	<path class="st0" d="M283.0706,70.2463h3.0962l-1.9351,6.0635h-2.752L283.0706,70.2463z"/>
	<path class="st0" d="M300.8934,66.3557c-0.4727-0.5879-1.0962-0.8818-1.8701-0.8818c-0.2725,0-0.5376,0.0645-0.7954,0.1934
		c-0.2583,0.1289-0.3872,0.3516-0.3872,0.666c0,0.2588,0.1323,0.4482,0.3979,0.5703c0.2646,0.1221,0.6016,0.2295,1.0103,0.3223
		c0.4087,0.0938,0.8457,0.1934,1.3115,0.3008s0.9028,0.2764,1.3115,0.5059s0.7451,0.541,1.0103,0.9346
		c0.2651,0.3945,0.3979,0.9219,0.3979,1.5811c0,0.6738-0.147,1.2285-0.4409,1.666s-0.6699,0.7881-1.1284,1.0537
		c-0.459,0.2646-0.9751,0.4512-1.5483,0.5586s-1.1392,0.1611-1.6982,0.1611c-0.731,0-1.4692-0.1035-2.2144-0.3115
		c-0.7456-0.208-1.376-0.5771-1.8921-1.1074l1.9565-2.1709c0.3008,0.3721,0.6343,0.6553,0.9995,0.8486
		c0.3657,0.1934,0.792,0.29,1.2793,0.29c0.3726,0,0.7095-0.0537,1.0107-0.1611c0.3008-0.1074,0.4512-0.3037,0.4512-0.5908
		c0-0.2725-0.1328-0.4766-0.3975-0.6133c-0.2656-0.1357-0.6021-0.25-1.0107-0.3438c-0.4082-0.0928-0.8457-0.1934-1.3115-0.3008
		s-0.9028-0.2686-1.3115-0.4834c-0.4082-0.2158-0.7451-0.5195-1.0103-0.9141c-0.2656-0.3945-0.3979-0.9209-0.3979-1.5801
		c0-0.6162,0.1255-1.1465,0.3765-1.5918c0.2505-0.4434,0.5806-0.8096,0.9888-1.0957c0.4087-0.2871,0.8779-0.498,1.4082-0.6348
		c0.5303-0.1357,1.0679-0.2041,1.6128-0.2041c0.688,0,1.3828,0.1006,2.0854,0.3008c0.7021,0.2012,1.2969,0.5596,1.7842,1.0752
		L300.8934,66.3557z"/>
	<path class="st0" d="M304.7205,59.9914c0-0.5166,0.1831-0.957,0.5483-1.3223c0.3657-0.3652,0.8062-0.5488,1.3223-0.5488
		s0.957,0.1836,1.3223,0.5488c0.3657,0.3652,0.5483,0.8057,0.5483,1.3223c0,0.5156-0.1826,0.9561-0.5483,1.3223
		c-0.3652,0.3652-0.8062,0.5479-1.3223,0.5479s-0.9565-0.1826-1.3223-0.5479C304.9036,60.9475,304.7205,60.507,304.7205,59.9914z
		 M304.9788,63.2805h3.2251v10.4492h-3.2251V63.2805z"/>
	<path class="st0" d="M310.5257,63.2805h3.0957v1.4189h0.043c0.1001-0.2002,0.2437-0.4004,0.4302-0.6016
		c0.186-0.2012,0.4087-0.3799,0.6665-0.5381c0.2578-0.1572,0.5518-0.2861,0.8813-0.3867c0.3296-0.0996,0.688-0.1504,1.0752-0.1504
		c0.8169,0,1.4761,0.126,1.978,0.376c0.5015,0.251,0.8921,0.5986,1.1719,1.043c0.2793,0.4443,0.4692,0.9678,0.5693,1.5693
		c0.1001,0.6025,0.1509,1.2549,0.1509,1.957v5.7617h-3.2251v-5.1172c0-0.3008-0.0107-0.6123-0.0322-0.9355
		c-0.0215-0.3223-0.0859-0.6191-0.1934-0.8916c-0.1079-0.2725-0.2725-0.4951-0.4946-0.667
		c-0.2227-0.1719-0.5415-0.2578-0.957-0.2578s-0.7524,0.0752-1.0103,0.2256c-0.2583,0.1504-0.4551,0.3516-0.5913,0.6025
		s-0.2256,0.5342-0.2686,0.8486c-0.043,0.3154-0.0649,0.6455-0.0649,0.9893v5.2031h-3.2246V63.2805z"/>
	<path class="st0" d="M336.3465,65.8606h-2.8379v3.4834c0,0.2871,0.0142,0.5479,0.043,0.7842s0.0933,0.4414,0.1934,0.6133
		s0.2544,0.3047,0.4624,0.3975c0.2075,0.0938,0.4839,0.1396,0.8276,0.1396c0.1724,0,0.3979-0.0176,0.6772-0.0537
		c0.2798-0.0352,0.4912-0.1182,0.6343-0.2471v2.6875c-0.3584,0.1289-0.731,0.2148-1.1177,0.2578
		c-0.3872,0.043-0.7671,0.0645-1.1396,0.0645c-0.5449,0-1.0464-0.0576-1.5049-0.1719c-0.459-0.1143-0.8604-0.2969-1.2041-0.5479
		c-0.3442-0.251-0.6128-0.5771-0.8062-0.9785c-0.1938-0.4014-0.2905-0.8887-0.2905-1.4619v-4.9668h-2.064v-2.5801h2.064v-3.0957
		h3.2251v3.0957h2.8379V65.8606z"/>
	<path class="st0" d="M347.8704,71.924c-0.5156,0.6592-1.168,1.168-1.9561,1.5264c-0.7886,0.3574-1.6055,0.5371-2.4512,0.5371
		c-0.8027,0-1.5586-0.1289-2.2686-0.3867c-0.7095-0.2578-1.3257-0.627-1.8486-1.1074c-0.5234-0.4795-0.9355-1.0566-1.2363-1.7305
		c-0.3013-0.6738-0.4517-1.4258-0.4517-2.2578c0-0.8311,0.1504-1.584,0.4517-2.2578c0.3008-0.6729,0.7129-1.25,1.2363-1.7305
		c0.5229-0.4795,1.1392-0.8486,1.8486-1.1074c0.71-0.2578,1.4658-0.3867,2.2686-0.3867c0.7451,0,1.4224,0.1289,2.0317,0.3867
		c0.6089,0.2588,1.125,0.6279,1.5479,1.1074c0.4229,0.4805,0.749,1.0576,0.9785,1.7305c0.229,0.6738,0.3438,1.4268,0.3438,2.2578
		v1.0107h-7.4819c0.1289,0.6162,0.4087,1.1074,0.8384,1.4727c0.4302,0.3652,0.9604,0.5479,1.5913,0.5479
		c0.5298,0,0.978-0.1182,1.3438-0.3545c0.3652-0.2363,0.6841-0.541,0.9565-0.9141L347.8704,71.924z M345.14,67.3225
		c0.0142-0.5439-0.1646-1.0107-0.5371-1.3975c-0.373-0.3867-0.853-0.5801-1.4409-0.5801c-0.3584,0-0.6738,0.0576-0.9458,0.1719
		c-0.2725,0.1152-0.5054,0.2617-0.6987,0.4404c-0.1934,0.1797-0.3442,0.3877-0.4517,0.624s-0.1685,0.4834-0.1826,0.7412H345.14z"/>
	<path class="st0" d="M350.3216,63.2805h3.0957v1.4189h0.043c0.1001-0.2002,0.2437-0.4004,0.4302-0.6016
		c0.186-0.2012,0.4087-0.3799,0.6665-0.5381c0.2578-0.1572,0.5518-0.2861,0.8813-0.3867c0.3296-0.0996,0.688-0.1504,1.0752-0.1504
		c0.8169,0,1.4761,0.126,1.978,0.376c0.5015,0.251,0.8921,0.5986,1.1719,1.043c0.2793,0.4443,0.4692,0.9678,0.5693,1.5693
		c0.1001,0.6025,0.1509,1.2549,0.1509,1.957v5.7617h-3.2251v-5.1172c0-0.3008-0.0107-0.6123-0.0322-0.9355
		c-0.0215-0.3223-0.0859-0.6191-0.1934-0.8916c-0.1079-0.2725-0.2725-0.4951-0.4946-0.667
		c-0.2227-0.1719-0.5415-0.2578-0.957-0.2578s-0.7524,0.0752-1.0103,0.2256c-0.2583,0.1504-0.4551,0.3516-0.5913,0.6025
		s-0.2256,0.5342-0.2686,0.8486c-0.043,0.3154-0.0649,0.6455-0.0649,0.9893v5.2031h-3.2246V63.2805z"/>
	<path class="st0" d="M372.5521,71.924c-0.5156,0.6592-1.168,1.168-1.9561,1.5264c-0.7886,0.3574-1.6055,0.5371-2.4512,0.5371
		c-0.8027,0-1.5586-0.1289-2.2686-0.3867c-0.7095-0.2578-1.3257-0.627-1.8486-1.1074c-0.5234-0.4795-0.9355-1.0566-1.2363-1.7305
		c-0.3013-0.6738-0.4517-1.4258-0.4517-2.2578c0-0.8311,0.1504-1.584,0.4517-2.2578c0.3008-0.6729,0.7129-1.25,1.2363-1.7305
		c0.5229-0.4795,1.1392-0.8486,1.8486-1.1074c0.71-0.2578,1.4658-0.3867,2.2686-0.3867c0.7451,0,1.4224,0.1289,2.0317,0.3867
		c0.6089,0.2588,1.125,0.6279,1.5479,1.1074c0.4229,0.4805,0.749,1.0576,0.9785,1.7305c0.229,0.6738,0.3438,1.4268,0.3438,2.2578
		v1.0107h-7.4819c0.1289,0.6162,0.4087,1.1074,0.8384,1.4727c0.4302,0.3652,0.9604,0.5479,1.5913,0.5479
		c0.5298,0,0.978-0.1182,1.3438-0.3545c0.3652-0.2363,0.6841-0.541,0.9565-0.9141L372.5521,71.924z M369.8216,67.3225
		c0.0142-0.5439-0.1646-1.0107-0.5371-1.3975c-0.373-0.3867-0.853-0.5801-1.4409-0.5801c-0.3584,0-0.6738,0.0576-0.9458,0.1719
		c-0.2725,0.1152-0.5054,0.2617-0.6987,0.4404c-0.1934,0.1797-0.3442,0.3877-0.4517,0.624s-0.1685,0.4834-0.1826,0.7412H369.8216z"
		/>
	<path class="st0" d="M375.0032,63.2805h3.2246v1.6768h0.0435c0.3438-0.6445,0.7524-1.1279,1.2251-1.4512
		c0.4731-0.3223,1.0679-0.4834,1.7847-0.4834c0.186,0,0.3726,0.0078,0.5591,0.0215c0.186,0.0146,0.3579,0.043,0.5161,0.0859v2.9453
		c-0.2295-0.0713-0.4556-0.125-0.6772-0.1611c-0.2227-0.0352-0.4556-0.0537-0.6987-0.0537c-0.6167,0-1.104,0.0859-1.4624,0.2578
		s-0.6343,0.4121-0.8276,0.7207s-0.3188,0.6768-0.376,1.1074c-0.0576,0.4297-0.0864,0.9023-0.0864,1.4189v4.3643h-3.2246V63.2805z"
		/>
	<path class="st0" d="M120.4031,104.4319h-3.2251v-6.0205h-0.043c-0.373,0.502-0.8491,0.8564-1.4297,1.0645
		s-1.2075,0.3115-1.8813,0.3115c-0.7451,0-1.4116-0.1543-1.9995-0.4619c-0.5879-0.3086-1.0854-0.7207-1.4941-1.2363
		s-0.7241-1.1074-0.9458-1.7734c-0.2227-0.667-0.3335-1.3652-0.3335-2.0967c0-0.7881,0.1216-1.5117,0.3657-2.1719
		c0.2432-0.6582,0.5913-1.2285,1.0425-1.709c0.4517-0.4795,0.9927-0.8525,1.6235-1.1182c0.6304-0.2646,1.333-0.3975,2.1069-0.3975
		c0.3579,0,0.7056,0.0508,1.0425,0.1504c0.3369,0.1006,0.645,0.2295,0.9248,0.3867c0.2793,0.1582,0.5229,0.334,0.731,0.5273
		c0.2075,0.1934,0.376,0.3838,0.5054,0.5693h0.043v-1.376h2.9668V104.4319z M117.4363,94.3049c0-0.7881-0.2261-1.4258-0.6772-1.9131
		c-0.4517-0.4873-1.0859-0.7314-1.9028-0.7314s-1.4512,0.2441-1.9028,0.7314s-0.6772,1.125-0.6772,1.9131
		s0.2256,1.4268,0.6772,1.9141s1.0859,0.7305,1.9028,0.7305s1.4512-0.2432,1.9028-0.7305
		C117.2103,95.7317,117.4363,95.093,117.4363,94.3049z"/>
	<path class="st0" d="M133.0452,99.5295h-3.0962v-1.4189h-0.043c-0.1147,0.2012-0.2617,0.4014-0.4409,0.6016
		c-0.1792,0.2012-0.3975,0.3799-0.6558,0.5381c-0.2578,0.1572-0.5518,0.2861-0.8814,0.3867
		c-0.3301,0.1006-0.688,0.1504-1.0752,0.1504c-0.8169,0-1.48-0.125-1.9888-0.376s-0.9028-0.5986-1.1821-1.043
		c-0.2798-0.4443-0.4663-0.9678-0.5591-1.5693c-0.0933-0.6016-0.1396-1.2539-0.1396-1.9561v-5.7627h3.2246v5.1172
		c0,0.3008,0.0112,0.6123,0.0327,0.9355c0.0215,0.3223,0.0859,0.6201,0.1934,0.8916c0.1074,0.2725,0.272,0.4951,0.4946,0.667
		c0.2217,0.1719,0.5405,0.2578,0.9565,0.2578c0.4155,0,0.7524-0.0752,1.0103-0.2256c0.2583-0.1504,0.4551-0.3516,0.5913-0.6025
		c0.1362-0.25,0.2261-0.5332,0.269-0.8486s0.0645-0.6455,0.0645-0.9893v-5.2031h3.2251V99.5295z"/>
	<path class="st0" d="M145.2137,97.7238c-0.5156,0.6592-1.168,1.168-1.9561,1.5264c-0.7886,0.3574-1.6055,0.5371-2.4512,0.5371
		c-0.8027,0-1.5586-0.1289-2.2686-0.3867c-0.7095-0.2578-1.3257-0.627-1.8486-1.1074c-0.5234-0.4795-0.9355-1.0566-1.2363-1.7305
		c-0.3013-0.6738-0.4517-1.4258-0.4517-2.2578c0-0.8311,0.1504-1.584,0.4517-2.2578c0.3008-0.6729,0.7129-1.25,1.2363-1.7305
		c0.5229-0.4795,1.1392-0.8486,1.8486-1.1074c0.71-0.2578,1.4658-0.3867,2.2686-0.3867c0.7451,0,1.4224,0.1289,2.0317,0.3867
		c0.6089,0.2588,1.125,0.6279,1.5479,1.1074c0.4229,0.4805,0.749,1.0576,0.9785,1.7305c0.229,0.6738,0.3438,1.4268,0.3438,2.2578
		v1.0107h-7.4819c0.1289,0.6162,0.4087,1.1074,0.8384,1.4727c0.4302,0.3652,0.9604,0.5479,1.5913,0.5479
		c0.5298,0,0.978-0.1182,1.3438-0.3545c0.3652-0.2363,0.6841-0.541,0.9565-0.9141L145.2137,97.7238z M142.4832,93.1223
		c0.0142-0.5439-0.1646-1.0107-0.5371-1.3975c-0.373-0.3867-0.853-0.5801-1.4409-0.5801c-0.3584,0-0.6738,0.0576-0.9458,0.1719
		c-0.2725,0.1152-0.5054,0.2617-0.6987,0.4404c-0.1934,0.1797-0.3442,0.3877-0.4517,0.624s-0.1685,0.4834-0.1826,0.7412H142.4832z"
		/>
	<path class="st0" d="M163.9183,97.7238c-0.5156,0.6592-1.168,1.168-1.9561,1.5264c-0.7886,0.3574-1.6055,0.5371-2.4512,0.5371
		c-0.8027,0-1.5586-0.1289-2.2686-0.3867c-0.7095-0.2578-1.3257-0.627-1.8486-1.1074c-0.5234-0.4795-0.9355-1.0566-1.2363-1.7305
		c-0.3013-0.6738-0.4517-1.4258-0.4517-2.2578c0-0.8311,0.1504-1.584,0.4517-2.2578c0.3008-0.6729,0.7129-1.25,1.2363-1.7305
		c0.5229-0.4795,1.1392-0.8486,1.8486-1.1074c0.71-0.2578,1.4658-0.3867,2.2686-0.3867c0.7451,0,1.4224,0.1289,2.0317,0.3867
		c0.6089,0.2588,1.125,0.6279,1.5479,1.1074c0.4229,0.4805,0.749,1.0576,0.9785,1.7305c0.229,0.6738,0.3438,1.4268,0.3438,2.2578
		v1.0107h-7.4819c0.1289,0.6162,0.4087,1.1074,0.8384,1.4727c0.4302,0.3652,0.9604,0.5479,1.5913,0.5479
		c0.5298,0,0.978-0.1182,1.3438-0.3545c0.3652-0.2363,0.6841-0.541,0.9565-0.9141L163.9183,97.7238z M161.1878,93.1223
		c0.0142-0.5439-0.1646-1.0107-0.5371-1.3975c-0.373-0.3867-0.853-0.5801-1.4409-0.5801c-0.3584,0-0.6738,0.0576-0.9458,0.1719
		c-0.2725,0.1152-0.5054,0.2617-0.6987,0.4404c-0.1934,0.1797-0.3442,0.3877-0.4517,0.624s-0.1685,0.4834-0.1826,0.7412H161.1878z"
		/>
	<path class="st0" d="M172.2816,92.1555c-0.4727-0.5879-1.0962-0.8818-1.8701-0.8818c-0.2725,0-0.5376,0.0645-0.7954,0.1934
		c-0.2583,0.1289-0.3872,0.3516-0.3872,0.666c0,0.2588,0.1323,0.4482,0.3979,0.5703c0.2646,0.1221,0.6016,0.2295,1.0103,0.3223
		c0.4087,0.0938,0.8457,0.1934,1.3115,0.3008s0.9028,0.2764,1.3115,0.5059s0.7451,0.541,1.0103,0.9346
		c0.2651,0.3945,0.3979,0.9219,0.3979,1.5811c0,0.6738-0.147,1.2285-0.4409,1.666s-0.6699,0.7881-1.1284,1.0537
		c-0.459,0.2646-0.9751,0.4512-1.5483,0.5586s-1.1392,0.1611-1.6982,0.1611c-0.731,0-1.4692-0.1035-2.2144-0.3115
		c-0.7456-0.208-1.376-0.5771-1.8921-1.1074l1.9565-2.1709c0.3008,0.3721,0.6343,0.6553,0.9995,0.8486
		c0.3657,0.1934,0.792,0.29,1.2793,0.29c0.3726,0,0.7095-0.0537,1.0107-0.1611c0.3008-0.1074,0.4512-0.3037,0.4512-0.5908
		c0-0.2725-0.1328-0.4766-0.3975-0.6133c-0.2656-0.1357-0.6021-0.25-1.0107-0.3438c-0.4082-0.0928-0.8457-0.1934-1.3115-0.3008
		s-0.9028-0.2686-1.3115-0.4834c-0.4082-0.2158-0.7451-0.5195-1.0103-0.9141c-0.2656-0.3945-0.3979-0.9209-0.3979-1.5801
		c0-0.6162,0.1255-1.1465,0.3765-1.5918c0.2505-0.4434,0.5806-0.8096,0.9888-1.0957c0.4087-0.2871,0.8779-0.498,1.4082-0.6348
		c0.5303-0.1357,1.0679-0.2041,1.6128-0.2041c0.688,0,1.3828,0.1006,2.0854,0.3008c0.7021,0.2012,1.2969,0.5596,1.7842,1.0752
		L172.2816,92.1555z"/>
	<path class="st0" d="M176.6248,89.0803h2.9673v1.376h0.043c0.1289-0.1855,0.2974-0.376,0.5049-0.5693
		c0.208-0.1934,0.4517-0.3691,0.731-0.5273c0.2798-0.1572,0.584-0.2861,0.9141-0.3867c0.3296-0.0996,0.6807-0.1504,1.0532-0.1504
		c0.7744,0,1.4761,0.1328,2.1074,0.3975c0.6304,0.2656,1.1714,0.6387,1.623,1.1182c0.4517,0.4805,0.7988,1.0508,1.0425,1.709
		c0.2437,0.6602,0.3657,1.3838,0.3657,2.1719c0,0.7314-0.1113,1.4297-0.333,2.0967c-0.2227,0.666-0.5376,1.2578-0.9463,1.7734
		c-0.4082,0.5156-0.9067,0.9277-1.4941,1.2363c-0.5879,0.3076-1.2544,0.4619-1.9995,0.4619c-0.6738,0-1.3008-0.1035-1.8813-0.3115
		s-1.0571-0.5625-1.4297-1.0645h-0.043v6.0205h-3.2251V89.0803z M179.5921,94.3049c0,0.7881,0.2256,1.4268,0.6772,1.9141
		c0.4512,0.4873,1.0854,0.7305,1.9023,0.7305c0.8174,0,1.4517-0.2432,1.9028-0.7305c0.4517-0.4873,0.6772-1.126,0.6772-1.9141
		s-0.2256-1.4258-0.6772-1.9131c-0.4512-0.4873-1.0854-0.7314-1.9028-0.7314c-0.8169,0-1.4512,0.2441-1.9023,0.7314
		C179.8177,92.8791,179.5921,93.5168,179.5921,94.3049z"/>
	<path class="st0" d="M199.7586,97.7238c-0.5156,0.6592-1.168,1.168-1.9561,1.5264c-0.7886,0.3574-1.6055,0.5371-2.4512,0.5371
		c-0.8027,0-1.5586-0.1289-2.2686-0.3867c-0.7095-0.2578-1.3257-0.627-1.8486-1.1074c-0.5234-0.4795-0.9355-1.0566-1.2363-1.7305
		c-0.3013-0.6738-0.4517-1.4258-0.4517-2.2578c0-0.8311,0.1504-1.584,0.4517-2.2578c0.3008-0.6729,0.7129-1.25,1.2363-1.7305
		c0.5229-0.4795,1.1392-0.8486,1.8486-1.1074c0.71-0.2578,1.4658-0.3867,2.2686-0.3867c0.7451,0,1.4224,0.1289,2.0317,0.3867
		c0.6089,0.2588,1.125,0.6279,1.5479,1.1074c0.4229,0.4805,0.749,1.0576,0.9785,1.7305c0.229,0.6738,0.3438,1.4268,0.3438,2.2578
		v1.0107h-7.4819c0.1289,0.6162,0.4087,1.1074,0.8384,1.4727c0.4302,0.3652,0.9604,0.5479,1.5913,0.5479
		c0.5298,0,0.978-0.1182,1.3438-0.3545c0.3652-0.2363,0.6841-0.541,0.9565-0.9141L199.7586,97.7238z M197.0281,93.1223
		c0.0142-0.5439-0.1646-1.0107-0.5371-1.3975c-0.373-0.3867-0.853-0.5801-1.4409-0.5801c-0.3584,0-0.6738,0.0576-0.9458,0.1719
		c-0.2725,0.1152-0.5054,0.2617-0.6987,0.4404c-0.1934,0.1797-0.3442,0.3877-0.4517,0.624s-0.1685,0.4834-0.1826,0.7412H197.0281z"
		/>
	<path class="st0" d="M202.2098,89.0803h3.2246v1.6768h0.0435c0.3438-0.6445,0.7524-1.1279,1.2251-1.4512
		c0.4731-0.3223,1.0679-0.4834,1.7847-0.4834c0.186,0,0.3726,0.0078,0.5591,0.0215c0.186,0.0146,0.3579,0.043,0.5161,0.0859v2.9453
		c-0.2295-0.0713-0.4556-0.125-0.6772-0.1611c-0.2227-0.0352-0.4556-0.0537-0.6987-0.0537c-0.6167,0-1.104,0.0859-1.4624,0.2578
		s-0.6343,0.4121-0.8276,0.7207s-0.3188,0.6768-0.376,1.1074c-0.0576,0.4297-0.0864,0.9023-0.0864,1.4189v4.3643h-3.2246V89.0803z"
		/>
	<path class="st0" d="M217.5174,98.218h-0.043c-0.3584,0.5586-0.835,0.9609-1.4297,1.2041s-1.2222,0.3652-1.8813,0.3652
		c-0.4873,0-0.9565-0.0684-1.4082-0.2041c-0.4512-0.1357-0.8491-0.3398-1.1929-0.6123c-0.3442-0.2725-0.6167-0.6094-0.8174-1.0107
		s-0.3008-0.8672-0.3008-1.3975c0-0.6025,0.1108-1.1104,0.333-1.5264s0.5234-0.7598,0.9033-1.0322
		c0.3794-0.2725,0.813-0.4834,1.3008-0.6348c0.4868-0.1504,0.9922-0.2607,1.5156-0.333c0.5229-0.0713,1.0459-0.1143,1.5693-0.1289
		c0.5234-0.0137,1.0068-0.0215,1.4512-0.0215c0-0.5732-0.2041-1.0283-0.6123-1.3652c-0.4087-0.3369-0.8926-0.5049-1.4517-0.5049
		c-0.5303,0-1.0142,0.1113-1.4512,0.333c-0.4375,0.2227-0.8276,0.5264-1.1719,0.9141l-1.7197-1.7637
		c0.6021-0.5586,1.3042-0.9775,2.1069-1.2578c0.8027-0.2793,1.6338-0.4189,2.4941-0.4189c0.9458,0,1.7231,0.1182,2.3325,0.3545
		s1.0967,0.585,1.4619,1.043c0.3657,0.459,0.6201,1.0215,0.7637,1.6875c0.1431,0.667,0.2148,1.4375,0.2148,2.3115v5.3105h-2.9673
		V98.218z M216.722,94.9504c-0.2437,0-0.5483,0.0107-0.9136,0.0322c-0.3657,0.0215-0.7168,0.082-1.0537,0.1826
		s-0.6235,0.251-0.8599,0.4512c-0.2363,0.2012-0.3545,0.4805-0.3545,0.8389c0,0.3867,0.1646,0.6738,0.4941,0.8594
		c0.3296,0.1865,0.6738,0.2803,1.0322,0.2803c0.3149,0,0.6196-0.043,0.9136-0.1299c0.2935-0.0859,0.5552-0.207,0.7847-0.3652
		c0.2295-0.1572,0.4121-0.3584,0.5483-0.6016c0.1362-0.2441,0.2041-0.5303,0.2041-0.8604v-0.6875H216.722z"/>
	<path class="st0" d="M222.5057,89.0803h3.2246v1.6768h0.0435c0.3438-0.6445,0.7524-1.1279,1.2251-1.4512
		c0.4731-0.3223,1.0679-0.4834,1.7847-0.4834c0.186,0,0.3726,0.0078,0.5591,0.0215c0.186,0.0146,0.3579,0.043,0.5161,0.0859v2.9453
		c-0.2295-0.0713-0.4556-0.125-0.6772-0.1611c-0.2227-0.0352-0.4556-0.0537-0.6987-0.0537c-0.6167,0-1.104,0.0859-1.4624,0.2578
		s-0.6343,0.4121-0.8276,0.7207s-0.3188,0.6768-0.376,1.1074c-0.0576,0.4297-0.0864,0.9023-0.0864,1.4189v4.3643h-3.2246V89.0803z"
		/>
	<path class="st0" d="M237.2327,94.3049c0-0.8311,0.1504-1.584,0.4517-2.2578c0.3008-0.6729,0.7129-1.25,1.2363-1.7305
		c0.5229-0.4795,1.1392-0.8486,1.8486-1.1074c0.7095-0.2578,1.4653-0.3867,2.2686-0.3867c0.8022,0,1.5586,0.1289,2.2681,0.3867
		c0.7095,0.2588,1.3257,0.6279,1.8491,1.1074c0.5229,0.4805,0.9351,1.0576,1.2363,1.7305c0.3008,0.6738,0.4512,1.4268,0.4512,2.2578
		c0,0.832-0.1504,1.584-0.4512,2.2578c-0.3013,0.6738-0.7134,1.251-1.2363,1.7305c-0.5234,0.4805-1.1396,0.8496-1.8491,1.1074
		s-1.4658,0.3867-2.2681,0.3867c-0.8032,0-1.5591-0.1289-2.2686-0.3867s-1.3257-0.627-1.8486-1.1074
		c-0.5234-0.4795-0.9355-1.0566-1.2363-1.7305C237.3831,95.8889,237.2327,95.1369,237.2327,94.3049z M240.4578,94.3049
		c0,0.7881,0.2256,1.4268,0.6772,1.9141s1.0859,0.7305,1.9028,0.7305s1.4512-0.2432,1.9028-0.7305
		c0.4512-0.4873,0.6772-1.126,0.6772-1.9141s-0.2261-1.4258-0.6772-1.9131c-0.4517-0.4873-1.0859-0.7314-1.9028-0.7314
		s-1.4512,0.2441-1.9028,0.7314S240.4578,93.5168,240.4578,94.3049z"/>
	<path class="st0" d="M266.9881,97.7238c-0.5156,0.6592-1.168,1.168-1.9561,1.5264c-0.7886,0.3574-1.6055,0.5371-2.4512,0.5371
		c-0.8027,0-1.5586-0.1289-2.2686-0.3867c-0.7095-0.2578-1.3257-0.627-1.8486-1.1074c-0.5234-0.4795-0.9355-1.0566-1.2363-1.7305
		c-0.3013-0.6738-0.4517-1.4258-0.4517-2.2578c0-0.8311,0.1504-1.584,0.4517-2.2578c0.3008-0.6729,0.7129-1.25,1.2363-1.7305
		c0.5229-0.4795,1.1392-0.8486,1.8486-1.1074c0.71-0.2578,1.4658-0.3867,2.2686-0.3867c0.7451,0,1.4224,0.1289,2.0317,0.3867
		c0.6089,0.2588,1.125,0.6279,1.5479,1.1074c0.4229,0.4805,0.749,1.0576,0.9785,1.7305c0.229,0.6738,0.3438,1.4268,0.3438,2.2578
		v1.0107h-7.4819c0.1289,0.6162,0.4087,1.1074,0.8384,1.4727c0.4302,0.3652,0.9604,0.5479,1.5913,0.5479
		c0.5298,0,0.978-0.1182,1.3438-0.3545c0.3652-0.2363,0.6841-0.541,0.9565-0.9141L266.9881,97.7238z M264.2576,93.1223
		c0.0142-0.5439-0.1646-1.0107-0.5371-1.3975c-0.373-0.3867-0.853-0.5801-1.4409-0.5801c-0.3584,0-0.6738,0.0576-0.9458,0.1719
		c-0.2725,0.1152-0.5054,0.2617-0.6987,0.4404c-0.1934,0.1797-0.3442,0.3877-0.4517,0.624s-0.1685,0.4834-0.1826,0.7412H264.2576z"
		/>
	<path class="st0" d="M272.2557,93.9397l-3.4829-4.8594h3.8052l1.8491,2.8379l1.7847-2.8379h3.5903l-3.397,4.8594l4.0205,5.5898
		h-3.8057l-2.2788-3.4834l-2.4512,3.4834h-3.7622L272.2557,93.9397z"/>
	<path class="st0" d="M281.6942,89.0803h2.9673v1.376h0.043c0.1289-0.1855,0.2974-0.376,0.5049-0.5693
		c0.208-0.1934,0.4517-0.3691,0.731-0.5273c0.2798-0.1572,0.584-0.2861,0.9141-0.3867c0.3296-0.0996,0.6807-0.1504,1.0532-0.1504
		c0.7744,0,1.4761,0.1328,2.1074,0.3975c0.6304,0.2656,1.1714,0.6387,1.623,1.1182c0.4517,0.4805,0.7988,1.0508,1.0425,1.709
		c0.2437,0.6602,0.3657,1.3838,0.3657,2.1719c0,0.7314-0.1113,1.4297-0.333,2.0967c-0.2227,0.666-0.5376,1.2578-0.9463,1.7734
		c-0.4082,0.5156-0.9067,0.9277-1.4941,1.2363c-0.5879,0.3076-1.2544,0.4619-1.9995,0.4619c-0.6738,0-1.3008-0.1035-1.8813-0.3115
		s-1.0571-0.5625-1.4297-1.0645h-0.043v6.0205h-3.2251V89.0803z M284.6614,94.3049c0,0.7881,0.2256,1.4268,0.6772,1.9141
		c0.4512,0.4873,1.0854,0.7305,1.9023,0.7305c0.8174,0,1.4517-0.2432,1.9028-0.7305c0.4517-0.4873,0.6772-1.126,0.6772-1.9141
		s-0.2256-1.4258-0.6772-1.9131c-0.4512-0.4873-1.0854-0.7314-1.9028-0.7314c-0.8169,0-1.4512,0.2441-1.9023,0.7314
		C284.887,92.8791,284.6614,93.5168,284.6614,94.3049z"/>
	<path class="st0" d="M294.5511,94.3049c0-0.8311,0.1504-1.584,0.4517-2.2578c0.3008-0.6729,0.7129-1.25,1.2363-1.7305
		c0.5229-0.4795,1.1392-0.8486,1.8486-1.1074c0.7095-0.2578,1.4653-0.3867,2.2686-0.3867c0.8022,0,1.5586,0.1289,2.2681,0.3867
		c0.7095,0.2588,1.3257,0.6279,1.8491,1.1074c0.5229,0.4805,0.9351,1.0576,1.2363,1.7305c0.3008,0.6738,0.4512,1.4268,0.4512,2.2578
		c0,0.832-0.1504,1.584-0.4512,2.2578c-0.3013,0.6738-0.7134,1.251-1.2363,1.7305c-0.5234,0.4805-1.1396,0.8496-1.8491,1.1074
		s-1.4658,0.3867-2.2681,0.3867c-0.8032,0-1.5591-0.1289-2.2686-0.3867s-1.3257-0.627-1.8486-1.1074
		c-0.5234-0.4795-0.9355-1.0566-1.2363-1.7305C294.7015,95.8889,294.5511,95.1369,294.5511,94.3049z M297.7762,94.3049
		c0,0.7881,0.2256,1.4268,0.6772,1.9141s1.0859,0.7305,1.9028,0.7305s1.4512-0.2432,1.9028-0.7305
		c0.4512-0.4873,0.6772-1.126,0.6772-1.9141s-0.2261-1.4258-0.6772-1.9131c-0.4517-0.4873-1.0859-0.7314-1.9028-0.7314
		s-1.4512,0.2441-1.9028,0.7314S297.7762,93.5168,297.7762,94.3049z"/>
	<path class="st0" d="M308.053,89.0803h3.0957v1.4189h0.043c0.1001-0.2002,0.2437-0.4004,0.4302-0.6016
		c0.186-0.2012,0.4087-0.3799,0.6665-0.5381c0.2578-0.1572,0.5518-0.2861,0.8813-0.3867c0.3296-0.0996,0.688-0.1504,1.0752-0.1504
		c0.8169,0,1.4761,0.126,1.978,0.376c0.5015,0.251,0.8921,0.5986,1.1719,1.043c0.2793,0.4443,0.4692,0.9678,0.5693,1.5693
		c0.1001,0.6025,0.1509,1.2549,0.1509,1.957v5.7617H314.89v-5.1172c0-0.3008-0.0107-0.6123-0.0322-0.9355
		c-0.0215-0.3223-0.0859-0.6191-0.1934-0.8916c-0.1079-0.2725-0.2725-0.4951-0.4946-0.667
		c-0.2227-0.1719-0.5415-0.2578-0.957-0.2578s-0.7524,0.0752-1.0103,0.2256c-0.2583,0.1504-0.4551,0.3516-0.5913,0.6025
		s-0.2256,0.5342-0.2686,0.8486c-0.043,0.3154-0.0649,0.6455-0.0649,0.9893v5.2031h-3.2246V89.0803z"/>
	<path class="st0" d="M330.2835,97.7238c-0.5156,0.6592-1.168,1.168-1.9561,1.5264c-0.7886,0.3574-1.6055,0.5371-2.4512,0.5371
		c-0.8027,0-1.5586-0.1289-2.2686-0.3867c-0.7095-0.2578-1.3257-0.627-1.8486-1.1074c-0.5234-0.4795-0.9355-1.0566-1.2363-1.7305
		c-0.3013-0.6738-0.4517-1.4258-0.4517-2.2578c0-0.8311,0.1504-1.584,0.4517-2.2578c0.3008-0.6729,0.7129-1.25,1.2363-1.7305
		c0.5229-0.4795,1.1392-0.8486,1.8486-1.1074c0.71-0.2578,1.4658-0.3867,2.2686-0.3867c0.7451,0,1.4224,0.1289,2.0317,0.3867
		c0.6089,0.2588,1.125,0.6279,1.5479,1.1074c0.4229,0.4805,0.749,1.0576,0.9785,1.7305c0.229,0.6738,0.3438,1.4268,0.3438,2.2578
		v1.0107h-7.4819c0.1289,0.6162,0.4087,1.1074,0.8384,1.4727c0.4302,0.3652,0.9604,0.5479,1.5913,0.5479
		c0.5298,0,0.978-0.1182,1.3438-0.3545c0.3652-0.2363,0.6841-0.541,0.9565-0.9141L330.2835,97.7238z M327.553,93.1223
		c0.0142-0.5439-0.1646-1.0107-0.5371-1.3975c-0.373-0.3867-0.853-0.5801-1.4409-0.5801c-0.3584,0-0.6738,0.0576-0.9458,0.1719
		c-0.2725,0.1152-0.5054,0.2617-0.6987,0.4404c-0.1934,0.1797-0.3442,0.3877-0.4517,0.624s-0.1685,0.4834-0.1826,0.7412H327.553z"/>
	<path class="st0" d="M332.7347,89.0803h3.2246v1.6768h0.0435c0.3438-0.6445,0.7524-1.1279,1.2251-1.4512
		c0.4731-0.3223,1.0679-0.4834,1.7847-0.4834c0.186,0,0.3726,0.0078,0.5591,0.0215c0.186,0.0146,0.3579,0.043,0.5161,0.0859v2.9453
		c-0.2295-0.0713-0.4556-0.125-0.6772-0.1611c-0.2227-0.0352-0.4556-0.0537-0.6987-0.0537c-0.6167,0-1.104,0.0859-1.4624,0.2578
		s-0.6343,0.4121-0.8276,0.7207s-0.3188,0.6768-0.376,1.1074c-0.0576,0.4297-0.0864,0.9023-0.0864,1.4189v4.3643h-3.2246V89.0803z"
		/>
	<path class="st0" d="M348.6014,91.6604h-2.8379v3.4834c0,0.2871,0.0142,0.5479,0.043,0.7842s0.0933,0.4414,0.1934,0.6133
		s0.2544,0.3047,0.4624,0.3975c0.2075,0.0938,0.4839,0.1396,0.8276,0.1396c0.1724,0,0.3979-0.0176,0.6772-0.0537
		c0.2798-0.0352,0.4912-0.1182,0.6343-0.2471v2.6875c-0.3584,0.1289-0.731,0.2148-1.1177,0.2578
		c-0.3872,0.043-0.7671,0.0645-1.1396,0.0645c-0.5449,0-1.0464-0.0576-1.5049-0.1719c-0.459-0.1143-0.8604-0.2969-1.2041-0.5479
		c-0.3442-0.251-0.6128-0.5771-0.8062-0.9785c-0.1938-0.4014-0.2905-0.8887-0.2905-1.4619v-4.9668h-2.064v-2.5801h2.064v-3.0957
		h3.2251v3.0957h2.8379V91.6604z"/>
	<path class="st0" d="M360.1253,97.7238c-0.5156,0.6592-1.168,1.168-1.9561,1.5264c-0.7886,0.3574-1.6055,0.5371-2.4512,0.5371
		c-0.8027,0-1.5586-0.1289-2.2686-0.3867c-0.7095-0.2578-1.3257-0.627-1.8486-1.1074c-0.5234-0.4795-0.9355-1.0566-1.2363-1.7305
		c-0.3013-0.6738-0.4517-1.4258-0.4517-2.2578c0-0.8311,0.1504-1.584,0.4517-2.2578c0.3008-0.6729,0.7129-1.25,1.2363-1.7305
		c0.5229-0.4795,1.1392-0.8486,1.8486-1.1074c0.71-0.2578,1.4658-0.3867,2.2686-0.3867c0.7451,0,1.4224,0.1289,2.0317,0.3867
		c0.6089,0.2588,1.125,0.6279,1.5479,1.1074c0.4229,0.4805,0.749,1.0576,0.9785,1.7305c0.229,0.6738,0.3438,1.4268,0.3438,2.2578
		v1.0107h-7.4819c0.1289,0.6162,0.4087,1.1074,0.8384,1.4727c0.4302,0.3652,0.9604,0.5479,1.5913,0.5479
		c0.5298,0,0.978-0.1182,1.3438-0.3545c0.3652-0.2363,0.6841-0.541,0.9565-0.9141L360.1253,97.7238z M357.3948,93.1223
		c0.0142-0.5439-0.1646-1.0107-0.5371-1.3975c-0.373-0.3867-0.853-0.5801-1.4409-0.5801c-0.3584,0-0.6738,0.0576-0.9458,0.1719
		c-0.2725,0.1152-0.5054,0.2617-0.6987,0.4404c-0.1934,0.1797-0.3442,0.3877-0.4517,0.624s-0.1685,0.4834-0.1826,0.7412H357.3948z"
		/>
</g>
</svg>
