<?xml version="1.0" encoding="utf-8"?>
<!-- Generator: Adobe Illustrator 24.1.1, SVG Export Plug-In . SVG Version: 6.00 Build 0)  -->
<svg version="1.1" id="Capa_1" xmlns="http://www.w3.org/2000/svg" xmlns:xlink="http://www.w3.org/1999/xlink" x="0px" y="0px"
	 width="401.4915px" height="172.0678px" viewBox="0 0 401.4915 172.0678" style="enable-background:new 0 0 401.4915 172.0678;"
	 xml:space="preserve">
<style type="text/css">
	.st0{fill:#FFFFFF;}
	.st1{fill:none;stroke:#FFFFFF;stroke-width:2;stroke-linecap:round;stroke-linejoin:round;stroke-miterlimit:10;}
	.st2{fill:#EDEDED;}
	.st3{fill:#0030A6;}
	.st4{fill:#2652AA;}
	.st5{fill:url(#SVGID_1_);}
	.st6{fill:url(#SVGID_2_);}
	.st7{fill:url(#SVGID_3_);}
	.st8{fill:url(#SVGID_4_);}
	.st9{fill:url(#SVGID_5_);}
	.st10{fill:url(#SVGID_6_);}
	.st11{fill:url(#SVGID_7_);}
	.st12{fill:url(#SVGID_8_);}
	.st13{fill:url(#SVGID_9_);}
	.st14{fill:url(#SVGID_10_);}
	.st15{fill:url(#SVGID_11_);}
	.st16{fill:url(#SVGID_12_);}
	.st17{fill:url(#SVGID_13_);}
	.st18{fill:url(#SVGID_14_);}
	.st19{fill:url(#SVGID_15_);}
	.st20{fill:url(#SVGID_16_);}
	.st21{fill:url(#SVGID_17_);}
	.st22{fill:url(#SVGID_18_);}
	.st23{fill:url(#SVGID_19_);}
	.st24{fill:url(#SVGID_20_);}
	.st25{fill:url(#SVGID_21_);}
	.st26{fill:url(#SVGID_22_);}
	.st27{fill:url(#SVGID_23_);}
	.st28{fill:url(#SVGID_24_);}
	.st29{fill:url(#SVGID_25_);}
	.st30{fill:url(#SVGID_26_);}
	.st31{fill:url(#SVGID_27_);}
	.st32{fill:url(#SVGID_28_);}
	.st33{fill:url(#SVGID_29_);}
	.st34{fill:url(#SVGID_30_);}
	.st35{fill:url(#SVGID_31_);}
	.st36{fill:url(#SVGID_32_);}
	.st37{fill:url(#SVGID_33_);}
	.st38{fill:url(#SVGID_34_);}
	.st39{fill:url(#SVGID_35_);}
	.st40{fill:url(#SVGID_36_);}
	.st41{fill:url(#SVGID_37_);}
	.st42{fill:url(#SVGID_38_);}
	.st43{fill:url(#SVGID_39_);}
	.st44{fill:url(#SVGID_40_);}
	.st45{fill:url(#SVGID_41_);}
	.st46{fill:url(#SVGID_42_);}
	.st47{fill:url(#SVGID_43_);}
	.st48{fill:url(#SVGID_44_);}
	.st49{fill:url(#SVGID_45_);}
	.st50{fill:url(#SVGID_46_);}
	.st51{fill:url(#SVGID_47_);}
	.st52{fill:url(#SVGID_48_);}
	.st53{fill:url(#SVGID_49_);}
	.st54{fill:url(#SVGID_50_);}
	.st55{fill:url(#SVGID_51_);}
	.st56{fill:url(#SVGID_52_);}
	.st57{fill:url(#SVGID_53_);}
	.st58{fill:url(#SVGID_54_);}
	.st59{fill:url(#SVGID_55_);}
	.st60{fill:url(#SVGID_56_);}
	.st61{fill:url(#SVGID_57_);}
	.st62{fill:url(#SVGID_58_);}
	.st63{fill:url(#SVGID_59_);}
	.st64{fill:url(#SVGID_60_);}
	.st65{fill:url(#SVGID_61_);}
	.st66{fill:url(#SVGID_62_);}
	.st67{fill:url(#SVGID_63_);}
	.st68{fill:url(#SVGID_64_);}
	.st69{fill:url(#SVGID_65_);}
	.st70{fill:url(#SVGID_66_);}
	.st71{fill:url(#SVGID_67_);}
	.st72{fill:#FFFFFF;stroke:url(#SVGID_68_);stroke-miterlimit:10;}
	.st73{fill:#FFFFFF;stroke:url(#SVGID_69_);stroke-miterlimit:10;}
	.st74{fill:#FFFFFF;stroke:url(#SVGID_70_);stroke-miterlimit:10;}
	.st75{fill:#FFFFFF;stroke:url(#SVGID_71_);stroke-miterlimit:10;}
	.st76{fill:url(#SVGID_72_);}
	.st77{fill:url(#SVGID_73_);}
	.st78{fill:url(#SVGID_74_);}
	.st79{fill:url(#SVGID_75_);}
	.st80{fill:url(#SVGID_76_);}
	.st81{fill:url(#SVGID_77_);}
	.st82{fill:url(#SVGID_78_);}
	.st83{fill:url(#SVGID_79_);}
	.st84{fill:url(#SVGID_80_);}
	.st85{fill:url(#SVGID_81_);}
	.st86{fill:url(#SVGID_82_);}
	.st87{fill:url(#SVGID_83_);}
	.st88{fill:url(#SVGID_84_);}
	.st89{fill:url(#SVGID_85_);}
	.st90{fill:url(#SVGID_86_);}
	.st91{fill:url(#SVGID_87_);}
	.st92{fill:url(#SVGID_88_);}
	.st93{fill:url(#SVGID_89_);}
	.st94{fill:url(#SVGID_90_);}
	.st95{fill:url(#SVGID_91_);}
	.st96{fill:url(#SVGID_92_);}
	.st97{fill:url(#SVGID_93_);}
	.st98{fill:url(#SVGID_94_);}
	.st99{fill:url(#SVGID_95_);}
	.st100{fill:url(#SVGID_96_);}
	.st101{fill:url(#SVGID_97_);}
	.st102{fill:url(#SVGID_98_);}
	.st103{fill:url(#SVGID_99_);}
	.st104{fill:url(#SVGID_100_);}
	.st105{fill:url(#SVGID_101_);}
	.st106{fill:url(#SVGID_102_);}
	.st107{fill:url(#SVGID_103_);}
	.st108{fill:url(#SVGID_104_);}
	.st109{fill:url(#SVGID_105_);}
	.st110{fill:url(#SVGID_106_);}
	.st111{fill:url(#SVGID_107_);}
	.st112{fill:url(#SVGID_108_);}
	.st113{fill:url(#SVGID_109_);}
	.st114{fill:url(#SVGID_110_);}
	.st115{fill:url(#SVGID_111_);}
	.st116{fill:url(#SVGID_112_);}
	.st117{fill:url(#SVGID_113_);}
	.st118{fill:url(#SVGID_114_);}
	.st119{fill:url(#SVGID_115_);}
	.st120{fill:url(#SVGID_116_);}
	.st121{fill:url(#SVGID_117_);}
	.st122{fill:url(#SVGID_118_);}
	.st123{fill:url(#SVGID_119_);}
	.st124{fill:url(#SVGID_120_);}
	.st125{fill:url(#SVGID_121_);}
	.st126{fill:url(#SVGID_122_);}
	.st127{fill:url(#SVGID_123_);}
	.st128{fill:url(#SVGID_124_);}
	.st129{fill:url(#SVGID_125_);}
	.st130{fill:url(#SVGID_126_);}
	.st131{fill:url(#SVGID_127_);}
	.st132{fill:url(#SVGID_128_);}
	.st133{fill:url(#SVGID_129_);}
	.st134{fill:url(#SVGID_130_);}
	.st135{fill:url(#SVGID_131_);}
	.st136{fill:url(#SVGID_132_);}
	.st137{fill:url(#SVGID_133_);}
	.st138{fill:url(#SVGID_134_);}
	.st139{fill:url(#SVGID_135_);}
	.st140{fill:url(#SVGID_136_);}
	.st141{fill:url(#SVGID_137_);}
	.st142{fill:url(#SVGID_138_);}
</style>
<g>
	<g>
		<path class="st0" d="M89.1544,72.9257c-0.1035,0.9923-0.1494,1.9948-0.3194,2.9755c-1.5085,8.6984-7.6346,11.7632-15.2814,7.2394
			c-3.3755-1.997-6.5655-4.6351-9.1499-7.5862C51.8959,61.2717,44.5118,44.6031,42.5155,25.703
			c-0.3775-3.5745,0.028-7.3492,0.7411-10.8971c1.48-7.3635,7.0733-9.9101,13.9166-6.6457
			c1.3408,0.6396,2.6372,1.4197,3.8413,2.2908C76.8578,21.9133,91.1354,53.5764,89.1544,72.9257z M79.2538,75.4551
			c6.7665-14.8953-15.2386-58.5881-27.0989-58.683C46.8903,32.8196,66.5356,72.5766,79.2538,75.4551z"/>
		<path class="st0" d="M36.2839,25.8004c4.8632,9.4545,0.977,15.4919-6.0363,20.9848c-1.9565,1.5323-3.3914,5.0075-3.348,7.5623
			c0.1049,6.169,2.7111,11.764,7.4202,15.8211c1.7168,1.4791,4.8472,2.4272,7.0512,2.0352
			c8.7776-1.5614,16.2763-0.8681,19.938,8.916c-13.9551-4.8689-26.6788,0.6279-39.6188,5.946
			c-2.4415,1.0034-6.8671-0.0864-9.1152-1.834C4.1521,78.6852,0.283,69.7493,1.2268,58.9546
			c0.3353-3.8353,2.2686-6.368,5.9114-7.8987c3.6733-1.5436,7.2192-3.4282,10.7066-5.3689
			C26.0504,41.1205,32.7286,35.0505,36.2839,25.8004z"/>
		<path class="st0" d="M25.2443,90.4876c2.9435-1.2925,5.2398-2.2084,7.4532-3.2934c3.6824-1.8053,6.6475-1.1855,9.0982,2.1954
			c2.3634,3.2605,5.4923,4.7919,9.6555,5.348c2.2789,0.3045,4.5459,2.8022,6.0929,4.857c0.3453,0.4586-2.2693,3.2828-3.6874,4.8692
			c-0.634,0.7092-1.671,1.0649-2.5383,1.5575c-9.0612,5.1478-11.0978,4.7042-17.3266-3.7352
			C31.2325,98.5476,28.4575,94.8205,25.2443,90.4876z"/>
		<path class="st1" d="M21.3933,169.1042c-4.4396-4.7274-8.49-9.0405-11.9886-12.7659
			c10.0074-8.615,19.9188-17.1474,29.8303-25.6799c0.2526,0.2021,0.5053,0.4041,0.7579,0.6062
			C33.8881,143.6846,27.7832,156.1045,21.3933,169.1042"/>
		<path class="st1" d="M43.3737,172.2307c2.128-11.9923,4.0939-23.0711,6.0599-34.1502c0.3068-0.0823,0.6137-0.1647,0.9205-0.247
			c3.5445,9.9528,7.089,19.9055,10.8691,30.5199C55.4038,169.6174,49.8643,170.8207,43.3737,172.2307"/>
		<path class="st1" d="M29.659,127.4493c-4.109,2.4311-8.218,4.8623-12.6887,7.5074c-1.9647-2.0899-3.8228-4.0664-5.928-6.3057
			c1.2094-0.3873,1.8218-0.7175,2.4557-0.7656c5.2843-0.4017,10.5726-0.7515,15.8596-1.117
			C29.4581,126.9954,29.5585,127.2224,29.659,127.4493z"/>
		<path class="st0" d="M65.3744,56.0567c-2.6457-5.9073-4.9138-10.9716-7.3913-16.5036c5.0196-0.808,7.9167,1.1775,9.7196,4.5257
			C69.775,47.9271,69.1639,51.7098,65.3744,56.0567z"/>
		<path class="st1" d="M86.6757,34.8363c0.8555,2.3037,1.7581,4.084,2.1771,5.9718c2.2227,10.0054,5.4404,19.954,6.2027,30.0811
			c1.1122,14.7748-7.6691,22.0139-22.1259,19.6412c-4.725-0.7755-9.2954-2.4861-13.9416-3.7506
			c-1.7581-0.4785-3.5394-1.2747-5.2927-1.231c-1.2584,0.0315-2.4879,1.2173-3.7305,1.8882c0.1487,0.43,0.2974,0.8598,0.446,1.2897
			c6.5884-0.0063,11.1646,3.2107,12.9233,9.1733c2.1868,7.4137-4.2905,9.9233-8.9492,13.2188
			c0.5349,2.3229,1.2725,4.3946,1.4475,6.5128c0.0994,1.2012,0.3438,2.2422,0.7142,3.1582l-0.005-0.0003
			c0.5349,2.3229,1.3358,3.7881,1.5109,5.9063c0.4163,5.0349,3.3097,7.3265,7.8898,8.8726
			c8.0313,2.7111,15.8558,6.0328,23.7765,9.0739c10.9475,4.2033,21.904,8.3834,33.4286,12.7922
			c-1.3514-8.3145-2.5844-15.9001-3.8684-23.7991l-1.8718-9.0764l-0.0023-0.0001c1.7668-0.0641,2.8533-0.1318,3.9304-0.1277
			c52.7686,0.1951,194.2002,1.1474,246.968,1.4749c3.6699,0.0228,5.1519-0.9227,6.0241-4.616
			c4.8595-20.5751,10.0604-41.0691,15.0828-61.606c1.8809-7.6906,3.5956-15.4217,5.5925-24.0231
			C321.4515,35.6493,159.994,34.848,86.6757,34.8363z"/>
	</g>
</g>
<g>
	<g>
		<path class="st0" d="M182.0458,69.2087c-0.3506,0.125-0.7422,0.1875-1.1758,0.1875c-0.5664,0-1.0625-0.1123-1.4873-0.3379
			c-0.4248-0.2246-0.8125-0.5537-1.1621-0.9873l-2.2754,2.5254c0.6006,0.6162,1.333,1.0459,2.2002,1.2871
			c0.8662,0.2412,1.7246,0.3623,2.5752,0.3623c0.6494,0,1.3076-0.0625,1.9746-0.1875s1.2666-0.3408,1.7998-0.6494
			s0.9707-0.7168,1.3125-1.2256c0.3418-0.5078,0.5127-1.1533,0.5127-1.9375c0-0.7666-0.1543-1.3789-0.4619-1.8369
			c-0.3086-0.459-0.7002-0.8213-1.1758-1.0879c-0.4746-0.2666-0.9834-0.4629-1.5244-0.5879
			c-0.542-0.125-1.0498-0.2412-1.5254-0.3496c-0.4746-0.1084-0.8662-0.2334-1.1748-0.375
			c-0.3086-0.1416-0.4629-0.3623-0.4629-0.6621c0-0.3672,0.1504-0.625,0.4502-0.7754s0.6084-0.2246,0.9248-0.2246
			c0.9004,0,1.625,0.3418,2.1758,1.0244l2.2998-2.2744c-0.5674-0.6006-1.2588-1.0166-2.0752-1.25s-1.625-0.3506-2.4248-0.3506
			c-0.6338,0-1.2588,0.0791-1.875,0.2373c-0.6172,0.1592-1.1631,0.4043-1.6377,0.7383c-0.4746,0.333-0.8584,0.7578-1.1504,1.2744
			c-0.291,0.5166-0.4375,1.1338-0.4375,1.8506c0,0.7666,0.1543,1.3789,0.4629,1.8369c0.3086,0.459,0.7002,0.8125,1.1748,1.0625
			c0.4756,0.25,0.9834,0.4375,1.5254,0.5625c0.541,0.125,1.0498,0.2422,1.5244,0.3506c0.4756,0.1084,0.8672,0.2412,1.1758,0.3994
			c0.3076,0.1592,0.4619,0.3965,0.4619,0.7129C182.5702,68.8542,182.3954,69.0837,182.0458,69.2087z"/>
		<path class="st0" d="M179.5956,92.7458c0.3828-0.416,0.8457-0.7412,1.3877-0.9746c0.541-0.2334,1.1533-0.3418,1.8369-0.3252
			c0.6504,0,1.2295,0.1504,1.7383,0.4502c0.5078,0.2998,0.9033,0.667,1.1875,1.0996l1.3496-1.0244
			c-0.584-0.6836-1.2422-1.1875-1.9746-1.5127c-0.7344-0.3252-1.5-0.4961-2.3008-0.5127c-0.9492-0.0166-1.8086,0.1289-2.5742,0.4375
			c-0.7676,0.3086-1.4219,0.7373-1.9629,1.2871c-0.542,0.5508-0.9541,1.2051-1.2373,1.9629
			c-0.2842,0.7588-0.4248,1.5791-0.4248,2.4629c0,0.8828,0.1406,1.7041,0.4248,2.4619c0.2832,0.7588,0.6953,1.4131,1.2373,1.9629
			c0.541,0.5498,1.1953,0.9795,1.9629,1.2871c0.7656,0.3086,1.625,0.4541,2.5742,0.4375c0.8008-0.0166,1.5664-0.1875,2.3008-0.5127
			c0.7324-0.3242,1.3906-0.8281,1.9746-1.5117l-1.3496-1.0254c-0.2842,0.4336-0.6797,0.7998-1.1875,1.0996
			c-0.5088,0.3008-1.0879,0.4502-1.7383,0.4502c-0.6836,0.0166-1.2959-0.0908-1.8369-0.3252
			c-0.542-0.2324-1.0049-0.5576-1.3877-0.9746c-0.3838-0.416-0.6748-0.9121-0.875-1.4873s-0.2998-1.1963-0.2998-1.8623
			c0-0.667,0.0996-1.2881,0.2998-1.8633C178.9208,93.6589,179.2118,93.1628,179.5956,92.7458z"/>
		<rect x="189.6454" y="90.2458" class="st0" width="1.6504" height="11.7002"/>
		<path class="st0" d="M199.3827,90.1589c-0.4092,0.1416-0.7676,0.3291-1.0752,0.5625c-0.3086,0.2334-0.5713,0.4961-0.7881,0.7871
			c-0.2168,0.292-0.3828,0.5957-0.5,0.9121h-0.0498v-2.1748h-1.625c0.0166,0.8506,0.0381,1.542,0.0625,2.0752
			c0.0254,0.5332,0.0381,1.0586,0.0381,1.5752v8.0498h1.6494v-6.5996c0-0.4004,0.0713-0.8164,0.2129-1.25
			s0.3623-0.8379,0.6621-1.2129s0.6748-0.6836,1.125-0.9248s0.9912-0.3623,1.625-0.3623c0.417,0,0.7334,0.041,0.9502,0.125
			l0.3252-1.625c-0.3506-0.1006-0.7588-0.1504-1.2256-0.1504C200.2529,89.946,199.7909,90.0173,199.3827,90.1589z"/>
		<path class="st0" d="M212.8945,92.7458c0.3838-0.416,0.8457-0.7412,1.3877-0.9746s1.1543-0.3418,1.8379-0.3252
			c0.6494,0,1.2285,0.1504,1.7373,0.4502c0.5078,0.2998,0.9043,0.667,1.1875,1.0996l1.3496-1.0244
			c-0.583-0.6836-1.2412-1.1875-1.9746-1.5127s-1.5-0.4961-2.2998-0.5127c-0.9502-0.0166-1.8086,0.1289-2.5752,0.4375
			s-1.4209,0.7373-1.9629,1.2871c-0.541,0.5508-0.9541,1.2051-1.2373,1.9629c-0.2832,0.7588-0.4248,1.5791-0.4248,2.4629
			c0,0.8828,0.1416,1.7041,0.4248,2.4619c0.2832,0.7588,0.6963,1.4131,1.2373,1.9629c0.542,0.5498,1.1963,0.9795,1.9629,1.2871
			c0.7666,0.3086,1.625,0.4541,2.5752,0.4375c0.7998-0.0166,1.5664-0.1875,2.2998-0.5127c0.7334-0.3242,1.3916-0.8281,1.9746-1.5117
			l-1.3496-1.0254c-0.2832,0.4336-0.6797,0.7998-1.1875,1.0996c-0.5088,0.3008-1.0879,0.4502-1.7373,0.4502
			c-0.6836,0.0166-1.2959-0.0908-1.8379-0.3252c-0.542-0.2324-1.0039-0.5576-1.3877-0.9746
			c-0.3828-0.416-0.6748-0.9121-0.875-1.4873c-0.1992-0.5752-0.2998-1.1963-0.2998-1.8623c0-0.667,0.1006-1.2881,0.2998-1.8633
			C212.2197,93.6589,212.5116,93.1628,212.8945,92.7458z"/>
		<path class="st0" d="M190.4706,84.5456c-0.2998,0-0.5752,0.1133-0.8252,0.3379s-0.375,0.5127-0.375,0.8623
			c0,0.3506,0.125,0.6377,0.375,0.8623c0.25,0.2256,0.5254,0.3379,0.8252,0.3379s0.5752-0.1123,0.8252-0.3379
			c0.25-0.2246,0.375-0.5117,0.375-0.8623c0-0.3496-0.125-0.6377-0.375-0.8623S190.7704,84.5456,190.4706,84.5456z"/>
		<path class="st0" d="M232.5947,99.3708v-9.125h-1.6504v6c0,1.0674-0.166,1.9004-0.5,2.5
			c-0.333,0.6006-0.7119,1.0498-1.1367,1.3506c-0.4258,0.2998-0.8301,0.4834-1.2129,0.5498
			c-0.3838,0.0664-0.6172,0.0996-0.7002,0.0996c-0.6162,0-1.1289-0.0869-1.5371-0.2627c-0.4092-0.1748-0.7334-0.4326-0.9756-0.7744
			c-0.2412-0.3418-0.4121-0.7627-0.5117-1.2627c-0.1006-0.5-0.1504-1.0752-0.1504-1.7246v-6.4756h-1.6504v7.4248
			c0,1.4668,0.3584,2.5967,1.0752,3.3877c0.7168,0.792,1.8252,1.1875,3.3252,1.1875c0.3828,0,0.7705-0.0537,1.1621-0.1621
			s0.7627-0.2588,1.1133-0.4502c0.3496-0.1914,0.666-0.4209,0.9492-0.6875s0.5166-0.5586,0.7002-0.875h0.0498
			c0,0.3164,0.0039,0.6289,0.0127,0.9375s0.0293,0.6211,0.0625,0.9375h1.7002c-0.0332-0.4336-0.0625-0.8916-0.0879-1.375
			C232.6073,100.0876,232.5947,99.6882,232.5947,99.3708z"/>
		<path class="st0" d="M173.3456,99.3708v-9.125h-1.6504v6c0,1.0674-0.166,1.9004-0.5,2.5
			c-0.333,0.6006-0.7119,1.0498-1.1367,1.3506c-0.4258,0.2998-0.8301,0.4834-1.2129,0.5498
			c-0.3838,0.0664-0.6172,0.0996-0.7002,0.0996c-0.6162,0-1.1289-0.0869-1.5371-0.2627c-0.4092-0.1748-0.7334-0.4326-0.9756-0.7744
			c-0.2412-0.3418-0.4121-0.7627-0.5117-1.2627c-0.1006-0.5-0.1504-1.0752-0.1504-1.7246v-6.4756h-1.6504v7.4248
			c0,1.4668,0.3584,2.5967,1.0752,3.3877c0.7168,0.792,1.8252,1.1875,3.3252,1.1875c0.3828,0,0.7705-0.0537,1.1621-0.1621
			s0.7627-0.2588,1.1133-0.4502c0.3496-0.1914,0.666-0.4209,0.9492-0.6875s0.5166-0.5586,0.7002-0.875h0.0498
			c0,0.3164,0.0039,0.6289,0.0127,0.9375s0.0293,0.6211,0.0625,0.9375h1.7002c-0.0332-0.4336-0.0625-0.8916-0.0879-1.375
			C173.3583,100.0876,173.3456,99.6882,173.3456,99.3708z"/>
		<polygon class="st0" points="212.2197,58.3708 212.2197,71.946 216.12,71.946 216.12,54.2458 210.245,54.2458 206.1454,65.7956 
			206.0947,65.7956 202.0204,54.2458 196.12,54.2458 196.12,71.946 200.0204,71.946 200.0204,58.3708 200.0702,58.3708 
			204.5448,71.946 207.5204,71.946 212.1698,58.3708 		"/>
		<path class="st0" d="M152.4706,68.571c0,0.667,0.1133,1.2334,0.3379,1.7002s0.5371,0.8457,0.9375,1.1377
			c0.4004,0.291,0.8662,0.5039,1.4004,0.6367c0.5332,0.1338,1.1162,0.2002,1.75,0.2002c0.4326,0,0.875-0.0244,1.3242-0.0752
			c0.4502-0.0498,0.8838-0.1494,1.3008-0.2998v-3.125c-0.167,0.1504-0.4131,0.2461-0.7383,0.2881
			c-0.3242,0.041-0.5869,0.0625-0.7871,0.0625c-0.4004,0-0.7207-0.0547-0.9629-0.1631c-0.2412-0.1084-0.4209-0.2627-0.5371-0.4619
			c-0.1172-0.2002-0.1914-0.4375-0.2246-0.7129c-0.0342-0.2754-0.0508-0.5791-0.0508-0.9121v-4.0508h3.3008v-3h-3.3008V56.196h-3.75
			v3.5996h-2.3994v3h2.3994V68.571z"/>
		<path class="st0" d="M257.4316,70.5085c0.6074,0.5586,1.3242,0.9873,2.1494,1.2871c0.8252,0.3008,1.7041,0.4502,2.6377,0.4502
			c0.7168,0,1.4707-0.1211,2.2627-0.3623c0.791-0.2412,1.4785-0.6621,2.0625-1.2627l-2.4756-2.5996
			c-0.2168,0.25-0.4746,0.4668-0.7744,0.6494c-0.2998,0.1836-0.6592,0.2754-1.0752,0.2754c-0.9502,0-1.6875-0.2832-2.2129-0.8496
			c-0.5244-0.5664-0.7871-1.3086-0.7871-2.2256c0-0.916,0.2627-1.6582,0.7871-2.2246c0.5254-0.5664,1.2627-0.8506,2.2129-0.8506
			c0.3828,0,0.7412,0.0879,1.0752,0.2627c0.333,0.1748,0.5908,0.3965,0.7744,0.6631l2.4756-2.6006
			c-0.584-0.5996-1.2715-1.0205-2.0625-1.2627c-0.792-0.2412-1.5459-0.3623-2.2627-0.3623c-0.9336,0-1.8125,0.1504-2.6377,0.4502
			s-1.542,0.7295-2.1494,1.2871c-0.6094,0.5586-1.0879,1.2295-1.4375,2.0127c-0.3506,0.7842-0.5254,1.6592-0.5254,2.625
			c0,0.9668,0.1748,1.8418,0.5254,2.625C256.3437,69.28,256.8222,69.9499,257.4316,70.5085z"/>
		<path class="st0" d="M109.0214,69.8835c0.8496,0.8086,1.8584,1.4297,3.0254,1.8623c1.166,0.4336,2.4414,0.6504,3.8242,0.6504
			c1.3008,0,2.5752-0.1338,3.8252-0.4004s2.4502-0.7002,3.6006-1.2998v-9.25h-6.9258v3.5996h3.1758v2.875
			c-0.3672,0.2002-0.8594,0.3965-1.4756,0.5879s-1.3496,0.2871-2.2002,0.2871c-0.833,0-1.5869-0.1406-2.2617-0.4248
			c-0.6758-0.2832-1.2549-0.6787-1.7383-1.1875c-0.4834-0.5078-0.8535-1.1084-1.1123-1.7998s-0.3877-1.4541-0.3877-2.2871
			c0-0.8164,0.1289-1.5752,0.3877-2.2754s0.6289-1.3037,1.1123-1.8125c0.4834-0.5078,1.0625-0.9043,1.7383-1.1875
			c0.6748-0.2832,1.4287-0.4248,2.2617-0.4248c1,0,1.834,0.1416,2.5,0.4248c0.667,0.2832,1.2666,0.7002,1.8008,1.25l2.75-3
			c-0.9004-0.833-1.9463-1.4209-3.1377-1.7627c-1.1924-0.3408-2.4961-0.5127-3.9131-0.5127c-1.3828,0-2.6582,0.2168-3.8242,0.6504
			c-1.167,0.4336-2.1758,1.0547-3.0254,1.8623c-0.8496,0.8086-1.5127,1.7881-1.9873,2.9375
			c-0.4756,1.1504-0.7129,2.4336-0.7129,3.8506c0,1.416,0.2373,2.6992,0.7129,3.8496
			C107.5087,68.0964,108.1718,69.0749,109.0214,69.8835z"/>
		<path class="st0" d="M109.6464,92.7458c0.3828-0.416,0.8457-0.7412,1.3877-0.9746c0.541-0.2334,1.1533-0.3418,1.8369-0.3252
			c0.6504,0,1.2295,0.1504,1.7383,0.4502c0.5078,0.2998,0.9033,0.667,1.1875,1.0996l1.3496-1.0244
			c-0.584-0.6836-1.2422-1.1875-1.9746-1.5127c-0.7344-0.3252-1.5-0.4961-2.3008-0.5127c-0.9492-0.0166-1.8086,0.1289-2.5742,0.4375
			c-0.7676,0.3086-1.4219,0.7373-1.9629,1.2871c-0.542,0.5508-0.9541,1.2051-1.2373,1.9629
			c-0.2842,0.7588-0.4248,1.5791-0.4248,2.4629c0,0.8828,0.1406,1.7041,0.4248,2.4619c0.2832,0.7588,0.6953,1.4131,1.2373,1.9629
			c0.541,0.5498,1.1953,0.9795,1.9629,1.2871c0.7656,0.3086,1.625,0.4541,2.5742,0.4375c0.8008-0.0166,1.5664-0.1875,2.3008-0.5127
			c0.7324-0.3242,1.3906-0.8281,1.9746-1.5117l-1.3496-1.0254c-0.2842,0.4336-0.6797,0.7998-1.1875,1.0996
			c-0.5088,0.3008-1.0879,0.4502-1.7383,0.4502c-0.6836,0.0166-1.2959-0.0908-1.8369-0.3252
			c-0.542-0.2324-1.0049-0.5576-1.3877-0.9746c-0.3838-0.416-0.6748-0.9121-0.875-1.4873s-0.2998-1.1963-0.2998-1.8623
			c0-0.667,0.0996-1.2881,0.2998-1.8633C108.9716,93.6589,109.2626,93.1628,109.6464,92.7458z"/>
		<path class="st0" d="M139.7704,89.946c-0.3828,0-0.7705,0.0547-1.1621,0.1621c-0.3916,0.1094-0.7627,0.2588-1.1123,0.4502
			c-0.3506,0.1924-0.667,0.4209-0.9502,0.6875s-0.5166,0.5586-0.7002,0.875h-0.0498c0-0.3164-0.0039-0.6289-0.0127-0.9375
			c-0.0088-0.3076-0.0293-0.6201-0.0625-0.9375h-1.7002c0.0332,0.4336,0.0625,0.8916,0.0879,1.375s0.0371,0.8838,0.0371,1.2002
			v9.125h1.6504v-6c0-1.0664,0.166-1.9004,0.5-2.5c0.333-0.5996,0.7129-1.0498,1.1377-1.3496
			c0.4248-0.3008,0.8291-0.4834,1.2119-0.5508c0.3838-0.0664,0.6172-0.0996,0.7002-0.0996c1.2168,0,2.0498,0.3457,2.5,1.0371
			c0.4502,0.6924,0.6748,1.6875,0.6748,2.9883v6.4746h1.6504v-7.4248c0-1.4668-0.3584-2.5957-1.0752-3.3877
			C142.3788,90.3425,141.2704,89.946,139.7704,89.946z"/>
		<path class="st0" d="M148.8085,70.1833c0.3418-0.5078,0.5127-1.1533,0.5127-1.9375c0-0.7666-0.1543-1.3789-0.4619-1.8369
			c-0.3086-0.459-0.7002-0.8213-1.1758-1.0879c-0.4746-0.2666-0.9834-0.4629-1.5244-0.5879
			c-0.542-0.125-1.0498-0.2412-1.5254-0.3496c-0.4746-0.1084-0.8662-0.2334-1.1748-0.375
			c-0.3086-0.1416-0.4629-0.3623-0.4629-0.6621c0-0.3672,0.1504-0.625,0.4502-0.7754s0.6084-0.2246,0.9248-0.2246
			c0.9004,0,1.625,0.3418,2.1758,1.0244l2.2998-2.2744c-0.5674-0.6006-1.2588-1.0166-2.0752-1.25s-1.625-0.3506-2.4248-0.3506
			c-0.6338,0-1.2588,0.0791-1.875,0.2373c-0.6172,0.1592-1.1631,0.4043-1.6377,0.7383c-0.4746,0.333-0.8584,0.7578-1.1504,1.2744
			c-0.291,0.5166-0.4375,1.1338-0.4375,1.8506c0,0.7666,0.1543,1.3789,0.4629,1.8369c0.3086,0.459,0.7002,0.8125,1.1748,1.0625
			c0.4756,0.25,0.9834,0.4375,1.5254,0.5625c0.541,0.125,1.0498,0.2422,1.5244,0.3506c0.4756,0.1084,0.8672,0.2412,1.1758,0.3994
			c0.3076,0.1592,0.4619,0.3965,0.4619,0.7129c0,0.333-0.1748,0.5625-0.5244,0.6875c-0.3506,0.125-0.7422,0.1875-1.1758,0.1875
			c-0.5664,0-1.0625-0.1123-1.4873-0.3379c-0.4248-0.2246-0.8125-0.5537-1.1621-0.9873l-2.2754,2.5254
			c0.6006,0.6162,1.333,1.0459,2.2002,1.2871c0.8662,0.2412,1.7246,0.3623,2.5752,0.3623c0.6494,0,1.3076-0.0625,1.9746-0.1875
			s1.2666-0.3408,1.7998-0.6494S148.4667,70.6921,148.8085,70.1833z"/>
		<rect x="315.5927" y="53.0456" class="st0" width="3.75" height="18.9004"/>
		<path class="st0" d="M292.2802,70.1833c0.3418-0.5078,0.5127-1.1533,0.5127-1.9375c0-0.7666-0.1543-1.3789-0.4619-1.8369
			c-0.3086-0.459-0.7002-0.8213-1.1758-1.0879c-0.4746-0.2666-0.9834-0.4629-1.5244-0.5879
			c-0.542-0.125-1.0498-0.2412-1.5254-0.3496c-0.4746-0.1084-0.8662-0.2334-1.1748-0.375
			c-0.3086-0.1416-0.4629-0.3623-0.4629-0.6621c0-0.3672,0.1504-0.625,0.4502-0.7754s0.6084-0.2246,0.9248-0.2246
			c0.9004,0,1.625,0.3418,2.1758,1.0244l2.2998-2.2744c-0.5674-0.6006-1.2588-1.0166-2.0752-1.25s-1.625-0.3506-2.4248-0.3506
			c-0.6338,0-1.2588,0.0791-1.875,0.2373c-0.6172,0.1592-1.1631,0.4043-1.6377,0.7383c-0.4746,0.333-0.8584,0.7578-1.1504,1.2744
			c-0.291,0.5166-0.4375,1.1338-0.4375,1.8506c0,0.7666,0.1543,1.3789,0.4629,1.8369c0.3086,0.459,0.7002,0.8125,1.1748,1.0625
			c0.4756,0.25,0.9834,0.4375,1.5254,0.5625c0.541,0.125,1.0498,0.2422,1.5244,0.3506c0.4756,0.1084,0.8672,0.2412,1.1758,0.3994
			c0.3076,0.1592,0.4619,0.3965,0.4619,0.7129c0,0.333-0.1748,0.5625-0.5244,0.6875c-0.3506,0.125-0.7422,0.1875-1.1758,0.1875
			c-0.5664,0-1.0625-0.1123-1.4873-0.3379c-0.4248-0.2246-0.8125-0.5537-1.1621-0.9873l-2.2754,2.5254
			c0.6006,0.6162,1.333,1.0459,2.2002,1.2871c0.8662,0.2412,1.7246,0.3623,2.5752,0.3623c0.6494,0,1.3076-0.0625,1.9746-0.1875
			s1.2666-0.3408,1.7998-0.6494S291.9384,70.6921,292.2802,70.1833z"/>
		<rect x="249.3935" y="59.7956" class="st0" width="3.75" height="12.1504"/>
		<path class="st0" d="M251.2685,53.7956c-0.5996,0-1.1123,0.2129-1.5371,0.6377s-0.6377,0.9375-0.6377,1.5381
			c0,0.5996,0.2129,1.1123,0.6377,1.5371s0.9375,0.6377,1.5371,0.6377c0.6006,0,1.1123-0.2129,1.5381-0.6377
			c0.4248-0.4248,0.6367-0.9375,0.6367-1.5371c0-0.6006-0.2119-1.1133-0.6367-1.5381
			C252.3808,54.0085,251.8691,53.7956,251.2685,53.7956z"/>
		<path class="st0" d="M285.8193,84.5456c-0.2998,0-0.5752,0.1133-0.8252,0.3379s-0.375,0.5127-0.375,0.8623
			c0,0.3506,0.125,0.6377,0.375,0.8623c0.25,0.2256,0.5254,0.3379,0.8252,0.3379s0.5752-0.1123,0.8252-0.3379
			c0.25-0.2246,0.375-0.5117,0.375-0.8623c0-0.3496-0.125-0.6377-0.375-0.8623S286.1191,84.5456,285.8193,84.5456z"/>
		<rect x="284.9941" y="90.2458" class="st0" width="1.6504" height="11.7002"/>
		<path class="st0" d="M280.7451,99.3708v-9.125h-1.6504v6c0,1.0674-0.167,1.9004-0.5,2.5
			c-0.334,0.6006-0.7129,1.0498-1.1377,1.3506c-0.4248,0.2998-0.8291,0.4834-1.2119,0.5498
			c-0.3838,0.0664-0.6172,0.0996-0.7002,0.0996c-0.6172,0-1.1299-0.0869-1.5381-0.2627c-0.4082-0.1748-0.7334-0.4326-0.9746-0.7744
			c-0.2422-0.3418-0.4121-0.7627-0.5127-1.2627c-0.0996-0.5-0.1494-1.0752-0.1494-1.7246v-6.4756h-1.6504v7.4248
			c0,1.4668,0.3584,2.5967,1.0752,3.3877c0.7158,0.792,1.8252,1.1875,3.3252,1.1875c0.3828,0,0.7705-0.0537,1.1621-0.1621
			s0.7627-0.2588,1.1123-0.4502c0.3506-0.1914,0.667-0.4209,0.9502-0.6875s0.5166-0.5586,0.7002-0.875h0.0498
			c0,0.3164,0.0039,0.6289,0.0127,0.9375c0.0078,0.3086,0.0283,0.6211,0.0625,0.9375h1.7002
			c-0.0342-0.4336-0.0625-0.8916-0.0879-1.375S280.7451,99.6882,280.7451,99.3708z"/>
		<path class="st0" d="M137.3212,71.946v-6.1748c0-1.0166-0.083-1.9131-0.25-2.6875c-0.166-0.7754-0.4619-1.4287-0.8867-1.9629
			c-0.4258-0.5332-0.9922-0.9375-1.7002-1.2119c-0.709-0.2754-1.6123-0.4131-2.7129-0.4131c-1,0-1.9668,0.1631-2.8994,0.4873
			c-0.9336,0.3252-1.75,0.8125-2.4502,1.4629l2,2.0498c0.3994-0.4502,0.8535-0.8037,1.3623-1.0625
			c0.5078-0.2578,1.0703-0.3877,1.6875-0.3877c0.6504,0,1.2129,0.1963,1.6875,0.5879s0.7129,0.9209,0.7129,1.5879
			c-0.5176,0-1.0801,0.0078-1.6875,0.0244c-0.6094,0.0166-1.2168,0.0674-1.8252,0.1504s-1.1963,0.2119-1.7627,0.3877
			c-0.5664,0.1748-1.0713,0.4209-1.5127,0.7373s-0.792,0.7168-1.0498,1.2002c-0.2588,0.4834-0.3877,1.0742-0.3877,1.7744
			c0,0.6172,0.1162,1.1592,0.3506,1.625c0.2324,0.4668,0.5498,0.8584,0.9492,1.1748c0.4004,0.3174,0.8633,0.5547,1.3877,0.7129
			c0.5254,0.1582,1.0713,0.2373,1.6377,0.2373c0.7666,0,1.4961-0.1416,2.1875-0.4248s1.2461-0.75,1.6621-1.4004h0.0508v1.5254
			H137.3212z M133.6337,68.4206c-0.1582,0.2842-0.3711,0.5176-0.6367,0.7002c-0.2676,0.1836-0.5713,0.3252-0.9131,0.4248
			c-0.3418,0.1006-0.6963,0.1504-1.0625,0.1504c-0.417,0-0.8164-0.1084-1.2002-0.3252c-0.3828-0.2158-0.5742-0.5498-0.5742-1
			c0-0.416,0.1367-0.7412,0.4121-0.9746s0.6084-0.4082,1-0.5254c0.3916-0.1162,0.7998-0.1875,1.2246-0.2119l1.9883-0.0381v0.7998
			C133.872,67.8044,133.7919,68.1374,133.6337,68.4206z"/>
	</g>
	<path class="st0" d="M173.9462,63.2458c-0.3506-0.7832-0.8301-1.4541-1.4375-2.0127c-0.6094-0.5576-1.3252-0.9873-2.1504-1.2871
		s-1.7041-0.4502-2.6377-0.4502s-1.8125,0.1504-2.6377,0.4502c-0.8242,0.2998-1.541,0.7295-2.1494,1.2871
		c-0.6084,0.5586-1.0879,1.2295-1.4375,2.0127c-0.3506,0.7842-0.5254,1.6592-0.5254,2.625c0,0.9668,0.1748,1.8418,0.5254,2.625
		c0.3496,0.7842,0.8291,1.4541,1.4375,2.0127s1.3252,0.9873,2.1494,1.2871c0.8252,0.3008,1.7041,0.4502,2.6377,0.4502
		s1.8125-0.1494,2.6377-0.4502c0.8252-0.2998,1.541-0.7285,2.1504-1.2871c0.6074-0.5586,1.0869-1.2285,1.4375-2.0127
		c0.3496-0.7832,0.5244-1.6582,0.5244-2.625C174.4706,64.905,174.2958,64.03,173.9462,63.2458z M169.9335,68.0964
		c-0.5254,0.5664-1.2627,0.8496-2.2129,0.8496s-1.6875-0.2832-2.2119-0.8496c-0.5254-0.5664-0.7881-1.3086-0.7881-2.2256
		c0-0.916,0.2627-1.6582,0.7881-2.2246c0.5244-0.5664,1.2617-0.8506,2.2119-0.8506s1.6875,0.2842,2.2129,0.8506
		c0.5244,0.5664,0.7871,1.3086,0.7871,2.2246C170.7206,66.7878,170.4579,67.53,169.9335,68.0964z"/>
	<g>
		<path class="st0" d="M229.7822,61.2331c-0.4922-0.5576-1.0918-0.9873-1.7998-1.2871c-0.709-0.2998-1.4961-0.4502-2.3623-0.4502
			c-0.9336,0-1.8125,0.1504-2.6377,0.4502s-1.542,0.7295-2.1504,1.2871c-0.6084,0.5586-1.0869,1.2295-1.4375,2.0127
			c-0.3496,0.7842-0.5244,1.6592-0.5244,2.625c0,0.9668,0.1748,1.8418,0.5244,2.625c0.3506,0.7842,0.8291,1.4541,1.4375,2.0127
			s1.3252,0.9873,2.1504,1.2871c0.8252,0.3008,1.7041,0.4502,2.6377,0.4502c0.9824,0,1.9326-0.208,2.8496-0.625
			c0.916-0.416,1.6748-1.0078,2.2754-1.7744l-2.625-1.9258c-0.3174,0.4336-0.6875,0.7881-1.1133,1.0625
			c-0.4248,0.2754-0.9453,0.4131-1.5625,0.4131c-0.7334,0-1.3496-0.2129-1.8496-0.6377s-0.8252-0.9961-0.9746-1.7129h8.6992v-1.1748
			c0-0.9658-0.1328-1.8408-0.3994-2.625C230.6532,62.4626,230.2734,61.7917,229.7822,61.2331z M222.62,64.4958
			c0.0156-0.2998,0.0869-0.5869,0.2119-0.8623s0.2998-0.5166,0.5254-0.7246c0.2246-0.209,0.4951-0.3789,0.8125-0.5127
			c0.3164-0.1338,0.6826-0.2002,1.0996-0.2002c0.6836,0,1.2412,0.2246,1.6748,0.6748s0.6416,0.9922,0.625,1.625H222.62z"/>
		<polygon class="st0" points="230.2197,54.2458 225.12,54.2458 222.5947,57.8464 225.8945,57.8464 		"/>
		<path class="st0" d="M242.5947,53.0456v8.0508h-0.0508c-0.4336-0.584-0.9873-0.9961-1.6621-1.2383
			c-0.6748-0.2412-1.4043-0.3623-2.1875-0.3623c-0.8672,0-1.6416,0.1797-2.3252,0.5381s-1.2627,0.8369-1.7373,1.4375
			c-0.4746,0.5996-0.8418,1.2871-1.0996,2.0625c-0.2588,0.7744-0.3877,1.5869-0.3877,2.4375c0,0.916,0.1416,1.7578,0.4248,2.5244
			s0.6875,1.4297,1.2129,1.9873c0.5244,0.5586,1.1533,0.9922,1.8867,1.3008c0.7334,0.3076,1.5508,0.4619,2.4502,0.4619
			c0.417,0,0.8213-0.0586,1.2129-0.1748c0.3916-0.1172,0.75-0.2666,1.0752-0.4502c0.3242-0.1826,0.6074-0.3877,0.8496-0.6123
			c0.2412-0.2246,0.4375-0.4453,0.5879-0.6621h0.0498v1.5996h3.4502V53.0456H242.5947z M242.1064,68.0964
			c-0.5244,0.5664-1.2617,0.8496-2.2119,0.8496s-1.6875-0.2832-2.2129-0.8496c-0.5244-0.5664-0.7871-1.3086-0.7871-2.2256
			c0-0.916,0.2627-1.6582,0.7871-2.2246c0.5254-0.5664,1.2627-0.8506,2.2129-0.8506s1.6875,0.2842,2.2119,0.8506
			c0.5254,0.5664,0.7881,1.3086,0.7881,2.2246C242.8945,66.7878,242.6318,67.53,242.1064,68.0964z"/>
	</g>
	<path class="st0" d="M280.4189,63.2458c-0.3506-0.7832-0.8301-1.4541-1.4375-2.0127c-0.6094-0.5576-1.3252-0.9873-2.1504-1.2871
		s-1.7041-0.4502-2.6377-0.4502s-1.8125,0.1504-2.6377,0.4502c-0.8242,0.2998-1.541,0.7295-2.1494,1.2871
		c-0.6084,0.5586-1.0879,1.2295-1.4375,2.0127c-0.3506,0.7842-0.5254,1.6592-0.5254,2.625c0,0.9668,0.1748,1.8418,0.5254,2.625
		c0.3496,0.7842,0.8291,1.4541,1.4375,2.0127s1.3252,0.9873,2.1494,1.2871c0.8252,0.3008,1.7041,0.4502,2.6377,0.4502
		s1.8125-0.1494,2.6377-0.4502c0.8252-0.2998,1.541-0.7285,2.1504-1.2871c0.6074-0.5586,1.0869-1.2285,1.4375-2.0127
		c0.3496-0.7832,0.5244-1.6582,0.5244-2.625C280.9433,64.905,280.7685,64.03,280.4189,63.2458z M276.4062,68.0964
		c-0.5254,0.5664-1.2627,0.8496-2.2129,0.8496s-1.6875-0.2832-2.2119-0.8496c-0.5254-0.5664-0.7881-1.3086-0.7881-2.2256
		c0-0.916,0.2627-1.6582,0.7881-2.2246c0.5244-0.5664,1.2617-0.8506,2.2119-0.8506s1.6875,0.2842,2.2129,0.8506
		c0.5244,0.5664,0.7871,1.3086,0.7871,2.2246C277.1933,66.7878,276.9306,67.53,276.4062,68.0964z"/>
	<path class="st0" d="M312.9423,63.0837c-0.166-0.7754-0.4619-1.4287-0.8867-1.9629c-0.4258-0.5332-0.9922-0.9375-1.7002-1.2119
		c-0.709-0.2754-1.6123-0.4131-2.7129-0.4131c-1,0-1.9668,0.1631-2.8994,0.4873c-0.9336,0.3252-1.75,0.8125-2.4502,1.4629l2,2.0498
		c0.3994-0.4502,0.8535-0.8037,1.3623-1.0625c0.5078-0.2578,1.0703-0.3877,1.6875-0.3877c0.6504,0,1.2129,0.1963,1.6875,0.5879
		s0.7129,0.9209,0.7129,1.5879c-0.5176,0-1.0801,0.0078-1.6875,0.0244c-0.6094,0.0166-1.2168,0.0674-1.8252,0.1504
		s-1.1963,0.2119-1.7627,0.3877c-0.5664,0.1748-1.0713,0.4209-1.5127,0.7373s-0.792,0.7168-1.0498,1.2002
		c-0.2588,0.4834-0.3877,1.0742-0.3877,1.7744c0,0.6172,0.1162,1.1592,0.3506,1.625c0.2324,0.4668,0.5498,0.8584,0.9492,1.1748
		c0.4004,0.3174,0.8633,0.5547,1.3877,0.7129c0.5254,0.1582,1.0713,0.2373,1.6377,0.2373c0.7666,0,1.4961-0.1416,2.1875-0.4248
		s1.2461-0.75,1.6621-1.4004h0.0508v1.5254h3.4492v-6.1748C313.1923,64.7546,313.1093,63.8581,312.9423,63.0837z M309.7431,67.4206
		c0,0.3838-0.0801,0.7168-0.2383,1c-0.1582,0.2842-0.3711,0.5176-0.6367,0.7002c-0.2676,0.1836-0.5713,0.3252-0.9131,0.4248
		c-0.3418,0.1006-0.6963,0.1504-1.0625,0.1504c-0.417,0-0.8164-0.1084-1.2002-0.3252c-0.3828-0.2158-0.5742-0.5498-0.5742-1
		c0-0.416,0.1367-0.7412,0.4121-0.9746s0.6084-0.4082,1-0.5254c0.3916-0.1162,0.7998-0.1875,1.2246-0.2119
		c0.4258-0.0254,0.7793-0.0381,1.0625-0.0381h0.9258V67.4206z"/>
	<path class="st0" d="M130.6835,93.6462c-0.3086-0.75-0.7373-1.4004-1.2871-1.9502s-1.2041-0.9785-1.9629-1.2871
		s-1.5957-0.4629-2.5127-0.4629c-0.8994,0-1.7285,0.1543-2.4873,0.4629s-1.4121,0.7373-1.9619,1.2871
		c-0.5508,0.5498-0.9795,1.2002-1.2881,1.9502s-0.4619,1.5664-0.4619,2.4502c0,0.8828,0.1533,1.6992,0.4619,2.4492
		s0.7373,1.4004,1.2881,1.9502c0.5498,0.5498,1.2031,0.9795,1.9619,1.2881c0.7588,0.3076,1.5879,0.4619,2.4873,0.4619
		c0.917,0,1.7539-0.1543,2.5127-0.4619c0.7588-0.3086,1.4131-0.7383,1.9629-1.2881s0.9785-1.2002,1.2871-1.9502
		s0.4629-1.5664,0.4629-2.4492C131.1464,95.2126,130.9921,94.3962,130.6835,93.6462z M129.0341,97.9206
		c-0.209,0.5674-0.5049,1.0586-0.8877,1.4756c-0.3838,0.417-0.8467,0.7461-1.3877,0.9873c-0.542,0.2422-1.1543,0.3623-1.8379,0.3623
		s-1.2959-0.1201-1.8369-0.3623c-0.542-0.2412-1-0.5703-1.375-0.9873s-0.667-0.9082-0.875-1.4756
		c-0.209-0.5664-0.3125-1.1748-0.3125-1.8242c0-0.6504,0.1035-1.2588,0.3125-1.8252c0.208-0.5664,0.5-1.0586,0.875-1.4756
		c0.375-0.416,0.833-0.7451,1.375-0.9873c0.541-0.2412,1.1533-0.3623,1.8369-0.3623s1.2959,0.1211,1.8379,0.3623
		c0.541,0.2422,1.0039,0.5713,1.3877,0.9873c0.3828,0.417,0.6787,0.9092,0.8877,1.4756c0.208,0.5664,0.3125,1.1748,0.3125,1.8252
		C129.3466,96.7458,129.2421,97.3542,129.0341,97.9206z"/>
	<path class="st0" d="M158.0712,83.0456v9.1504h-0.0508c-0.2666-0.4004-0.583-0.7412-0.9492-1.0254
		c-0.3672-0.2832-0.75-0.5156-1.1504-0.6992s-0.8125-0.3164-1.2373-0.4004c-0.4248-0.083-0.8291-0.125-1.2129-0.125
		c-0.917,0-1.7539,0.1543-2.5127,0.4629c-0.7578,0.3086-1.4121,0.7373-1.9619,1.2871s-0.9795,1.2002-1.2881,1.9502
		s-0.4619,1.5664-0.4619,2.4502c0,0.8828,0.1533,1.6992,0.4619,2.4492s0.7383,1.4004,1.2881,1.9502s1.2041,0.9795,1.9619,1.2881
		c0.7588,0.3076,1.5957,0.4619,2.5127,0.4619c0.3838,0,0.7881-0.042,1.2129-0.125s0.8369-0.2158,1.2373-0.3994
		s0.7832-0.417,1.1504-0.7002c0.3662-0.2832,0.6826-0.625,0.9492-1.0254h0.0508v1.9502h1.6494V83.0456H158.0712z M157.7958,97.9206
		c-0.2334,0.5674-0.5586,1.0586-0.9746,1.4756c-0.417,0.417-0.9131,0.7461-1.4883,0.9873
		c-0.5742,0.2422-1.1953,0.3623-1.8623,0.3623c-0.6836,0-1.2959-0.1201-1.8369-0.3623c-0.542-0.2412-1.0049-0.5703-1.3877-0.9873
		c-0.3838-0.417-0.6797-0.9082-0.8877-1.4756c-0.209-0.5664-0.3125-1.1748-0.3125-1.8242c0-0.6504,0.1035-1.2588,0.3125-1.8252
		c0.208-0.5664,0.5039-1.0586,0.8877-1.4756c0.3828-0.416,0.8457-0.7451,1.3877-0.9873c0.541-0.2412,1.1533-0.3623,1.8369-0.3623
		c0.667,0,1.2881,0.1211,1.8623,0.3623c0.5752,0.2422,1.0713,0.5713,1.4883,0.9873c0.416,0.417,0.7412,0.9092,0.9746,1.4756
		s0.3496,1.1748,0.3496,1.8252C158.1454,96.7458,158.0292,97.3542,157.7958,97.9206z"/>
	<g>
		<path class="st0" d="M245.62,99.321v-5.2246c0-0.7168-0.1172-1.334-0.3506-1.8506s-0.542-0.9453-0.9248-1.2871
			c-0.3838-0.3418-0.8379-0.5957-1.3623-0.7627c-0.5254-0.166-1.0713-0.25-1.6377-0.25c-2.2002,0-3.8496,0.5664-4.9502,1.7002
			l1,1.1748c1.0166-0.916,2.208-1.375,3.5752-1.375c2,0,3,1.0088,3,3.0254v0.2998h-0.8252c-0.7002,0-1.4707,0.0332-2.3125,0.0996
			c-0.8418,0.0674-1.6338,0.2334-2.375,0.5s-1.3584,0.6709-1.8496,1.2129c-0.4922,0.542-0.7373,1.2871-0.7373,2.2373
			c0,0.5664,0.1123,1.0625,0.3369,1.4873c0.2256,0.4248,0.5254,0.7842,0.9004,1.0752c0.375,0.292,0.8037,0.5088,1.2871,0.6504
			c0.4834,0.1406,0.9834,0.2119,1.5,0.2119c0.9502,0,1.7539-0.1709,2.4131-0.5127c0.6582-0.3408,1.2285-0.9033,1.7119-1.6875h0.0498
			c0,0.3174,0.0127,0.6426,0.0381,0.9756c0.0244,0.333,0.0625,0.6416,0.1123,0.9248h1.5996
			c-0.0498-0.3164-0.0957-0.7207-0.1367-1.2129C245.6405,100.2419,245.62,99.7712,245.62,99.321z M243.9697,96.9714
			c0,0.5166-0.0713,1.0039-0.2129,1.4619c-0.1416,0.459-0.3623,0.8584-0.6621,1.2002s-0.6709,0.6123-1.1123,0.8125
			c-0.4424,0.2002-0.9629,0.2998-1.5625,0.2998c-0.334,0-0.6631-0.0371-0.9873-0.1123c-0.3252-0.0752-0.6211-0.2002-0.8877-0.375
			s-0.4795-0.4004-0.6377-0.6748c-0.1582-0.2754-0.2373-0.6045-0.2373-0.9873c0-0.584,0.2041-1.042,0.6123-1.375
			c0.4082-0.334,0.9004-0.5791,1.4746-0.7383c0.5752-0.1582,1.1758-0.2578,1.8008-0.2998c0.625-0.041,1.1455-0.0625,1.5625-0.0625
			h0.8496V96.9714z"/>
		<rect x="249.8193" y="83.0456" class="st0" width="1.6504" height="18.9004"/>
		<path class="st0" d="M265.4697,90.2458v1.9502h-0.0498c-0.2666-0.4004-0.584-0.7412-0.9502-1.0254
			c-0.3672-0.2832-0.75-0.5156-1.1504-0.6992c-0.3994-0.1836-0.8125-0.3164-1.2373-0.4004c-0.4248-0.083-0.8291-0.125-1.2119-0.125
			c-0.917,0-1.7549,0.1543-2.5127,0.4629c-0.7588,0.3086-1.4131,0.7373-1.9629,1.2871c-0.5498,0.5498-0.9795,1.2002-1.2871,1.9502
			c-0.3086,0.75-0.4629,1.5664-0.4629,2.4502c0,0.8828,0.1543,1.6992,0.4629,2.4492c0.3076,0.75,0.7373,1.4004,1.2871,1.9502
			c0.5498,0.5498,1.2041,0.9795,1.9629,1.2881c0.7578,0.3076,1.5957,0.4619,2.5127,0.4619c0.3828,0,0.7871-0.042,1.2119-0.125
			s0.8379-0.2158,1.2373-0.3994c0.4004-0.1836,0.7832-0.417,1.1504-0.7002c0.3662-0.2832,0.6836-0.625,0.9502-1.0254h0.0498v9.1504
			h1.6504V90.2458H265.4697z M265.1943,97.9206c-0.2334,0.5674-0.5586,1.0586-0.9746,1.4756
			c-0.417,0.417-0.9121,0.7461-1.4873,0.9873c-0.5752,0.2422-1.1963,0.3623-1.8623,0.3623c-0.6836,0-1.2969-0.1201-1.8379-0.3623
			c-0.542-0.2412-1.0039-0.5703-1.3877-0.9873s-0.6787-0.9082-0.8877-1.4756c-0.208-0.5664-0.3125-1.1748-0.3125-1.8242
			c0-0.6504,0.1045-1.2588,0.3125-1.8252c0.209-0.5664,0.5039-1.0586,0.8877-1.4756c0.3838-0.416,0.8457-0.7451,1.3877-0.9873
			c0.541-0.2412,1.1543-0.3623,1.8379-0.3623c0.666,0,1.2871,0.1211,1.8623,0.3623c0.5752,0.2422,1.0703,0.5713,1.4873,0.9873
			c0.416,0.417,0.7412,0.9092,0.9746,1.4756s0.3506,1.1748,0.3506,1.8252C265.5449,96.7458,265.4277,97.3542,265.1943,97.9206z"/>
	</g>
	<g>
		<path class="st0" d="M300.0566,91.6833c-0.4746-0.5244-1.0625-0.9453-1.7617-1.2627c-0.7002-0.3164-1.4922-0.4746-2.375-0.4746
			c-0.834,0-1.6094,0.1543-2.3252,0.4629c-0.7168,0.3086-1.3418,0.7373-1.875,1.2871c-0.5342,0.5498-0.9502,1.2002-1.25,1.9502
			s-0.4502,1.5664-0.4502,2.4502c0,0.8828,0.1543,1.6992,0.4629,2.4492c0.3076,0.75,0.7285,1.4004,1.2617,1.9502
			s1.1709,0.9795,1.9131,1.2881c0.7412,0.3076,1.5459,0.4619,2.4121,0.4619c0.9668,0,1.8711-0.1914,2.7129-0.5752
			c0.8408-0.3828,1.6123-1.0156,2.3125-1.8994l-1.2754-1.0498c-0.333,0.5332-0.8213,1.0039-1.4619,1.4121
			c-0.6426,0.4082-1.4043,0.6123-2.2881,0.6123c-0.583,0-1.125-0.1084-1.625-0.3252c-0.5-0.2158-0.9414-0.5117-1.3252-0.8867
			c-0.3828-0.375-0.6914-0.8213-0.9248-1.3379s-0.375-1.0664-0.4248-1.6504h9.75v-0.75c0-0.7998-0.125-1.5537-0.375-2.2617
			C300.8945,92.8249,300.5322,92.2087,300.0566,91.6833z M291.8193,95.196c0-0.4834,0.1123-0.9502,0.3379-1.4004
			c0.2246-0.4492,0.5244-0.8496,0.8994-1.1992c0.375-0.3506,0.8125-0.6289,1.3125-0.8379c0.5-0.208,1.0166-0.3125,1.5508-0.3125
			c1.1992,0,2.1328,0.3457,2.7998,1.0371c0.666,0.6924,1,1.5967,1,2.7129H291.8193z"/>
		<path class="st0" d="M308.6318,90.1589c-0.4082,0.1416-0.7666,0.3291-1.0752,0.5625s-0.5703,0.4961-0.7871,0.7871
			c-0.2168,0.292-0.3838,0.5957-0.5,0.9121h-0.0498v-2.1748h-1.625c0.0166,0.8506,0.0371,1.542,0.0625,2.0752
			c0.0244,0.5332,0.0371,1.0586,0.0371,1.5752v8.0498h1.6504v-6.5996c0-0.4004,0.0703-0.8164,0.2119-1.25
			s0.3633-0.8379,0.6631-1.2129s0.6748-0.6836,1.125-0.9248s0.9912-0.3623,1.625-0.3623c0.416,0,0.7334,0.041,0.9502,0.125
			l0.3242-1.625c-0.3496-0.1006-0.7578-0.1504-1.2246-0.1504C309.5029,89.946,309.04,90.0173,308.6318,90.1589z"/>
		<path class="st0" d="M328.9199,99.321v-5.2246c0-0.7168-0.1172-1.334-0.3506-1.8506s-0.542-0.9453-0.9248-1.2871
			c-0.3838-0.3418-0.8379-0.5957-1.3623-0.7627c-0.5254-0.166-1.0713-0.25-1.6377-0.25c-2.2002,0-3.8496,0.5664-4.9502,1.7002
			l1,1.1748c1.0166-0.916,2.208-1.375,3.5752-1.375c2,0,3,1.0088,3,3.0254v0.2998h-0.8252c-0.7002,0-1.4707,0.0332-2.3125,0.0996
			c-0.8418,0.0674-1.6338,0.2334-2.375,0.5s-1.3584,0.6709-1.8496,1.2129c-0.4922,0.542-0.7373,1.2871-0.7373,2.2373
			c0,0.5664,0.1123,1.0625,0.3369,1.4873c0.2256,0.4248,0.5254,0.7842,0.9004,1.0752c0.375,0.292,0.8037,0.5088,1.2871,0.6504
			c0.4834,0.1406,0.9834,0.2119,1.5,0.2119c0.9502,0,1.7539-0.1709,2.4131-0.5127c0.6582-0.3408,1.2285-0.9033,1.7119-1.6875h0.0498
			c0,0.3174,0.0127,0.6426,0.0381,0.9756c0.0244,0.333,0.0625,0.6416,0.1123,0.9248h1.5996
			c-0.0498-0.3164-0.0957-0.7207-0.1367-1.2129C328.9404,100.2419,328.9199,99.7712,328.9199,99.321z M327.2695,96.9714
			c0,0.5166-0.0713,1.0039-0.2129,1.4619c-0.1416,0.459-0.3623,0.8584-0.6621,1.2002s-0.6709,0.6123-1.1123,0.8125
			c-0.4424,0.2002-0.9629,0.2998-1.5625,0.2998c-0.334,0-0.6631-0.0371-0.9873-0.1123c-0.3252-0.0752-0.6211-0.2002-0.8877-0.375
			s-0.4795-0.4004-0.6377-0.6748c-0.1582-0.2754-0.2373-0.6045-0.2373-0.9873c0-0.584,0.2041-1.042,0.6123-1.375
			c0.4082-0.334,0.9004-0.5791,1.4746-0.7383c0.5752-0.1582,1.1758-0.2578,1.8008-0.2998c0.625-0.041,1.1455-0.0625,1.5625-0.0625
			h0.8496V96.9714z"/>
		<path class="st0" d="M342.7695,99.3708v-9.125h-1.6504v6c0,1.0674-0.166,1.9004-0.5,2.5
			c-0.333,0.6006-0.7119,1.0498-1.1367,1.3506c-0.4258,0.2998-0.8301,0.4834-1.2129,0.5498
			c-0.3838,0.0664-0.6172,0.0996-0.7002,0.0996c-0.6162,0-1.1289-0.0869-1.5371-0.2627c-0.4092-0.1748-0.7334-0.4326-0.9756-0.7744
			c-0.2412-0.3418-0.4121-0.7627-0.5117-1.2627c-0.1006-0.5-0.1504-1.0752-0.1504-1.7246v-6.4756h-1.6504v7.4248
			c0,1.4668,0.3584,2.5967,1.0752,3.3877c0.7168,0.792,1.8252,1.1875,3.3252,1.1875c0.3828,0,0.7705-0.0537,1.1621-0.1621
			s0.7627-0.2588,1.1133-0.4502c0.3496-0.1914,0.666-0.4209,0.9492-0.6875s0.5166-0.5586,0.7002-0.875h0.0498
			c0,0.3164,0.0039,0.6289,0.0127,0.9375s0.0293,0.6211,0.0625,0.9375h1.7002c-0.0332-0.4336-0.0625-0.8916-0.0879-1.375
			C342.7822,100.0876,342.7695,99.6882,342.7695,99.3708z"/>
		<path class="st0" d="M351.8945,100.6208c-0.2998,0.084-0.5918,0.125-0.875,0.125c-0.25,0-0.4795-0.0283-0.6875-0.0869
			c-0.209-0.0586-0.3877-0.1631-0.5371-0.3125c-0.1504-0.1504-0.2676-0.3633-0.3506-0.6377c-0.083-0.2754-0.125-0.6289-0.125-1.0625
			v-6.9004h3.375v-1.5h-3.375V86.946h-1.6494v3.2998h-2.4756v1.5h2.4756v7.375c0,0.6504,0.0908,1.1748,0.2744,1.5752
			s0.417,0.7168,0.7002,0.9502s0.5957,0.3916,0.9375,0.4746s0.6709,0.125,0.9873,0.125c0.8662,0,1.6084-0.1416,2.2256-0.4248
			l-0.0752-1.5254C352.4697,100.4294,352.1943,100.5378,351.8945,100.6208z"/>
		<path class="st0" d="M366.3066,93.6462c-0.3086-0.75-0.7373-1.4004-1.2871-1.9502s-1.2041-0.9785-1.9629-1.2871
			s-1.5957-0.4629-2.5127-0.4629c-0.8994,0-1.7285,0.1543-2.4873,0.4629s-1.4121,0.7373-1.9619,1.2871
			c-0.5508,0.5498-0.9795,1.2002-1.2881,1.9502s-0.4619,1.5664-0.4619,2.4502c0,0.8828,0.1533,1.6992,0.4619,2.4492
			s0.7373,1.4004,1.2881,1.9502c0.5498,0.5498,1.2031,0.9795,1.9619,1.2881c0.7588,0.3076,1.5879,0.4619,2.4873,0.4619
			c0.917,0,1.7539-0.1543,2.5127-0.4619c0.7588-0.3086,1.4131-0.7383,1.9629-1.2881s0.9785-1.2002,1.2871-1.9502
			s0.4629-1.5664,0.4629-2.4492C366.7695,95.2126,366.6152,94.3962,366.3066,93.6462z M364.6572,97.9206
			c-0.209,0.5674-0.5049,1.0586-0.8877,1.4756c-0.3838,0.417-0.8467,0.7461-1.3877,0.9873
			c-0.542,0.2422-1.1543,0.3623-1.8379,0.3623s-1.2959-0.1201-1.8369-0.3623c-0.542-0.2412-1-0.5703-1.375-0.9873
			s-0.667-0.9082-0.875-1.4756c-0.209-0.5664-0.3125-1.1748-0.3125-1.8242c0-0.6504,0.1035-1.2588,0.3125-1.8252
			c0.208-0.5664,0.5-1.0586,0.875-1.4756c0.375-0.416,0.833-0.7451,1.375-0.9873c0.541-0.2412,1.1533-0.3623,1.8369-0.3623
			s1.2959,0.1211,1.8379,0.3623c0.541,0.2422,1.0039,0.5713,1.3877,0.9873c0.3828,0.417,0.6787,0.9092,0.8877,1.4756
			c0.208,0.5664,0.3125,1.1748,0.3125,1.8252C364.9697,96.7458,364.8652,97.3542,364.6572,97.9206z"/>
	</g>
</g>
</svg>
