<?xml version="1.0" encoding="utf-8"?>
<!-- Generator: Adobe Illustrator 16.0.0, SVG Export Plug-In . SVG Version: 6.00 Build 0)  -->
<!DOCTYPE svg PUBLIC "-//W3C//DTD SVG 1.1//EN" "http://www.w3.org/Graphics/SVG/1.1/DTD/svg11.dtd">
<svg version="1.1" id="OBJECTS" xmlns="http://www.w3.org/2000/svg" xmlns:xlink="http://www.w3.org/1999/xlink" x="0px" y="0px"
	 width="100px" height="24.1162px" viewBox="850.959 49.4248 100 24.1162" enable-background="new 850.959 49.4248 100 24.1162"
	 xml:space="preserve">
<g>
	<g>
		<defs>
			<rect id="SVGID_23_" x="743.459" y="76.0508" width="100.1318" height="26.4512"/>
		</defs>
		<clipPath id="SVGID_2_">
			<use xlink:href="#SVGID_23_"  overflow="visible"/>
		</clipPath>
		<g clip-path="url(#SVGID_2_)">
			<g>
				<path fill="#004B92" d="M698.0781,75.5361l52.9561-7.2334l64.1475-2.8652l55.5811,0.4375l17.3799,0.6826l-15.5615,4.749
					c0,0-1.6055,2.2188-5.8203,4.7441l-0.4824-5.6924c0,0-2.376,4.4004-8.3906,7.7637c-4.8105,2.6904-11.9346,5.0889-21.9902,5.0146
					c-22.627-0.1689-40.5215-7.1377-47.2178,3.9648c-3.71,6.1523-6.3145,8.6504-12.3809,11.4316
					c-2.335,0.7637-4.9531,1.2773-8.0186,1.416c-16.9678,0.7559-22.1084-12.4434-47.6533-11.5293
					c-15.8701,0.5684-21.9023,6.5508-23.8828,10.0508c0.0244-0.1543,0.0488-0.3164,0.0732-0.4883
					C698.252,87.8594,698.0781,75.5361,698.0781,75.5361z"/>
			</g>
			<path opacity="0.36" fill="#DBDBDB" enable-background="new    " d="M788.6777,87.0723
				c6.6963-11.1025,24.5898-4.1338,47.2178-3.9648c10.0566,0.0762,17.1797-2.3242,21.9912-5.0146
				c6.0137-3.3633,8.3896-7.7637,8.3896-7.7637l0.4824,5.6924c-4.874,2.9199-13.2373,6.248-26.6553,7.0303
				c-17.3242,1.0098-24.3086-0.2061-33.543,1.0635c-14.6406,2.0137-19.4434,10.8496-30.2637,14.3906
				C782.3633,95.7227,784.9678,93.2246,788.6777,87.0723z"/>
		</g>
	</g>
</g>
<g>
	<g>
		<defs>
			<rect id="SVGID_25_" x="744.209" y="49.4258" width="100.1318" height="26.4512"/>
		</defs>
		<clipPath id="SVGID_4_">
			<use xlink:href="#SVGID_25_"  overflow="visible"/>
		</clipPath>
		<g clip-path="url(#SVGID_4_)">
			<g>
				<path fill="#223C7E" d="M698.8281,48.9111l52.9561-7.2334l64.1475-2.8652l55.5811,0.4375l17.3799,0.6826l-15.5615,4.749
					c0,0-1.6055,2.2188-5.8203,4.7441l-0.4824-5.6924c0,0-2.376,4.4004-8.3906,7.7637c-4.8105,2.6904-11.9346,5.0889-21.9902,5.0146
					c-22.627-0.1689-40.5215-7.1377-47.2178,3.9648c-3.71,6.1523-6.3145,8.6504-12.3809,11.4316
					c-2.335,0.7637-4.9531,1.2773-8.0186,1.416c-16.9678,0.7559-22.1084-12.4434-47.6533-11.5293
					c-15.8701,0.5684-21.9023,6.5508-23.8828,10.0508c0.0244-0.1543,0.0488-0.3164,0.0732-0.4883
					C699.002,61.2344,698.8281,48.9111,698.8281,48.9111z"/>
			</g>
			<path opacity="0.36" fill="#DBDBDB" enable-background="new    " d="M789.4277,60.4473
				c6.6963-11.1025,24.5898-4.1338,47.2178-3.9648c10.0566,0.0762,17.1797-2.3242,21.9912-5.0146
				c6.0137-3.3633,8.3896-7.7637,8.3896-7.7637l0.4824,5.6924c-4.874,2.9199-13.2373,6.248-26.6553,7.0303
				c-17.3242,1.0098-24.3086-0.2061-33.543,1.0635c-14.6406,2.0137-19.4434,10.8496-30.2637,14.3906
				C783.1133,69.0977,785.7178,66.5996,789.4277,60.4473z"/>
		</g>
	</g>
</g>
<g>
	<g>
		<defs>
			<rect id="SVGID_27_" x="850.959" y="49.4258" width="100.1318" height="26.4512"/>
		</defs>
		<clipPath id="SVGID_6_">
			<use xlink:href="#SVGID_27_"  overflow="visible"/>
		</clipPath>
		<g clip-path="url(#SVGID_6_)">
			<g>
				<path fill="#DBDBDB" d="M950.4531,56.2441c0.2275-0.0195,0.4541-0.041,0.6797-0.0625
					C950.9072,56.2031,950.6807,56.2246,950.4531,56.2441z"/>
				<path fill="#DBDBDB" d="M885.292,71.373c0.0977-0.0391,0.1934-0.0762,0.2891-0.1172
					C885.4854,71.2969,885.3896,71.334,885.292,71.373z"/>
				<path fill="#DBDBDB" d="M949.2188,56.3467c0.2559-0.0195,0.5117-0.0391,0.7646-0.0596
					C949.7314,56.3076,949.4746,56.3271,949.2188,56.3467z"/>
				<path fill="#C31F39" d="M805.5781,48.9111l52.9561-7.2334l64.1475-2.8652l55.5811,0.4375l17.3799,0.6826l-15.5615,4.749
					c0,0-1.6055,2.2188-5.8203,4.7441l-0.4824-5.6924c0,0-2.376,4.4004-8.3906,7.7637c-4.8105,2.6904-11.9346,5.0889-21.9902,5.0146
					c-22.627-0.1689-40.5215-7.1377-47.2178,3.9648c-3.71,6.1523-6.3145,8.6504-12.3809,11.4316
					c-2.335,0.7637-4.9531,1.2773-8.0186,1.416c-16.9678,0.7559-22.1084-12.4434-47.6533-11.5293
					c-15.8701,0.5684-21.9023,6.5508-23.8828,10.0508c0.0244-0.1543,0.0488-0.3164,0.0732-0.4883
					C805.752,61.2344,805.5781,48.9111,805.5781,48.9111z"/>
				<path fill="#DBDBDB" d="M883.8018,71.9082c0.4873-0.1602,0.9629-0.3301,1.4277-0.5117
					C884.7646,71.5781,884.2891,71.748,883.8018,71.9082z"/>
				<path fill="#DBDBDB" d="M885.8848,71.1328c0.0508-0.0215,0.1016-0.043,0.1533-0.0664
					C885.9863,71.0898,885.9355,71.1113,885.8848,71.1328z"/>
				<path fill="#DBDBDB" d="M947.6748,56.4502c0.3818-0.0215,0.7588-0.0449,1.1318-0.0723
					C948.4336,56.4053,948.0566,56.4287,947.6748,56.4502z"/>
				<path fill="#DBDBDB" d="M883.7988,71.9082L883.7988,71.9082c0.001,0,0.002,0,0.0029,0
					C883.8008,71.9082,883.7998,71.9082,883.7988,71.9082z"/>
				<path fill="#DBDBDB" d="M949.9834,56.2871c0.1572-0.0137,0.3125-0.0293,0.4697-0.043
					C950.2959,56.2578,950.1406,56.2734,949.9834,56.2871z"/>
				<path fill="#DBDBDB" d="M885.2295,71.3965c0.0205-0.0078,0.042-0.0156,0.0625-0.0234
					C885.2715,71.3809,885.25,71.3887,885.2295,71.3965z"/>
				<path fill="#DBDBDB" d="M948.8066,56.3779c0.1387-0.0098,0.2744-0.0215,0.4121-0.0313
					C949.0811,56.3564,948.9453,56.3682,948.8066,56.3779z"/>
				<path fill="#DBDBDB" d="M885.5811,71.2559c0.1016-0.041,0.2031-0.082,0.3037-0.123
					C885.7832,71.1738,885.6826,71.2148,885.5811,71.2559z"/>
			</g>
			<path opacity="0.36" fill="#DBDBDB" enable-background="new    " d="M896.1777,60.4473
				c6.6963-11.1025,24.5898-4.1338,47.2178-3.9648c10.0566,0.0762,17.1797-2.3242,21.9912-5.0146
				c6.0137-3.3633,8.3896-7.7637,8.3896-7.7637l0.4824,5.6924c-4.874,2.9199-13.2373,6.248-26.6553,7.0303
				c-17.3242,1.0098-24.3086-0.2061-33.543,1.0635c-14.6406,2.0137-19.4434,10.8496-30.2637,14.3906
				C889.8633,69.0977,892.4678,66.5996,896.1777,60.4473z"/>
		</g>
	</g>
</g>
</svg>
