<?xml version="1.0" encoding="utf-8"?>
<!-- Generator: Adobe Illustrator 16.0.0, SVG Export Plug-In . SVG Version: 6.00 Build 0)  -->
<!DOCTYPE svg PUBLIC "-//W3C//DTD SVG 1.1//EN" "http://www.w3.org/Graphics/SVG/1.1/DTD/svg11.dtd">
<svg version="1.1" id="OBJECTS" xmlns="http://www.w3.org/2000/svg" xmlns:xlink="http://www.w3.org/1999/xlink" x="0px" y="0px"
	 width="100px" height="13.1143px" viewBox="961.084 138.5498 100 13.1143" enable-background="new 961.084 138.5498 100 13.1143"
	 xml:space="preserve">
<g>
	<g>
		<defs>
			<rect id="SVGID_34_" x="851.584" y="138.5508" width="100.1318" height="26.4502"/>
		</defs>
		<clipPath id="SVGID_2_">
			<use xlink:href="#SVGID_34_"  overflow="visible"/>
		</clipPath>
		<g clip-path="url(#SVGID_2_)">
			<g>
				<path fill="#A41630" d="M806.2031,138.0361l52.9561-7.2334l64.1475-2.8652l55.5811,0.4375l17.3799,0.6826l-15.5615,4.749
					c0,0-1.6055,2.2188-5.8203,4.7441l-0.4824-5.6924c0,0-2.376,4.4004-8.3906,7.7637c-4.8105,2.6904-11.9346,5.0889-21.9902,5.0146
					c-22.627-0.1689-40.5215-7.1377-47.2178,3.9648c-3.71,6.1523-6.3145,8.6504-12.3809,11.4316
					c-2.335,0.7637-4.9531,1.2773-8.0186,1.416c-16.9678,0.7549-22.1084-12.4434-47.6533-11.5293
					c-15.8701,0.5684-21.9023,6.5508-23.8828,10.0508c0.0244-0.1543,0.0488-0.3164,0.0732-0.4883
					C806.377,150.3594,806.2031,138.0361,806.2031,138.0361z"/>
			</g>
			<path opacity="0.36" fill="#DBDBDB" enable-background="new    " d="M896.8027,149.5723
				c6.6963-11.1025,24.5898-4.1338,47.2178-3.9648c10.0566,0.0762,17.1797-2.3242,21.9912-5.0146
				c6.0137-3.3633,8.3896-7.7637,8.3896-7.7637l0.4824,5.6924c-4.874,2.9199-13.2373,6.248-26.6553,7.0303
				c-17.3242,1.0098-24.3086-0.2061-33.543,1.0635c-14.6406,2.0137-19.4434,10.8496-30.2637,14.3906
				C890.4883,158.2227,893.0928,155.7246,896.8027,149.5723z"/>
		</g>
	</g>
</g>
<g>
	<path fill="#F2F2F2" d="M990.5615,150.5732l1.7969-4.8682l13.6113-7.0425l14.1416,0.2236l14.8125,0.5029l0.6709,0.7544
		l18.7539-1.313l2.2637-0.2798c1.6689,0,4.3223,0,4.3223,0c-4.9463,2.1338-15.3711,2.6177-15.3711,2.6177l-1.5371-0.2515
		l-4.1279,0.4194l-8.1992-0.103c-4.9639-0.335-13.0508-0.3999-13.0508-0.3999c-7.8818,0.1768-11.4688,1.8999-11.4688,1.8999
		c-4.9863,1.9102-10.2656,5.1987-10.2656,5.1987C994.4824,149.418,990.5615,150.5732,990.5615,150.5732z"/>
	<path fill="#00C250" d="M961.084,144.3828v-5.832h95.5283c-8.3291,3.4097-18.0547,2.6826-18.0547,2.6826
		c-5.8877-0.2788-13.3594-1.397-13.3594-1.397l-5.0684-0.708l-4.584-0.4658l-7.6201-0.0371
		c-5.0674,0.6143-7.2842,3.6519-7.2842,3.6519c-3.8125,5.6104-7.6396,7.2109-7.6396,7.2109
		c-5.6836,3.2422-13.9941,1.9004-13.9941,1.9004c-4.2861-0.5215-11.3643-4.1367-11.3643-4.1367
		C963.6553,145.3696,961.084,144.3828,961.084,144.3828z"/>
</g>
</svg>
