<?xml version="1.0" encoding="utf-8"?>
<!-- Generator: Adobe Illustrator 16.0.0, SVG Export Plug-In . SVG Version: 6.00 Build 0)  -->
<!DOCTYPE svg PUBLIC "-//W3C//DTD SVG 1.1//EN" "http://www.w3.org/Graphics/SVG/1.1/DTD/svg11.dtd">
<svg version="1.1" id="OBJECTS" xmlns="http://www.w3.org/2000/svg" xmlns:xlink="http://www.w3.org/1999/xlink" x="0px" y="0px"
	 width="100px" height="24.1167px" viewBox="416 110.7998 100 24.1167" enable-background="new 416 110.7998 100 24.1167"
	 xml:space="preserve">
<g>
	<g>
		<defs>
			<rect id="SVGID_1_" x="416" y="110.7998" width="100.1318" height="26.4507"/>
		</defs>
		<clipPath id="SVGID_2_">
			<use xlink:href="#SVGID_1_"  overflow="visible"/>
		</clipPath>
		<g clip-path="url(#SVGID_2_)">
			<g>
				<path fill="#DBDBDB" d="M515.4941,117.6187c0.2275-0.0195,0.4541-0.041,0.6797-0.0625
					C515.9482,117.5776,515.7217,117.5991,515.4941,117.6187z"/>
				<path fill="#DBDBDB" d="M450.333,132.7466c0.0977-0.0391,0.1934-0.0762,0.2891-0.1152
					C450.5264,132.6704,450.4307,132.7075,450.333,132.7466z"/>
				<path fill="#DBDBDB" d="M514.2598,117.7212c0.2559-0.0195,0.5117-0.0391,0.7646-0.0596
					C514.7725,117.6821,514.5156,117.7017,514.2598,117.7212z"/>
				<path fill="#FF6F29" d="M370.6191,110.2852l52.9561-7.2334l64.1475-2.8652l55.5811,0.4375l17.3799,0.6826l-15.5615,4.749
					c0,0-1.6055,2.2188-5.8203,4.7441l-0.4824-5.6924c0,0-2.376,4.4004-8.3906,7.7637c-4.8105,2.6904-11.9346,5.0894-21.9902,5.0151
					c-22.627-0.1689-40.5215-7.1382-47.2178,3.9648c-3.71,6.1514-6.3145,8.6514-12.3809,11.4307
					c-2.335,0.7637-4.9531,1.2773-8.0186,1.416c-16.9678,0.7559-22.1084-12.4434-47.6533-11.5293
					c-15.8701,0.5684-21.9023,6.5508-23.8828,10.0508c0.0244-0.1543,0.0488-0.3164,0.0732-0.4883
					C370.793,122.6079,370.6191,110.2852,370.6191,110.2852z"/>
				<path fill="#DBDBDB" d="M448.8428,133.2817c0.4873-0.1602,0.9629-0.3301,1.4277-0.5117
					C449.8057,132.9517,449.3301,133.1216,448.8428,133.2817z"/>
				<path fill="#DBDBDB" d="M450.9258,132.5083c0.0508-0.0215,0.1016-0.043,0.1533-0.0664
					C451.0273,132.4653,450.9766,132.4868,450.9258,132.5083z"/>
				<path fill="#DBDBDB" d="M512.7158,117.8247c0.3818-0.0215,0.7588-0.0449,1.1318-0.0723
					C513.4746,117.7798,513.0977,117.8032,512.7158,117.8247z"/>
				<path fill="#DBDBDB" d="M448.8398,133.2817L448.8398,133.2817c0.001,0,0.002,0,0.0029,0
					C448.8418,133.2817,448.8408,133.2817,448.8398,133.2817z"/>
				<path fill="#DBDBDB" d="M515.0244,117.6616c0.1572-0.0137,0.3125-0.0293,0.4697-0.043
					C515.3369,117.6323,515.1816,117.6479,515.0244,117.6616z"/>
				<path fill="#DBDBDB" d="M450.2705,132.77c0.0205-0.0078,0.042-0.0156,0.0625-0.0234
					C450.3125,132.7544,450.291,132.7622,450.2705,132.77z"/>
				<path fill="#DBDBDB" d="M513.8477,117.7524c0.1387-0.0098,0.2744-0.0215,0.4121-0.0313
					C514.1221,117.731,513.9863,117.7427,513.8477,117.7524z"/>
				<path fill="#DBDBDB" d="M450.6221,132.6313c0.1016-0.041,0.2031-0.082,0.3037-0.123
					C450.8242,132.5493,450.7236,132.5903,450.6221,132.6313z"/>
			</g>
			<path opacity="0.36" fill="#DBDBDB" enable-background="new    " d="M461.2188,121.8223
				c6.6963-11.1035,24.5898-4.1343,47.2178-3.9653c10.0566,0.0762,17.1797-2.3247,21.9912-5.0151
				c6.0137-3.3633,8.3896-7.7637,8.3896-7.7637l0.4824,5.6924c-4.874,2.9199-13.2373,6.248-26.6553,7.0308
				c-17.3242,1.0098-24.3086-0.2061-33.543,1.0635c-14.6406,2.0127-19.4434,10.8486-30.2637,14.3896
				C454.9043,130.4731,457.5088,127.9731,461.2188,121.8223z"/>
		</g>
	</g>
</g>
<g>
	<g>
		<defs>
			<rect id="SVGID_3_" x="416" y="138.9663" width="100.1318" height="26.4507"/>
		</defs>
		<clipPath id="SVGID_4_">
			<use xlink:href="#SVGID_3_"  overflow="visible"/>
		</clipPath>
		<g clip-path="url(#SVGID_4_)">
			<g>
				<path fill="#09CC8F" d="M370.6191,138.4517l52.9561-7.2334l64.1475-2.8652l55.5811,0.4375l17.3799,0.6826l-15.5615,4.749
					c0,0-1.6055,2.2188-5.8203,4.7441l-0.4824-5.6924c0,0-2.376,4.4004-8.3906,7.7637c-4.8105,2.6904-11.9346,5.0894-21.9902,5.0151
					c-22.627-0.1689-40.5215-7.1382-47.2178,3.9648c-3.71,6.1514-6.3145,8.6514-12.3809,11.4307
					c-2.335,0.7637-4.9531,1.2773-8.0186,1.416c-16.9678,0.7559-22.1084-12.4434-47.6533-11.5293
					c-15.8701,0.5684-21.9023,6.5508-23.8828,10.0508c0.0244-0.1543,0.0488-0.3164,0.0732-0.4883
					C370.793,150.7744,370.6191,138.4517,370.6191,138.4517z"/>
			</g>
			<path opacity="0.36" fill="#DBDBDB" enable-background="new    " d="M461.2188,149.9888
				c6.6963-11.1035,24.5898-4.1343,47.2178-3.9653c10.0566,0.0762,17.1797-2.3247,21.9912-5.0151
				c6.0137-3.3633,8.3896-7.7637,8.3896-7.7637l0.4824,5.6924c-4.874,2.9199-13.2373,6.248-26.6553,7.0308
				c-17.3242,1.0098-24.3086-0.2061-33.543,1.0635c-14.6406,2.0127-19.4434,10.8486-30.2637,14.3896
				C454.9043,158.6396,457.5088,156.1396,461.2188,149.9888z"/>
		</g>
	</g>
</g>
</svg>
