<?xml version="1.0" encoding="utf-8"?>
<!-- Generator: Adobe Illustrator 16.0.0, SVG Export Plug-In . SVG Version: 6.00 Build 0)  -->
<!DOCTYPE svg PUBLIC "-//W3C//DTD SVG 1.1//EN" "http://www.w3.org/Graphics/SVG/1.1/DTD/svg11.dtd">
<svg version="1.1" id="OBJECTS" xmlns="http://www.w3.org/2000/svg" xmlns:xlink="http://www.w3.org/1999/xlink" x="0px" y="0px"
	 width="100px" height="24.1162px" viewBox="632.959 138.0498 100 24.1162" enable-background="new 632.959 138.0498 100 24.1162"
	 xml:space="preserve">
<g>
	<g>
		<defs>
			<rect id="SVGID_17_" x="632.959" y="138.0503" width="100.1318" height="26.4517"/>
		</defs>
		<clipPath id="SVGID_2_">
			<use xlink:href="#SVGID_17_"  overflow="visible"/>
		</clipPath>
		<g clip-path="url(#SVGID_2_)">
			<g>
				<path fill="#DBDBDB" d="M732.4531,144.8687c0.2275-0.0195,0.4541-0.041,0.6797-0.0625
					C732.9072,144.8276,732.6807,144.8491,732.4531,144.8687z"/>
				<path fill="#DBDBDB" d="M667.292,159.998c0.0977-0.0391,0.1934-0.0762,0.2891-0.1172
					C667.4854,159.9219,667.3896,159.959,667.292,159.998z"/>
				<path fill="#DBDBDB" d="M731.2188,144.9712c0.2559-0.0195,0.5117-0.0391,0.7646-0.0596
					C731.7314,144.9321,731.4746,144.9517,731.2188,144.9712z"/>
				<path fill="#02903E" d="M587.5781,137.5356l52.9561-7.2334l64.1475-2.8652l55.5811,0.4375l17.3799,0.6826l-15.5615,4.749
					c0,0-1.6055,2.2188-5.8203,4.7441l-0.4824-5.6924c0,0-2.376,4.4004-8.3906,7.7637c-4.8105,2.6904-11.9346,5.0889-21.9902,5.0146
					c-22.627-0.1689-40.5215-7.1377-47.2178,3.9648c-3.71,6.1528-6.3145,8.6509-12.3809,11.4321
					c-2.335,0.7637-4.9531,1.2773-8.0186,1.416c-16.9678,0.7559-22.1084-12.4438-47.6533-11.5298
					c-15.8701,0.5688-21.9023,6.5513-23.8828,10.0513c0.0244-0.1543,0.0488-0.3164,0.0732-0.4883
					C587.752,149.8589,587.5781,137.5356,587.5781,137.5356z"/>
				<path fill="#DBDBDB" d="M665.8018,160.5332c0.4873-0.1602,0.9629-0.3301,1.4277-0.5117
					C666.7646,160.2031,666.2891,160.373,665.8018,160.5332z"/>
				<path fill="#DBDBDB" d="M667.8848,159.7578c0.0508-0.0215,0.1016-0.043,0.1533-0.0664
					C667.9863,159.7148,667.9355,159.7363,667.8848,159.7578z"/>
				<path fill="#DBDBDB" d="M729.6748,145.0747c0.3818-0.0215,0.7588-0.0449,1.1318-0.0723
					C730.4336,145.0298,730.0566,145.0532,729.6748,145.0747z"/>
				<path fill="#DBDBDB" d="M665.7988,160.5332L665.7988,160.5332c0.001,0,0.002,0,0.0029,0
					C665.8008,160.5332,665.7998,160.5332,665.7988,160.5332z"/>
				<path fill="#DBDBDB" d="M731.9834,144.9116c0.1572-0.0137,0.3125-0.0293,0.4697-0.043
					C732.2959,144.8823,732.1406,144.8979,731.9834,144.9116z"/>
				<path fill="#DBDBDB" d="M667.2295,160.0215c0.0205-0.0078,0.042-0.0156,0.0625-0.0234
					C667.2715,160.0059,667.25,160.0137,667.2295,160.0215z"/>
				<path fill="#DBDBDB" d="M730.8066,145.0024c0.1387-0.0098,0.2744-0.0215,0.4121-0.0313
					C731.0811,144.981,730.9453,144.9927,730.8066,145.0024z"/>
				<path fill="#DBDBDB" d="M667.5811,159.8809c0.1016-0.041,0.2031-0.082,0.3037-0.123
					C667.7832,159.7988,667.6826,159.8398,667.5811,159.8809z"/>
			</g>
			<path opacity="0.36" fill="#DBDBDB" enable-background="new    " d="M678.1777,149.0718
				c6.6963-11.1025,24.5898-4.1338,47.2178-3.9648c10.0566,0.0762,17.1797-2.3242,21.9912-5.0146
				c6.0137-3.3633,8.3896-7.7637,8.3896-7.7637l0.4824,5.6924c-4.874,2.9199-13.2373,6.248-26.6553,7.0303
				c-17.3242,1.0098-24.3086-0.2061-33.543,1.0635c-14.6406,2.0137-19.4434,10.8501-30.2637,14.3911
				C671.8633,157.7227,674.4678,155.2246,678.1777,149.0718z"/>
		</g>
	</g>
</g>
<g>
	<g>
		<defs>
			<rect id="SVGID_19_" x="523.334" y="139.9673" width="100.1318" height="26.4517"/>
		</defs>
		<clipPath id="SVGID_4_">
			<use xlink:href="#SVGID_19_"  overflow="visible"/>
		</clipPath>
		<g clip-path="url(#SVGID_4_)">
			<g>
				<path fill="#7FA0D2" d="M477.9531,139.4526l52.9561-7.2334l64.1475-2.8652l55.5811,0.4375l17.3799,0.6826l-15.5615,4.749
					c0,0-1.6055,2.2188-5.8203,4.7441l-0.4824-5.6924c0,0-2.376,4.4004-8.3906,7.7637c-4.8105,2.6904-11.9346,5.0889-21.9902,5.0146
					c-22.627-0.1689-40.5215-7.1377-47.2178,3.9653c-3.71,6.1523-6.3145,8.6504-12.3809,11.4316
					c-2.335,0.7637-4.9531,1.2773-8.0186,1.416c-16.9678,0.7559-22.1084-12.4434-47.6533-11.5293
					c-15.8701,0.5684-21.9023,6.5508-23.8828,10.0508c0.0244-0.1543,0.0488-0.3164,0.0732-0.4883
					C478.127,151.7764,477.9531,139.4526,477.9531,139.4526z"/>
			</g>
			<path opacity="0.36" fill="#DBDBDB" enable-background="new    " d="M568.5527,150.9893
				c6.6963-11.103,24.5898-4.1343,47.2178-3.9653c10.0566,0.0762,17.1797-2.3242,21.9912-5.0146
				c6.0137-3.3633,8.3896-7.7637,8.3896-7.7637l0.4824,5.6924c-4.874,2.9199-13.2373,6.248-26.6553,7.0303
				c-17.3242,1.0098-24.3086-0.2061-33.543,1.0635c-14.6406,2.0137-19.4434,10.8501-30.2637,14.3911
				C562.2383,159.6396,564.8428,157.1416,568.5527,150.9893z"/>
		</g>
	</g>
</g>
</svg>
