<?xml version="1.0" encoding="utf-8"?>
<!-- Generator: Adobe Illustrator 16.0.0, SVG Export Plug-In . SVG Version: 6.00 Build 0)  -->
<!DOCTYPE svg PUBLIC "-//W3C//DTD SVG 1.1//EN" "http://www.w3.org/Graphics/SVG/1.1/DTD/svg11.dtd">
<svg version="1.1" id="OBJECTS" xmlns="http://www.w3.org/2000/svg" xmlns:xlink="http://www.w3.org/1999/xlink" x="0px" y="0px"
	 width="100px" height="24.1167px" viewBox="632.334 78.2998 100 24.1167" enable-background="new 632.334 78.2998 100 24.1167"
	 xml:space="preserve">
<g>
	<g>
		<defs>
			<rect id="SVGID_5_" x="523.334" y="110.8008" width="100.1318" height="26.4512"/>
		</defs>
		<clipPath id="SVGID_2_">
			<use xlink:href="#SVGID_5_"  overflow="visible"/>
		</clipPath>
		<g clip-path="url(#SVGID_2_)">
			<g>
				<path fill="#6F097B" d="M477.9531,110.2861l52.9561-7.2334l64.1475-2.8652l55.5811,0.4375l17.3799,0.6826l-15.5615,4.749
					c0,0-1.6055,2.2188-5.8203,4.7441l-0.4824-5.6924c0,0-2.376,4.4004-8.3906,7.7637c-4.8105,2.6904-11.9346,5.0889-21.9902,5.0146
					c-22.627-0.1689-40.5215-7.1377-47.2178,3.9648c-3.71,6.1523-6.3145,8.6504-12.3809,11.4316
					c-2.335,0.7637-4.9531,1.2773-8.0186,1.416c-16.9678,0.7559-22.1084-12.4434-47.6533-11.5293
					c-15.8701,0.5684-21.9023,6.5508-23.8828,10.0508c0.0244-0.1543,0.0488-0.3164,0.0732-0.4883
					C478.127,122.6094,477.9531,110.2861,477.9531,110.2861z"/>
			</g>
		</g>
	</g>
</g>
<g>
	<g>
		<defs>
			<rect id="SVGID_7_" x="523.334" y="78.3008" width="100.1318" height="26.4512"/>
		</defs>
		<clipPath id="SVGID_4_">
			<use xlink:href="#SVGID_7_"  overflow="visible"/>
		</clipPath>
		<g clip-path="url(#SVGID_4_)">
			<g>
				<path fill="#0030A6" d="M477.9531,77.7861l52.9561-7.2334l64.1475-2.8652l55.5811,0.4375l17.3799,0.6826l-15.5615,4.749
					c0,0-1.6055,2.2188-5.8203,4.7441l-0.4824-5.6924c0,0-2.376,4.4004-8.3906,7.7637c-4.8105,2.6904-11.9346,5.0889-21.9902,5.0146
					c-22.627-0.1689-40.5215-7.1377-47.2178,3.9648c-3.71,6.1523-6.3145,8.6504-12.3809,11.4316
					c-2.335,0.7637-4.9531,1.2773-8.0186,1.416c-16.9678,0.7559-22.1084-12.4434-47.6533-11.5293
					c-15.8701,0.5684-21.9023,6.5508-23.8828,10.0508c0.0244-0.1543,0.0488-0.3164,0.0732-0.4883
					C478.127,90.1094,477.9531,77.7861,477.9531,77.7861z"/>
			</g>
			<path opacity="0.36" fill="#DBDBDB" enable-background="new    " d="M568.5527,89.3223
				c6.6963-11.1025,24.5898-4.1338,47.2178-3.9648c10.0566,0.0762,17.1797-2.3242,21.9912-5.0146
				c6.0137-3.3633,8.3896-7.7637,8.3896-7.7637l0.4824,5.6924c-4.874,2.9199-13.2373,6.248-26.6553,7.0303
				c-17.3242,1.0098-24.3086-0.2061-33.543,1.0635c-14.6406,2.0137-19.4434,10.8496-30.2637,14.3906
				C562.2383,97.9727,564.8428,95.4746,568.5527,89.3223z"/>
		</g>
	</g>
</g>
<g>
	<g>
		<defs>
			<rect id="SVGID_13_" x="632.334" y="78.3008" width="100.1318" height="26.4512"/>
		</defs>
		<clipPath id="SVGID_6_">
			<use xlink:href="#SVGID_13_"  overflow="visible"/>
		</clipPath>
		<g clip-path="url(#SVGID_6_)">
			<g>
				<path fill="#DBDBDB" d="M731.8281,85.1191c0.2275-0.0195,0.4541-0.041,0.6797-0.0625
					C732.2822,85.0781,732.0557,85.0996,731.8281,85.1191z"/>
				<path fill="#DBDBDB" d="M666.667,100.248c0.0977-0.0391,0.1934-0.0762,0.2891-0.1172
					C666.8604,100.1719,666.7646,100.209,666.667,100.248z"/>
				<path fill="#DBDBDB" d="M730.5938,85.2217c0.2559-0.0195,0.5117-0.0391,0.7646-0.0596
					C731.1064,85.1826,730.8496,85.2021,730.5938,85.2217z"/>
				<path fill="#E11A21" d="M586.9531,77.7861l52.9561-7.2334l64.1475-2.8652l55.5811,0.4375l17.3799,0.6826l-15.5615,4.749
					c0,0-1.6055,2.2188-5.8203,4.7441l-0.4824-5.6924c0,0-2.376,4.4004-8.3906,7.7637c-4.8105,2.6904-11.9346,5.0889-21.9902,5.0146
					c-22.627-0.1689-40.5215-7.1377-47.2178,3.9648c-3.71,6.1523-6.3145,8.6504-12.3809,11.4316
					c-2.335,0.7637-4.9531,1.2773-8.0186,1.416c-16.9678,0.7559-22.1084-12.4434-47.6533-11.5293
					c-15.8701,0.5684-21.9023,6.5508-23.8828,10.0508c0.0244-0.1543,0.0488-0.3164,0.0732-0.4883
					C587.127,90.1094,586.9531,77.7861,586.9531,77.7861z"/>
				<path fill="#DBDBDB" d="M665.1768,100.7832c0.4873-0.1602,0.9629-0.3301,1.4277-0.5117
					C666.1396,100.4531,665.6641,100.623,665.1768,100.7832z"/>
				<path fill="#DBDBDB" d="M667.2598,100.0078c0.0508-0.0215,0.1016-0.043,0.1533-0.0664
					C667.3613,99.9648,667.3105,99.9863,667.2598,100.0078z"/>
				<path fill="#DBDBDB" d="M729.0498,85.3252c0.3818-0.0215,0.7588-0.0449,1.1318-0.0723
					C729.8086,85.2803,729.4316,85.3037,729.0498,85.3252z"/>
				<path fill="#DBDBDB" d="M665.1738,100.7832L665.1738,100.7832c0.001,0,0.002,0,0.0029,0
					C665.1758,100.7832,665.1748,100.7832,665.1738,100.7832z"/>
				<path fill="#DBDBDB" d="M731.3584,85.1621c0.1572-0.0137,0.3125-0.0293,0.4697-0.043
					C731.6709,85.1328,731.5156,85.1484,731.3584,85.1621z"/>
				<path fill="#DBDBDB" d="M666.6045,100.2715c0.0205-0.0078,0.042-0.0156,0.0625-0.0234
					C666.6465,100.2559,666.625,100.2637,666.6045,100.2715z"/>
				<path fill="#DBDBDB" d="M730.1816,85.2529c0.1387-0.0098,0.2744-0.0215,0.4121-0.0313
					C730.4561,85.2314,730.3203,85.2432,730.1816,85.2529z"/>
				<path fill="#DBDBDB" d="M666.9561,100.1309c0.1016-0.041,0.2031-0.082,0.3037-0.123
					C667.1582,100.0488,667.0576,100.0898,666.9561,100.1309z"/>
			</g>
			<path opacity="0.36" fill="#DBDBDB" enable-background="new    " d="M677.5527,89.3223
				c6.6963-11.1025,24.5898-4.1338,47.2178-3.9648c10.0566,0.0762,17.1797-2.3242,21.9912-5.0146
				c6.0137-3.3633,8.3896-7.7637,8.3896-7.7637l0.4824,5.6924c-4.874,2.9199-13.2373,6.248-26.6553,7.0303
				c-17.3242,1.0098-24.3086-0.2061-33.543,1.0635c-14.6406,2.0137-19.4434,10.8496-30.2637,14.3906
				C671.2383,97.9727,673.8428,95.4746,677.5527,89.3223z"/>
		</g>
	</g>
</g>
</svg>
