<?xml version="1.0" encoding="utf-8"?>
<!-- Generator: Adobe Illustrator 16.0.0, SVG Export Plug-In . SVG Version: 6.00 Build 0)  -->
<!DOCTYPE svg PUBLIC "-//W3C//DTD SVG 1.1//EN" "http://www.w3.org/Graphics/SVG/1.1/DTD/svg11.dtd">
<svg version="1.1" id="OBJECTS" xmlns="http://www.w3.org/2000/svg" xmlns:xlink="http://www.w3.org/1999/xlink" x="0px" y="0px"
	 width="100px" height="24.1162px" viewBox="743.459 76.0498 100 24.1162" enable-background="new 743.459 76.0498 100 24.1162"
	 xml:space="preserve">
<g>
	<g>
		<defs>
			<rect id="SVGID_13_" x="632.334" y="78.3003" width="100.1318" height="26.4512"/>
		</defs>
		<clipPath id="SVGID_2_">
			<use xlink:href="#SVGID_13_"  overflow="visible"/>
		</clipPath>
		<g clip-path="url(#SVGID_2_)">
			<g>
				<path fill="#E11A21" d="M586.9531,77.7856l52.9561-7.2334l64.1475-2.8652l55.5811,0.4375l17.3799,0.6826l-15.5615,4.749
					c0,0-1.6055,2.2188-5.8203,4.7441l-0.4824-5.6924c0,0-2.376,4.4004-8.3906,7.7637c-4.8105,2.6904-11.9346,5.0889-21.9902,5.0146
					c-22.627-0.1689-40.5215-7.1377-47.2178,3.9648c-3.71,6.1523-6.3145,8.6504-12.3809,11.4316
					c-2.335,0.7637-4.9531,1.2773-8.0186,1.416c-16.9678,0.7559-22.1084-12.4434-47.6533-11.5293
					c-15.8701,0.5684-21.9023,6.5508-23.8828,10.0508c0.0244-0.1543,0.0488-0.3164,0.0732-0.4883
					C587.127,90.1089,586.9531,77.7856,586.9531,77.7856z"/>
			</g>
			<path opacity="0.36" fill="#DBDBDB" enable-background="new    " d="M677.5527,89.3218
				c6.6963-11.1025,24.5898-4.1338,47.2178-3.9648c10.0566,0.0762,17.1797-2.3242,21.9912-5.0146
				c6.0137-3.3633,8.3896-7.7637,8.3896-7.7637l0.4824,5.6924c-4.874,2.9199-13.2373,6.248-26.6553,7.0303
				c-17.3242,1.0098-24.3086-0.2061-33.543,1.0635c-14.6406,2.0137-19.4434,10.8496-30.2637,14.3906
				C671.2383,97.9722,673.8428,95.4741,677.5527,89.3218z"/>
		</g>
	</g>
</g>
<g>
	<g>
		<defs>
			<rect id="SVGID_15_" x="632.959" y="104.8003" width="100.1318" height="26.4517"/>
		</defs>
		<clipPath id="SVGID_4_">
			<use xlink:href="#SVGID_15_"  overflow="visible"/>
		</clipPath>
		<g clip-path="url(#SVGID_4_)">
			<g>
				<path fill="#3B6837" d="M587.5781,104.2856l52.9561-7.2334l64.1475-2.8652l55.5811,0.4375l17.3799,0.6826l-15.5615,4.749
					c0,0-1.6055,2.2188-5.8203,4.7441l-0.4824-5.6924c0,0-2.376,4.4004-8.3906,7.7637c-4.8105,2.6904-11.9346,5.0889-21.9902,5.0146
					c-22.627-0.1689-40.5215-7.1377-47.2178,3.9648c-3.71,6.1528-6.3145,8.6509-12.3809,11.4321
					c-2.335,0.7637-4.9531,1.2773-8.0186,1.416c-16.9678,0.7559-22.1084-12.4438-47.6533-11.5298
					c-15.8701,0.5688-21.9023,6.5513-23.8828,10.0513c0.0244-0.1543,0.0488-0.3164,0.0732-0.4883
					C587.752,116.6089,587.5781,104.2856,587.5781,104.2856z"/>
			</g>
			<path opacity="0.36" fill="#DBDBDB" enable-background="new    " d="M678.1777,115.8218
				c6.6963-11.1025,24.5898-4.1338,47.2178-3.9648c10.0566,0.0762,17.1797-2.3242,21.9912-5.0146
				c6.0137-3.3633,8.3896-7.7637,8.3896-7.7637l0.4824,5.6924c-4.874,2.9199-13.2373,6.248-26.6553,7.0303
				c-17.3242,1.0098-24.3086-0.2061-33.543,1.0635c-14.6406,2.0137-19.4434,10.8501-30.2637,14.3911
				C671.8633,124.4727,674.4678,121.9746,678.1777,115.8218z"/>
		</g>
	</g>
</g>
<g>
	<g>
		<defs>
			<rect id="SVGID_21_" x="742.709" y="104.8008" width="100.1318" height="26.4512"/>
		</defs>
		<clipPath id="SVGID_6_">
			<use xlink:href="#SVGID_21_"  overflow="visible"/>
		</clipPath>
		<g clip-path="url(#SVGID_6_)">
			<g>
				<path fill="#0D1E3A" d="M697.3281,104.2861l52.9561-7.2334l64.1475-2.8652l55.5811,0.4375l17.3799,0.6826l-15.5615,4.749
					c0,0-1.6055,2.2188-5.8203,4.7441l-0.4824-5.6924c0,0-2.376,4.4004-8.3906,7.7637c-4.8105,2.6904-11.9346,5.0889-21.9902,5.0146
					c-22.627-0.1689-40.5215-7.1377-47.2178,3.9648c-3.71,6.1523-6.3145,8.6504-12.3809,11.4316
					c-2.335,0.7637-4.9531,1.2773-8.0186,1.416c-16.9678,0.7559-22.1084-12.4434-47.6533-11.5293
					c-15.8701,0.5684-21.9023,6.5508-23.8828,10.0508c0.0244-0.1543,0.0488-0.3164,0.0732-0.4883
					C697.502,116.6094,697.3281,104.2861,697.3281,104.2861z"/>
			</g>
			<path opacity="0.36" fill="#DBDBDB" enable-background="new    " d="M787.9277,115.8223
				c6.6963-11.1025,24.5898-4.1338,47.2178-3.9648c10.0566,0.0762,17.1797-2.3242,21.9912-5.0146
				c6.0137-3.3633,8.3896-7.7637,8.3896-7.7637l0.4824,5.6924c-4.874,2.9199-13.2373,6.248-26.6553,7.0303
				c-17.3242,1.0098-24.3086-0.2061-33.543,1.0635c-14.6406,2.0137-19.4434,10.8496-30.2637,14.3906
				C781.6133,124.4727,784.2178,121.9746,787.9277,115.8223z"/>
		</g>
	</g>
</g>
<g>
	<g>
		<defs>
			<rect id="SVGID_23_" x="743.459" y="76.0508" width="100.1318" height="26.4512"/>
		</defs>
		<clipPath id="SVGID_8_">
			<use xlink:href="#SVGID_23_"  overflow="visible"/>
		</clipPath>
		<g clip-path="url(#SVGID_8_)">
			<g>
				<path fill="#DBDBDB" d="M842.9531,82.8691c0.2275-0.0195,0.4541-0.041,0.6797-0.0625
					C843.4072,82.8281,843.1807,82.8496,842.9531,82.8691z"/>
				<path fill="#DBDBDB" d="M777.792,97.998c0.0977-0.0391,0.1934-0.0762,0.2891-0.1172
					C777.9854,97.9219,777.8896,97.959,777.792,97.998z"/>
				<path fill="#DBDBDB" d="M841.7188,82.9717c0.2559-0.0195,0.5117-0.0391,0.7646-0.0596
					C842.2314,82.9326,841.9746,82.9521,841.7188,82.9717z"/>
				<path fill="#004B92" d="M698.0781,75.5361l52.9561-7.2334l64.1475-2.8652l55.5811,0.4375l17.3799,0.6826l-15.5615,4.749
					c0,0-1.6055,2.2188-5.8203,4.7441l-0.4824-5.6924c0,0-2.376,4.4004-8.3906,7.7637c-4.8105,2.6904-11.9346,5.0889-21.9902,5.0146
					c-22.627-0.1689-40.5215-7.1377-47.2178,3.9648c-3.71,6.1523-6.3145,8.6504-12.3809,11.4316
					c-2.335,0.7637-4.9531,1.2773-8.0186,1.416c-16.9678,0.7559-22.1084-12.4434-47.6533-11.5293
					c-15.8701,0.5684-21.9023,6.5508-23.8828,10.0508c0.0244-0.1543,0.0488-0.3164,0.0732-0.4883
					C698.252,87.8594,698.0781,75.5361,698.0781,75.5361z"/>
				<path fill="#DBDBDB" d="M776.3018,98.5332c0.4873-0.1602,0.9629-0.3301,1.4277-0.5117
					C777.2646,98.2031,776.7891,98.373,776.3018,98.5332z"/>
				<path fill="#DBDBDB" d="M778.3848,97.7578c0.0508-0.0215,0.1016-0.043,0.1533-0.0664
					C778.4863,97.7148,778.4355,97.7363,778.3848,97.7578z"/>
				<path fill="#DBDBDB" d="M840.1748,83.0752c0.3818-0.0215,0.7588-0.0449,1.1318-0.0723
					C840.9336,83.0303,840.5566,83.0537,840.1748,83.0752z"/>
				<path fill="#DBDBDB" d="M776.2988,98.5332L776.2988,98.5332c0.001,0,0.002,0,0.0029,0
					C776.3008,98.5332,776.2998,98.5332,776.2988,98.5332z"/>
				<path fill="#DBDBDB" d="M842.4834,82.9121c0.1572-0.0137,0.3125-0.0293,0.4697-0.043
					C842.7959,82.8828,842.6406,82.8984,842.4834,82.9121z"/>
				<path fill="#DBDBDB" d="M777.7295,98.0215c0.0205-0.0078,0.042-0.0156,0.0625-0.0234
					C777.7715,98.0059,777.75,98.0137,777.7295,98.0215z"/>
				<path fill="#DBDBDB" d="M841.3066,83.0029c0.1387-0.0098,0.2744-0.0215,0.4121-0.0313
					C841.5811,82.9814,841.4453,82.9932,841.3066,83.0029z"/>
				<path fill="#DBDBDB" d="M778.0811,97.8809c0.1016-0.041,0.2031-0.082,0.3037-0.123
					C778.2832,97.7988,778.1826,97.8398,778.0811,97.8809z"/>
			</g>
			<path opacity="0.36" fill="#DBDBDB" enable-background="new    " d="M788.6777,87.0723
				c6.6963-11.1025,24.5898-4.1338,47.2178-3.9648c10.0566,0.0762,17.1797-2.3242,21.9912-5.0146
				c6.0137-3.3633,8.3896-7.7637,8.3896-7.7637l0.4824,5.6924c-4.874,2.9199-13.2373,6.248-26.6553,7.0303
				c-17.3242,1.0098-24.3086-0.2061-33.543,1.0635c-14.6406,2.0137-19.4434,10.8496-30.2637,14.3906
				C782.3633,95.7227,784.9678,93.2246,788.6777,87.0723z"/>
		</g>
	</g>
</g>
</svg>
