<?xml version="1.0" encoding="utf-8"?>
<!-- Generator: Adobe Illustrator 16.0.0, SVG Export Plug-In . SVG Version: 6.00 Build 0)  -->
<!DOCTYPE svg PUBLIC "-//W3C//DTD SVG 1.1//EN" "http://www.w3.org/Graphics/SVG/1.1/DTD/svg11.dtd">
<svg version="1.1" id="OBJECTS" xmlns="http://www.w3.org/2000/svg" xmlns:xlink="http://www.w3.org/1999/xlink" x="0px" y="0px"
	 width="100px" height="24.1167px" viewBox="523.334 49.4248 100 24.1167" enable-background="new 523.334 49.4248 100 24.1167"
	 xml:space="preserve">
<g>
	<g>
		<defs>
			<rect id="SVGID_7_" x="523.334" y="78.3008" width="100.1318" height="26.4512"/>
		</defs>
		<clipPath id="SVGID_2_">
			<use xlink:href="#SVGID_7_"  overflow="visible"/>
		</clipPath>
		<g clip-path="url(#SVGID_2_)">
			<g>
				<path fill="#0030A6" d="M477.9531,77.7861l52.9561-7.2334l64.1475-2.8652l55.5811,0.4375l17.3799,0.6826l-15.5615,4.749
					c0,0-1.6055,2.2188-5.8203,4.7441l-0.4824-5.6924c0,0-2.376,4.4004-8.3906,7.7637c-4.8105,2.6904-11.9346,5.0889-21.9902,5.0146
					c-22.627-0.1689-40.5215-7.1377-47.2178,3.9648c-3.71,6.1523-6.3145,8.6504-12.3809,11.4316
					c-2.335,0.7637-4.9531,1.2773-8.0186,1.416c-16.9678,0.7559-22.1084-12.4434-47.6533-11.5293
					c-15.8701,0.5684-21.9023,6.5508-23.8828,10.0508c0.0244-0.1543,0.0488-0.3164,0.0732-0.4883
					C478.127,90.1094,477.9531,77.7861,477.9531,77.7861z"/>
			</g>
			<path opacity="0.36" fill="#DBDBDB" enable-background="new    " d="M568.5527,89.3223
				c6.6963-11.1025,24.5898-4.1338,47.2178-3.9648c10.0566,0.0762,17.1797-2.3242,21.9912-5.0146
				c6.0137-3.3633,8.3896-7.7637,8.3896-7.7637l0.4824,5.6924c-4.874,2.9199-13.2373,6.248-26.6553,7.0303
				c-17.3242,1.0098-24.3086-0.2061-33.543,1.0635c-14.6406,2.0137-19.4434,10.8496-30.2637,14.3906
				C562.2383,97.9727,564.8428,95.4746,568.5527,89.3223z"/>
		</g>
	</g>
</g>
<g>
	<g>
		<defs>
			<rect id="SVGID_9_" x="523.334" y="49.4258" width="100.1318" height="26.4512"/>
		</defs>
		<clipPath id="SVGID_4_">
			<use xlink:href="#SVGID_9_"  overflow="visible"/>
		</clipPath>
		<g clip-path="url(#SVGID_4_)">
			<g>
				<path fill="#DBDBDB" d="M622.8281,56.2441c0.2275-0.0195,0.4541-0.041,0.6797-0.0625
					C623.2822,56.2031,623.0557,56.2246,622.8281,56.2441z"/>
				<path fill="#DBDBDB" d="M557.667,71.373c0.0977-0.0391,0.1934-0.0762,0.2891-0.1172
					C557.8604,71.2969,557.7646,71.334,557.667,71.373z"/>
				<path fill="#DBDBDB" d="M621.5938,56.3467c0.2559-0.0195,0.5117-0.0391,0.7646-0.0596
					C622.1064,56.3076,621.8496,56.3271,621.5938,56.3467z"/>
				<path fill="#0030A6" d="M477.9531,48.9111l52.9561-7.2334l64.1475-2.8652l55.5811,0.4375l17.3799,0.6826l-15.5615,4.749
					c0,0-1.6055,2.2188-5.8203,4.7441l-0.4824-5.6924c0,0-2.376,4.4004-8.3906,7.7637c-4.8105,2.6904-11.9346,5.0889-21.9902,5.0146
					c-22.627-0.1689-40.5215-7.1377-47.2178,3.9648c-3.71,6.1523-6.3145,8.6504-12.3809,11.4316
					c-2.335,0.7637-4.9531,1.2773-8.0186,1.416c-16.9678,0.7559-22.1084-12.4434-47.6533-11.5293
					c-15.8701,0.5684-21.9023,6.5508-23.8828,10.0508c0.0244-0.1543,0.0488-0.3164,0.0732-0.4883
					C478.127,61.2344,477.9531,48.9111,477.9531,48.9111z"/>
				<path fill="#DBDBDB" d="M556.1768,71.9082c0.4873-0.1602,0.9629-0.3301,1.4277-0.5117
					C557.1396,71.5781,556.6641,71.748,556.1768,71.9082z"/>
				<path fill="#DBDBDB" d="M558.2598,71.1328c0.0508-0.0215,0.1016-0.043,0.1533-0.0664
					C558.3613,71.0898,558.3105,71.1113,558.2598,71.1328z"/>
				<path fill="#DBDBDB" d="M620.0498,56.4502c0.3818-0.0215,0.7588-0.0449,1.1318-0.0723
					C620.8086,56.4053,620.4316,56.4287,620.0498,56.4502z"/>
				<path fill="#DBDBDB" d="M556.1738,71.9082L556.1738,71.9082c0.001,0,0.002,0,0.0029,0
					C556.1758,71.9082,556.1748,71.9082,556.1738,71.9082z"/>
				<path fill="#DBDBDB" d="M622.3584,56.2871c0.1572-0.0137,0.3125-0.0293,0.4697-0.043
					C622.6709,56.2578,622.5156,56.2734,622.3584,56.2871z"/>
				<path fill="#DBDBDB" d="M557.6045,71.3965c0.0205-0.0078,0.042-0.0156,0.0625-0.0234
					C557.6465,71.3809,557.625,71.3887,557.6045,71.3965z"/>
				<path fill="#DBDBDB" d="M621.1816,56.3779c0.1387-0.0098,0.2744-0.0215,0.4121-0.0313
					C621.4561,56.3564,621.3203,56.3682,621.1816,56.3779z"/>
				<path fill="#DBDBDB" d="M557.9561,71.2559c0.1016-0.041,0.2031-0.082,0.3037-0.123
					C558.1582,71.1738,558.0576,71.2148,557.9561,71.2559z"/>
			</g>
			<path opacity="0.36" fill="#DBDBDB" enable-background="new    " d="M568.5527,60.4473
				c6.6963-11.1025,24.5898-4.1338,47.2178-3.9648c10.0566,0.0762,17.1797-2.3242,21.9912-5.0146
				c6.0137-3.3633,8.3896-7.7637,8.3896-7.7637l0.4824,5.6924c-4.874,2.9199-13.2373,6.248-26.6553,7.0303
				c-17.3242,1.0098-24.3086-0.2061-33.543,1.0635c-14.6406,2.0137-19.4434,10.8496-30.2637,14.3906
				C562.2383,69.0977,564.8428,66.5996,568.5527,60.4473z"/>
		</g>
	</g>
</g>
</svg>
