<?xml version="1.0" encoding="utf-8"?>
<!-- Generator: Adobe Illustrator 16.0.0, SVG Export Plug-In . SVG Version: 6.00 Build 0)  -->
<!DOCTYPE svg PUBLIC "-//W3C//DTD SVG 1.1//EN" "http://www.w3.org/Graphics/SVG/1.1/DTD/svg11.dtd">
<svg version="1.1" id="OBJECTS" xmlns="http://www.w3.org/2000/svg" xmlns:xlink="http://www.w3.org/1999/xlink" x="0px" y="0px"
	 width="100px" height="24.1162px" viewBox="851.584 138.5498 100 24.1162" enable-background="new 851.584 138.5498 100 24.1162"
	 xml:space="preserve">
<g>
	<g>
		<defs>
			<rect id="SVGID_19_" x="741.959" y="138.0508" width="100.1318" height="26.4512"/>
		</defs>
		<clipPath id="SVGID_2_">
			<use xlink:href="#SVGID_19_"  overflow="visible"/>
		</clipPath>
		<g clip-path="url(#SVGID_2_)">
			<g>
				<path fill="#FF021B" d="M696.5781,137.5361l52.9561-7.2334l64.1475-2.8652l55.5811,0.4375l17.3799,0.6826l-15.5615,4.749
					c0,0-1.6055,2.2188-5.8203,4.7441l-0.4824-5.6924c0,0-2.376,4.4004-8.3906,7.7637c-4.8105,2.6904-11.9346,5.0889-21.9902,5.0146
					c-22.627-0.1689-40.5215-7.1377-47.2178,3.9648c-3.71,6.1523-6.3145,8.6504-12.3809,11.4316
					c-2.335,0.7637-4.9531,1.2773-8.0186,1.416c-16.9678,0.7559-22.1084-12.4434-47.6533-11.5293
					c-15.8701,0.5684-21.9023,6.5508-23.8828,10.0508c0.0244-0.1543,0.0488-0.3164,0.0732-0.4883
					C696.752,149.8594,696.5781,137.5361,696.5781,137.5361z"/>
			</g>
			<path opacity="0.36" fill="#DBDBDB" enable-background="new    " d="M787.1777,149.0723
				c6.6963-11.1025,24.5898-4.1338,47.2178-3.9648c10.0566,0.0762,17.1797-2.3242,21.9912-5.0146
				c6.0137-3.3633,8.3896-7.7637,8.3896-7.7637l0.4824,5.6924c-4.874,2.9199-13.2373,6.248-26.6553,7.0303
				c-17.3242,1.0098-24.3086-0.2061-33.543,1.0635c-14.6406,2.0137-19.4434,10.8496-30.2637,14.3906
				C780.8633,157.7227,783.4678,155.2246,787.1777,149.0723z"/>
		</g>
	</g>
</g>
<g>
	<g>
		<defs>
			<rect id="SVGID_34_" x="851.584" y="138.5508" width="100.1318" height="26.4502"/>
		</defs>
		<clipPath id="SVGID_4_">
			<use xlink:href="#SVGID_34_"  overflow="visible"/>
		</clipPath>
		<g clip-path="url(#SVGID_4_)">
			<g>
				<path fill="#DBDBDB" d="M951.0781,145.3691c0.2275-0.0195,0.4541-0.041,0.6797-0.0625
					C951.5322,145.3281,951.3057,145.3496,951.0781,145.3691z"/>
				<path fill="#DBDBDB" d="M885.917,160.498c0.0977-0.0391,0.1934-0.0762,0.2891-0.1172
					C886.1104,160.4219,886.0146,160.459,885.917,160.498z"/>
				<path fill="#DBDBDB" d="M949.8438,145.4717c0.2559-0.0195,0.5117-0.0391,0.7646-0.0596
					C950.3564,145.4326,950.0996,145.4521,949.8438,145.4717z"/>
				<path fill="#46D7FE" d="M806.2031,138.0361l52.9561-7.2334l64.1475-2.8652l55.5811,0.4375l17.3799,0.6826l-15.5615,4.749
					c0,0-1.6055,2.2188-5.8203,4.7441l-0.4824-5.6924c0,0-2.376,4.4004-8.3906,7.7637c-4.8105,2.6904-11.9346,5.0889-21.9902,5.0146
					c-22.627-0.1689-40.5215-7.1377-47.2178,3.9648c-3.71,6.1523-6.3145,8.6504-12.3809,11.4316
					c-2.335,0.7637-4.9531,1.2773-8.0186,1.416c-16.9678,0.7549-22.1084-12.4434-47.6533-11.5293
					c-15.8701,0.5684-21.9023,6.5508-23.8828,10.0508c0.0244-0.1543,0.0488-0.3164,0.0732-0.4883
					C806.377,150.3594,806.2031,138.0361,806.2031,138.0361z"/>
				<path fill="#DBDBDB" d="M884.4268,161.0332c0.4873-0.1602,0.9629-0.3301,1.4277-0.5117
					C885.3896,160.7031,884.9141,160.873,884.4268,161.0332z"/>
				<path fill="#DBDBDB" d="M886.5098,160.2578c0.0508-0.0215,0.1016-0.043,0.1533-0.0664
					C886.6113,160.2148,886.5605,160.2363,886.5098,160.2578z"/>
				<path fill="#DBDBDB" d="M948.2998,145.5752c0.3818-0.0215,0.7588-0.0449,1.1318-0.0723
					C949.0586,145.5303,948.6816,145.5537,948.2998,145.5752z"/>
				<path fill="#DBDBDB" d="M884.4238,161.0332L884.4238,161.0332c0.001,0,0.002,0,0.0029,0
					C884.4258,161.0332,884.4248,161.0332,884.4238,161.0332z"/>
				<path fill="#DBDBDB" d="M950.6084,145.4121c0.1572-0.0137,0.3125-0.0293,0.4697-0.043
					C950.9209,145.3828,950.7656,145.3984,950.6084,145.4121z"/>
				<path fill="#DBDBDB" d="M885.8545,160.5215c0.0205-0.0078,0.042-0.0156,0.0625-0.0234
					C885.8965,160.5059,885.875,160.5137,885.8545,160.5215z"/>
				<path fill="#DBDBDB" d="M949.4316,145.5029c0.1387-0.0098,0.2744-0.0215,0.4121-0.0313
					C949.7061,145.4814,949.5703,145.4932,949.4316,145.5029z"/>
				<path fill="#DBDBDB" d="M886.2061,160.3809c0.1016-0.041,0.2031-0.082,0.3037-0.123
					C886.4082,160.2988,886.3076,160.3398,886.2061,160.3809z"/>
			</g>
			<path opacity="0.36" fill="#DBDBDB" enable-background="new    " d="M896.8027,149.5723
				c6.6963-11.1025,24.5898-4.1338,47.2178-3.9648c10.0566,0.0762,17.1797-2.3242,21.9912-5.0146
				c6.0137-3.3633,8.3896-7.7637,8.3896-7.7637l0.4824,5.6924c-4.874,2.9199-13.2373,6.248-26.6553,7.0303
				c-17.3242,1.0098-24.3086-0.2061-33.543,1.0635c-14.6406,2.0137-19.4434,10.8496-30.2637,14.3906
				C890.4883,158.2227,893.0928,155.7246,896.8027,149.5723z"/>
		</g>
	</g>
</g>
</svg>
