<?xml version="1.0" encoding="utf-8"?>
<!-- Generator: Adobe Illustrator 16.0.0, SVG Export Plug-In . SVG Version: 6.00 Build 0)  -->
<!DOCTYPE svg PUBLIC "-//W3C//DTD SVG 1.1//EN" "http://www.w3.org/Graphics/SVG/1.1/DTD/svg11.dtd">
<svg version="1.1" id="OBJECTS" xmlns="http://www.w3.org/2000/svg" xmlns:xlink="http://www.w3.org/1999/xlink" x="0px" y="0px"
	 width="100px" height="24.1167px" viewBox="523.334 110.7998 100 24.1167" enable-background="new 523.334 110.7998 100 24.1167"
	 xml:space="preserve">
<g>
	<g>
		<defs>
			<rect id="SVGID_1_" x="416" y="110.7998" width="100.1318" height="26.4507"/>
		</defs>
		<clipPath id="SVGID_2_">
			<use xlink:href="#SVGID_1_"  overflow="visible"/>
		</clipPath>
		<g clip-path="url(#SVGID_2_)">
			<g>
				<path fill="#FF6F29" d="M370.6191,110.2852l52.9561-7.2334l64.1475-2.8652l55.5811,0.4375l17.3799,0.6826l-15.5615,4.749
					c0,0-1.6055,2.2188-5.8203,4.7441l-0.4824-5.6924c0,0-2.376,4.4004-8.3906,7.7637c-4.8105,2.6904-11.9346,5.0894-21.9902,5.0151
					c-22.627-0.1689-40.5215-7.1382-47.2178,3.9648c-3.71,6.1514-6.3145,8.6514-12.3809,11.4307
					c-2.335,0.7637-4.9531,1.2773-8.0186,1.416c-16.9678,0.7559-22.1084-12.4434-47.6533-11.5293
					c-15.8701,0.5684-21.9023,6.5508-23.8828,10.0508c0.0244-0.1543,0.0488-0.3164,0.0732-0.4883
					C370.793,122.6079,370.6191,110.2852,370.6191,110.2852z"/>
			</g>
			<path opacity="0.36" fill="#DBDBDB" enable-background="new    " d="M461.2188,121.8223
				c6.6963-11.1035,24.5898-4.1343,47.2178-3.9653c10.0566,0.0762,17.1797-2.3247,21.9912-5.0151
				c6.0137-3.3633,8.3896-7.7637,8.3896-7.7637l0.4824,5.6924c-4.874,2.9199-13.2373,6.248-26.6553,7.0308
				c-17.3242,1.0098-24.3086-0.2061-33.543,1.0635c-14.6406,2.0127-19.4434,10.8486-30.2637,14.3896
				C454.9043,130.4731,457.5088,127.9731,461.2188,121.8223z"/>
		</g>
	</g>
</g>
<g>
	<g>
		<defs>
			<rect id="SVGID_3_" x="416" y="138.9668" width="100.1318" height="26.4512"/>
		</defs>
		<clipPath id="SVGID_4_">
			<use xlink:href="#SVGID_3_"  overflow="visible"/>
		</clipPath>
		<g clip-path="url(#SVGID_4_)">
			<g>
				<path fill="#09CC8F" d="M370.6191,138.4521l52.9561-7.2334l64.1475-2.8652l55.5811,0.4375l17.3799,0.6826l-15.5615,4.749
					c0,0-1.6055,2.2188-5.8203,4.7441l-0.4824-5.6924c0,0-2.376,4.4004-8.3906,7.7637c-4.8105,2.6904-11.9346,5.0889-21.9902,5.0146
					c-22.627-0.1689-40.5215-7.1377-47.2178,3.9658c-3.71,6.1504-6.3145,8.6504-12.3809,11.4307
					c-2.335,0.7637-4.9531,1.2773-8.0186,1.416c-16.9678,0.7559-22.1084-12.4424-47.6533-11.5293
					c-15.8701,0.5684-21.9023,6.5498-23.8828,10.0508c0.0244-0.1543,0.0488-0.3164,0.0732-0.4883
					C370.793,150.7754,370.6191,138.4521,370.6191,138.4521z"/>
			</g>
			<path opacity="0.36" fill="#DBDBDB" enable-background="new    " d="M461.2188,149.9893
				c6.6963-11.1035,24.5898-4.1348,47.2178-3.9658c10.0566,0.0762,17.1797-2.3242,21.9912-5.0146
				c6.0137-3.3633,8.3896-7.7637,8.3896-7.7637l0.4824,5.6924c-4.874,2.9199-13.2373,6.248-26.6553,7.0303
				c-17.3242,1.0098-24.3086-0.2061-33.543,1.0635c-14.6406,2.0137-19.4434,10.8486-30.2637,14.3906
				C454.9043,158.6396,457.5088,156.1396,461.2188,149.9893z"/>
		</g>
	</g>
</g>
<g>
	<g>
		<defs>
			<rect id="SVGID_5_" x="523.334" y="110.8003" width="100.1318" height="26.4517"/>
		</defs>
		<clipPath id="SVGID_6_">
			<use xlink:href="#SVGID_5_"  overflow="visible"/>
		</clipPath>
		<g clip-path="url(#SVGID_6_)">
			<g>
				<path fill="#DBDBDB" d="M622.8281,117.6187c0.2275-0.0195,0.4541-0.041,0.6797-0.0625
					C623.2822,117.5776,623.0557,117.5991,622.8281,117.6187z"/>
				<path fill="#DBDBDB" d="M557.667,132.748c0.0977-0.0391,0.1934-0.0762,0.2891-0.1172
					C557.8604,132.6719,557.7646,132.709,557.667,132.748z"/>
				<path fill="#DBDBDB" d="M621.5938,117.7212c0.2559-0.0195,0.5117-0.0391,0.7646-0.0596
					C622.1064,117.6821,621.8496,117.7017,621.5938,117.7212z"/>
				<path fill="#6F097B" d="M477.9531,110.2856l52.9561-7.2334l64.1475-2.8652l55.5811,0.4375l17.3799,0.6826l-15.5615,4.749
					c0,0-1.6055,2.2188-5.8203,4.7441l-0.4824-5.6924c0,0-2.376,4.4004-8.3906,7.7637c-4.8105,2.6904-11.9346,5.0889-21.9902,5.0146
					c-22.627-0.1689-40.5215-7.1377-47.2178,3.9653c-3.71,6.1523-6.3145,8.6504-12.3809,11.4316
					c-2.335,0.7637-4.9531,1.2773-8.0186,1.416c-16.9678,0.7559-22.1084-12.4434-47.6533-11.5293
					c-15.8701,0.5684-21.9023,6.5508-23.8828,10.0508c0.0244-0.1543,0.0488-0.3164,0.0732-0.4883
					C478.127,122.6094,477.9531,110.2856,477.9531,110.2856z"/>
				<path fill="#DBDBDB" d="M556.1768,133.2832c0.4873-0.1602,0.9629-0.3301,1.4277-0.5117
					C557.1396,132.9531,556.6641,133.123,556.1768,133.2832z"/>
				<path fill="#DBDBDB" d="M558.2598,132.5078c0.0508-0.0215,0.1016-0.043,0.1533-0.0664
					C558.3613,132.4648,558.3105,132.4863,558.2598,132.5078z"/>
				<path fill="#DBDBDB" d="M620.0498,117.8247c0.3818-0.0215,0.7588-0.0449,1.1318-0.0723
					C620.8086,117.7798,620.4316,117.8032,620.0498,117.8247z"/>
				<path fill="#DBDBDB" d="M556.1738,133.2832L556.1738,133.2832c0.001,0,0.002,0,0.0029,0
					C556.1758,133.2832,556.1748,133.2832,556.1738,133.2832z"/>
				<path fill="#DBDBDB" d="M622.3584,117.6616c0.1572-0.0137,0.3125-0.0293,0.4697-0.043
					C622.6709,117.6323,622.5156,117.6479,622.3584,117.6616z"/>
				<path fill="#DBDBDB" d="M557.6045,132.7715c0.0205-0.0078,0.042-0.0156,0.0625-0.0234
					C557.6465,132.7559,557.625,132.7637,557.6045,132.7715z"/>
				<path fill="#DBDBDB" d="M621.1816,117.7524c0.1387-0.0098,0.2744-0.0215,0.4121-0.0313
					C621.4561,117.731,621.3203,117.7427,621.1816,117.7524z"/>
				<path fill="#DBDBDB" d="M557.9561,132.6309c0.1016-0.041,0.2031-0.082,0.3037-0.123
					C558.1582,132.5488,558.0576,132.5898,557.9561,132.6309z"/>
			</g>
			<path opacity="0.36" fill="#DBDBDB" enable-background="new    " d="M568.5527,121.8223
				c6.6963-11.103,24.5898-4.1343,47.2178-3.9653c10.0566,0.0762,17.1797-2.3242,21.9912-5.0146
				c6.0137-3.3633,8.3896-7.7637,8.3896-7.7637l0.4824,5.6924c-4.874,2.9199-13.2373,6.248-26.6553,7.0303
				c-17.3242,1.0098-24.3086-0.2061-33.543,1.0635c-14.6406,2.0137-19.4434,10.8501-30.2637,14.3911
				C562.2383,130.4727,564.8428,127.9746,568.5527,121.8223z"/>
		</g>
	</g>
</g>
<g>
	<g>
		<defs>
			<rect id="SVGID_7_" x="523.334" y="139.9673" width="100.1318" height="26.4517"/>
		</defs>
		<clipPath id="SVGID_8_">
			<use xlink:href="#SVGID_7_"  overflow="visible"/>
		</clipPath>
		<g clip-path="url(#SVGID_8_)">
			<g>
				<path fill="#7FA0D2" d="M477.9531,139.4526l52.9561-7.2334l64.1475-2.8652l55.5811,0.4375l17.3799,0.6826l-15.5615,4.749
					c0,0-1.6055,2.2188-5.8203,4.7441l-0.4824-5.6924c0,0-2.376,4.4004-8.3906,7.7637c-4.8105,2.6904-11.9346,5.0889-21.9902,5.0146
					c-22.627-0.1689-40.5215-7.1377-47.2178,3.9653c-3.71,6.1523-6.3145,8.6504-12.3809,11.4316
					c-2.335,0.7637-4.9531,1.2773-8.0186,1.416c-16.9678,0.7559-22.1084-12.4434-47.6533-11.5293
					c-15.8701,0.5684-21.9023,6.5508-23.8828,10.0508c0.0244-0.1543,0.0488-0.3164,0.0732-0.4883
					C478.127,151.7764,477.9531,139.4526,477.9531,139.4526z"/>
			</g>
			<path opacity="0.36" fill="#DBDBDB" enable-background="new    " d="M568.5527,150.9893
				c6.6963-11.103,24.5898-4.1343,47.2178-3.9653c10.0566,0.0762,17.1797-2.3242,21.9912-5.0146
				c6.0137-3.3633,8.3896-7.7637,8.3896-7.7637l0.4824,5.6924c-4.874,2.9199-13.2373,6.248-26.6553,7.0303
				c-17.3242,1.0098-24.3086-0.2061-33.543,1.0635c-14.6406,2.0137-19.4434,10.8501-30.2637,14.3911
				C562.2383,159.6396,564.8428,157.1416,568.5527,150.9893z"/>
		</g>
	</g>
</g>
</svg>
