<?xml version="1.0" encoding="utf-8"?>
<!-- Generator: Adobe Illustrator 23.0.2, SVG Export Plug-In . SVG Version: 6.00 Build 0)  -->
<svg version="1.1" id="Capa_1" xmlns="http://www.w3.org/2000/svg" xmlns:xlink="http://www.w3.org/1999/xlink" x="0px" y="0px"
	 width="512px" height="512.0001px" viewBox="0 0 512 512.0001" style="enable-background:new 0 0 512 512.0001;"
	 xml:space="preserve">
<path fill="#fff" d="M488.918,372.957l-75.9219-64.5586c-0.3516-0.2969-0.7227-0.5703-1.1094-0.8164
	c-19.918-12.6797-45.4922-9.8711-62.1914,6.8242l-41.3945,41.3906c-2.8672,2.8711-7.1445,3.7188-10.8945,2.1719
	c-46.7422-19.3359-85.1406-48.4453-114.1289-86.5117c-22.1055-29.0273-30.0742-52.0938-31.125-55.3438
	c-0.125-0.6953-0.3242-1.3867-0.6055-2.0625c-1.5508-3.75-0.7031-8.0195,2.1719-10.8867l41.3906-41.4023
	c16.6992-16.6992,19.5039-42.2734,6.8242-62.1914c-0.1016-0.1602-0.207-0.3164-0.3164-0.4727l-54.8281-76.1914
	c-17.25-26.7617-54.8242-30.8047-77.375-8.2578l-8.2891,8.2891c-0.0039,0.0078-0.0117,0.0156-0.0195,0.0195L31.5117,52.5508
	C-3.7773,87.8438-9.5508,140.875,14.8203,205.9219c20.875,55.7188,62.6641,116.6992,117.668,171.7031
	c56.3047,56.3047,118.9336,98.8672,176.3477,119.8477c56.8281,20.7617,117.2773,23.3203,160.0625-19.4688l27.9102-27.9062
	C519.2578,427.6445,515.3398,390.3164,488.918,372.957z M400.6055,324.1094l75.8555,64.5039
	c0.3477,0.2969,0.7188,0.5703,1.1055,0.8164c16.2031,10.3164,18.6562,32.9727,5.0977,46.5273l-2.0703,2.0742l-129.3789-96.8672
	l12.6211-12.6172C373.6992,318.6797,388.7305,316.8945,400.6055,324.1094z M130.082,33.8945
	c0.1016,0.1602,0.207,0.3203,0.3164,0.4727l54.8047,76.1641c7.4453,11.918,5.7227,27.1328-4.2344,37.0898l-12.2305,12.2344
	L81.207,31.1367l2.3477-2.3477C97.168,15.1758,119.8047,17.75,130.082,33.8945z M315.6953,478.6875
	c-54.7344-20-114.7773-60.9141-169.0664-115.2031C93.5977,310.457,53.4375,252.0078,33.543,198.9062
	C18.6094,159.0469,8.5898,103.7539,45.6523,66.6953l21.1602-21.1641L154.3438,174.25l-14.7617,14.7695
	c-8.3984,8.3828-11.0391,20.7891-6.8477,31.8359c3.1562,12.9531,17.6797,39.8398,32.332,59.6523
	c21.5625,29.1562,60.6992,69.4648,124.6953,95.9414c11.2461,4.6523,24.0703,2.0977,32.6797-6.5078l14.4883-14.4922l129.3789,96.8672
	l-11.5508,11.5469C415.0273,503.5977,357.207,493.8555,315.6953,478.6875z"/>
</svg>
