<?xml version="1.0" encoding="utf-8"?>
<!-- Generator: Adobe Illustrator 24.1.1, SVG Export Plug-In . SVG Version: 6.00 Build 0)  -->
<svg version="1.1" id="Modo_de_aislamiento" xmlns="http://www.w3.org/2000/svg" xmlns:xlink="http://www.w3.org/1999/xlink"
	 x="0px" y="0px" width="401.4915px" height="172.0678px" viewBox="0 0 401.4915 172.0678"
	 style="enable-background:new 0 0 401.4915 172.0678;" xml:space="preserve">
<style type="text/css">
	.st0{fill:#FFFFFF;}
	.st1{fill:none;stroke:#FFFFFF;stroke-width:2;stroke-linecap:round;stroke-linejoin:round;stroke-miterlimit:10;}
</style>
<g>
	<path class="st0" d="M89.4744,73.1636c-0.1035,0.9923-0.1494,1.9948-0.3194,2.9755c-1.5085,8.6984-7.6346,11.7632-15.2814,7.2394
		c-3.3755-1.997-6.5655-4.6351-9.1499-7.5862C52.2158,61.5097,44.8317,44.841,42.8354,25.941
		c-0.3775-3.5745,0.028-7.3492,0.7411-10.8971c1.48-7.3635,7.0733-9.9101,13.9166-6.6457c1.3408,0.6396,2.6372,1.4197,3.8413,2.2908
		C77.1778,22.1513,91.4553,53.8143,89.4744,73.1636z M79.5738,75.693c6.7665-14.8953-15.2386-58.5881-27.0989-58.683
		C47.2103,33.0575,66.8555,72.8146,79.5738,75.693z"/>
	<path class="st0" d="M36.6039,26.0383c4.8632,9.4545,0.977,15.4919-6.0363,20.9848c-1.9565,1.5323-3.3914,5.0075-3.348,7.5623
		c0.1049,6.169,2.7111,11.764,7.4202,15.8211c1.7168,1.4791,4.8472,2.4272,7.0512,2.0352c8.7776-1.5614,16.2763-0.8681,19.938,8.916
		C47.6737,76.4887,34.95,81.9856,22.01,87.3036c-2.4415,1.0034-6.8671-0.0864-9.1152-1.834
		C4.4721,78.9231,0.603,69.9873,1.5467,59.1925c0.3353-3.8353,2.2686-6.368,5.9114-7.8987
		c3.6733-1.5436,7.2192-3.4282,10.7066-5.3689C26.3704,41.3585,33.0485,35.2885,36.6039,26.0383z"/>
	<path class="st0" d="M25.5642,90.7255c2.9435-1.2925,5.2398-2.2084,7.4532-3.2934c3.6824-1.8053,6.6475-1.1855,9.0982,2.1954
		c2.3634,3.2605,5.4923,4.7919,9.6555,5.348c2.2789,0.3045,4.5459,2.8022,6.0929,4.857c0.3453,0.4586-2.2693,3.2828-3.6874,4.8692
		c-0.634,0.7092-1.671,1.0649-2.5383,1.5575c-9.0611,5.1478-11.0978,4.7042-17.3266-3.7352
		C31.5524,98.7856,28.7775,95.0584,25.5642,90.7255z"/>
	<path class="st1" d="M21.7132,169.3422c-4.4396-4.7274-8.49-9.0405-11.9886-12.7659c10.0074-8.615,19.9188-17.1474,29.8303-25.6799
		c0.2526,0.2021,0.5053,0.4041,0.7579,0.6062C34.2081,143.9225,28.1031,156.3424,21.7132,169.3422"/>
	<path class="st1" d="M43.6936,172.4686c2.128-11.9923,4.0939-23.0711,6.0599-34.1501c0.3068-0.0823,0.6137-0.1647,0.9205-0.247
		c3.5445,9.9528,7.089,19.9055,10.8691,30.5199C55.7237,169.8554,50.1842,171.0587,43.6936,172.4686"/>
	<path class="st1" d="M29.9789,127.6873c-4.109,2.4311-8.218,4.8623-12.6887,7.5074c-1.9647-2.0899-3.8228-4.0664-5.928-6.3057
		c1.2094-0.3873,1.8218-0.7175,2.4557-0.7656c5.2843-0.4017,10.5726-0.7515,15.8596-1.117
		C29.778,127.2333,29.8784,127.4604,29.9789,127.6873z"/>
	<path class="st0" d="M65.6944,56.2946c-2.6457-5.9073-4.9138-10.9716-7.3913-16.5036c5.0196-0.808,7.9167,1.1775,9.7196,4.5257
		C70.0949,48.1651,69.4838,51.9477,65.6944,56.2946z"/>
	<path class="st1" d="M86.9957,35.0742c0.8555,2.3037,1.7581,4.084,2.1771,5.9718C91.3954,51.0514,94.6132,61,95.3755,71.1271
		c1.1122,14.7748-7.6691,22.0139-22.1259,19.6412c-4.725-0.7755-9.2954-2.4861-13.9416-3.7506
		c-1.7581-0.4785-3.5394-1.2747-5.2927-1.231c-1.2584,0.0315-2.4879,1.2173-3.7305,1.8882c0.1487,0.43,0.2974,0.8598,0.446,1.2897
		c6.5884-0.0063,11.1646,3.2107,12.9233,9.1733c2.1868,7.4137-4.2905,9.9233-8.9492,13.2188
		c0.5349,2.3229,1.2725,4.3946,1.4475,6.5128c0.0994,1.2012,0.3438,2.2422,0.7142,3.1582l-0.005-0.0003
		c0.5349,2.3229,1.3358,3.7881,1.5109,5.9063c0.4163,5.0349,3.3097,7.3265,7.8898,8.8726
		c8.0313,2.7111,15.8558,6.0328,23.7765,9.0739c10.9475,4.2033,21.904,8.3834,33.4286,12.7922
		c-1.3514-8.3145-2.5844-15.9001-3.8684-23.7991l-1.8718-9.0764l-0.0023-0.0001c1.7668-0.0641,2.8533-0.1318,3.9304-0.1277
		c52.7686,0.1951,194.2002,1.1474,246.968,1.4749c3.6699,0.0228,5.1519-0.9227,6.0241-4.616
		c4.8595-20.5751,10.0604-41.0691,15.0828-61.606c1.8809-7.6906,3.5956-15.4217,5.5925-24.0231
		C321.7715,35.8873,160.3139,35.0859,86.9957,35.0742z"/>
	<g>
		<path class="st0" d="M132.0707,52.8046c-0.4069-0.5133-0.9581-0.8935-1.653-1.1403c-0.6956-0.2456-1.3539-0.3684-1.9744-0.3684
			c-0.3644,0-0.7387,0.0431-1.1234,0.128c-0.3853,0.0862-0.7498,0.2194-1.092,0.401c-0.3422,0.1829-0.6205,0.4232-0.834,0.7223
			c-0.2142,0.3004-0.3213,0.6636-0.3213,1.092c0,0.6845,0.2567,1.2096,0.7707,1.5727c0.5134,0.3644,1.1606,0.674,1.9417,0.9313
			c0.7811,0.256,1.6217,0.5133,2.5204,0.7707c0.8987,0.256,1.7386,0.6205,2.5197,1.0907c0.7811,0.4715,1.4284,1.1025,1.9424,1.894
			c0.5134,0.7916,0.7707,1.8509,0.7707,3.1781c0,1.2631-0.2358,2.3656-0.7067,3.3061c-0.4709,0.9431-1.1077,1.7242-1.9097,2.3447
			c-0.8027,0.6205-1.734,1.0803-2.7934,1.3794c-1.0594,0.3004-2.1775,0.4493-3.3544,0.4493c-1.4767,0-2.8463-0.2247-4.1087-0.674
			c-1.2631-0.4493-2.44-1.1769-3.5314-2.1827l3.5634-3.9161c0.5133,0.6845,1.1606,1.2148,1.9417,1.5884
			c0.7811,0.3749,1.589,0.5617,2.4237,0.5617c0.4069,0,0.819-0.047,1.2363-0.1437c0.4173-0.0967,0.7916-0.2403,1.1234-0.4337
			c0.3318-0.192,0.5989-0.4389,0.8027-0.738c0.2031-0.2991,0.305-0.6531,0.305-1.0593c0-0.6845-0.2625-1.2252-0.7863-1.621
			c-0.5251-0.3958-1.1828-0.7328-1.9744-1.011c-0.7922-0.2782-1.6485-0.5565-2.568-0.8347
			c-0.9209-0.2782-1.7771-0.6531-2.5687-1.1247c-0.7916-0.4702-1.4499-1.0907-1.9737-1.8614c-0.5251-0.7707-0.787-1.7869-0.787-3.05
			c0-1.22,0.241-2.2898,0.7223-3.2094c0.482-0.9209,1.124-1.6903,1.926-2.312c0.8027-0.6205,1.7281-1.0855,2.777-1.3964
			c1.0482-0.3096,2.1292-0.465,3.2421-0.465c1.2847,0,2.5256,0.1816,3.7241,0.546c1.1985,0.3631,2.2794,0.9731,3.2421,1.8287
			L132.0707,52.8046z"/>
		<path class="st0" d="M153.4184,67.2829c-0.7707,0.9836-1.7445,1.7438-2.9214,2.2794c-1.1769,0.5342-2.3969,0.802-3.6594,0.802
			c-1.1991,0-2.3277-0.1933-3.3871-0.5774c-1.0593-0.3853-1.9796-0.9366-2.7607-1.6537c-0.7811-0.7171-1.3964-1.5779-1.8457-2.5837
			s-0.674-2.1305-0.674-3.3714s0.2247-2.3643,0.674-3.3701c0.4493-1.0058,1.0646-1.8679,1.8457-2.585
			c0.7811-0.7171,1.7014-1.2683,2.7607-1.6524c1.0594-0.3853,2.1879-0.5787,3.3871-0.5787c1.1123,0,2.1239,0.1933,3.0337,0.5787
			c0.9091,0.384,1.6798,0.9353,2.3114,1.6524c0.6309,0.7171,1.1175,1.5792,1.4604,2.585c0.3422,1.0058,0.5134,2.1292,0.5134,3.3701
			v1.5087h-11.1709c0.192,0.9209,0.6094,1.6537,1.252,2.1997c0.642,0.5447,1.4329,0.8177,2.3754,0.8177
			c0.7916,0,1.4604-0.1763,2.0064-0.529c0.5453-0.354,1.0215-0.8073,1.4284-1.365L153.4184,67.2829z M149.3417,60.4121
			c0.0209-0.8125-0.2462-1.5087-0.8027-2.086c-0.5571-0.5774-1.2736-0.8673-2.1507-0.8673c-0.5356,0-1.0065,0.0862-1.4127,0.2573
			c-0.4069,0.1711-0.7543,0.3906-1.043,0.6583c-0.2893,0.2678-0.514,0.5774-0.6747,0.93c-0.16,0.354-0.2514,0.7223-0.2724,1.1077
			H149.3417z"/>
		<path class="st0" d="M173.4501,68.6623c0,2.9534-0.7439,5.1949-2.231,6.7258c-1.4878,1.5296-3.7515,2.295-6.7898,2.295
			c-1.3918,0-2.7607-0.1554-4.1094-0.465c-1.348-0.3109-2.5896-0.9157-3.7234-1.8143l2.664-3.9801
			c0.7491,0.6205,1.5355,1.1129,2.3597,1.476c0.8236,0.3644,1.7281,0.546,2.7124,0.546c1.4767,0,2.5628-0.3579,3.2584-1.075
			c0.6956-0.7171,1.0437-1.6328,1.0437-2.7444v-1.5087H168.57c-0.5564,0.7485-1.2468,1.2788-2.0704,1.5884
			c-0.8242,0.3096-1.6001,0.465-2.327,0.465c-1.156,0-2.2049-0.1972-3.1461-0.593c-0.9424-0.3958-1.7497-0.9522-2.4237-1.6694
			c-0.674-0.7171-1.1932-1.5675-1.557-2.5524c-0.3644-0.9836-0.546-2.0651-0.546-3.2421c0-1.028,0.1659-2.0325,0.4977-3.0174
			c0.3318-0.9849,0.8027-1.8509,1.4127-2.6007c0.61-0.7485,1.3532-1.3533,2.231-1.813c0.8771-0.4611,1.8725-0.691,2.9854-0.691
			c0.6845,0,1.3108,0.0758,1.8777,0.2247c0.5669,0.1502,1.0757,0.3422,1.525,0.5787c0.4493,0.2351,0.8347,0.4964,1.156,0.7864
			c0.3207,0.2887,0.5773,0.5721,0.77,0.8504h0.0647v-2.0547h4.4301V68.6623z M161.3152,62.0815
			c0,0.5147,0.0967,1.0006,0.2887,1.4617c0.1927,0.4598,0.4657,0.866,0.819,1.2187c0.3533,0.354,0.7596,0.6374,1.22,0.8517
			c0.4598,0.2142,0.9679,0.32,1.5244,0.32c0.5349,0,1.0378-0.1058,1.5094-0.32c0.4702-0.2142,0.8824-0.4977,1.2357-0.8517
			c0.3533-0.3527,0.6257-0.7589,0.8184-1.2187c0.1927-0.4611,0.2893-0.947,0.2893-1.4617c0-0.5133-0.0967-0.9993-0.2893-1.4604
			c-0.1927-0.4598-0.465-0.866-0.8184-1.22c-0.3533-0.3527-0.7654-0.6361-1.2357-0.8504c-0.4716-0.2142-0.9744-0.3213-1.5094-0.3213
			c-0.5564,0-1.0646,0.1071-1.5244,0.3213c-0.4604,0.2142-0.8667,0.4977-1.22,0.8504c-0.3533,0.354-0.6263,0.7602-0.819,1.22
			C161.4119,61.0822,161.3152,61.5681,161.3152,62.0815z"/>
		<path class="st0" d="M192.3251,69.9789h-4.6227v-2.1187h-0.064c-0.1718,0.3004-0.3906,0.5996-0.6583,0.8987
			c-0.2678,0.3004-0.5937,0.5669-0.979,0.8033c-0.3853,0.2351-0.8242,0.4271-1.316,0.5774
			c-0.4924,0.1489-1.0273,0.2247-1.6053,0.2247c-1.2194,0-2.2095-0.1881-2.9691-0.5617c-0.7602-0.3749-1.3487-0.8935-1.766-1.557
			c-0.4167-0.6636-0.6956-1.4447-0.834-2.3434c-0.1398-0.8987-0.209-1.8731-0.209-2.922v-8.6028h4.8154v7.6401
			c0,0.4493,0.0157,0.9157,0.0483,1.3964c0.032,0.482,0.128,0.9261,0.2887,1.3324c0.1607,0.4075,0.4062,0.738,0.738,0.9953
			c0.3318,0.2573,0.8079,0.3853,1.429,0.3853c0.6205,0,1.1234-0.1123,1.5087-0.337c0.3853-0.2247,0.6792-0.5238,0.883-0.8987
			c0.2031-0.3749,0.337-0.7968,0.401-1.2683c0.064-0.4702,0.096-0.9627,0.096-1.4773v-7.7681h4.8154V69.9789z"/>
		<path class="st0" d="M195.4072,49.4659c0-0.7707,0.2724-1.429,0.8184-1.9737c0.5453-0.546,1.2037-0.819,1.9744-0.819
			c0.77,0,1.4284,0.273,1.9743,0.819c0.5454,0.5447,0.8184,1.203,0.8184,1.9737c0,0.7707-0.273,1.429-0.8184,1.9737
			c-0.546,0.546-1.2043,0.819-1.9743,0.819c-0.7707,0-1.429-0.273-1.9744-0.819C195.6795,50.8949,195.4072,50.2366,195.4072,49.4659
			z M195.7919,54.3773h4.8154v15.6016h-4.8154V54.3773z"/>
		<path class="st0" d="M204.074,54.3773h4.6227v2.1187h0.064c0.1496-0.2991,0.3638-0.5983,0.642-0.8987
			c0.2782-0.2991,0.61-0.5669,0.9953-0.802c0.3853-0.2364,0.8236-0.4284,1.316-0.5787c0.4924-0.1489,1.0273-0.2247,1.6053-0.2247
			c1.0914,0,2.0593,0.2247,2.9051,0.674c0.8451,0.4493,1.4819,1.156,1.9104,2.1187c0.5558-1.0058,1.2305-1.7216,2.022-2.1501
			c0.7916-0.4284,1.766-0.6427,2.9214-0.6427c1.0482,0,1.9313,0.1763,2.6484,0.5303c0.7171,0.3527,1.284,0.8347,1.7014,1.4447
			s0.7171,1.3271,0.8987,2.1501c0.1816,0.8242,0.273,1.7072,0.273,2.649v9.2128h-4.8154v-9.0848
			c0-0.7276-0.1554-1.3533-0.465-1.8784c-0.3109-0.5238-0.8621-0.7864-1.6537-0.7864c-0.5565,0-1.0221,0.0914-1.3964,0.273
			c-0.3742,0.1816-0.674,0.4337-0.8987,0.755c-0.2247,0.32-0.3853,0.6949-0.4814,1.1234c-0.0967,0.4284-0.1443,0.8778-0.1443,1.348
			v8.2501h-4.8154v-8.2501c0-0.2782-0.0111-0.6205-0.032-1.0267c-0.0216-0.4075-0.0967-0.7916-0.2247-1.156
			c-0.1287-0.3644-0.3377-0.674-0.6263-0.9313c-0.2887-0.2573-0.7119-0.3853-1.2677-0.3853c-0.6211,0-1.124,0.1123-1.5093,0.337
			c-0.3847,0.2247-0.6792,0.5251-0.8824,0.8987c-0.2038,0.3749-0.337,0.7981-0.4017,1.2683c-0.064,0.4715-0.096,0.9627-0.096,1.4773
			v7.7681h-4.8154V54.3773z"/>
		<path class="st0" d="M231.6818,49.4659c0-0.7707,0.2723-1.429,0.8183-1.9737c0.5453-0.546,1.2037-0.819,1.9744-0.819
			c0.77,0,1.4284,0.273,1.9744,0.819c0.5453,0.5447,0.8184,1.203,0.8184,1.9737c0,0.7707-0.273,1.429-0.8184,1.9737
			c-0.546,0.546-1.2043,0.819-1.9744,0.819c-0.7707,0-1.429-0.273-1.9744-0.819C231.9541,50.8949,231.6818,50.2366,231.6818,49.4659
			z M232.0665,54.3773h4.8154v15.6016h-4.8154V54.3773z"/>
		<path class="st0" d="M255.1155,67.2829c-0.7707,0.9836-1.7445,1.7438-2.9214,2.2794c-1.1769,0.5342-2.3969,0.802-3.6594,0.802
			c-1.1991,0-2.3277-0.1933-3.3871-0.5774c-1.0594-0.3853-1.9796-0.9366-2.7607-1.6537c-0.7811-0.7171-1.3964-1.5779-1.8457-2.5837
			s-0.674-2.1305-0.674-3.3714s0.2247-2.3643,0.674-3.3701c0.4493-1.0058,1.0646-1.8679,1.8457-2.585
			c0.7811-0.7171,1.7014-1.2683,2.7607-1.6524c1.0594-0.3853,2.1879-0.5787,3.3871-0.5787c1.1122,0,2.1239,0.1933,3.0337,0.5787
			c0.9091,0.384,1.6798,0.9353,2.3114,1.6524c0.6309,0.7171,1.1175,1.5792,1.4604,2.585c0.3422,1.0058,0.5133,2.1292,0.5133,3.3701
			v1.5087h-11.1709c0.192,0.9209,0.6094,1.6537,1.252,2.1997c0.642,0.5447,1.4329,0.8177,2.3754,0.8177
			c0.7916,0,1.4604-0.1763,2.0064-0.529c0.5453-0.354,1.0215-0.8073,1.4284-1.365L255.1155,67.2829z M251.0388,60.4121
			c0.0209-0.8125-0.2462-1.5087-0.8027-2.086c-0.5571-0.5774-1.2736-0.8673-2.1507-0.8673c-0.5356,0-1.0065,0.0862-1.4127,0.2573
			c-0.4069,0.1711-0.7543,0.3906-1.043,0.6583c-0.2893,0.2678-0.514,0.5774-0.6747,0.93c-0.16,0.354-0.2514,0.7223-0.2724,1.1077
			H251.0388z"/>
		<path class="st0" d="M258.7749,54.3773h4.6227v2.1187h0.064c0.1496-0.2991,0.3638-0.5983,0.642-0.8987
			c0.2782-0.2991,0.61-0.5669,0.9953-0.802c0.3853-0.2364,0.8236-0.4284,1.316-0.5787c0.4924-0.1489,1.0273-0.2247,1.6053-0.2247
			c1.22,0,2.2036,0.1881,2.9534,0.5617c0.7484,0.3749,1.3323,0.8948,1.7497,1.557c0.4173,0.6636,0.7001,1.4447,0.8503,2.3434
			c0.1496,0.8987,0.2247,1.8731,0.2247,2.922v8.6028h-4.8154v-7.6401c0-0.4493-0.0157-0.9157-0.0477-1.3964
			c-0.032-0.482-0.1287-0.9261-0.2893-1.3324c-0.16-0.4062-0.4069-0.738-0.738-0.9953c-0.3324-0.2573-0.8079-0.3853-1.4283-0.3853
			c-0.6211,0-1.124,0.1123-1.5094,0.337c-0.3847,0.2247-0.6792,0.5251-0.8824,0.8987c-0.2038,0.3749-0.337,0.7981-0.4017,1.2683
			c-0.064,0.4715-0.096,0.9627-0.096,1.4773v7.7681h-4.8154V54.3773z"/>
		<path class="st0" d="M287.8268,58.2294h-4.2374v5.2001c0,0.4284,0.0215,0.819,0.0647,1.173
			c0.0424,0.3527,0.1385,0.657,0.2887,0.9144c0.1496,0.2573,0.3795,0.4546,0.6903,0.5943c0.3096,0.1385,0.7224,0.2077,1.2357,0.2077
			c0.2567,0,0.5937-0.0261,1.011-0.0797c0.4173-0.0536,0.7328-0.1763,0.947-0.3697v4.0127
			c-0.5349,0.1933-1.0914,0.3213-1.6694,0.3853c-0.5774,0.064-1.1449,0.0967-1.7014,0.0967c-0.8131,0-1.5623-0.0862-2.2467-0.2573
			c-0.6851-0.1711-1.284-0.4441-1.798-0.8177c-0.5134-0.3749-0.915-0.8621-1.2037-1.4617c-0.2887-0.5983-0.433-1.3258-0.433-2.1827
			v-7.4155h-3.082v-3.8521h3.082v-4.6227h4.8148v4.6227h4.2374V58.2294z"/>
		<path class="st0" d="M289.6888,62.1781c0-1.2409,0.2247-2.3643,0.6747-3.3701c0.4493-1.0058,1.0639-1.8679,1.8457-2.585
			c0.7811-0.7171,1.7014-1.2683,2.7607-1.6524c1.0594-0.3853,2.1879-0.5787,3.3864-0.5787c1.1985,0,2.3277,0.1933,3.387,0.5787
			c1.0594,0.384,1.9789,0.9353,2.7607,1.6524c0.7811,0.7171,1.3964,1.5792,1.8457,2.585c0.4493,1.0058,0.674,2.1292,0.674,3.3701
			s-0.2247,2.3656-0.674,3.3714s-1.0646,1.8666-1.8457,2.5837c-0.7818,0.7171-1.7014,1.2683-2.7607,1.6537
			c-1.0593,0.384-2.1886,0.5774-3.387,0.5774c-1.1985,0-2.3271-0.1933-3.3864-0.5774c-1.0594-0.3853-1.9796-0.9366-2.7607-1.6537
			c-0.7818-0.7171-1.3964-1.5779-1.8457-2.5837C289.9135,64.5437,289.6888,63.419,289.6888,62.1781z M294.5042,62.1781
			c0,1.1769,0.337,2.1292,1.011,2.8567c0.6747,0.7276,1.6217,1.092,2.8411,1.092c1.22,0,2.167-0.3644,2.841-1.092
			c0.6747-0.7276,1.0117-1.6798,1.0117-2.8567c0-1.1769-0.337-2.1292-1.0117-2.8567c-0.674-0.7276-1.621-1.092-2.841-1.092
			c-1.2194,0-2.1664,0.3644-2.8411,1.092C294.8412,60.049,294.5042,61.0012,294.5042,62.1781z"/>
		<path class="st0" d="M329.1408,68.0209h-0.064c-0.5349,0.8347-1.2468,1.4342-2.1344,1.7974
			c-0.8889,0.3644-1.8248,0.546-2.8091,0.546c-0.7282,0-1.429-0.1019-2.103-0.3057c-0.674-0.2025-1.2677-0.5081-1.7817-0.9144
			c-0.5133-0.4062-0.9202-0.9091-1.2194-1.5087c-0.3004-0.5996-0.45-1.2945-0.45-2.0861c0-0.9,0.1659-1.6589,0.4977-2.2794
			c0.3318-0.6205,0.7811-1.1351,1.3487-1.5413c0.5663-0.4062,1.2141-0.7223,1.9417-0.947s1.4819-0.3906,2.2637-0.4977
			c0.7805-0.1071,1.5616-0.1711,2.3434-0.192c0.7805-0.0222,1.5028-0.0327,2.1664-0.0327c0-0.8556-0.305-1.5348-0.9144-2.039
			c-0.61-0.5016-1.3324-0.7537-2.1671-0.7537c-0.7922,0-1.5146,0.1659-2.167,0.4977c-0.6531,0.3318-1.2357,0.7864-1.7497,1.3637
			l-2.5681-2.632c0.8987-0.8347,1.947-1.4604,3.1461-1.8784c1.1985-0.4167,2.44-0.6257,3.7241-0.6257
			c1.412,0,2.5726,0.1763,3.4831,0.5303c0.9091,0.3527,1.6367,0.8713,2.1827,1.557c0.546,0.6845,0.9255,1.5244,1.1397,2.5197
			c0.2136,0.9953,0.3207,2.1461,0.3207,3.4511v7.9288h-4.4301V68.0209z M327.9535,63.1408c-0.3644,0-0.819,0.017-1.3643,0.0483
			c-0.546,0.0327-1.0705,0.1241-1.5734,0.273c-0.5029,0.1502-0.9307,0.3749-1.284,0.674c-0.3527,0.3004-0.5297,0.7171-0.5297,1.2527
			c0,0.5774,0.2462,1.0058,0.7387,1.284c0.4918,0.2782,1.0058,0.4167,1.5407,0.4167c0.4702,0,0.9255-0.064,1.3644-0.192
			c0.4382-0.1293,0.8294-0.3109,1.1717-0.546c0.3423-0.2351,0.6152-0.5342,0.8184-0.8987c0.2038-0.3644,0.305-0.7916,0.305-1.284
			v-1.028H327.9535z"/>
		<path class="st0" d="M128.7967,97.0414c-0.3213-0.6205-0.7498-1.1116-1.284-1.476c-0.5356-0.3644-1.188-0.546-1.9587-0.546
			c-0.3638,0-0.7334,0.0431-1.107,0.128c-0.3749,0.0862-0.7119,0.2207-1.0117,0.4023c-0.2998,0.1816-0.5408,0.4115-0.7223,0.6897
			c-0.1816,0.2782-0.2723,0.6205-0.2723,1.0267c0,0.7067,0.2456,1.22,0.738,1.5413c0.4918,0.3213,1.2305,0.5996,2.2154,0.8347
			l2.1507,0.5133c1.0482,0.2364,1.9202,0.7119,2.6164,1.429c0.6949,0.7171,1.043,1.6106,1.043,2.6804
			c0,0.8138-0.1659,1.5139-0.4977,2.103s-0.77,1.0698-1.316,1.4447c-0.546,0.3736-1.1717,0.6466-1.8777,0.8177
			c-0.7067,0.1711-1.4238,0.2573-2.1514,0.2573c-1.1554,0-2.231-0.2194-3.2257-0.6583c-0.9953-0.4389-1.8464-1.1926-2.5524-2.2637
			l1.83-1.2514c0.4278,0.6858,0.9679,1.2305,1.621,1.6367c0.6525,0.4075,1.4284,0.61,2.327,0.61
			c0.4278,0,0.8562-0.0483,1.284-0.1437c0.4284-0.0967,0.8079-0.2456,1.1397-0.4493c0.3318-0.2038,0.5989-0.4663,0.8027-0.7864
			c0.2031-0.3213,0.305-0.6962,0.305-1.1247c0-0.7485-0.2782-1.2879-0.8347-1.621c-0.5565-0.3305-1.2311-0.593-2.022-0.7863
			l-2.0547-0.4807c-0.2567-0.0653-0.6048-0.1711-1.0437-0.3213c-0.4389-0.1502-0.8667-0.3749-1.284-0.674
			c-0.4173-0.3004-0.7759-0.691-1.075-1.1717c-0.3004-0.482-0.4493-1.0763-0.4493-1.7817c0-0.7707,0.1548-1.4447,0.465-2.0233
			c0.3102-0.5774,0.7276-1.0476,1.252-1.412c0.5245-0.3631,1.1181-0.6361,1.7817-0.819c0.6629-0.1816,1.3487-0.2717,2.0547-0.2717
			c1.0482,0,2.022,0.2025,2.9214,0.6087c0.8987,0.4075,1.5936,1.1025,2.0867,2.0873L128.7967,97.0414z"/>
		<path class="st0" d="M137.5928,87.7005c0,0.4493-0.1607,0.8177-0.482,1.1077c-0.3207,0.2887-0.674,0.4324-1.0593,0.4324
			c-0.3853,0-0.738-0.1437-1.0594-0.4324c-0.3207-0.29-0.4813-0.6583-0.4813-1.1077c0-0.4493,0.1607-0.819,0.4813-1.1077
			c0.3213-0.2887,0.674-0.4337,1.0594-0.4337c0.3853,0,0.7387,0.145,1.0593,0.4337
			C137.4322,86.8815,137.5928,87.2512,137.5928,87.7005z M137.1108,108.5022h-2.1187V93.478h2.1187V108.5022z"/>
		<path class="st0" d="M144.2376,93.478c0.0424,0.4075,0.0692,0.8086,0.0797,1.2043c0.0111,0.3958,0.0163,0.7981,0.0163,1.2043
			h0.064c0.2351-0.4062,0.5349-0.7811,0.8993-1.1247c0.3631-0.3409,0.77-0.6361,1.2194-0.8817
			c0.4493-0.2469,0.9255-0.4389,1.429-0.5787c0.5022-0.1385,0.9999-0.2077,1.4924-0.2077c1.926,0,3.3492,0.5081,4.2694,1.5244
			c0.9202,1.0162,1.3807,2.4662,1.3807,4.3497v9.5342h-2.1187v-8.3141c0-1.6694-0.2893-2.9482-0.8667-3.8364
			c-0.578-0.8882-1.6485-1.3324-3.2101-1.3324c-0.1078,0-0.4069,0.0431-0.8993,0.128c-0.4924,0.0862-1.011,0.3213-1.557,0.7067
			c-0.5453,0.3853-1.0326,0.9627-1.4604,1.7334c-0.4284,0.7707-0.642,1.8405-0.642,3.2107v7.7041h-2.1187V96.7854
			c0-0.4062-0.0163-0.9196-0.0483-1.5414c-0.032-0.6205-0.0699-1.2083-0.1124-1.766H144.2376z"/>
		<path class="st0" d="M163.1453,87.7005c0,0.4493-0.1607,0.8177-0.482,1.1077c-0.3207,0.2887-0.674,0.4324-1.0593,0.4324
			c-0.3853,0-0.738-0.1437-1.0594-0.4324c-0.3207-0.29-0.4813-0.6583-0.4813-1.1077c0-0.4493,0.1607-0.819,0.4813-1.1077
			c0.3213-0.2887,0.674-0.4337,1.0594-0.4337c0.3853,0,0.7387,0.145,1.0593,0.4337
			C162.9846,86.8815,163.1453,87.2512,163.1453,87.7005z M162.6633,108.5022h-2.1187V93.478h2.1187V108.5022z"/>
		<path class="st0" d="M169.2441,101.5688c0.064,0.7485,0.2456,1.4551,0.546,2.1187c0.2991,0.6636,0.6949,1.2357,1.1874,1.7164
			c0.4924,0.482,1.0594,0.8621,1.7014,1.1403c0.642,0.2782,1.3376,0.4167,2.0867,0.4167c1.1345,0,2.1135-0.2612,2.9371-0.7863
			c0.8242-0.5238,1.4499-1.1286,1.8784-1.813l1.6374,1.348c-0.8993,1.1338-1.8895,1.9476-2.9697,2.44
			c-1.0809,0.4911-2.2421,0.738-3.4831,0.738c-1.1129,0-2.1455-0.1985-3.0977-0.5943c-0.9529-0.3958-1.7713-0.947-2.4557-1.6524
			c-0.6851-0.7067-1.2252-1.5414-1.621-2.504c-0.3964-0.964-0.5943-2.0116-0.5943-3.1467c0-1.1338,0.1927-2.1827,0.578-3.1454
			c0.3853-0.964,0.9202-1.7974,1.6054-2.504c0.6845-0.7067,1.4871-1.2566,2.4074-1.6537c0.9202-0.3958,1.9149-0.593,2.9854-0.593
			c1.1345,0,2.1507,0.2025,3.05,0.6087c0.8987,0.4075,1.653,0.947,2.263,1.6223c0.61,0.674,1.075,1.4656,1.3963,2.3747
			c0.3207,0.9104,0.4814,1.8784,0.4814,2.9051v0.964H169.2441z M179.4522,99.8341c0-1.4329-0.4285-2.5942-1.284-3.4824
			c-0.8562-0.8882-2.0547-1.3324-3.5954-1.3324c-0.6851,0-1.348,0.1345-1.99,0.401c-0.642,0.2678-1.2037,0.627-1.6857,1.0763
			c-0.4814,0.4493-0.8667,0.9627-1.1554,1.54c-0.2893,0.5787-0.4337,1.1769-0.4337,1.7974H179.4522z"/>
		<path class="st0" d="M193.5771,97.0414c-0.3213-0.6205-0.7498-1.1116-1.284-1.476c-0.5356-0.3644-1.188-0.546-1.9587-0.546
			c-0.3638,0-0.7334,0.0431-1.107,0.128c-0.3749,0.0862-0.7119,0.2207-1.0117,0.4023c-0.2998,0.1816-0.5408,0.4115-0.7224,0.6897
			c-0.1816,0.2782-0.2724,0.6205-0.2724,1.0267c0,0.7067,0.2456,1.22,0.738,1.5413c0.4918,0.3213,1.2305,0.5996,2.2154,0.8347
			l2.1507,0.5133c1.0482,0.2364,1.9202,0.7119,2.6164,1.429c0.6949,0.7171,1.043,1.6106,1.043,2.6804
			c0,0.8138-0.1659,1.5139-0.4977,2.103s-0.77,1.0698-1.316,1.4447c-0.546,0.3736-1.1717,0.6466-1.8777,0.8177
			c-0.7067,0.1711-1.4238,0.2573-2.1514,0.2573c-1.1553,0-2.231-0.2194-3.2257-0.6583c-0.9953-0.4389-1.8464-1.1926-2.5524-2.2637
			l1.83-1.2514c0.4278,0.6858,0.9679,1.2305,1.621,1.6367c0.6525,0.4075,1.4284,0.61,2.327,0.61
			c0.4278,0,0.8562-0.0483,1.284-0.1437c0.4284-0.0967,0.8079-0.2456,1.1397-0.4493c0.3318-0.2038,0.5989-0.4663,0.8027-0.7864
			c0.2031-0.3213,0.305-0.6962,0.305-1.1247c0-0.7485-0.2782-1.2879-0.8347-1.621c-0.5565-0.3305-1.2311-0.593-2.022-0.7863
			l-2.0547-0.4807c-0.2567-0.0653-0.6048-0.1711-1.0437-0.3213c-0.4389-0.1502-0.8667-0.3749-1.284-0.674
			c-0.4173-0.3004-0.7759-0.691-1.075-1.1717c-0.3004-0.482-0.4493-1.0763-0.4493-1.7817c0-0.7707,0.1548-1.4447,0.465-2.0233
			c0.3102-0.5774,0.7276-1.0476,1.252-1.412c0.5245-0.3631,1.1181-0.6361,1.7817-0.819c0.6629-0.1816,1.3487-0.2717,2.0547-0.2717
			c1.0482,0,2.022,0.2025,2.9214,0.6087c0.8987,0.4075,1.5936,1.1025,2.0867,2.0873L193.5771,97.0414z"/>
		<path class="st0" d="M207.0594,95.4047h-4.3341v8.8602c0,0.5564,0.0536,1.011,0.1607,1.3637
			c0.1071,0.354,0.2567,0.627,0.4494,0.819c0.1927,0.1933,0.4226,0.3266,0.6903,0.401c0.2671,0.0758,0.5617,0.1123,0.883,0.1123
			c0.3631,0,0.738-0.0522,1.1234-0.1607c0.3853-0.1058,0.738-0.2456,1.0594-0.4167l0.096,1.958
			c-0.7916,0.3644-1.7445,0.546-2.8567,0.546c-0.4069,0-0.8295-0.0536-1.2684-0.1607s-0.8399-0.3096-1.2037-0.61
			c-0.3638-0.2991-0.6636-0.7067-0.8987-1.22c-0.2358-0.5134-0.3533-1.1874-0.3533-2.022v-9.4702h-3.1781V93.478h3.1781v-4.2374
			h2.1187v4.2374h4.3341V95.4047z"/>
		<path class="st0" d="M210.1728,98.166c0-0.6636-0.0163-1.3376-0.0483-2.0233c-0.032-0.6845-0.0588-1.5727-0.0803-2.6647h2.0867
			v2.794h0.0647c0.1489-0.4062,0.3631-0.7981,0.642-1.1717c0.2776-0.3749,0.6146-0.7119,1.011-1.0123
			c0.3958-0.2991,0.8556-0.5395,1.38-0.7224c0.5245-0.1816,1.1181-0.2717,1.7817-0.2717c0.5989,0,1.124,0.064,1.5734,0.192
			l-0.4173,2.086c-0.2782-0.1058-0.6851-0.1594-1.22-0.1594c-0.8138,0-1.5087,0.1554-2.0867,0.465
			c-0.578,0.3109-1.0594,0.7067-1.4447,1.1874c-0.3847,0.482-0.6688,1.0006-0.8504,1.557c-0.1822,0.5565-0.273,1.092-0.273,1.6054
			v8.4748h-2.1187V98.166z"/>
		<path class="st0" d="M235.2125,100.9901c0,1.1351-0.1985,2.1827-0.5937,3.1467c-0.3964,0.9627-0.947,1.7974-1.6537,2.504
			c-0.706,0.7054-1.5466,1.2566-2.5197,1.6524c-0.9745,0.3958-2.0495,0.5943-3.2264,0.5943c-1.1553,0-2.2206-0.1985-3.1944-0.5943
			c-0.9738-0.3958-1.8137-0.947-2.5197-1.6524c-0.706-0.7067-1.2572-1.5414-1.653-2.504c-0.3964-0.964-0.5943-2.0116-0.5943-3.1467
			c0-1.1338,0.1979-2.1827,0.5943-3.1454c0.3958-0.964,0.947-1.7974,1.653-2.504c0.706-0.7067,1.5459-1.2566,2.5197-1.6537
			c0.9738-0.3958,2.039-0.593,3.1944-0.593c1.1769,0,2.2519,0.1972,3.2264,0.593c0.9731,0.3971,1.8137,0.947,2.5197,1.6537
			c0.7067,0.7067,1.2572,1.54,1.6537,2.504C235.014,98.8074,235.2125,99.8563,235.2125,100.9901z M232.9012,100.9901
			c0-0.8347-0.1339-1.6158-0.4017-2.3434c-0.2678-0.7276-0.6472-1.3585-1.139-1.894c-0.4931-0.5342-1.0868-0.9575-1.7817-1.2683
			c-0.6962-0.3096-1.4826-0.465-2.3597-0.465c-0.8778,0-1.6641,0.1554-2.3597,0.465c-0.6956,0.3109-1.284,0.7341-1.7654,1.2683
			c-0.4814,0.5356-0.8562,1.1665-1.1234,1.894c-0.2678,0.7276-0.4017,1.5087-0.4017,2.3434s0.1339,1.6158,0.4017,2.3434
			c0.2671,0.7276,0.642,1.3598,1.1234,1.894c0.4813,0.5356,1.0698,0.9588,1.7654,1.2683c0.6956,0.3109,1.4819,0.465,2.3597,0.465
			c0.8771,0,1.6635-0.1541,2.3597-0.465c0.6949-0.3096,1.2886-0.7328,1.7817-1.2683c0.4918-0.5342,0.8713-1.1665,1.139-1.894
			S232.9012,101.8248,232.9012,100.9901z"/>
		<path class="st0" d="M247.0254,97.0414c-0.3213-0.6205-0.7498-1.1116-1.284-1.476c-0.5356-0.3644-1.188-0.546-1.9587-0.546
			c-0.3638,0-0.7335,0.0431-1.107,0.128c-0.3749,0.0862-0.7119,0.2207-1.0117,0.4023c-0.2998,0.1816-0.5408,0.4115-0.7223,0.6897
			c-0.1816,0.2782-0.2724,0.6205-0.2724,1.0267c0,0.7067,0.2456,1.22,0.738,1.5413c0.4918,0.3213,1.2305,0.5996,2.2154,0.8347
			l2.1507,0.5133c1.0482,0.2364,1.9202,0.7119,2.6164,1.429c0.6949,0.7171,1.043,1.6106,1.043,2.6804
			c0,0.8138-0.1659,1.5139-0.4977,2.103c-0.3318,0.5891-0.77,1.0698-1.316,1.4447c-0.546,0.3736-1.1717,0.6466-1.8777,0.8177
			c-0.7067,0.1711-1.4238,0.2573-2.1514,0.2573c-1.1554,0-2.231-0.2194-3.2257-0.6583c-0.9953-0.4389-1.8463-1.1926-2.5524-2.2637
			l1.83-1.2514c0.4278,0.6858,0.9679,1.2305,1.621,1.6367c0.6525,0.4075,1.4284,0.61,2.327,0.61
			c0.4278,0,0.8562-0.0483,1.284-0.1437c0.4284-0.0967,0.8079-0.2456,1.1397-0.4493s0.5989-0.4663,0.8027-0.7864
			c0.2031-0.3213,0.305-0.6962,0.305-1.1247c0-0.7485-0.2782-1.2879-0.8347-1.621c-0.5564-0.3305-1.2311-0.593-2.022-0.7863
			l-2.0547-0.4807c-0.2567-0.0653-0.6048-0.1711-1.0437-0.3213c-0.4389-0.1502-0.8667-0.3749-1.284-0.674
			c-0.4173-0.3004-0.7759-0.691-1.075-1.1717c-0.3004-0.482-0.4493-1.0763-0.4493-1.7817c0-0.7707,0.1548-1.4447,0.465-2.0233
			c0.3102-0.5774,0.7276-1.0476,1.252-1.412c0.5244-0.3631,1.1181-0.6361,1.7817-0.819c0.6629-0.1816,1.3487-0.2717,2.0547-0.2717
			c1.0482,0,2.022,0.2025,2.9214,0.6087c0.8987,0.4075,1.5936,1.1025,2.0867,2.0873L247.0254,97.0414z"/>
		<path class="st0" d="M263.1397,101.5688c0.064,0.7485,0.2455,1.4551,0.546,2.1187c0.2991,0.6636,0.6949,1.2357,1.1874,1.7164
			c0.4924,0.482,1.0593,0.8621,1.7014,1.1403c0.642,0.2782,1.3376,0.4167,2.0867,0.4167c1.1345,0,2.1135-0.2612,2.937-0.7863
			c0.8242-0.5238,1.4499-1.1286,1.8784-1.813l1.6374,1.348c-0.8993,1.1338-1.8895,1.9476-2.9697,2.44
			c-1.0809,0.4911-2.2422,0.738-3.4831,0.738c-1.1129,0-2.1455-0.1985-3.0977-0.5943c-0.9529-0.3958-1.7713-0.947-2.4557-1.6524
			c-0.6851-0.7067-1.2253-1.5414-1.621-2.504c-0.3965-0.964-0.5943-2.0116-0.5943-3.1467c0-1.1338,0.1927-2.1827,0.578-3.1454
			c0.3853-0.964,0.9202-1.7974,1.6053-2.504c0.6845-0.7067,1.4872-1.2566,2.4074-1.6537c0.9203-0.3958,1.9149-0.593,2.9854-0.593
			c1.1345,0,2.1507,0.2025,3.05,0.6087c0.8987,0.4075,1.653,0.947,2.2631,1.6223c0.61,0.674,1.075,1.4656,1.3963,2.3747
			c0.3207,0.9104,0.4814,1.8784,0.4814,2.9051v0.964H263.1397z M273.3479,99.8341c0-1.4329-0.4284-2.5942-1.284-3.4824
			c-0.8562-0.8882-2.0547-1.3324-3.5954-1.3324c-0.6851,0-1.348,0.1345-1.99,0.401c-0.642,0.2678-1.2037,0.627-1.6857,1.0763
			c-0.4814,0.4493-0.8667,0.9627-1.1554,1.54c-0.2893,0.5787-0.4337,1.1769-0.4337,1.7974H273.3479z"/>
		<path class="st0" d="M281.534,93.478c0.0425,0.4075,0.0692,0.8086,0.0797,1.2043c0.0111,0.3958,0.0163,0.7981,0.0163,1.2043h0.064
			c0.2351-0.4062,0.5349-0.7811,0.8993-1.1247c0.3631-0.3409,0.77-0.6361,1.2194-0.8817c0.4493-0.2469,0.9255-0.4389,1.429-0.5787
			c0.5023-0.1385,0.9999-0.2077,1.4924-0.2077c1.9261,0,3.3492,0.5081,4.2694,1.5244c0.9203,1.0162,1.3807,2.4662,1.3807,4.3497
			v9.5342h-2.1187v-8.3141c0-1.6694-0.2893-2.9482-0.8667-3.8364c-0.578-0.8882-1.6484-1.3324-3.2101-1.3324
			c-0.1078,0-0.4069,0.0431-0.8993,0.128c-0.4925,0.0862-1.011,0.3213-1.557,0.7067c-0.5453,0.3853-1.0326,0.9627-1.4604,1.7334
			c-0.4284,0.7707-0.642,1.8405-0.642,3.2107v7.7041h-2.1187V96.7854c0-0.4062-0.0163-0.9196-0.0483-1.5414
			c-0.032-0.6205-0.0699-1.2083-0.1123-1.766H281.534z"/>
		<path class="st0" d="M308.8838,108.5022h-2.1187V84.2338h2.1187V108.5022z"/>
		<path class="st0" d="M315.4646,90.3966h-1.894l3.2101-4.6227h2.9214L315.4646,90.3966z M316.588,108.5022h-2.1187V93.478h2.1187
			V108.5022z"/>
		<path class="st0" d="M323.7148,93.478c0.0424,0.4075,0.0692,0.8086,0.0797,1.2043c0.0111,0.3958,0.0163,0.7981,0.0163,1.2043
			h0.064c0.2351-0.4062,0.5349-0.7811,0.8994-1.1247c0.3631-0.3409,0.77-0.6361,1.2194-0.8817
			c0.4493-0.2469,0.9254-0.4389,1.429-0.5787c0.5022-0.1385,0.9999-0.2077,1.4924-0.2077c1.926,0,3.3492,0.5081,4.2694,1.5244
			c0.9202,1.0162,1.3807,2.4662,1.3807,4.3497v9.5342h-2.1187v-8.3141c0-1.6694-0.2893-2.9482-0.8667-3.8364
			c-0.578-0.8882-1.6485-1.3324-3.2101-1.3324c-0.1078,0-0.4069,0.0431-0.8994,0.128c-0.4924,0.0862-1.011,0.3213-1.557,0.7067
			c-0.5454,0.3853-1.0326,0.9627-1.4604,1.7334c-0.4284,0.7707-0.642,1.8405-0.642,3.2107v7.7041h-2.1187V96.7854
			c0-0.4062-0.0163-0.9196-0.0483-1.5414c-0.032-0.6205-0.0699-1.2083-0.1123-1.766H323.7148z"/>
		<path class="st0" d="M341.0171,101.5688c0.064,0.7485,0.2456,1.4551,0.546,2.1187c0.2991,0.6636,0.6949,1.2357,1.1874,1.7164
			c0.4924,0.482,1.0594,0.8621,1.7014,1.1403c0.642,0.2782,1.3376,0.4167,2.0867,0.4167c1.1345,0,2.1135-0.2612,2.937-0.7863
			c0.8242-0.5238,1.4499-1.1286,1.8784-1.813l1.6374,1.348c-0.8993,1.1338-1.8894,1.9476-2.9697,2.44
			c-1.0809,0.4911-2.2422,0.738-3.4831,0.738c-1.1129,0-2.1455-0.1985-3.0977-0.5943c-0.9529-0.3958-1.7712-0.947-2.4557-1.6524
			c-0.6851-0.7067-1.2253-1.5414-1.621-2.504c-0.3964-0.964-0.5943-2.0116-0.5943-3.1467c0-1.1338,0.1927-2.1827,0.578-3.1454
			c0.3853-0.964,0.9203-1.7974,1.6054-2.504c0.6844-0.7067,1.4871-1.2566,2.4074-1.6537c0.9202-0.3958,1.9149-0.593,2.9854-0.593
			c1.1345,0,2.1507,0.2025,3.05,0.6087c0.8987,0.4075,1.653,0.947,2.263,1.6223c0.61,0.674,1.075,1.4656,1.3964,2.3747
			c0.3207,0.9104,0.4813,1.8784,0.4813,2.9051v0.964H341.0171z M351.2252,99.8341c0-1.4329-0.4284-2.5942-1.284-3.4824
			c-0.8562-0.8882-2.0547-1.3324-3.5954-1.3324c-0.6851,0-1.348,0.1345-1.9901,0.401c-0.642,0.2678-1.2037,0.627-1.6857,1.0763
			c-0.4813,0.4493-0.8667,0.9627-1.1553,1.54c-0.2893,0.5787-0.4337,1.1769-0.4337,1.7974H351.2252z"/>
		<path class="st0" d="M367.0195,99.2894v-0.3853c0-2.5889-1.2847-3.8847-3.8527-3.8847c-1.7549,0-3.2852,0.5891-4.5901,1.766
			l-1.2847-1.5087c1.4127-1.4551,3.5314-2.1827,6.3568-2.1827c0.7269,0,1.4284,0.1071,2.1024,0.32
			c0.674,0.2142,1.2572,0.5408,1.7497,0.9797c0.4918,0.4389,0.8876,0.9901,1.1873,1.6537c0.2998,0.6636,0.45,1.4551,0.45,2.3747
			v6.7101c0,0.5774,0.0261,1.1821,0.0797,1.813c0.0535,0.6322,0.1123,1.1508,0.177,1.557h-2.0547
			c-0.064-0.3631-0.1123-0.7589-0.1443-1.1874c-0.032-0.4284-0.0483-0.8451-0.0483-1.2527h-0.064
			c-0.6211,1.0071-1.3539,1.7281-2.199,2.167c-0.8458,0.4389-1.8777,0.6583-3.0977,0.6583c-0.6636,0-1.3056-0.0914-1.926-0.273
			c-0.6211-0.1816-1.1717-0.4598-1.6537-0.8347c-0.4814-0.3736-0.8667-0.8347-1.1554-1.3807
			c-0.2893-0.546-0.4337-1.1821-0.4337-1.9097c0-1.22,0.3154-2.1775,0.947-2.8737c0.6309-0.6949,1.4232-1.2135,2.376-1.5557
			c0.9516-0.3422,1.9685-0.5565,3.0494-0.6427c1.0802-0.0849,2.0704-0.128,2.9697-0.128H367.0195z M365.9275,101.0228
			c-0.5349,0-1.2037,0.0274-2.0064,0.0797c-0.802,0.0536-1.5727,0.1829-2.3114,0.3853c-0.738,0.2038-1.3696,0.5199-1.894,0.947
			c-0.5244,0.4284-0.7863,1.0175-0.7863,1.766c0,0.4925,0.1012,0.9144,0.305,1.2683c0.2031,0.3527,0.4761,0.6414,0.819,0.866
			c0.3416,0.2247,0.7217,0.3853,1.139,0.482c0.4173,0.0954,0.8399,0.1437,1.2683,0.1437c0.7707,0,1.4388-0.128,2.0064-0.3853
			c0.5669-0.256,1.043-0.6035,1.4283-1.0424c0.3853-0.4389,0.6688-0.9522,0.851-1.5414c0.1816-0.5878,0.273-1.2148,0.273-1.8784
			v-1.0907H365.9275z"/>
	</g>
</g>
</svg>
