<?xml version="1.0" encoding="utf-8"?>
<!-- Generator: Adobe Illustrator 24.1.1, SVG Export Plug-In . SVG Version: 6.00 Build 0)  -->
<svg version="1.1" id="Capa_1" xmlns="http://www.w3.org/2000/svg" xmlns:xlink="http://www.w3.org/1999/xlink" x="0px" y="0px"
	 width="401.4915px" height="172.0678px" viewBox="0 0 401.4915 172.0678" style="enable-background:new 0 0 401.4915 172.0678;"
	 xml:space="preserve">
<style type="text/css">
	.st0{fill:#FFFFFF;}
	.st1{fill:none;stroke:#FFFFFF;stroke-width:2;stroke-linecap:round;stroke-linejoin:round;stroke-miterlimit:10;}
	.st2{fill:#EDEDED;}
	.st3{fill:#E40520;}
	.st4{fill:#FFFFFF;stroke:#E40520;stroke-miterlimit:10;}
</style>
<g>
	<path class="st0" d="M91.855,71.1678c-0.1035,0.9923-0.1494,1.9948-0.3194,2.9755c-1.5085,8.6984-7.6346,11.7632-15.2814,7.2394
		c-3.3755-1.997-6.5655-4.6351-9.1499-7.5862C54.5964,59.5138,47.2124,42.8452,45.2161,23.9452
		c-0.3775-3.5745,0.028-7.3492,0.7411-10.8971c1.48-7.3635,7.0733-9.9102,13.9166-6.6457c1.3408,0.6396,2.6372,1.4197,3.8413,2.2908
		C79.5584,20.1555,93.8359,51.8185,91.855,71.1678z M81.9544,73.6972c6.7665-14.8953-15.2386-58.5881-27.0989-58.683
		C49.5909,31.0617,69.2361,70.8188,81.9544,73.6972z"/>
	<path class="st0" d="M38.9845,24.0425c4.8632,9.4545,0.977,15.4919-6.0363,20.9848c-1.9565,1.5323-3.3914,5.0075-3.348,7.5623
		c0.1049,6.169,2.7111,11.764,7.4202,15.8211c1.7168,1.4791,4.8472,2.4272,7.0512,2.0352c8.7776-1.5614,16.2763-0.8681,19.938,8.916
		c-13.9551-4.8689-26.6788,0.6279-39.6188,5.946c-2.4415,1.0034-6.8671-0.0864-9.1152-1.834
		C6.8527,76.9273,2.9836,67.9914,3.9273,57.1967c0.3353-3.8353,2.2686-6.368,5.9114-7.8987
		c3.6733-1.5436,7.2192-3.4282,10.7066-5.3689C28.751,39.3627,35.4291,33.2927,38.9845,24.0425z"/>
	<path class="st0" d="M27.9448,88.7297c2.9435-1.2925,5.2398-2.2084,7.4532-3.2934c3.6824-1.8053,6.6475-1.1855,9.0982,2.1954
		c2.3634,3.2605,5.4923,4.7919,9.6555,5.348c2.2789,0.3045,4.5459,2.8022,6.0929,4.857c0.3453,0.4586-2.2693,3.2828-3.6874,4.8692
		c-0.634,0.7092-1.671,1.0649-2.5383,1.5575c-9.0611,5.1478-11.0978,4.7042-17.3266-3.7352
		C33.933,96.7898,31.1581,93.0626,27.9448,88.7297z"/>
	<path class="st1" d="M24.0938,167.3464c-4.4396-4.7274-8.49-9.0405-11.9886-12.7659c10.0074-8.615,19.9188-17.1474,29.8303-25.6799
		c0.2526,0.2021,0.5053,0.4041,0.7579,0.6062C36.5887,141.9267,30.4837,154.3466,24.0938,167.3464"/>
	<path class="st1" d="M46.0742,170.4728c2.128-11.9923,4.0939-23.0711,6.0599-34.1502c0.3068-0.0823,0.6137-0.1647,0.9205-0.247
		c3.5445,9.9528,7.089,19.9055,10.8691,30.5199C58.1043,167.8596,52.5648,169.0629,46.0742,170.4728"/>
	<path class="st1" d="M32.3596,125.6915c-4.109,2.4311-8.218,4.8623-12.6887,7.5074c-1.9647-2.0899-3.8228-4.0664-5.928-6.3057
		c1.2094-0.3873,1.8218-0.7175,2.4557-0.7656c5.2843-0.4017,10.5725-0.7515,15.8596-1.117
		C32.1586,125.2375,32.259,125.4646,32.3596,125.6915z"/>
	<path class="st0" d="M68.075,54.2988c-2.6457-5.9073-4.9138-10.9716-7.3913-16.5036c5.0196-0.808,7.9167,1.1775,9.7196,4.5257
		C72.4755,46.1693,71.8645,49.9519,68.075,54.2988z"/>
	<path class="st1" d="M89.3763,33.0784c0.8555,2.3037,1.7581,4.084,2.1771,5.9718c2.2227,10.0054,5.4404,19.954,6.2027,30.0811
		c1.1122,14.7748-7.6691,22.0139-22.1259,19.6412c-4.725-0.7755-9.2953-2.4861-13.9416-3.7506
		c-1.7581-0.4785-3.5394-1.2747-5.2927-1.231c-1.2584,0.0315-2.4879,1.2173-3.7305,1.8882c0.1487,0.43,0.2974,0.8598,0.446,1.2897
		c6.5884-0.0063,11.1646,3.2107,12.9233,9.1733c2.1868,7.4137-4.2905,9.9233-8.9492,13.2188
		c0.5349,2.3229,1.2725,4.3946,1.4475,6.5128c0.0994,1.2012,0.3438,2.2422,0.7142,3.1582l-0.005-0.0003
		c0.5349,2.3229,1.3358,3.7881,1.5109,5.9063c0.4163,5.0349,3.3097,7.3265,7.8898,8.8726
		c8.0313,2.7111,15.8558,6.0328,23.7765,9.0739c10.9475,4.2033,21.904,8.3834,33.4286,12.7922
		c-1.3514-8.3145-2.5844-15.9001-3.8684-23.7991l-1.8718-9.0764l-0.0023-0.0001c1.7668-0.0641,2.8533-0.1318,3.9304-0.1277
		c52.7686,0.1951,194.2002,1.1474,246.968,1.4749c3.6699,0.0228,5.1519-0.9227,6.0241-4.616
		c4.8595-20.5751,10.0604-41.0691,15.0828-61.606c1.8809-7.6906,3.5956-15.4217,5.5925-24.0231
		C324.1521,33.8914,162.6946,33.0901,89.3763,33.0784z"/>
</g>
<g>
	<path class="st0" d="M112.0189,51.0984h3.0976l7.3954,17.0007h-4.226l-1.4646-3.6018h-6.6033l-1.4168,3.6018h-4.1299
		L112.0189,51.0984z M113.4597,56.0453l-2.0649,5.2827h4.1538L113.4597,56.0453z"/>
	<path class="st0" d="M130.3642,59.8628c-0.5285-0.6556-1.225-0.9839-2.0893-0.9839c-0.3044,0-0.6003,0.0713-0.8883,0.2157
		c-0.2884,0.1444-0.4324,0.3921-0.4324,0.7448c0,0.288,0.1477,0.4999,0.4441,0.6359s0.6725,0.2561,1.1289,0.3602
		c0.4563,0.1041,0.9441,0.2157,1.4646,0.3358c0.5201,0.1201,1.0083,0.3086,1.4646,0.5647c0.4563,0.2561,0.8325,0.6041,1.1288,1.0449
		c0.2959,0.4399,0.4441,1.028,0.4441,1.7643c0,0.7532-0.1646,1.3732-0.4924,1.8609c-0.3283,0.4887-0.7485,0.8808-1.2606,1.1772
		c-0.5126,0.2964-1.0885,0.5037-1.7287,0.6237c-0.6406,0.1201-1.2728,0.1801-1.897,0.1801c-0.8165,0-1.641-0.1163-2.4734-0.348
		c-0.8325-0.2317-1.5364-0.6444-2.1128-1.2362l2.185-2.4256c0.3363,0.4165,0.7082,0.7326,1.1167,0.9483
		c0.408,0.2167,0.884,0.3245,1.4285,0.3245c0.416,0,0.7926-0.06,1.1288-0.1801c0.3358-0.1201,0.5042-0.3405,0.5042-0.6603
		c0-0.3039-0.1482-0.5318-0.4441-0.6847c-0.2964-0.152-0.6725-0.2795-1.1288-0.3836c-0.4563-0.1041-0.9445-0.2167-1.4646-0.3367
		c-0.5206-0.1201-1.0083-0.3002-1.4646-0.5403s-0.8325-0.5797-1.1288-1.0205c-0.2964-0.4399-0.4441-1.028-0.4441-1.7643
		c0-0.6885,0.1402-1.2813,0.4202-1.7775c0.28-0.4962,0.6486-0.9042,1.1045-1.2241c0.4563-0.3208,0.9807-0.5562,1.573-0.7091
		c0.5919-0.152,1.1922-0.2279,1.8009-0.2279c0.7682,0,1.5448,0.1126,2.329,0.3367c0.7841,0.2242,1.4487,0.6238,1.9932,1.2006
		L130.3642,59.8628z"/>
	<path class="st0" d="M134.6381,52.7558c0-0.5769,0.204-1.0693,0.612-1.4773c0.4085-0.408,0.9005-0.6125,1.4768-0.6125
		s1.0684,0.2045,1.4768,0.6125c0.408,0.408,0.612,0.9005,0.612,1.4773c0,0.5759-0.204,1.0683-0.612,1.4764
		c-0.4085,0.408-0.9005,0.6125-1.4768,0.6125s-1.0683-0.2045-1.4768-0.6125C134.8421,53.8242,134.6381,53.3317,134.6381,52.7558z
		 M134.9261,56.4289h3.6018v11.6702h-3.6018V56.4289z"/>
	<path class="st0" d="M147.7247,59.8628c-0.5285-0.6556-1.225-0.9839-2.0893-0.9839c-0.3044,0-0.6003,0.0713-0.8883,0.2157
		c-0.2884,0.1444-0.4324,0.3921-0.4324,0.7448c0,0.288,0.1477,0.4999,0.4441,0.6359c0.2964,0.136,0.6725,0.2561,1.1289,0.3602
		c0.4563,0.1041,0.9441,0.2157,1.4646,0.3358c0.5201,0.1201,1.0083,0.3086,1.4646,0.5647c0.4563,0.2561,0.8325,0.6041,1.1288,1.0449
		c0.2959,0.4399,0.4441,1.028,0.4441,1.7643c0,0.7532-0.1646,1.3732-0.4924,1.8609c-0.3283,0.4887-0.7485,0.8808-1.2606,1.1772
		c-0.5126,0.2964-1.0885,0.5037-1.7287,0.6237c-0.6406,0.1201-1.2728,0.1801-1.897,0.1801c-0.8165,0-1.641-0.1163-2.4734-0.348
		c-0.8324-0.2317-1.5364-0.6444-2.1128-1.2362l2.185-2.4256c0.3363,0.4165,0.7082,0.7326,1.1167,0.9483
		c0.408,0.2167,0.884,0.3245,1.4285,0.3245c0.416,0,0.7926-0.06,1.1288-0.1801c0.3358-0.1201,0.5042-0.3405,0.5042-0.6603
		c0-0.3039-0.1482-0.5318-0.4441-0.6847c-0.2964-0.152-0.6725-0.2795-1.1288-0.3836s-0.9445-0.2167-1.4646-0.3367
		c-0.5206-0.1201-1.0083-0.3002-1.4646-0.5403c-0.4563-0.2401-0.8324-0.5797-1.1288-1.0205
		c-0.2964-0.4399-0.4441-1.028-0.4441-1.7643c0-0.6885,0.1402-1.2813,0.4202-1.7775c0.28-0.4962,0.6486-0.9042,1.1045-1.2241
		c0.4563-0.3208,0.9806-0.5562,1.573-0.7091c0.5919-0.152,1.1922-0.2279,1.8009-0.2279c0.7682,0,1.5448,0.1126,2.329,0.3367
		c0.7841,0.2242,1.4487,0.6238,1.9932,1.2006L147.7247,59.8628z"/>
	<path class="st0" d="M160.1866,59.3104h-3.1699v3.8907c0,0.3199,0.0159,0.6116,0.0483,0.8761
		c0.0319,0.2645,0.1037,0.4924,0.2162,0.6847c0.1116,0.1913,0.2837,0.3395,0.5159,0.4437c0.2322,0.1041,0.5403,0.1566,0.9249,0.1566
		c0.1918,0,0.4441-0.0206,0.756-0.06c0.3123-0.0403,0.5482-0.1323,0.7086-0.2767v3.0015c-0.4005,0.1444-0.8165,0.2401-1.2489,0.288
		c-0.4319,0.0488-0.8564,0.0722-1.2724,0.0722c-0.6087,0-1.1687-0.0638-1.6808-0.1923c-0.5126-0.1276-0.9605-0.332-1.3446-0.6116
		c-0.3846-0.2804-0.6847-0.6444-0.9005-1.0927c-0.2162-0.4483-0.3245-0.9924-0.3245-1.633v-5.5472h-2.3051v-2.8814h2.3051v-3.4574
		h3.6018v3.4574h3.1699V59.3104z"/>
	<path class="st0" d="M173.0569,66.0825c-0.5764,0.7363-1.3052,1.3047-2.1855,1.7043c-0.8803,0.4005-1.7929,0.6003-2.737,0.6003
		c-0.8967,0-1.7409-0.1435-2.5335-0.4324c-0.7926-0.288-1.481-0.6997-2.0649-1.2362c-0.5848-0.5365-1.0444-1.18-1.3807-1.9332
		c-0.3363-0.7523-0.5042-1.5927-0.5042-2.5213c0-0.9277,0.1679-1.7681,0.5042-2.5213c0.3363-0.7523,0.7959-1.3966,1.3807-1.9332
		c0.5839-0.5356,1.2724-0.9483,2.0649-1.2362s1.6368-0.4324,2.5335-0.4324c0.832,0,1.5885,0.1444,2.269,0.4324
		c0.68,0.288,1.2564,0.7007,1.7287,1.2362c0.4723,0.5365,0.8367,1.1809,1.0927,1.9332c0.2561,0.7532,0.3841,1.5936,0.3841,2.5213
		v1.1284h-8.3559c0.144,0.6885,0.4558,1.2372,0.9361,1.6452c0.4803,0.408,1.0726,0.6125,1.777,0.6125
		c0.5923,0,1.0927-0.1323,1.5008-0.3968c0.4085-0.2636,0.7644-0.6041,1.0688-1.0205L173.0569,66.0825z M170.0071,60.9434
		c0.0159-0.6078-0.1843-1.1284-0.6003-1.5608c-0.4165-0.4324-0.9525-0.6481-1.6086-0.6481c-0.4005,0-0.7527,0.0638-1.0566,0.1923
		c-0.3044,0.1285-0.5642,0.2917-0.7804,0.4924c-0.2162,0.1998-0.3841,0.4315-0.5042,0.696
		c-0.1201,0.2645-0.1885,0.5403-0.204,0.8282H170.0071z"/>
	<path class="st0" d="M175.7939,56.4289h3.4574v1.5852h0.0483c0.1116-0.2242,0.272-0.4483,0.4802-0.6725
		c0.2078-0.2242,0.4563-0.424,0.7443-0.6003c0.288-0.1754,0.6162-0.3198,0.9844-0.4324c0.3681-0.1116,0.7687-0.1679,1.2006-0.1679
		c0.9126,0,1.6485,0.1407,2.2094,0.4202c0.56,0.2805,0.9961,0.6688,1.3085,1.165s0.5243,1.0805,0.6364,1.7531
		c0.1116,0.6716,0.1679,1.4004,0.1679,2.1845v6.4354h-3.6018v-5.7151c0-0.3358-0.0117-0.6838-0.0361-1.044
		c-0.0239-0.3602-0.0957-0.6922-0.2157-0.9971c-0.1201-0.3039-0.3044-0.5525-0.5525-0.7438
		c-0.2486-0.1923-0.6045-0.2889-1.0683-0.2889c-0.4648,0-0.8404,0.0844-1.1289,0.2523c-0.2879,0.1679-0.5084,0.393-0.6603,0.6725
		c-0.1524,0.2805-0.2518,0.5965-0.3002,0.9483c-0.0478,0.3527-0.0717,0.7204-0.0717,1.1049v5.8107h-3.6018V56.4289z"/>
	<path class="st0" d="M197.4761,60.1996c-0.1763-0.2561-0.424-0.469-0.7443-0.6369c-0.3203-0.1679-0.6646-0.2523-1.0322-0.2523
		c-0.9127,0-1.6208,0.2729-2.1254,0.817c-0.5042,0.544-0.756,1.2569-0.756,2.1367c0,0.8808,0.2518,1.5936,0.756,2.1376
		c0.5046,0.544,1.2128,0.816,2.1254,0.816c0.3996,0,0.7443-0.0882,1.0322-0.2645c0.2884-0.1754,0.5361-0.3836,0.7443-0.6237
		l2.3773,2.4969c-0.5604,0.5769-1.2208,0.9811-1.981,1.2128c-0.7602,0.2317-1.4848,0.348-2.1728,0.348
		c-0.8967,0-1.7409-0.1435-2.5335-0.4324c-0.7926-0.288-1.4811-0.6997-2.0649-1.2362c-0.5848-0.5365-1.0444-1.18-1.3807-1.9332
		c-0.3363-0.7523-0.5042-1.5927-0.5042-2.5213c0-0.9277,0.1679-1.7681,0.5042-2.5213c0.3363-0.7523,0.7959-1.3966,1.3807-1.9332
		c0.5839-0.5356,1.2724-0.9483,2.0649-1.2362s1.6367-0.4324,2.5335-0.4324c0.688,0,1.4126,0.1163,2.1728,0.348
		c0.7602,0.2326,1.4206,0.6369,1.981,1.2128L197.4761,60.1996z"/>
	<path class="st0" d="M200.91,52.7558c0-0.5769,0.204-1.0693,0.612-1.4773c0.4085-0.408,0.9005-0.6125,1.4768-0.6125
		s1.0683,0.2045,1.4768,0.6125c0.408,0.408,0.612,0.9005,0.612,1.4773c0,0.5759-0.204,1.0683-0.612,1.4764
		c-0.4085,0.408-0.9005,0.6125-1.4768,0.6125s-1.0683-0.2045-1.4768-0.6125C201.114,53.8242,200.91,53.3317,200.91,52.7558z
		 M201.198,56.4289h3.6018v11.6702h-3.6018V56.4289z"/>
	<path class="st0" d="M214.7169,66.634h-0.0483c-0.4,0.6247-0.9328,1.073-1.5969,1.3451c-0.6641,0.272-1.3647,0.408-2.1011,0.408
		c-0.544,0-1.0683-0.076-1.5725-0.2279c-0.5042-0.1519-0.9488-0.3799-1.3329-0.6847c-0.3841-0.3039-0.6885-0.68-0.9122-1.1284
		c-0.2247-0.4474-0.3363-0.968-0.3363-1.5608c0-0.6725,0.1238-1.24,0.3719-1.7043c0.2481-0.4643,0.5844-0.8489,1.0088-1.1528
		c0.424-0.3039,0.9084-0.5403,1.4525-0.7082c0.544-0.1688,1.1087-0.2926,1.693-0.3724c0.5844-0.0797,1.1682-0.1285,1.7531-0.1444
		c0.5839-0.0159,1.1242-0.0234,1.6208-0.0234c0-0.6406-0.2284-1.149-0.6847-1.5251c-0.4559-0.3761-0.9961-0.5647-1.6208-0.5647
		c-0.5923,0-1.1326,0.1247-1.6208,0.3724c-0.4882,0.2486-0.9244,0.5881-1.3085,1.0205l-1.921-1.9688
		c0.6725-0.6247,1.4567-1.0927,2.3534-1.4051c0.8962-0.3114,1.8248-0.468,2.7853-0.468c1.0566,0,1.9247,0.1323,2.6052,0.3968
		c0.68,0.2636,1.2245,0.6519,1.633,1.164c0.408,0.5131,0.6922,1.1406,0.8521,1.8853c0.1599,0.7438,0.2401,1.6049,0.2401,2.5813
		v5.9308h-3.3134V66.634z M213.8282,62.9844c-0.2725,0-0.612,0.0122-1.0205,0.0366c-0.408,0.0234-0.8006,0.0919-1.1767,0.2035
		c-0.3761,0.1126-0.696,0.2805-0.9605,0.5046c-0.264,0.2242-0.3958,0.5365-0.3958,0.9361c0,0.4324,0.1838,0.7532,0.552,0.9605
		c0.3682,0.2082,0.7523,0.3123,1.1528,0.3123c0.3517,0,0.6922-0.0478,1.0205-0.1444c0.3278-0.0957,0.62-0.2317,0.8765-0.408
		c0.2556-0.1754,0.4596-0.3996,0.612-0.6725c0.1519-0.272,0.2284-0.5919,0.2284-0.9605v-0.7682H213.8282z"/>
	<path class="st0" d="M227.8509,51.0984h5.6672l3.9137,11.0934h0.0483l3.9376-11.0934h5.6428v17.0007h-3.7458V55.0604h-0.0478
		l-4.4662,13.0387h-2.8575l-4.2982-13.0387h-0.0478v13.0387h-3.7463V51.0984z"/>
	<path class="st0" d="M261.1076,66.0825c-0.5764,0.7363-1.3052,1.3047-2.1855,1.7043c-0.8803,0.4005-1.7929,0.6003-2.737,0.6003
		c-0.8967,0-1.7409-0.1435-2.5334-0.4324c-0.7926-0.288-1.4811-0.6997-2.065-1.2362c-0.5848-0.5365-1.0444-1.18-1.3807-1.9332
		c-0.3363-0.7523-0.5042-1.5927-0.5042-2.5213c0-0.9277,0.1679-1.7681,0.5042-2.5213c0.3363-0.7523,0.7959-1.3966,1.3807-1.9332
		c0.5839-0.5356,1.2724-0.9483,2.065-1.2362s1.6367-0.4324,2.5334-0.4324c0.832,0,1.5885,0.1444,2.269,0.4324
		c0.68,0.288,1.2564,0.7007,1.7287,1.2362c0.4723,0.5365,0.8367,1.1809,1.0927,1.9332c0.256,0.7532,0.3841,1.5936,0.3841,2.5213
		v1.1284h-8.3559c0.144,0.6885,0.4559,1.2372,0.9361,1.6452s1.0726,0.6125,1.777,0.6125c0.5923,0,1.0927-0.1323,1.5008-0.3968
		c0.4085-0.2636,0.7644-0.6041,1.0688-1.0205L261.1076,66.0825z M255.7049,51.0984h4.8981l-4.1538,3.4583h-3.1699L255.7049,51.0984z
		 M258.0578,60.9434c0.0159-0.6078-0.1843-1.1284-0.6003-1.5608c-0.4165-0.4324-0.9525-0.6481-1.6086-0.6481
		c-0.4005,0-0.7527,0.0638-1.0566,0.1923c-0.3044,0.1285-0.5642,0.2917-0.7804,0.4924c-0.2162,0.1998-0.3841,0.4315-0.5042,0.696
		c-0.1201,0.2645-0.1885,0.5403-0.204,0.8282H258.0578z"/>
	<path class="st0" d="M276.0908,68.0991h-3.3138v-1.5364h-0.0479c-0.1444,0.2082-0.3325,0.4202-0.5647,0.6359
		s-0.5042,0.4127-0.816,0.5881c-0.3123,0.1763-0.6566,0.3199-1.0327,0.4324c-0.3761,0.1116-0.7645,0.1679-1.1645,0.1679
		c-0.8643,0-1.649-0.1482-2.3534-0.4437c-0.7044-0.2964-1.3085-0.7129-1.8126-1.2494c-0.5046-0.5356-0.8929-1.1725-1.1649-1.9088
		c-0.272-0.7363-0.408-1.5448-0.408-2.4247c0-0.817,0.1238-1.5974,0.3724-2.3412c0.2476-0.7447,0.6003-1.4051,1.0562-1.981
		c0.4563-0.5769,1.0125-1.0365,1.6691-1.3807c0.6561-0.3442,1.4004-0.5168,2.2328-0.5168c0.7523,0,1.4529,0.1163,2.1011,0.348
		c0.6486,0.2326,1.1804,0.6284,1.5969,1.1893h0.0483v-7.7326h3.6018V68.0991z M272.7769,62.264
		c0-0.8798-0.2523-1.5927-0.7565-2.1367c-0.5042-0.544-1.2123-0.817-2.125-0.817c-0.9126,0-1.6208,0.2729-2.125,0.817
		c-0.5042,0.544-0.7565,1.2569-0.7565,2.1367c0,0.8808,0.2523,1.5936,0.7565,2.1376c0.5042,0.544,1.2123,0.816,2.125,0.816
		c0.9127,0,1.6208-0.272,2.125-0.816C272.5246,63.8576,272.7769,63.1448,272.7769,62.264z"/>
	<path class="st0" d="M278.7316,52.7558c0-0.5769,0.204-1.0693,0.612-1.4773c0.4085-0.408,0.9005-0.6125,1.4768-0.6125
		s1.0684,0.2045,1.4768,0.6125c0.408,0.408,0.612,0.9005,0.612,1.4773c0,0.5759-0.204,1.0683-0.612,1.4764
		c-0.4085,0.408-0.9005,0.6125-1.4768,0.6125s-1.0683-0.2045-1.4768-0.6125C278.9356,53.8242,278.7316,53.3317,278.7316,52.7558z
		 M279.0196,56.4289h3.6018v11.6702h-3.6018V56.4289z"/>
	<path class="st0" d="M293.1145,60.1996c-0.1763-0.2561-0.424-0.469-0.7443-0.6369s-0.6646-0.2523-1.0322-0.2523
		c-0.9127,0-1.6208,0.2729-2.1255,0.817c-0.5042,0.544-0.756,1.2569-0.756,2.1367c0,0.8808,0.2518,1.5936,0.756,2.1376
		c0.5046,0.544,1.2128,0.816,2.1255,0.816c0.3996,0,0.7443-0.0882,1.0322-0.2645c0.2884-0.1754,0.5361-0.3836,0.7443-0.6237
		l2.3773,2.4969c-0.5605,0.5769-1.2208,0.9811-1.981,1.2128c-0.7603,0.2317-1.4848,0.348-2.1728,0.348
		c-0.8967,0-1.7409-0.1435-2.5335-0.4324c-0.7926-0.288-1.481-0.6997-2.0649-1.2362c-0.5848-0.5365-1.0444-1.18-1.3807-1.9332
		c-0.3363-0.7523-0.5042-1.5927-0.5042-2.5213c0-0.9277,0.1679-1.7681,0.5042-2.5213c0.3362-0.7523,0.7959-1.3966,1.3807-1.9332
		c0.5839-0.5356,1.2724-0.9483,2.0649-1.2362c0.7926-0.288,1.6368-0.4324,2.5335-0.4324c0.688,0,1.4126,0.1163,2.1728,0.348
		c0.7602,0.2326,1.4205,0.6369,1.981,1.2128L293.1145,60.1996z"/>
	<path class="st0" d="M304.1122,66.634h-0.0483c-0.4001,0.6247-0.9328,1.073-1.5969,1.3451c-0.6641,0.272-1.3647,0.408-2.1011,0.408
		c-0.544,0-1.0683-0.076-1.5725-0.2279c-0.5042-0.1519-0.9488-0.3799-1.3329-0.6847c-0.3841-0.3039-0.6884-0.68-0.9122-1.1284
		c-0.2246-0.4474-0.3362-0.968-0.3362-1.5608c0-0.6725,0.1238-1.24,0.3719-1.7043c0.2481-0.4643,0.5844-0.8489,1.0088-1.1528
		c0.424-0.3039,0.9084-0.5403,1.4525-0.7082c0.544-0.1688,1.1087-0.2926,1.693-0.3724c0.5844-0.0797,1.1682-0.1285,1.7531-0.1444
		c0.5839-0.0159,1.1241-0.0234,1.6208-0.0234c0-0.6406-0.2284-1.149-0.6847-1.5251c-0.4558-0.3761-0.9961-0.5647-1.6208-0.5647
		c-0.5923,0-1.1326,0.1247-1.6208,0.3724c-0.4882,0.2486-0.9243,0.5881-1.3085,1.0205l-1.921-1.9688
		c0.6725-0.6247,1.4567-1.0927,2.3534-1.4051c0.8962-0.3114,1.8248-0.468,2.7853-0.468c1.0566,0,1.9247,0.1323,2.6052,0.3968
		c0.68,0.2636,1.2245,0.6519,1.633,1.164c0.408,0.5131,0.6922,1.1406,0.8522,1.8853c0.1599,0.7438,0.2401,1.6049,0.2401,2.5813
		v5.9308h-3.3134V66.634z M303.2234,62.9844c-0.2725,0-0.612,0.0122-1.0205,0.0366c-0.408,0.0234-0.8006,0.0919-1.1767,0.2035
		c-0.3761,0.1126-0.696,0.2805-0.9605,0.5046c-0.264,0.2242-0.3958,0.5365-0.3958,0.9361c0,0.4324,0.1838,0.7532,0.552,0.9605
		c0.3681,0.2082,0.7522,0.3123,1.1527,0.3123c0.3517,0,0.6922-0.0478,1.0205-0.1444c0.3278-0.0957,0.62-0.2317,0.8765-0.408
		c0.2556-0.1754,0.4596-0.3996,0.612-0.6725c0.1519-0.272,0.2284-0.5919,0.2284-0.9605v-0.7682H303.2234z"/>
	<path class="st0" d="M112.4513,96.9136h-1.7291V81.4981h-5.6907v-1.5852h13.1105v1.5852h-5.6907V96.9136z"/>
	<path class="st0" d="M118.6462,91.7266c0.0478,0.5609,0.1838,1.089,0.408,1.5852s0.5201,0.9248,0.8883,1.285
		c0.3681,0.3602,0.7926,0.6444,1.2728,0.8517c0.4802,0.2082,1.0003,0.3123,1.5608,0.3123c0.8484,0,1.5805-0.196,2.1972-0.5881
		c0.6158-0.3921,1.0843-0.8442,1.4046-1.3563l1.2245,1.0083c-0.6721,0.8489-1.4131,1.4567-2.2211,1.8244
		c-0.8085,0.3686-1.6771,0.5525-2.6052,0.5525c-0.8325,0-1.6049-0.1482-2.3173-0.4437c-0.7124-0.2964-1.3249-0.7091-1.837-1.2372
		s-0.9164-1.1528-1.2123-1.8731c-0.2964-0.7204-0.4441-1.5045-0.4441-2.3524c0-0.8489,0.144-1.633,0.4319-2.3534
		c0.2884-0.7204,0.688-1.345,1.2006-1.8731c0.5121-0.5281,1.1124-0.9398,1.8009-1.2363c0.688-0.2964,1.4327-0.4446,2.2333-0.4446
		c0.8484,0,1.6086,0.1519,2.2812,0.4559c0.6721,0.3048,1.2367,0.7091,1.6926,1.2128c0.4563,0.5046,0.8048,1.0965,1.0449,1.7775
		c0.2401,0.68,0.3602,1.4041,0.3602,2.1723v0.7204H118.6462z M126.2817,90.4304c0-1.0721-0.3203-1.9407-0.9605-2.6057
		c-0.6402-0.6641-1.5369-0.9961-2.6892-0.9961c-0.5126,0-1.0088,0.1004-1.489,0.3002c-0.4802,0.2007-0.9005,0.468-1.2606,0.8048
		c-0.3602,0.3358-0.6481,0.7204-0.8643,1.1518c-0.2162,0.4324-0.3241,0.8808-0.3241,1.3451H126.2817z"/>
	<path class="st0" d="M132.8372,96.9136h-1.5852V78.7601h1.5852V96.9136z"/>
	<path class="st0" d="M137.7597,91.7266c0.0478,0.5609,0.1838,1.089,0.408,1.5852c0.2242,0.4962,0.5201,0.9248,0.8883,1.285
		c0.3682,0.3602,0.7926,0.6444,1.2728,0.8517c0.4802,0.2082,1.0004,0.3123,1.5608,0.3123c0.8484,0,1.5805-0.196,2.1972-0.5881
		c0.6158-0.3921,1.0843-0.8442,1.4046-1.3563l1.2245,1.0083c-0.672,0.8489-1.413,1.4567-2.2211,1.8244
		c-0.8085,0.3686-1.6771,0.5525-2.6052,0.5525c-0.8324,0-1.6049-0.1482-2.3173-0.4437c-0.7124-0.2964-1.3249-0.7091-1.837-1.2372
		s-0.9164-1.1528-1.2123-1.8731c-0.2964-0.7204-0.4441-1.5045-0.4441-2.3524c0-0.8489,0.144-1.633,0.4319-2.3534
		c0.2884-0.7204,0.688-1.345,1.2006-1.8731c0.5121-0.5281,1.1124-0.9398,1.8009-1.2363c0.688-0.2964,1.4328-0.4446,2.2333-0.4446
		c0.8484,0,1.6086,0.1519,2.2811,0.4559c0.6721,0.3048,1.2367,0.7091,1.6926,1.2128c0.4563,0.5046,0.8048,1.0965,1.0449,1.7775
		c0.2401,0.68,0.3602,1.4041,0.3602,2.1723v0.7204H137.7597z M145.3952,90.4304c0-1.0721-0.3203-1.9407-0.9605-2.6057
		c-0.6402-0.6641-1.5369-0.9961-2.6892-0.9961c-0.5126,0-1.0088,0.1004-1.489,0.3002c-0.4802,0.2007-0.9005,0.468-1.2606,0.8048
		c-0.3602,0.3358-0.6481,0.7204-0.8643,1.1518c-0.2162,0.4324-0.3241,0.8808-0.3241,1.3451H145.3952z"/>
	<path class="st0" d="M155.2402,87.1165h-2.6653v9.7971h-1.5847v-9.7971h-2.3773v-1.4407h2.3773v-3.0737
		c0-1.4886,0.3438-2.5485,1.0322-3.1816c0.688-0.6322,1.6006-0.9483,2.7375-0.9483c0.2242,0,0.4521,0.0159,0.6842,0.0478
		c0.2321,0.0328,0.4601,0.0722,0.6842,0.1201l-0.288,1.4407c-0.1923-0.0478-0.3925-0.0872-0.6003-0.1201
		c-0.2082-0.0319-0.4165-0.0478-0.6242-0.0478c-0.4324,0-0.7846,0.0722-1.0566,0.2167c-0.2725,0.1435-0.4802,0.348-0.6242,0.6116
		c-0.144,0.2645-0.2401,0.5731-0.2884,0.9248c-0.0478,0.3527-0.0718,0.7288-0.0718,1.1284v2.8814h2.6653V87.1165z"/>
	<path class="st0" d="M168.4707,91.2952c0,0.8479-0.1482,1.6321-0.4441,2.3524c-0.2964,0.7204-0.7086,1.3451-1.2367,1.8731
		c-0.5281,0.5281-1.1565,0.9408-1.8849,1.2372c-0.7288,0.2955-1.5331,0.4437-2.4134,0.4437c-0.8643,0-1.6607-0.1482-2.389-0.4437
		c-0.7288-0.2964-1.3568-0.7091-1.8849-1.2372c-0.5285-0.5281-0.9408-1.1528-1.2367-1.8731
		c-0.2964-0.7204-0.4441-1.5045-0.4441-2.3524c0-0.8489,0.1477-1.633,0.4441-2.3534c0.2959-0.7204,0.7082-1.345,1.2367-1.8731
		c0.5281-0.5281,1.1561-0.9398,1.8849-1.2363c0.7283-0.2964,1.5247-0.4446,2.389-0.4446c0.8803,0,1.6846,0.1482,2.4134,0.4446
		c0.7283,0.2964,1.3568,0.7082,1.8849,1.2363c0.5281,0.5281,0.9403,1.1528,1.2367,1.8731
		C168.3225,89.6622,168.4707,90.4463,168.4707,91.2952z M166.7421,91.2952c0-0.6247-0.1004-1.209-0.3002-1.7531
		c-0.2007-0.544-0.4845-1.0168-0.8526-1.4173c-0.3686-0.3996-0.8128-0.7157-1.3329-0.9483c-0.5201-0.2317-1.1087-0.348-1.7648-0.348
		c-0.6566,0-1.2447,0.1163-1.7648,0.348c-0.5206,0.2326-0.9605,0.5487-1.3207,0.9483c-0.3602,0.4005-0.6406,0.8733-0.8404,1.4173
		c-0.2003,0.544-0.3002,1.1284-0.3002,1.7531c0,0.6237,0.0999,1.2081,0.3002,1.7521c0.1998,0.545,0.4802,1.0168,0.8404,1.4173
		c0.3602,0.4005,0.8001,0.7166,1.3207,0.9483c0.5201,0.2326,1.1082,0.348,1.7648,0.348c0.6561,0,1.2447-0.1154,1.7648-0.348
		c0.5201-0.2317,0.9642-0.5478,1.3329-0.9483c0.3681-0.4005,0.6519-0.8723,0.8526-1.4173
		C166.6417,92.5033,166.7421,91.9189,166.7421,91.2952z M162.4677,83.3712h-1.4168l2.4012-3.4583h2.185L162.4677,83.3712z"/>
	<path class="st0" d="M172.8647,85.6758c0.0319,0.3048,0.0516,0.605,0.06,0.9005c0.008,0.2964,0.0122,0.5965,0.0122,0.9005h0.0478
		c0.1759-0.3039,0.4-0.5844,0.6725-0.8404c0.272-0.2561,0.5759-0.4755,0.9122-0.6603c0.3363-0.1838,0.6922-0.3273,1.0688-0.4324
		c0.3757-0.1032,0.748-0.1557,1.1162-0.1557c1.4407,0,2.5053,0.3808,3.1938,1.1406c0.688,0.7607,1.0327,1.845,1.0327,3.2538v7.1314
		h-1.5852v-6.2188c0-1.2494-0.2157-2.2052-0.6481-2.8702c-0.4324-0.6641-1.233-0.9961-2.4012-0.9961
		c-0.0802,0-0.3044,0.0319-0.6725,0.0957c-0.3681,0.0647-0.756,0.2401-1.1645,0.529c-0.408,0.288-0.7724,0.7204-1.0923,1.2963
		c-0.3208,0.5759-0.4802,1.3769-0.4802,2.4012v5.7629h-1.5852v-8.7644c0-0.3039-0.0117-0.6885-0.0356-1.1528
		c-0.0244-0.4643-0.0525-0.9042-0.0844-1.3207H172.8647z"/>
	<path class="st0" d="M187.0079,81.3536c0,0.3367-0.1201,0.6125-0.3602,0.8282c-0.2401,0.2167-0.5046,0.3245-0.7926,0.3245
		c-0.288,0-0.5525-0.1079-0.7926-0.3245c-0.2401-0.2157-0.3602-0.4915-0.3602-0.8282c0-0.3358,0.1201-0.6125,0.3602-0.8282
		c0.2401-0.2157,0.5046-0.3245,0.7926-0.3245c0.2879,0,0.5525,0.1088,0.7926,0.3245
		C186.8878,80.7411,187.0079,81.0178,187.0079,81.3536z M186.6477,96.9136h-1.5852V85.6758h1.5852V96.9136z"/>
	<path class="st0" d="M198.6537,88.3171c-0.2725-0.4155-0.6528-0.7682-1.1406-1.0562c-0.4887-0.288-1.0449-0.4324-1.6691-0.4324
		c-0.6566-0.0159-1.2447,0.0882-1.7648,0.3123c-0.5206,0.2242-0.9647,0.5365-1.3329,0.9361
		c-0.3681,0.4005-0.6481,0.877-0.8404,1.4285c-0.1918,0.5525-0.288,1.149-0.288,1.7896c0,0.6397,0.0961,1.2362,0.288,1.7887
		c0.1923,0.5525,0.4723,1.029,0.8404,1.4285c0.3682,0.4005,0.8123,0.7129,1.3329,0.9361c0.5201,0.2251,1.1082,0.3283,1.7648,0.3123
		c0.6242,0,1.1804-0.1435,1.6691-0.4324c0.4877-0.288,0.8681-0.6397,1.1406-1.0562l1.2963,0.9849
		c-0.5604,0.6566-1.1926,1.1406-1.8966,1.452c-0.7049,0.3123-1.4407,0.4765-2.2094,0.4924
		c-0.9122,0.0159-1.7371-0.1238-2.473-0.4202c-0.7368-0.2955-1.3652-0.7082-1.8853-1.2363
		c-0.5201-0.5281-0.9164-1.1565-1.1884-1.8853c-0.2725-0.7279-0.408-1.5167-0.408-2.3646c0-0.8489,0.1355-1.6368,0.408-2.3656
		c0.272-0.7279,0.6683-1.3563,1.1884-1.8853c0.5201-0.5281,1.1485-0.9398,1.8853-1.2362c0.7358-0.2964,1.5608-0.4362,2.473-0.4202
		c0.7687,0.0159,1.5045,0.1801,2.2094,0.4924c0.7039,0.3123,1.3361,0.7963,1.8966,1.4529L198.6537,88.3171z"/>
	<path class="st0" d="M209.2425,90.0223v-0.288c0-1.9369-0.9605-2.9058-2.8815-2.9058c-1.3127,0-2.4575,0.4408-3.4334,1.3207
		l-0.9605-1.1284c1.0566-1.089,2.6413-1.633,4.7541-1.633c0.544,0,1.0688,0.0807,1.573,0.2401
		c0.5042,0.1604,0.9403,0.4043,1.3085,0.7326c0.3681,0.3283,0.6641,0.7401,0.8887,1.2363c0.2237,0.4962,0.3363,1.089,0.3363,1.7775
		v5.0182c0,0.4324,0.0197,0.8845,0.06,1.3563c0.0394,0.4727,0.084,0.8611,0.1318,1.165h-1.5369
		c-0.0478-0.272-0.084-0.5684-0.1079-0.8883c-0.0239-0.3199-0.0361-0.6322-0.0361-0.937h-0.0478
		c-0.4648,0.7532-1.0125,1.2935-1.6447,1.6208c-0.6327,0.3283-1.4051,0.4924-2.3173,0.4924c-0.4967,0-0.9769-0.0685-1.4407-0.2035
		c-0.4648-0.136-0.8765-0.3442-1.2367-0.6247c-0.3602-0.2795-0.6481-0.6247-0.8643-1.0327s-0.3241-0.8845-0.3241-1.4285
		c0-0.9127,0.2359-1.6283,0.7082-2.1489c0.4718-0.5206,1.0646-0.9089,1.777-1.165c0.7119-0.2561,1.4726-0.4155,2.2811-0.4802
		c0.8081-0.0638,1.5486-0.0957,2.2211-0.0957H209.2425z M208.4264,91.3186c-0.4005,0-0.9005,0.0206-1.5007,0.06
		c-0.6003,0.0403-1.1767,0.136-1.7292,0.288c-0.552,0.1529-1.0247,0.3883-1.4168,0.7091c-0.3921,0.3198-0.5881,0.7598-0.5881,1.3207
		c0,0.3677,0.076,0.6838,0.2279,0.9483c0.1519,0.2636,0.3564,0.4802,0.6125,0.6481c0.2561,0.1679,0.5403,0.288,0.8526,0.3602
		c0.3119,0.0722,0.628,0.1079,0.9483,0.1079c0.5764,0,1.0763-0.0957,1.5008-0.288c0.424-0.1923,0.7804-0.4521,1.0683-0.7804
		c0.2884-0.3283,0.5004-0.7119,0.6364-1.1528c0.136-0.4399,0.204-0.908,0.204-1.4041v-0.817H208.4264z"/>
	<path class="st0" d="M221.1768,85.6758h1.5852v1.8731h0.0478c0.2561-0.3846,0.56-0.7119,0.9126-0.9849
		c0.3517-0.272,0.7204-0.4952,1.1045-0.6716c0.3841-0.1763,0.7804-0.3039,1.1884-0.3846c0.4085-0.0797,0.7963-0.1201,1.1645-0.1201
		c0.8803,0,1.6846,0.1482,2.4134,0.4446c0.7283,0.2964,1.3568,0.7082,1.8849,1.2363c0.5285,0.5281,0.9403,1.1528,1.2367,1.8731
		c0.2959,0.7204,0.4441,1.5045,0.4441,2.3534c0,0.8479-0.1482,1.6321-0.4441,2.3524c-0.2964,0.7204-0.7082,1.3451-1.2367,1.8731
		c-0.5281,0.5281-1.1565,0.9408-1.8849,1.2372c-0.7288,0.2955-1.5331,0.4437-2.4134,0.4437c-0.3681,0-0.756-0.0403-1.1645-0.1201
		c-0.408-0.0797-0.8043-0.2073-1.1884-0.3836c-0.3841-0.1763-0.7527-0.4005-1.1045-0.6725
		c-0.3527-0.272-0.6566-0.6003-0.9126-0.9849h-0.0478v8.7888h-1.5852V85.6758z M231.4302,91.2952
		c0-0.6247-0.1004-1.209-0.3002-1.7531c-0.2003-0.544-0.4845-1.0168-0.8526-1.4173c-0.3681-0.3996-0.8127-0.7157-1.3324-0.9483
		c-0.5206-0.2317-1.1087-0.348-1.7653-0.348c-0.6566,0-1.2569,0.1163-1.8009,0.348c-0.544,0.2326-1.0168,0.5487-1.4163,0.9483
		c-0.4005,0.4005-0.7129,0.8733-0.9366,1.4173c-0.2247,0.544-0.3363,1.1284-0.3363,1.7531c0,0.6237,0.1116,1.2081,0.3363,1.7521
		c0.2237,0.545,0.536,1.0168,0.9366,1.4173c0.3996,0.4005,0.8723,0.7166,1.4163,0.9483c0.544,0.2326,1.1443,0.348,1.8009,0.348
		c0.6566,0,1.2447-0.1154,1.7653-0.348c0.5196-0.2317,0.9642-0.5478,1.3324-0.9483c0.3681-0.4005,0.6524-0.8723,0.8526-1.4173
		C231.3298,92.5033,231.4302,91.9189,231.4302,91.2952z"/>
	<path class="st0" d="M243.0517,90.0223v-0.288c0-1.9369-0.9605-2.9058-2.8814-2.9058c-1.3127,0-2.4575,0.4408-3.4335,1.3207
		l-0.9605-1.1284c1.0566-1.089,2.6413-1.633,4.7541-1.633c0.544,0,1.0688,0.0807,1.573,0.2401
		c0.5042,0.1604,0.9403,0.4043,1.3085,0.7326c0.3681,0.3283,0.6641,0.7401,0.8887,1.2363c0.2237,0.4962,0.3363,1.089,0.3363,1.7775
		v5.0182c0,0.4324,0.0197,0.8845,0.06,1.3563c0.0394,0.4727,0.084,0.8611,0.1318,1.165h-1.5369
		c-0.0478-0.272-0.084-0.5684-0.1079-0.8883c-0.0239-0.3199-0.0361-0.6322-0.0361-0.937H243.1
		c-0.4648,0.7532-1.0125,1.2935-1.6447,1.6208c-0.6327,0.3283-1.4051,0.4924-2.3173,0.4924c-0.4967,0-0.9769-0.0685-1.4407-0.2035
		c-0.4648-0.136-0.8765-0.3442-1.2367-0.6247c-0.3602-0.2795-0.6481-0.6247-0.8643-1.0327s-0.3241-0.8845-0.3241-1.4285
		c0-0.9127,0.2359-1.6283,0.7082-2.1489c0.4718-0.5206,1.0646-0.9089,1.777-1.165c0.7119-0.2561,1.4726-0.4155,2.2811-0.4802
		c0.8081-0.0638,1.5486-0.0957,2.2211-0.0957H243.0517z M242.2356,91.3186c-0.4005,0-0.9005,0.0206-1.5007,0.06
		c-0.6003,0.0403-1.1767,0.136-1.7292,0.288c-0.552,0.1529-1.0247,0.3883-1.4168,0.7091c-0.3921,0.3198-0.5881,0.7598-0.5881,1.3207
		c0,0.3677,0.076,0.6838,0.2279,0.9483c0.1519,0.2636,0.3564,0.4802,0.6125,0.6481c0.2561,0.1679,0.5403,0.288,0.8526,0.3602
		c0.3119,0.0722,0.628,0.1079,0.9483,0.1079c0.5764,0,1.0763-0.0957,1.5008-0.288c0.424-0.1923,0.7804-0.4521,1.0683-0.7804
		c0.2884-0.3283,0.5004-0.7119,0.6364-1.1528c0.136-0.4399,0.204-0.908,0.204-1.4041v-0.817H242.2356z"/>
	<path class="st0" d="M248.4788,89.1819c0-0.4962-0.0122-1.0008-0.0361-1.5129c-0.0239-0.5121-0.0441-1.1762-0.06-1.9932h1.5608
		v2.0889h0.0478c0.1121-0.3039,0.272-0.5956,0.4803-0.8761c0.2082-0.2795,0.4601-0.5318,0.7565-0.756
		c0.2959-0.2242,0.6402-0.4043,1.0327-0.5403c0.3921-0.136,0.8362-0.2045,1.3324-0.2045c0.4483,0,0.8404,0.0478,1.1767,0.1444
		l-0.3119,1.5608c-0.2082-0.0807-0.5126-0.1201-0.9126-0.1201c-0.6087,0-1.1284,0.1163-1.5608,0.348
		c-0.4324,0.2317-0.7926,0.5281-1.0805,0.8883c-0.288,0.3602-0.5004,0.7485-0.6364,1.165c-0.136,0.4165-0.204,0.816-0.204,1.2006
		v6.3388h-1.5847V89.1819z"/>
	<path class="st0" d="M263.4858,90.0223v-0.288c0-1.9369-0.9605-2.9058-2.8815-2.9058c-1.3127,0-2.4575,0.4408-3.4334,1.3207
		l-0.9605-1.1284c1.0566-1.089,2.6413-1.633,4.7541-1.633c0.544,0,1.0688,0.0807,1.573,0.2401
		c0.5042,0.1604,0.9403,0.4043,1.3085,0.7326c0.3682,0.3283,0.6641,0.7401,0.8887,1.2363c0.2237,0.4962,0.3362,1.089,0.3362,1.7775
		v5.0182c0,0.4324,0.0197,0.8845,0.0601,1.3563c0.0394,0.4727,0.0839,0.8611,0.1318,1.165h-1.5369
		c-0.0479-0.272-0.084-0.5684-0.1079-0.8883c-0.0239-0.3199-0.0361-0.6322-0.0361-0.937h-0.0479
		c-0.4648,0.7532-1.0125,1.2935-1.6447,1.6208c-0.6327,0.3283-1.4051,0.4924-2.3173,0.4924c-0.4966,0-0.9769-0.0685-1.4407-0.2035
		c-0.4648-0.136-0.8765-0.3442-1.2367-0.6247c-0.3602-0.2795-0.6482-0.6247-0.8643-1.0327
		c-0.2162-0.408-0.3241-0.8845-0.3241-1.4285c0-0.9127,0.2359-1.6283,0.7082-2.1489c0.4718-0.5206,1.0646-0.9089,1.777-1.165
		c0.7119-0.2561,1.4726-0.4155,2.2812-0.4802c0.8081-0.0638,1.5486-0.0957,2.2211-0.0957H263.4858z M262.6698,91.3186
		c-0.4005,0-0.9005,0.0206-1.5008,0.06c-0.6003,0.0403-1.1767,0.136-1.7292,0.288c-0.552,0.1529-1.0247,0.3883-1.4168,0.7091
		c-0.3921,0.3198-0.5881,0.7598-0.5881,1.3207c0,0.3677,0.076,0.6838,0.2279,0.9483c0.1519,0.2636,0.3564,0.4802,0.6125,0.6481
		s0.5403,0.288,0.8526,0.3602c0.3119,0.0722,0.628,0.1079,0.9483,0.1079c0.5764,0,1.0763-0.0957,1.5008-0.288
		c0.424-0.1923,0.7804-0.4521,1.0684-0.7804c0.2884-0.3283,0.5004-0.7119,0.6364-1.1528c0.136-0.4399,0.204-0.908,0.204-1.4041
		v-0.817H262.6698z"/>
	<path class="st0" d="M280.6549,87.1165h-2.6653v9.7971h-1.5847v-9.7971h-2.3773v-1.4407h2.3773v-3.0737
		c0-1.4886,0.3438-2.5485,1.0323-3.1816c0.688-0.6322,1.6006-0.9483,2.7375-0.9483c0.2242,0,0.4521,0.0159,0.6842,0.0478
		c0.2321,0.0328,0.4601,0.0722,0.6843,0.1201l-0.288,1.4407c-0.1923-0.0478-0.3925-0.0872-0.6003-0.1201
		c-0.2083-0.0319-0.4165-0.0478-0.6242-0.0478c-0.4324,0-0.7846,0.0722-1.0566,0.2167c-0.2725,0.1435-0.4803,0.348-0.6242,0.6116
		c-0.144,0.2645-0.2401,0.5731-0.2884,0.9248c-0.0479,0.3527-0.0717,0.7288-0.0717,1.1284v2.8814h2.6653V87.1165z"/>
	<path class="st0" d="M289.7312,90.0223v-0.288c0-1.9369-0.9605-2.9058-2.8814-2.9058c-1.3127,0-2.4575,0.4408-3.4334,1.3207
		l-0.9605-1.1284c1.0566-1.089,2.6413-1.633,4.7541-1.633c0.544,0,1.0688,0.0807,1.573,0.2401
		c0.5042,0.1604,0.9403,0.4043,1.3085,0.7326c0.3682,0.3283,0.6641,0.7401,0.8887,1.2363c0.2237,0.4962,0.3363,1.089,0.3363,1.7775
		v5.0182c0,0.4324,0.0197,0.8845,0.06,1.3563c0.0394,0.4727,0.084,0.8611,0.1318,1.165h-1.5369
		c-0.0478-0.272-0.084-0.5684-0.1078-0.8883c-0.0239-0.3199-0.0361-0.6322-0.0361-0.937h-0.0478
		c-0.4648,0.7532-1.0125,1.2935-1.6447,1.6208c-0.6327,0.3283-1.4051,0.4924-2.3173,0.4924c-0.4966,0-0.9769-0.0685-1.4407-0.2035
		c-0.4648-0.136-0.8766-0.3442-1.2367-0.6247c-0.3602-0.2795-0.6481-0.6247-0.8643-1.0327
		c-0.2162-0.408-0.3241-0.8845-0.3241-1.4285c0-0.9127,0.2359-1.6283,0.7082-2.1489c0.4718-0.5206,1.0646-0.9089,1.777-1.165
		c0.7119-0.2561,1.4726-0.4155,2.2811-0.4802c0.8081-0.0638,1.5486-0.0957,2.2211-0.0957H289.7312z M288.9152,91.3186
		c-0.4005,0-0.9005,0.0206-1.5008,0.06c-0.6003,0.0403-1.1767,0.136-1.7291,0.288c-0.552,0.1529-1.0247,0.3883-1.4168,0.7091
		c-0.3921,0.3198-0.5881,0.7598-0.5881,1.3207c0,0.3677,0.076,0.6838,0.2279,0.9483c0.152,0.2636,0.3564,0.4802,0.6125,0.6481
		c0.256,0.1679,0.5403,0.288,0.8526,0.3602c0.3119,0.0722,0.628,0.1079,0.9483,0.1079c0.5764,0,1.0763-0.0957,1.5007-0.288
		c0.424-0.1923,0.7804-0.4521,1.0684-0.7804c0.2884-0.3283,0.5004-0.7119,0.6364-1.1528c0.136-0.4399,0.204-0.908,0.204-1.4041
		v-0.817H288.9152z"/>
	<path class="st0" d="M294.9899,88.1736c0-0.4165-0.0117-0.8329-0.0356-1.2494c-0.0244-0.4155-0.0525-0.832-0.0844-1.2484h1.7052
		v1.7052h0.0479c0.3841-0.6566,0.9164-1.1528,1.5969-1.4886c0.68-0.3367,1.3568-0.5046,2.0288-0.5046
		c0.3039,0,0.628,0.0319,0.9727,0.0957c0.3438,0.0647,0.6758,0.1801,0.9966,0.3489c0.3198,0.1679,0.62,0.4043,0.9005,0.7082
		c0.2795,0.3039,0.5159,0.696,0.7082,1.1762c0.3199-0.7204,0.8282-1.2878,1.5247-1.7043s1.4206-0.6247,2.1733-0.6247
		c1.4407,0,2.5049,0.3808,3.1933,1.1406c0.6885,0.7607,1.0327,1.845,1.0327,3.2538v7.1314h-1.5847v-6.5555
		c0-1.1359-0.2003-2.0082-0.6003-2.6169c-0.4005-0.6087-1.1448-0.9127-2.2333-0.9127c-0.5923,0-1.0885,0.1163-1.4886,0.348
		c-0.4005,0.2326-0.7246,0.5403-0.9727,0.9248c-0.2481,0.3836-0.4282,0.8207-0.5403,1.3085
		c-0.1121,0.4887-0.1679,0.9961-0.1679,1.5251v5.9786h-1.5847v-6.5555c0-1.1359-0.2007-2.0082-0.6003-2.6169
		c-0.4005-0.6087-1.1448-0.9127-2.2333-0.9127c-0.0961,0-0.3161,0.0319-0.6603,0.0957c-0.3442,0.0647-0.7007,0.2401-1.0684,0.529
		c-0.3686,0.288-0.7007,0.7204-0.9966,1.2963c-0.2964,0.5759-0.4441,1.3769-0.4441,2.4012v5.7629h-1.5852V88.1736z"/>
	<path class="st0" d="M317.7536,81.3536c0,0.3367-0.1201,0.6125-0.3602,0.8282c-0.2401,0.2167-0.5046,0.3245-0.7926,0.3245
		s-0.5525-0.1079-0.7926-0.3245c-0.2401-0.2157-0.3602-0.4915-0.3602-0.8282c0-0.3358,0.1201-0.6125,0.3602-0.8282
		c0.2401-0.2157,0.5046-0.3245,0.7926-0.3245s0.5525,0.1088,0.7926,0.3245C317.6335,80.7411,317.7536,81.0178,317.7536,81.3536z
		 M317.3934,96.9136h-1.5852V85.6758h1.5852V96.9136z"/>
	<path class="st0" d="M323.1563,96.9136h-1.5852V78.7601h1.5852V96.9136z"/>
	<path class="st0" d="M329.2794,81.3536c0,0.3367-0.1201,0.6125-0.3602,0.8282c-0.2401,0.2167-0.5046,0.3245-0.7926,0.3245
		s-0.5525-0.1079-0.7926-0.3245c-0.2401-0.2157-0.3602-0.4915-0.3602-0.8282c0-0.3358,0.1201-0.6125,0.3602-0.8282
		c0.2401-0.2157,0.5046-0.3245,0.7926-0.3245s0.5525,0.1088,0.7926,0.3245C329.1593,80.7411,329.2794,81.0178,329.2794,81.3536z
		 M328.9192,96.9136h-1.5852V85.6758h1.5852V96.9136z"/>
	<path class="st0" d="M339.9403,90.0223v-0.288c0-1.9369-0.9605-2.9058-2.8814-2.9058c-1.3127,0-2.4575,0.4408-3.4334,1.3207
		l-0.9605-1.1284c1.0566-1.089,2.6413-1.633,4.7541-1.633c0.544,0,1.0688,0.0807,1.573,0.2401
		c0.5042,0.1604,0.9403,0.4043,1.3085,0.7326c0.3682,0.3283,0.6641,0.7401,0.8887,1.2363c0.2237,0.4962,0.3363,1.089,0.3363,1.7775
		v5.0182c0,0.4324,0.0197,0.8845,0.06,1.3563c0.0394,0.4727,0.084,0.8611,0.1318,1.165h-1.5369
		c-0.0478-0.272-0.084-0.5684-0.1078-0.8883c-0.0239-0.3199-0.0361-0.6322-0.0361-0.937h-0.0478
		c-0.4648,0.7532-1.0125,1.2935-1.6447,1.6208c-0.6327,0.3283-1.4051,0.4924-2.3173,0.4924c-0.4966,0-0.9769-0.0685-1.4407-0.2035
		c-0.4648-0.136-0.8766-0.3442-1.2367-0.6247c-0.3602-0.2795-0.6481-0.6247-0.8643-1.0327
		c-0.2162-0.408-0.3241-0.8845-0.3241-1.4285c0-0.9127,0.2359-1.6283,0.7082-2.1489c0.4718-0.5206,1.0646-0.9089,1.777-1.165
		c0.7119-0.2561,1.4726-0.4155,2.2811-0.4802c0.8081-0.0638,1.5486-0.0957,2.2211-0.0957H339.9403z M339.1243,91.3186
		c-0.4005,0-0.9005,0.0206-1.5008,0.06c-0.6003,0.0403-1.1767,0.136-1.7291,0.288c-0.552,0.1529-1.0247,0.3883-1.4168,0.7091
		c-0.3921,0.3198-0.5881,0.7598-0.5881,1.3207c0,0.3677,0.076,0.6838,0.2279,0.9483c0.1519,0.2636,0.3564,0.4802,0.6125,0.6481
		c0.256,0.1679,0.5403,0.288,0.8526,0.3602c0.3119,0.0722,0.628,0.1079,0.9483,0.1079c0.5764,0,1.0763-0.0957,1.5007-0.288
		c0.424-0.1923,0.7804-0.4521,1.0684-0.7804c0.2884-0.3283,0.5004-0.7119,0.6364-1.1528c0.136-0.4399,0.204-0.908,0.204-1.4041
		v-0.817H339.1243z"/>
	<path class="st0" d="M345.3674,89.1819c0-0.4962-0.0122-1.0008-0.0361-1.5129s-0.0441-1.1762-0.06-1.9932h1.5608v2.0889h0.0478
		c0.1121-0.3039,0.272-0.5956,0.4803-0.8761c0.2082-0.2795,0.4601-0.5318,0.7565-0.756c0.2959-0.2242,0.6402-0.4043,1.0327-0.5403
		c0.3921-0.136,0.8362-0.2045,1.3324-0.2045c0.4484,0,0.8404,0.0478,1.1767,0.1444l-0.3119,1.5608
		c-0.2082-0.0807-0.5126-0.1201-0.9126-0.1201c-0.6088,0-1.1284,0.1163-1.5608,0.348c-0.4324,0.2317-0.7926,0.5281-1.0805,0.8883
		c-0.288,0.3602-0.5004,0.7485-0.6364,1.165c-0.136,0.4165-0.204,0.816-0.204,1.2006v6.3388h-1.5847V89.1819z"/>
	<path class="st0" d="M353.8439,91.7266c0.0479,0.5609,0.1839,1.089,0.408,1.5852c0.2242,0.4962,0.5201,0.9248,0.8883,1.285
		c0.3682,0.3602,0.7926,0.6444,1.2728,0.8517c0.4802,0.2082,1.0003,0.3123,1.5608,0.3123c0.8484,0,1.5805-0.196,2.1972-0.5881
		c0.6158-0.3921,1.0843-0.8442,1.4046-1.3563l1.2245,1.0083c-0.6721,0.8489-1.4131,1.4567-2.2211,1.8244
		c-0.8085,0.3686-1.6771,0.5525-2.6052,0.5525c-0.8325,0-1.6049-0.1482-2.3173-0.4437c-0.7124-0.2964-1.3249-0.7091-1.837-1.2372
		c-0.5121-0.5281-0.9164-1.1528-1.2123-1.8731c-0.2964-0.7204-0.4441-1.5045-0.4441-2.3524c0-0.8489,0.144-1.633,0.4319-2.3534
		c0.2884-0.7204,0.688-1.345,1.2006-1.8731c0.5121-0.5281,1.1124-0.9398,1.8009-1.2363c0.688-0.2964,1.4327-0.4446,2.2333-0.4446
		c0.8484,0,1.6086,0.1519,2.2811,0.4559c0.6721,0.3048,1.2367,0.7091,1.6926,1.2128c0.4563,0.5046,0.8048,1.0965,1.0449,1.7775
		c0.2401,0.68,0.3602,1.4041,0.3602,2.1723v0.7204H353.8439z M361.4794,90.4304c0-1.0721-0.3203-1.9407-0.9605-2.6057
		c-0.6402-0.6641-1.5369-0.9961-2.6891-0.9961c-0.5126,0-1.0088,0.1004-1.489,0.3002c-0.4802,0.2007-0.9005,0.468-1.2606,0.8048
		c-0.3602,0.3358-0.6481,0.7204-0.8643,1.1518c-0.2162,0.4324-0.3241,0.8808-0.3241,1.3451H361.4794z"/>
	<path class="st0" d="M372.0447,88.3415c-0.2401-0.4643-0.5604-0.832-0.9605-1.1049c-0.4005-0.272-0.8882-0.408-1.4646-0.408
		c-0.2725,0-0.5487,0.0319-0.8287,0.0957c-0.28,0.0647-0.5323,0.1651-0.756,0.3001c-0.2246,0.1369-0.4047,0.3086-0.5403,0.5168
		c-0.1365,0.2082-0.2045,0.4643-0.2045,0.7682c0,0.5281,0.1839,0.9126,0.5525,1.1528c0.3681,0.2401,0.9201,0.4483,1.6569,0.6237
		l1.6086,0.3846c0.7841,0.1763,1.4365,0.5328,1.9571,1.0684c0.5201,0.5365,0.7804,1.2053,0.7804,2.0054
		c0,0.6087-0.1243,1.1321-0.3724,1.573c-0.2481,0.4399-0.5759,0.8001-0.9844,1.0805c-0.408,0.2795-0.8766,0.484-1.4046,0.6116
		c-0.5281,0.1285-1.0646,0.1923-1.6086,0.1923c-0.8648,0-1.6691-0.1641-2.4134-0.4924c-0.7443-0.3274-1.3807-0.892-1.9088-1.6921
		l1.3685-0.937c0.3199,0.5131,0.7241,0.9211,1.2128,1.225c0.4877,0.3039,1.0684,0.4559,1.7409,0.4559
		c0.3199,0,0.6397-0.0356,0.9605-0.1079c0.3199-0.0722,0.6041-0.1838,0.8521-0.3358c0.2481-0.152,0.4479-0.3489,0.6003-0.5891
		c0.1519-0.2401,0.2284-0.5196,0.2284-0.8404c0-0.56-0.2082-0.9642-0.6247-1.2119c-0.4164-0.2486-0.9206-0.4446-1.5125-0.589
		l-1.5369-0.3602c-0.1923-0.0478-0.4526-0.1276-0.7804-0.2401c-0.3283-0.1116-0.6481-0.2795-0.9605-0.5037
		c-0.3123-0.2242-0.5806-0.5168-0.8043-0.877c-0.2246-0.3602-0.3363-0.8038-0.3363-1.3319c0-0.5769,0.1158-1.0805,0.348-1.5129
		c0.2321-0.4324,0.544-0.7841,0.9366-1.0571c0.3921-0.272,0.8362-0.4755,1.3329-0.6116c0.4957-0.136,1.0083-0.2045,1.5369-0.2045
		c0.7841,0,1.5125,0.1519,2.185,0.4559c0.6721,0.3048,1.1922,0.8254,1.5608,1.5608L372.0447,88.3415z"/>
</g>
</svg>
