<?xml version="1.0" encoding="utf-8"?>
<!-- Generator: Adobe Illustrator 24.1.1, SVG Export Plug-In . SVG Version: 6.00 Build 0)  -->
<svg version="1.1" id="Capa_1" xmlns="http://www.w3.org/2000/svg" xmlns:xlink="http://www.w3.org/1999/xlink" x="0px" y="0px"
	 width="405.1526px" height="178.1695px" viewBox="0 0 405.1526 178.1695" style="enable-background:new 0 0 405.1526 178.1695;"
	 xml:space="preserve">
<style type="text/css">
	.st0{fill:#FFFFFF;}
	.st1{fill:#35A0AD;}
	.st2{fill:#E9E8E8;}
	.st3{fill:#6F2E82;}
	.st4{fill:none;stroke:#FFFFFF;stroke-miterlimit:10;}
	.st5{fill:none;stroke:#FFFFFF;stroke-width:2;stroke-linecap:round;stroke-linejoin:round;stroke-miterlimit:10;}
	.st6{fill:none;}
	.st7{fill:#FFFFFF;stroke:#35A0AD;stroke-width:2;stroke-linecap:round;stroke-linejoin:round;stroke-miterlimit:10;}
	.st8{fill:#EDEDED;}
</style>
<g>
	<path class="st0" d="M94.061,72.3659c-0.1035,0.9923-0.1494,1.9948-0.3195,2.9756c-1.5084,8.6984-7.6345,11.7632-15.2814,7.2394
		c-3.3755-1.997-6.5656-4.6351-9.1499-7.5862C56.8025,60.712,49.4183,44.0433,47.4221,25.1434
		c-0.3776-3.5746,0.028-7.3492,0.741-10.8971c1.48-7.3635,7.0734-9.9101,13.9166-6.6457c1.3408,0.6396,2.6372,1.4196,3.8413,2.2908
		C81.7644,21.3536,96.042,53.0166,94.061,72.3659z M84.1604,74.8953C90.9269,60,68.9218,16.3072,57.0615,16.2123
		C51.7969,32.2598,71.4421,72.0169,84.1604,74.8953z"/>
	<path class="st0" d="M41.1904,25.2406c4.8633,9.4545,0.9771,15.4919-6.0363,20.9848c-1.9565,1.5323-3.3915,5.0075-3.348,7.5623
		c0.1049,6.169,2.7111,11.764,7.4202,15.8211c1.7167,1.4791,4.8472,2.4272,7.0511,2.0352c8.7776-1.5614,16.2762-0.8682,19.938,8.916
		c-13.9551-4.8689-26.6788,0.628-39.6189,5.946c-2.4415,1.0034-6.8671-0.0864-9.1152-1.834
		C9.0587,78.1254,5.1896,69.1895,6.1333,58.3947c0.3353-3.8353,2.2686-6.368,5.9114-7.8987
		c3.6733-1.5435,7.2192-3.4282,10.7065-5.3689C30.957,40.5607,37.6351,34.4908,41.1904,25.2406z"/>
	<path class="st0" d="M30.1509,89.9278c2.9435-1.2925,5.2397-2.2084,7.4531-3.2934c3.6824-1.8052,6.6475-1.1855,9.0981,2.1954
		c2.3634,3.2605,5.4923,4.7919,9.6555,5.3481c2.2789,0.3045,4.5459,2.8022,6.093,4.857c0.3452,0.4586-2.2693,3.2828-3.6874,4.8692
		c-0.634,0.7092-1.671,1.0648-2.5383,1.5575c-9.0612,5.1478-11.0979,4.7041-17.3267-3.7352
		C36.139,97.9879,33.3641,94.2607,30.1509,89.9278z"/>
	<path class="st4" d="M26.2998,168.5445c-4.4396-4.7275-8.49-9.0405-11.9885-12.7659c10.0073-8.615,19.9188-17.1475,29.8303-25.6799
		c0.2526,0.2021,0.5052,0.4041,0.7579,0.6062C38.7947,143.1247,32.6897,155.5447,26.2998,168.5445"/>
	<path class="st4" d="M48.2803,171.6709c2.1279-11.9923,4.0939-23.0711,6.0598-34.1501c0.3069-0.0823,0.6138-0.1647,0.9205-0.247
		c3.5444,9.9528,7.089,19.9055,10.8691,30.5199C60.3103,169.0577,54.7709,170.261,48.2803,171.6709"/>
	<path class="st4" d="M34.5656,126.8895c-4.109,2.4311-8.218,4.8623-12.6886,7.5074c-1.9648-2.0899-3.8229-4.0664-5.928-6.3057
		c1.2093-0.3873,1.8218-0.7175,2.4556-0.7656c5.2843-0.4017,10.5726-0.7515,15.8596-1.117
		C34.3646,126.4357,34.4651,126.6626,34.5656,126.8895z"/>
	<path class="st0" d="M70.281,55.4968c-2.6458-5.9073-4.9138-10.9716-7.3914-16.5036c5.0195-0.808,7.9166,1.1775,9.7196,4.5257
		C74.6815,47.3674,74.0704,51.1499,70.281,55.4968z"/>
	<path class="st5" d="M91.5823,34.2764c0.8555,2.3037,1.7582,4.084,2.1771,5.9718c2.2227,10.0054,5.4404,19.954,6.2028,30.0811
		c1.1122,14.7748-7.6691,22.0139-22.126,19.6412c-4.725-0.7755-9.2953-2.4861-13.9415-3.7506
		c-1.7581-0.4785-3.5394-1.2747-5.2927-1.231c-1.2584,0.0315-2.4879,1.2173-3.7305,1.8882c0.1487,0.43,0.2974,0.8598,0.446,1.2897
		c6.5884-0.0063,11.1646,3.2107,12.9233,9.1733c2.1868,7.4137-4.2905,9.9233-8.9492,13.2188
		c0.5349,2.3229,1.2725,4.3946,1.4475,6.5128c0.0994,1.2012,0.3438,2.2422,0.7142,3.1582l-0.005-0.0003
		c0.5349,2.3229,1.3358,3.7881,1.5109,5.9063c0.4163,5.0349,3.3097,7.3265,7.8898,8.8726
		c8.0313,2.7111,15.8557,6.0328,23.7765,9.0739c10.9475,4.2033,21.9039,8.3834,33.4286,12.7922
		c-1.3514-8.3145-2.5845-15.9001-3.8684-23.7991l-1.8718-9.0764l-0.0023-0.0001c1.7668-0.0641,2.8533-0.1318,3.9303-0.1277
		c52.7687,0.1951,194.2002,1.1474,246.968,1.4749c3.6699,0.0228,5.1519-0.9227,6.0241-4.616
		c4.8595-20.5751,10.0604-41.0691,15.0828-61.606c1.8809-7.6906,3.5956-15.4217,5.5925-24.0231
		C326.3582,35.0896,164.9007,34.2882,91.5823,34.2764z"/>
	<g>
		<path class="st0" d="M127.496,47.3794l4.1151,0.0868l9.3488,22.7912l-5.6143-0.1183l-1.8447-4.8252l-8.7721-0.1849l-1.9829,4.7445
			l-5.4863-0.1156L127.496,47.3794z M129.2714,53.9913l-2.8912,6.9601l5.5189,0.1163L129.2714,53.9913z"/>
		<path class="st0" d="M147.4429,71.5434c-0.0211,0.9994-0.1354,1.8956-0.3436,2.6885c-0.2083,0.7942-0.542,1.4676-1.0002,2.0215
			c-0.4584,0.5539-1.0575,0.9776-1.798,1.271c-0.7399,0.2922-1.6523,0.4275-2.7368,0.4046
			c-0.3621-0.0076-0.7336-0.031-1.1158-0.0716c-0.3816-0.0392-0.752-0.1171-1.1118-0.2299l0.3445-4.2376
			c0.3788,0.1989,0.7915,0.3036,1.238,0.3131c0.4036,0.0085,0.7252-0.0912,0.9639-0.2991c0.2382-0.2079,0.4138-0.4691,0.527-0.7862
			s0.1838-0.6558,0.2129-1.0161c0.0284-0.3617,0.0464-0.6911,0.0527-0.9884l0.3335-15.8219l4.7848,0.1009L147.4429,71.5434z
			 M142.7296,49.903c0.0161-0.7658,0.3005-1.4142,0.8545-1.9441c0.5533-0.5311,1.2133-0.7886,1.979-0.7725
			c0.7651,0.0161,1.4136,0.3012,1.9447,0.8552c0.5304,0.5527,0.788,1.2126,0.7717,1.9783c-0.0161,0.7658-0.3011,1.4142-0.8545,1.944
			c-0.554,0.5311-1.2137,0.7886-1.9789,0.7725c-0.7659-0.0161-1.4143-0.3012-1.9447-0.8552
			C142.9704,51.3286,142.7135,50.6687,142.7296,49.903z"/>
		<path class="st0" d="M165.8401,70.782l-4.5935-0.0968l0.0444-2.1053l-0.0636-0.0013c-0.177,0.2949-0.4006,0.5876-0.673,0.8792
			c-0.2723,0.2929-0.6018,0.5509-0.9896,0.7777c-0.3878,0.2256-0.828,0.4072-1.3198,0.5461
			c-0.4924,0.1377-1.0255,0.2018-1.5999,0.1896c-1.2117-0.0255-2.1915-0.2332-2.9385-0.6203
			c-0.7476-0.3884-1.3214-0.916-1.7222-1.5841c-0.4001-0.6681-0.6609-1.4501-0.7797-2.346c-0.12-0.8959-0.1685-1.8656-0.1465-2.9079
			l0.1802-8.5482l4.7849,0.1009l-0.16,7.5916c-0.0094,0.4465-0.0037,0.9102,0.0188,1.3885
			c0.0217,0.4796,0.1078,0.9229,0.2589,1.3299c0.1511,0.4083,0.3882,0.7419,0.7125,1.0045
			c0.3242,0.2627,0.7947,0.3998,1.4119,0.4128c0.6165,0.013,1.1185-0.0881,1.5061-0.3033c0.3877-0.2152,0.6859-0.5063,0.8962-0.8745
			c0.2097-0.3683,0.3516-0.7847,0.425-1.2519c0.0735-0.4659,0.1156-0.9546,0.1263-1.466l0.1627-7.7188l4.7849,0.1009
			L165.8401,70.782z"/>
		<path class="st0" d="M178.2239,60.0964c-0.6831-0.8857-1.5994-1.3413-2.7474-1.3655c-0.4043-0.0085-0.7996,0.0793-1.1865,0.262
			c-0.3868,0.1827-0.5853,0.5097-0.5951,0.9769c-0.0081,0.3829,0.1826,0.6687,0.5728,0.8574c0.3894,0.19,0.8857,0.3589,1.489,0.5105
			c0.6031,0.1517,1.2484,0.3133,1.9362,0.4875c0.6871,0.1742,1.3308,0.4371,1.9298,0.7899c0.599,0.3541,1.089,0.8267,1.4698,1.4191
			c0.381,0.5937,0.5618,1.3792,0.5411,2.3578c-0.021,0.9994-0.2571,1.819-0.7062,2.4575c-0.4498,0.6398-1.0189,1.1498-1.7074,1.5287
			c-0.689,0.3789-1.4606,0.6393-2.3141,0.781c-0.8542,0.1404-1.6957,0.2032-2.525,0.1857c-1.0845-0.0229-2.1772-0.2004-3.276-0.5313
			c-1.0994-0.3322-2.0236-0.8997-2.7722-1.7024l2.9701-3.1603c0.4355,0.5623,0.9205,0.992,1.457,1.2903
			c0.5365,0.2996,1.1655,0.4557,1.8892,0.4709c0.5522,0.0116,1.0543-0.057,1.5042-0.2072s0.6793-0.4376,0.6882-0.8633
			c0.0085-0.4037-0.1818-0.7102-0.5707-0.921c-0.3896-0.2108-0.8859-0.3913-1.489-0.543c-0.6027-0.1503-1.2484-0.3133-1.9363-0.4875
			c-0.6877-0.1729-1.3311-0.4267-1.9304-0.7588c-0.5995-0.3307-1.0896-0.793-1.4706-1.3866
			c-0.3816-0.5924-0.5618-1.3792-0.5411-2.3565c0.0193-0.915,0.2222-1.6977,0.6085-2.3492
			c0.3857-0.6515,0.8865-1.1824,1.5016-1.5954c0.6151-0.4129,1.3174-0.7111,2.1089-0.8969
			c0.7908-0.1859,1.5906-0.2704,2.3986-0.2533c1.0208,0.0215,2.0488,0.1925,3.0848,0.5117c1.0353,0.3205,1.9067,0.87,2.6141,1.651
			L178.2239,60.0964z"/>
		<path class="st0" d="M194.794,59.712l-4.2104-0.0887l-0.109,5.1671c-0.0089,0.4257,0.0043,0.8143,0.0397,1.1669
			c0.0348,0.3513,0.1239,0.6558,0.2677,0.9146c0.1433,0.2588,0.3676,0.4596,0.6736,0.605c0.3047,0.144,0.7134,0.2215,1.2235,0.2322
			c0.255,0.0054,0.5905-0.0135,1.0062-0.058c0.4158-0.0445,0.7318-0.1599,0.9487-0.3475l-0.084,3.9873
			c-0.5356,0.1809-1.0912,0.2964-1.6669,0.3479c-0.5751,0.0515-1.1396,0.0721-1.6926,0.0604
			c-0.808-0.017-1.5505-0.1184-2.2271-0.3028c-0.6771-0.1844-1.2666-0.4682-1.7694-0.8502
			c-0.5023-0.3833-0.8912-0.8758-1.1655-1.4776c-0.2743-0.6005-0.4025-1.3265-0.3845-2.1779l0.1553-7.3684l-3.0625-0.0645
			l0.0807-3.8276l3.0625,0.0645l0.0968-4.5934l4.7843,0.1009l-0.0968,4.5934l4.2104,0.0888L194.794,59.712z"/>
		<path class="st0" d="M211.7022,69.0685c-0.7865,0.9612-1.77,1.6962-2.9507,2.2037c-1.1805,0.5062-2.3984,0.7467-3.653,0.7203
			c-1.1915-0.0251-2.3088-0.2408-3.3534-0.6446c-1.0446-0.4051-1.9475-0.9721-2.7086-1.701
			c-0.7611-0.7289-1.3545-1.5972-1.7799-2.606s-0.6251-2.131-0.5991-3.3641c0.026-1.233,0.2728-2.3445,0.7404-3.3346
			c0.4675-0.99,1.0969-1.8337,1.8882-2.53c0.7911-0.6962,1.717-1.2246,2.7777-1.584c1.0608-0.3607,2.1863-0.5292,3.3777-0.5041
			c1.1052,0.0233,2.1064,0.2366,3.0024,0.6385c0.8953,0.4006,1.6495,0.9645,2.2621,1.6903
			c0.6118,0.7258,1.0773,1.5926,1.3969,2.5992c0.3191,1.0066,0.4656,2.1264,0.4396,3.3594l-0.0316,1.4991l-11.1-0.234
			c0.1715,0.9191,0.5708,1.656,1.198,2.212c0.6266,0.5547,1.4067,0.8425,2.3431,0.8622c0.7866,0.0166,1.4548-0.1446,2.0048-0.4836
			c0.5493-0.3403,1.0319-0.7807,1.4479-1.3264L211.7022,69.0685z M207.7952,62.156c0.0377-0.8069-0.2131-1.5043-0.7539-2.0896
			c-0.5415-0.5854-1.2473-0.8885-2.1189-0.9069c-0.5322-0.0112-1.0018,0.0646-1.4092,0.2261
			c-0.4078,0.1615-0.7577,0.3723-1.0502,0.6323c-0.2931,0.26-0.5228,0.5629-0.6898,0.91c-0.1664,0.3484-0.265,0.7125-0.2938,1.0949
			L207.7952,62.156z"/>
		<path class="st0" d="M239.4534,69.6535c-0.7864,0.9612-1.77,1.6962-2.9506,2.2037c-1.1807,0.5062-2.3986,0.7467-3.6531,0.7203
			c-1.1914-0.0251-2.3088-0.2408-3.3534-0.6446c-1.0446-0.4051-1.9474-0.9721-2.7086-1.701
			c-0.7611-0.7289-1.3544-1.5972-1.7798-2.606c-0.4255-1.0088-0.6251-2.131-0.5991-3.3641c0.0259-1.233,0.2727-2.3445,0.7402-3.3346
			c0.4675-0.99,1.0969-1.8337,1.8882-2.53c0.7911-0.6962,1.7172-1.2246,2.7778-1.5841c1.0607-0.3607,2.1862-0.5291,3.3777-0.504
			c1.1051,0.0233,2.1063,0.2366,3.0023,0.6385c0.8953,0.4006,1.6495,0.9645,2.2621,1.6903c0.6118,0.7258,1.0773,1.5926,1.397,2.5992
			c0.319,1.0066,0.4655,2.1264,0.4395,3.3594l-0.0316,1.4991l-11.1-0.234c0.1715,0.9191,0.5709,1.656,1.198,2.212
			c0.6266,0.5547,1.4067,0.8425,2.3433,0.8622c0.7865,0.0166,1.4547-0.1446,2.0046-0.4836
			c0.5493-0.3403,1.0319-0.7807,1.4479-1.3264L239.4534,69.6535z M235.5464,62.7409c0.0377-0.8069-0.2131-1.5043-0.7539-2.0896
			c-0.5415-0.5854-1.2473-0.8885-2.1189-0.9069c-0.5321-0.0112-1.0018,0.0646-1.4091,0.2261
			c-0.408,0.1615-0.7578,0.3723-1.0503,0.6323c-0.2931,0.26-0.5228,0.5629-0.6898,0.91c-0.1664,0.3484-0.265,0.7125-0.2938,1.0949
			L235.5464,62.7409z"/>
		<path class="st0" d="M247.3866,64.2033l-5.0159-7.3177l5.6461,0.119l2.6544,4.2683l2.7366-4.1547l5.3266,0.1123l-5.1918,7.1025
			l5.7905,8.4196l-5.6461-0.119l-3.2722-5.2384l-3.7457,5.0905l-5.5818-0.1176L247.3866,64.2033z"/>
		<path class="st0" d="M261.542,57.2897l4.402,0.0928l-0.0431,2.0417l0.0636,0.0013c0.1973-0.2724,0.4531-0.5488,0.7681-0.8292
			c0.3137-0.2816,0.6813-0.5336,1.101-0.7585c0.4196-0.2262,0.8746-0.4075,1.3678-0.5464c0.4917-0.1377,1.0145-0.202,1.5674-0.1903
			c1.1487,0.0242,2.1862,0.2434,3.1136,0.6565c0.9275,0.413,1.7186,0.9828,2.3734,1.7095c0.6547,0.7267,1.1521,1.5825,1.4937,2.5688
			c0.3408,0.985,0.4987,2.0635,0.474,3.2329c-0.0228,1.0838-0.2096,2.1174-0.5594,3.0995
			c-0.3512,0.9821-0.8369,1.8496-1.4592,2.6013c-0.6222,0.753-1.3743,1.3488-2.2555,1.7885
			c-0.8818,0.4385-1.8757,0.6461-2.981,0.6228c-1-0.0211-1.9268-0.1952-2.7815-0.5209c-0.8546-0.3271-1.5509-0.8676-2.0881-1.6243
			l-0.0636-0.0013l-0.1882,8.9311l-4.7849-0.1009L261.542,57.2897z M265.7805,65.1337c-0.0245,1.1694,0.2903,2.1227,0.9448,2.8598
			c0.6552,0.7371,1.5885,1.119,2.8002,1.1446c1.2123,0.0255,2.1609-0.3167,2.8458-1.0256c0.6857-0.7088,1.0405-1.648,1.0652-2.8174
			c0.0245-1.1694-0.2903-2.1227-0.9454-2.8598c-0.6545-0.7371-1.5879-1.119-2.8002-1.1446
			c-1.2117-0.0255-2.1603,0.3167-2.8459,1.0256C266.16,63.0252,265.8052,63.9643,265.7805,65.1337z"/>
		<path class="st0" d="M281.1908,57.7038l4.7849,0.1009l-0.0525,2.4881l0.0636,0.0013c0.531-0.9458,1.1516-1.6508,1.8639-2.1149
			c0.7115-0.4642,1.5992-0.6844,2.6622-0.662c0.2765,0.0058,0.5527,0.0233,0.8287,0.0499s0.5302,0.0748,0.7631,0.1433
			l-0.0922,4.3702c-0.3384-0.1136-0.6716-0.1999-0.9995-0.26c-0.3292-0.0602-0.674-0.0947-1.0354-0.1023
			c-0.9143-0.0193-1.64,0.0927-2.1769,0.3372c-0.5369,0.2445-0.9539,0.5915-1.2504,1.0423
			c-0.2971,0.4521-0.495,0.9959-0.5934,1.6314c-0.0985,0.6368-0.1555,1.3368-0.1716,2.1026l-0.1365,6.4754l-4.7848-0.1008
			L281.1908,57.7038z"/>
		<path class="st0" d="M308.0027,71.0983c-0.7864,0.9612-1.7699,1.6962-2.9506,2.2037c-1.1807,0.5062-2.3986,0.7467-3.653,0.7203
			c-1.1915-0.0251-2.309-0.2408-3.3535-0.6446c-1.0446-0.4051-1.9474-0.9721-2.7085-1.701
			c-0.7612-0.7289-1.3545-1.5971-1.7799-2.606c-0.4254-1.0088-0.6251-2.131-0.5991-3.3641s0.2727-2.3446,0.7404-3.3346
			c0.4675-0.99,1.0969-1.8338,1.8881-2.53c0.7913-0.6962,1.7172-1.2247,2.7778-1.5841c1.0607-0.3607,2.1862-0.5292,3.3777-0.5041
			c1.1052,0.0233,2.1064,0.2366,3.0023,0.6385c0.8954,0.4006,1.6495,0.9645,2.2621,1.6903c0.6119,0.7258,1.0774,1.5926,1.397,2.5992
			c0.319,1.0066,0.4655,2.1264,0.4396,3.3594l-0.0316,1.4991l-11.1-0.234c0.1715,0.9191,0.5708,1.6559,1.198,2.2119
			c0.6265,0.5547,1.4066,0.8425,2.3431,0.8623c0.7865,0.0166,1.4548-0.1447,2.0048-0.4836
			c0.5492-0.3403,1.0319-0.7807,1.4479-1.3264L308.0027,71.0983z M301.2454,51.0419l6.5072,0.1371l-5.6157,4.4771l-4.2104-0.0887
			L301.2454,51.0419z M304.0957,64.1859c0.0378-0.8069-0.213-1.5043-0.7539-2.0896c-0.5414-0.5854-1.2473-0.8885-2.1189-0.9069
			c-0.5321-0.0112-1.0018,0.0646-1.4091,0.2261c-0.4078,0.1615-0.7577,0.3723-1.0502,0.6323c-0.2931,0.26-0.5228,0.5629-0.6899,0.91
			c-0.1664,0.3484-0.2649,0.7125-0.2938,1.0949L304.0957,64.1859z"/>
		<path class="st0" d="M320.5852,63.0972c-0.6832-0.8857-1.5995-1.3413-2.7474-1.3655c-0.4043-0.0085-0.7997,0.0793-1.1865,0.262
			c-0.387,0.1827-0.5853,0.5097-0.5952,0.9769c-0.0081,0.3829,0.1826,0.6687,0.5728,0.8574c0.3894,0.19,0.8857,0.3589,1.489,0.5105
			c0.6031,0.1516,1.2484,0.3133,1.9362,0.4875c0.6871,0.1742,1.3309,0.4371,1.9298,0.7899c0.599,0.3542,1.089,0.8268,1.47,1.4191
			c0.3809,0.5937,0.5618,1.3792,0.5411,2.3578c-0.0211,0.9994-0.2572,1.819-0.7063,2.4575
			c-0.4498,0.6398-1.0189,1.1498-1.7073,1.5287c-0.6891,0.3789-1.4607,0.6393-2.3142,0.781
			c-0.8541,0.1404-1.6957,0.2032-2.525,0.1857c-1.0844-0.0229-2.1772-0.2004-3.276-0.5313
			c-1.0994-0.3322-2.0236-0.8997-2.7721-1.7023l2.9701-3.1603c0.4354,0.5623,0.9205,0.992,1.457,1.2903
			c0.5364,0.2996,1.1655,0.4557,1.889,0.4709c0.5524,0.0116,1.0543-0.057,1.5043-0.2072c0.4498-0.1502,0.6792-0.4376,0.6882-0.8633
			c0.0084-0.4037-0.1818-0.7102-0.5708-0.921c-0.3896-0.2108-0.8857-0.3914-1.489-0.543c-0.6025-0.1504-1.2484-0.3133-1.9362-0.4875
			c-0.6879-0.1729-1.3311-0.4267-1.9305-0.7588c-0.5994-0.3308-1.0896-0.793-1.4706-1.3867
			c-0.3816-0.5924-0.5618-1.3792-0.5411-2.3565c0.0193-0.9151,0.2222-1.6977,0.6085-2.3492
			c0.3857-0.6515,0.8865-1.1824,1.5016-1.5954c0.6151-0.4129,1.3175-0.7111,2.1089-0.897c0.7909-0.1859,1.5906-0.2703,2.3986-0.2533
			c1.0208,0.0215,2.0488,0.1925,3.0848,0.5117c1.0353,0.3205,1.9067,0.8699,2.6141,1.651L320.5852,63.0972z"/>
		<path class="st0" d="M350.5219,71.9946c-0.7864,0.9612-1.7699,1.6962-2.9506,2.2037c-1.1807,0.5062-2.3984,0.7467-3.653,0.7203
			c-1.1915-0.0251-2.3088-0.2408-3.3535-0.6447c-1.0446-0.4051-1.9474-0.9721-2.7085-1.701
			c-0.7611-0.7289-1.3545-1.5972-1.7799-2.606s-0.6251-2.1311-0.5991-3.3641s0.2728-2.3446,0.7404-3.3346
			c0.4675-0.99,1.0969-1.8338,1.8882-2.53c0.7911-0.6962,1.717-1.2247,2.7777-1.5841c1.0608-0.3607,2.1862-0.5291,3.3777-0.504
			c1.1052,0.0233,2.1064,0.2366,3.0023,0.6385c0.8954,0.4006,1.6497,0.9645,2.2621,1.6903c0.6119,0.7258,1.0774,1.5926,1.397,2.5992
			c0.3191,1.0066,0.4656,2.1264,0.4396,3.3594l-0.0316,1.4991l-11.1-0.234c0.1715,0.9191,0.5708,1.6559,1.198,2.2119
			c0.6265,0.5547,1.4067,0.8425,2.3431,0.8623c0.7866,0.0166,1.4548-0.1446,2.0048-0.4836
			c0.5493-0.3403,1.0319-0.7807,1.4479-1.3264L350.5219,71.9946z M346.615,65.082c0.0377-0.8069-0.2131-1.5043-0.7539-2.0896
			c-0.5415-0.5854-1.2473-0.8885-2.1189-0.9069c-0.5322-0.0112-1.002,0.0646-1.4092,0.2261
			c-0.4078,0.1615-0.7577,0.3723-1.0502,0.6323c-0.2931,0.26-0.5228,0.5629-0.6898,0.91c-0.1665,0.3484-0.265,0.7125-0.2938,1.0949
			L346.615,65.082z"/>
		<path class="st0" d="M354.4283,59.2477l4.5934,0.0968l-0.0443,2.1053l0.0636,0.0013c0.1549-0.2941,0.374-0.5868,0.6567-0.8795
			c0.2827-0.2914,0.618-0.5505,1.0059-0.7761c0.3878-0.2269,0.8273-0.4085,1.3198-0.5474c0.4924-0.1377,1.0255-0.2018,1.5999-0.1896
			c1.2123,0.0255,2.1857,0.2331,2.9229,0.62c0.7358,0.3882,1.3052,0.917,1.7059,1.5838c0.4009,0.6681,0.6655,1.4502,0.7959,2.3463
			c0.1298,0.8961,0.1841,1.8659,0.1621,2.9082l-0.1802,8.5482l-4.7849-0.1009l0.16-7.5916
			c0.0094-0.4465,0.0035-0.9102-0.0182-1.3885c-0.0216-0.4796-0.1084-0.9229-0.2595-1.33c-0.1505-0.407-0.3889-0.7419-0.7125-1.0045
			c-0.325-0.2627-0.7947-0.3998-1.4113-0.4128c-0.6171-0.013-1.1191,0.0881-1.5067,0.3033c-0.387,0.2152-0.686,0.5075-0.8956,0.8745
			c-0.2103,0.3682-0.3516,0.786-0.4257,1.2519c-0.0735,0.4672-0.1156,0.9546-0.1263,1.466l-0.1627,7.7188l-4.7849-0.1009
			L354.4283,59.2477z"/>
		<path class="st0" d="M133.8054,108.4025l-2.8711-0.0605l0.0458-2.1689l-0.0636-0.0013c-0.5707,0.7969-1.3438,1.4078-2.3208,1.8339
			c-0.9771,0.4261-1.976,0.6284-2.9968,0.6069c-1.1694-0.0247-2.223-0.2494-3.1606-0.673
			c-0.9384-0.4236-1.7345-1.0039-2.3889-1.7423c-0.6545-0.7358-1.1527-1.5877-1.494-2.5519s-0.4998-2.0103-0.476-3.1382
			c0.0237-1.1266,0.2262-2.1703,0.608-3.1296c0.3818-0.9606,0.9155-1.7895,1.6003-2.488c0.6847-0.6972,1.5044-1.2395,2.4598-1.6232
			c0.9547-0.3837,2.0167-0.5639,3.1862-0.5392c1.0851,0.0229,2.1011,0.2728,3.0481,0.7498c0.9475,0.4784,1.6677,1.1155,2.162,1.9128
			l0.0636,0.0013l0.2352-11.1636l2.8711,0.0605L133.8054,108.4025z M126.0065,105.9411c0.7657,0.0161,1.4591-0.103,2.0819-0.3561
			c0.6221-0.2518,1.1509-0.6029,1.5856-1.0508c0.4353-0.4479,0.776-0.9939,1.0239-1.6379c0.2473-0.644,0.3798-1.3489,0.3959-2.1147
			c0.0161-0.7645-0.0864-1.4743-0.3064-2.1282c-0.2206-0.6526-0.538-1.2125-0.9541-1.6796
			c-0.4154-0.4658-0.929-0.8376-1.5398-1.1167c-0.6116-0.2791-1.2993-0.4273-2.0651-0.4435
			c-0.7659-0.0161-1.4598,0.103-2.0819,0.356c-0.6228,0.2531-1.1509,0.6029-1.5856,1.0508
			c-0.4354,0.4492-0.7767,0.9952-1.024,1.6379c-0.2479,0.644-0.3796,1.349-0.3958,2.1134
			c-0.0161,0.7658,0.0858,1.4756,0.3064,2.1295c0.22,0.6539,0.538,1.2138,0.9541,1.6796c0.4154,0.4658,0.9282,0.8389,1.5398,1.1167
			C124.5524,105.7767,125.2407,105.9249,126.0065,105.9411z"/>
		<path class="st0" d="M138.4871,95.2251c0.8236-0.7267,1.7706-1.2651,2.8422-1.6152c1.0708-0.3488,2.1377-0.5133,3.2014-0.4909
			c1.1058,0.0233,2.0549,0.1823,2.8461,0.4755c0.7917,0.2933,1.438,0.6796,1.9382,1.1576c0.501,0.478,0.8667,1.0233,1.0985,1.6346
			c0.2313,0.6113,0.3406,1.246,0.3267,1.9053l-0.1626,7.7188c-0.0112,0.5322-0.0112,1.0217,0.0009,1.4687
			c0.012,0.4469,0.0348,0.8733,0.0691,1.2779l-2.5518-0.0538c-0.0481-0.7672-0.0637-1.5336-0.0476-2.2981l-0.0636-0.0013
			c-0.6586,0.9639-1.4286,1.6398-2.3086,2.0251c-0.8807,0.3853-1.8948,0.5665-3.0428,0.5423
			c-0.7021-0.0148-1.3699-0.125-2.0038-0.3292c-0.6339-0.2055-1.186-0.5042-1.6563-0.8971
			c-0.4708-0.393-0.8386-0.8734-1.1025-1.4425c-0.2645-0.5692-0.389-1.2262-0.3733-1.9712
			c0.0206-0.9774,0.2552-1.7918,0.7053-2.4419c0.45-0.6502,1.0564-1.175,1.8206-1.5731c0.7634-0.3994,1.6523-0.6781,2.6666-0.8372
			c1.0135-0.1591,2.0947-0.2272,3.2434-0.203l2.1052,0.0444l0.0134-0.6386c0.0081-0.3829-0.0591-0.7674-0.1996-1.1534
			c-0.1406-0.386-0.3566-0.736-0.6479-1.0499c-0.2914-0.3152-0.6581-0.567-1.1007-0.7582c-0.4427-0.1898-0.973-0.2906-1.5895-0.3036
			c-0.553-0.0117-1.0376,0.0314-1.4545,0.1278c-0.417,0.099-0.7975,0.2234-1.1409,0.3759
			c-0.3434,0.1512-0.6563,0.3316-0.9365,0.5386c-0.2816,0.207-0.5513,0.4026-0.8104,0.5893L138.4871,95.2251z M146.4624,101.3938
			c-0.6808-0.0143-1.3779,0.0073-2.0914,0.0676c-0.7141,0.059-1.3661,0.1894-1.9546,0.3886
			c-0.5898,0.2005-1.0745,0.489-1.4545,0.864c-0.3805,0.375-0.5764,0.8604-0.589,1.4549c-0.0183,0.8722,0.2605,1.5053,0.8372,1.9005
			c0.5765,0.3952,1.3643,0.6027,2.3644,0.6238c0.7865,0.0166,1.4591-0.1017,2.0183-0.3561
			c0.5579-0.2531,1.0116-0.5903,1.3612-1.0075c0.3491-0.4186,0.6038-0.8859,0.7633-1.4045
			c0.1595-0.5173,0.2457-1.0323,0.2565-1.5424l0.0203-0.9566L146.4624,101.3938z"/>
		<path class="st0" d="M155.0171,93.7233l2.871,0.0605l-0.0491,2.3285l0.0636,0.0013c0.3785-0.7997,1.0199-1.4406,1.9233-1.9215
			c0.9042-0.4809,1.9407-0.7096,3.1101-0.685c0.723,0.0153,1.417,0.1415,2.082,0.3789c0.6656,0.2374,1.243,0.5963,1.7329,1.074
			c0.4893,0.4778,0.8756,1.0872,1.1581,1.8268c0.2823,0.7409,0.4127,1.6098,0.3917,2.6092l-0.2051,9.7294l-2.8711-0.0605
			l0.1882-8.9311c0.0149-0.7022-0.0679-1.3051-0.2488-1.8089c-0.1809-0.5037-0.4275-0.9128-0.7402-1.2284
			c-0.3121-0.3143-0.6742-0.5453-1.0859-0.6929c-0.4117-0.1463-0.8412-0.2255-1.2877-0.2349
			c-0.5957-0.0125-1.15,0.0719-1.6648,0.2532c-0.5142,0.1801-0.967,0.4744-1.3586,0.8803
			c-0.3916,0.4073-0.7006,0.9266-0.9263,1.5608c-0.2263,0.6328-0.3486,1.386-0.3671,2.2569l-0.1641,7.7838l-2.871-0.0605
			L155.0171,93.7233z M156.4258,90.4975c0.072-0.4023,0.1974-0.8035,0.376-1.2049c0.1785-0.4001,0.4041-0.7511,0.6766-1.0544
			c0.272-0.302,0.5966-0.5458,0.973-0.7287c0.3752-0.1843,0.7979-0.2715,1.2657-0.2616c0.4886,0.0103,0.9497,0.1005,1.3824,0.2693
			c0.4321,0.1688,0.8595,0.3427,1.2816,0.5218c0.316,0.1339,0.5951,0.2619,0.8373,0.3838c0.2422,0.122,0.5337,0.1866,0.8738,0.1937
			c0.425,0.009,0.7687-0.1214,1.0295-0.3925s0.4482-0.597,0.5627-0.9776l1.5315,0.0323c-0.0728,0.4023-0.1876,0.7998-0.3445,1.19
			s-0.3558,0.7418-0.5962,1.0561c-0.2411,0.3144-0.5385,0.5626-0.8936,0.7473c-0.3551,0.1834-0.7666,0.2708-1.2339,0.261
			c-0.4471-0.0094-0.887-0.0875-1.3196-0.2356c-0.4332-0.1468-0.8505-0.3101-1.2505-0.4886c-0.316-0.1339-0.6539-0.2748-1.0125-0.42
			c-0.3585-0.1465-0.7186-0.2229-1.0801-0.2305c-0.4043-0.0085-0.7318,0.1274-0.9819,0.4104
			c-0.2506,0.2817-0.4327,0.6025-0.5468,0.9611L156.4258,90.4975z"/>
		<path class="st0" d="M171.8594,101.6408c0.0233-1.1046,0.2521-2.132,0.6869-3.0799c0.4349-0.9491,1.0217-1.7769,1.76-2.4846
			c0.7382-0.7077,1.601-1.2583,2.5876-1.653c0.9868-0.3934,2.0438-0.5789,3.171-0.5552c1.1273,0.0238,2.1755,0.2536,3.1448,0.6883
			c0.9692,0.4359,1.8081,1.0224,2.5157,1.7606c0.7078,0.7382,1.2592,1.59,1.6537,2.5566c0.3945,0.9653,0.5798,2.0016,0.5565,3.1061
			c-0.0233,1.1071-0.2522,2.1385-0.6873,3.0981c-0.4351,0.9582-1.022,1.786-1.7599,2.4833
			c-0.738,0.6974-1.6007,1.2427-2.5874,1.6375c-0.9867,0.3934-2.0437,0.5789-3.171,0.5551
			c-1.1272-0.0238-2.1755-0.2536-3.1448-0.6883c-0.9692-0.4359-1.8082-1.0172-2.5161-1.745s-1.2594-1.5796-1.6537-2.5553
			C172.0213,103.788,171.8361,102.7479,171.8594,101.6408z M174.9213,101.7054c-0.0161,0.7658,0.0857,1.4756,0.3064,2.1295
			c0.2198,0.6539,0.538,1.2138,0.954,1.6796c0.4155,0.4658,0.9283,0.8389,1.5399,1.1167c0.611,0.2791,1.2992,0.4273,2.0651,0.4435
			c0.7657,0.0161,1.4591-0.103,2.0818-0.356c0.6222-0.2518,1.1509-0.6029,1.5856-1.0508c0.4354-0.4479,0.7761-0.9939,1.024-1.6379
			c0.2473-0.644,0.3796-1.3489,0.3959-2.1147c0.0161-0.7645-0.0865-1.4743-0.3064-2.1282
			c-0.2207-0.6526-0.5381-1.2125-0.9541-1.6796c-0.4154-0.4658-0.929-0.8376-1.5399-1.1167
			c-0.6116-0.2791-1.2992-0.4273-2.0649-0.4435c-0.7659-0.0161-1.4598,0.103-2.0819,0.356
			c-0.6228,0.2531-1.1509,0.6029-1.5856,1.0508c-0.4354,0.4492-0.7767,0.9952-1.024,1.6379
			C175.0691,100.2359,174.9374,100.9408,174.9213,101.7054z"/>
		<path class="st0" d="M199.6582,98.4624c-0.3318-0.4329-0.7441-0.7987-1.2378-1.0961s-1.1027-0.4543-1.825-0.4696
			c-0.6808-0.0143-1.2743,0.1173-1.7794,0.3936c-0.5057,0.2763-0.7645,0.6916-0.7761,1.2445
			c-0.0094,0.4465,0.1263,0.8116,0.4073,1.0941c0.2817,0.2825,0.6171,0.5129,1.0067,0.6913
			c0.3898,0.1783,0.8076,0.3144,1.2523,0.4095c0.4447,0.0938,0.8259,0.1758,1.1433,0.2474c0.6134,0.161,1.1891,0.3549,1.7272,0.5779
			c0.538,0.2243,0.9994,0.5106,1.3862,0.8589c0.3861,0.3497,0.6855,0.7702,0.8986,1.2642c0.2129,0.494,0.312,1.0909,0.2971,1.793
			c-0.0179,0.8514-0.2144,1.5758-0.5879,2.1743c-0.3749,0.5972-0.8525,1.0819-1.4349,1.4527s-1.2418,0.6335-1.9794,0.788
			c-0.7369,0.1546-1.4779,0.2246-2.2223,0.209c-1.2551-0.0265-2.3511-0.2417-3.2892-0.6433
			c-0.9387-0.4028-1.7689-1.1228-2.4918-2.1587l2.2072-1.7415c0.4574,0.4784,0.9698,0.9034,1.5365,1.2776
			c0.5668,0.3742,1.2645,0.5695,2.0939,0.5869c0.3615,0.0076,0.7289-0.0223,1.103-0.0884c0.3734-0.0674,0.7056-0.1773,0.9965-0.3309
			c0.2902-0.1536,0.5281-0.3499,0.7142-0.5913c0.1855-0.2402,0.2823-0.52,0.2891-0.8392c0.009-0.4258-0.1167-0.779-0.3768-1.0611
			c-0.2603-0.282-0.5743-0.5068-0.9429-0.6743c-0.3691-0.1675-0.7598-0.303-1.1724-0.4078
			c-0.4127-0.1035-0.7777-0.1917-1.0956-0.262c-0.6134-0.1623-1.1946-0.3446-1.7435-0.5471
			c-0.5494-0.2038-1.0328-0.4685-1.4512-0.7967c-0.4189-0.3282-0.7505-0.7391-0.9952-1.2338s-0.3597-1.1035-0.3446-1.8265
			c0.0166-0.7866,0.1959-1.4684,0.538-2.0468c0.3419-0.5771,0.7883-1.0521,1.3383-1.4235c0.5505-0.3715,1.1731-0.6453,1.8684-0.8228
			c0.6951-0.1762,1.3934-0.2576,2.0957-0.2428c1.0208,0.0215,1.9941,0.2342,2.9225,0.6356
			c0.9271,0.4026,1.6581,1.0569,2.1921,1.9615L199.6582,98.4624z"/>
		<path class="st0" d="M214.7294,94.9819l2.6796,0.0565l-0.0497,2.361l0.0636,0.0013c0.0687-0.2115,0.2385-0.4741,0.5114-0.7878
			c0.2727-0.3137,0.6191-0.6089,1.0399-0.8871c0.4208-0.2781,0.9153-0.5131,1.4828-0.7024
			c0.5676-0.1906,1.1914-0.2787,1.8728-0.2644c1.1267,0.0237,2.0679,0.2786,2.8239,0.762c0.7559,0.4834,1.368,1.1988,1.8376,2.1449
			c0.5084-0.9255,1.215-1.6131,2.1178-2.0616s1.8118-0.6643,2.7262-0.6451c1.1694,0.0247,2.1219,0.2369,2.8583,0.6342
			c0.7363,0.3986,1.3104,0.9171,1.7229,1.553c0.4119,0.6359,0.6896,1.3546,0.8324,2.1549c0.1421,0.8016,0.2046,1.6274,0.1866,2.4776
			l-0.1855,8.8039l-2.8711-0.0605l0.1776-8.421c0.0121-0.5737-0.0133-1.1274-0.0767-1.6611
			c-0.0635-0.5324-0.2074-1.0042-0.4325-1.4128c-0.2258-0.4086-0.5487-0.74-0.9685-0.9943c-0.4207-0.253-0.9813-0.3882-1.6829-0.403
			c-1.3823-0.0291-2.3804,0.3757-2.9934,1.2133c-0.6136,0.8389-0.934,1.9281-0.9622,3.2675l-0.1742,8.2614l-2.871-0.0605
			l0.1667-7.9109c0.0151-0.7229-0.0085-1.3831-0.0699-1.9804c-0.0621-0.596-0.2-1.1144-0.4139-1.5553
			c-0.2141-0.4408-0.5261-0.7876-0.9357-1.0416c-0.4095-0.2528-0.9651-0.3878-1.6666-0.4026c-0.5107-0.0108-1.0074,0.08-1.49,0.2724
			s-0.9094,0.486-1.2788,0.882c-0.3706,0.3973-0.6683,0.9066-0.8938,1.529c-0.2261,0.6237-0.348,1.36-0.366,2.2101l-0.1654,7.8474
			l-2.8711-0.0605L214.7294,94.9819z"/>
		<path class="st0" d="M243.8943,104.2123c-0.0139,0.6606,0.1168,1.2633,0.3922,1.8119c0.2761,0.5486,0.6434,1.0186,1.1033,1.4114
			s0.9954,0.7027,1.6082,0.9273c0.6119,0.2259,1.2477,0.3457,1.907,0.3596c0.8931,0.0188,1.6736-0.1725,2.3417-0.5726
			c0.6675-0.4014,1.2852-0.9351,1.853-1.6049l2.1339,1.7045c-1.6387,2.0288-3.8928,3.0136-6.7639,2.9531
			c-1.1908-0.0251-2.2657-0.2503-3.2249-0.6744c-0.9591-0.424-1.7657-0.9994-2.4204-1.7261
			c-0.6554-0.7267-1.1537-1.5773-1.494-2.5532c-0.3418-0.9746-0.5001-2.0258-0.4763-3.1537
			c0.0237-1.1266,0.2424-2.1699,0.6561-3.1286c0.4137-0.96,0.9739-1.7883,1.6801-2.4863c0.7062-0.6967,1.5421-1.2387,2.5072-1.6222
			c0.9658-0.3835,2.0116-0.564,3.1389-0.5403c1.3401,0.0283,2.4677,0.287,3.3826,0.7738s1.6626,1.1141,2.2418,1.882
			c0.5791,0.7679,0.9922,1.6272,1.2383,2.579c0.2455,0.9518,0.3581,1.9177,0.3376,2.895l-0.0215,1.0202L243.8943,104.2123z
			 M253.0016,102.1072c-0.0079-0.6378-0.0968-1.2253-0.266-1.7612c-0.1699-0.5347-0.4314-1.0025-0.7839-1.4047
			c-0.3539-0.4009-0.7991-0.718-1.3362-0.9527c-0.5378-0.2347-1.1683-0.3596-1.8912-0.3749
			c-0.7015-0.0148-1.3481,0.104-1.9385,0.3578s-1.092,0.5886-1.5046,1.0045c-0.4133,0.4172-0.7368,0.8843-0.9709,1.4001
			c-0.2343,0.5171-0.3568,1.03-0.3676,1.5401L253.0016,102.1072z"/>
		<path class="st0" d="M259.6414,95.9285l2.871,0.0605l-0.0491,2.3285l0.0636,0.0013c0.3785-0.7997,1.0199-1.4406,1.9233-1.9215
			c0.9042-0.4809,1.9407-0.7097,3.1101-0.685c0.723,0.0152,1.417,0.1415,2.082,0.3789c0.6656,0.2374,1.243,0.5963,1.7329,1.074
			c0.4893,0.4778,0.8757,1.0871,1.1581,1.8268c0.2825,0.7409,0.4128,1.6098,0.3917,2.6092l-0.2051,9.7293l-2.8711-0.0605
			l0.1884-8.9311c0.0148-0.7022-0.068-1.3051-0.2489-1.8089c-0.1809-0.5038-0.4275-0.9128-0.7402-1.2284
			c-0.3121-0.3143-0.6741-0.5453-1.0859-0.6929c-0.4117-0.1463-0.8412-0.2255-1.2877-0.2349
			c-0.5957-0.0126-1.15,0.0718-1.6648,0.2532c-0.5142,0.1801-0.967,0.4744-1.3586,0.8803
			c-0.3916,0.4073-0.7006,0.9267-0.9263,1.5608c-0.2263,0.6328-0.3486,1.386-0.3669,2.2569l-0.1641,7.7838l-2.8711-0.0605
			L259.6414,95.9285z"/>
		<path class="st0" d="M276.4838,103.8461c0.0232-1.1045,0.252-2.132,0.6869-3.0799c0.4348-0.9492,1.0217-1.7769,1.7599-2.4846
			s1.601-1.2583,2.5878-1.653c0.9867-0.3934,2.0437-0.5789,3.1709-0.5551c1.1273,0.0238,2.1755,0.2536,3.1448,0.6883
			c0.9692,0.436,1.8081,1.0224,2.5159,1.7606c0.7076,0.7382,1.2592,1.59,1.6536,2.5566c0.3945,0.9653,0.5798,2.0016,0.5565,3.1061
			c-0.0233,1.1071-0.2522,2.1385-0.6873,3.0981c-0.4351,0.9582-1.022,1.786-1.7599,2.4833s-1.6006,1.2427-2.5874,1.6374
			c-0.9867,0.3934-2.0437,0.5789-3.171,0.5551c-1.1272-0.0237-2.1754-0.2536-3.1448-0.6883
			c-0.9692-0.4359-1.8081-1.0172-2.5161-1.745c-0.7079-0.7278-1.2593-1.5796-1.6537-2.5553
			C276.6455,105.9934,276.4603,104.9533,276.4838,103.8461z M279.5455,103.9107c-0.0161,0.7658,0.0858,1.4756,0.3064,2.1295
			c0.22,0.6539,0.538,1.2137,0.9541,1.6796c0.4154,0.4659,0.9282,0.8389,1.5398,1.1167c0.611,0.2791,1.2993,0.4273,2.0651,0.4435
			s1.4591-0.103,2.0819-0.3561c0.6221-0.2518,1.1509-0.6029,1.5856-1.0508c0.4353-0.4479,0.776-0.9939,1.0239-1.6379
			c0.2473-0.644,0.3798-1.3489,0.3959-2.1147c0.0161-0.7645-0.0864-1.4744-0.3064-2.1282c-0.2207-0.6526-0.538-1.2125-0.9541-1.6796
			c-0.4154-0.4658-0.929-0.8376-1.5399-1.1167c-0.6115-0.2791-1.2992-0.4273-2.0649-0.4435
			c-0.7659-0.0161-1.4598,0.103-2.0819,0.356c-0.6228,0.2531-1.1509,0.6029-1.5856,1.0508
			c-0.4354,0.4492-0.7767,0.9952-1.024,1.6379C279.6934,102.4413,279.5616,103.1462,279.5455,103.9107z"/>
		<path class="st0" d="M296.3237,96.7018l2.871,0.0605l-0.0491,2.3285l0.0636,0.0013c0.2-0.3996,0.4628-0.7616,0.7891-1.0845
			c0.3256-0.3229,0.6877-0.5971,1.0867-0.8224c0.3982-0.2253,0.8323-0.4019,1.3031-0.5309c0.4709-0.129,0.9403-0.188,1.4082-0.1781
			c0.4672,0.0099,0.8916,0.0824,1.2717,0.219l-0.193,3.0903c-0.2329-0.0685-0.4655-0.1254-0.6982-0.1731
			c-0.2333-0.0478-0.4666-0.0748-0.7001-0.0797c-1.4038-0.0296-2.4861,0.3423-3.2471,1.1132s-1.1586,1.9857-1.1936,3.6444
			l-0.16,7.5916l-2.871-0.0605L296.3237,96.7018z"/>
		<path class="st0" d="M309.5402,105.5961c-0.0139,0.6606,0.1168,1.2633,0.3922,1.8119c0.2761,0.5486,0.6434,1.0186,1.1033,1.4114
			s0.9954,0.7027,1.6082,0.9273c0.6121,0.2259,1.2477,0.3457,1.9071,0.3596c0.8929,0.0188,1.6735-0.1725,2.3416-0.5726
			c0.6675-0.4014,1.2852-0.9351,1.853-1.6049l2.1339,1.7045c-1.6387,2.0288-3.8928,3.0136-6.7639,2.9531
			c-1.1908-0.0251-2.2657-0.2503-3.2249-0.6744c-0.9591-0.424-1.7657-0.9994-2.4204-1.7261
			c-0.6554-0.7267-1.1537-1.5773-1.494-2.5532c-0.3418-0.9746-0.5001-2.0258-0.4763-3.1537
			c0.0237-1.1266,0.2424-2.1699,0.6561-3.1286c0.4137-0.96,0.9739-1.7883,1.6801-2.4863c0.7062-0.6967,1.5421-1.2387,2.5072-1.6222
			c0.9658-0.3835,2.0116-0.564,3.1389-0.5403c1.3401,0.0283,2.4677,0.287,3.3826,0.7738s1.6626,1.1141,2.2418,1.882
			c0.5791,0.7679,0.9922,1.6272,1.2383,2.579c0.2455,0.9518,0.3582,1.9177,0.3376,2.895l-0.0215,1.0202L309.5402,105.5961z
			 M318.6475,103.491c-0.0079-0.6378-0.0968-1.2253-0.266-1.7612c-0.1699-0.5347-0.4314-1.0025-0.7839-1.4047
			c-0.3539-0.4009-0.7991-0.718-1.3362-0.9527c-0.5378-0.2347-1.1682-0.3596-1.8912-0.3749
			c-0.7015-0.0148-1.3481,0.104-1.9385,0.3578s-1.092,0.5886-1.5046,1.0045c-0.4133,0.4172-0.7368,0.8843-0.9709,1.4001
			c-0.2343,0.5171-0.3568,1.03-0.3676,1.5401L318.6475,103.491z"/>
		<path class="st0" d="M333.246,101.2782c-0.3318-0.4329-0.7441-0.7987-1.2378-1.0961s-1.1025-0.4543-1.8248-0.4696
			c-0.6808-0.0143-1.2744,0.1173-1.7795,0.3936c-0.5057,0.2763-0.7644,0.6916-0.7761,1.2445
			c-0.0094,0.4465,0.1265,0.8116,0.4075,1.0941c0.2816,0.2825,0.6169,0.5129,1.0067,0.6913
			c0.3896,0.1783,0.8075,0.3144,1.2522,0.4095c0.4447,0.0938,0.826,0.1758,1.1433,0.2474c0.6134,0.161,1.1891,0.3549,1.7272,0.5779
			c0.5381,0.2243,0.9995,0.5106,1.3862,0.8589c0.3861,0.3497,0.6857,0.7702,0.8986,1.2642s0.312,1.0909,0.2972,1.793
			c-0.0179,0.8514-0.2144,1.5758-0.588,2.1743c-0.3749,0.5972-0.8525,1.0819-1.4349,1.4526
			c-0.5824,0.3708-1.2417,0.6335-1.9794,0.7881c-0.7368,0.1546-1.4779,0.2246-2.2222,0.209
			c-1.2551-0.0265-2.3511-0.2417-3.2893-0.6433c-0.9387-0.4028-1.7689-1.1228-2.4917-2.1587l2.2072-1.7415
			c0.4574,0.4784,0.9697,0.9034,1.5365,1.2776c0.5667,0.3742,1.2644,0.5694,2.0938,0.5869c0.3615,0.0076,0.729-0.0223,1.103-0.0884
			c0.3734-0.0674,0.7056-0.1773,0.9965-0.3309c0.2902-0.1536,0.5281-0.3499,0.7144-0.5913c0.1855-0.2402,0.2823-0.52,0.2891-0.8392
			c0.0089-0.4258-0.1167-0.779-0.377-1.0611s-0.5743-0.5068-0.9427-0.6743c-0.3691-0.1675-0.7598-0.303-1.1725-0.4078
			c-0.4127-0.1035-0.7776-0.1917-1.0956-0.262c-0.6134-0.1623-1.1946-0.3446-1.7434-0.5471
			c-0.5496-0.2038-1.0328-0.4685-1.4512-0.7967c-0.4191-0.3282-0.7506-0.7391-0.9954-1.2338
			c-0.2446-0.4947-0.3597-1.1035-0.3445-1.8265c0.0166-0.7866,0.1958-1.4684,0.5378-2.0468
			c0.342-0.5771,0.7883-1.0521,1.3383-1.4235c0.5507-0.3715,1.1732-0.6453,1.8684-0.8228c0.6952-0.1762,1.3936-0.2576,2.0957-0.2428
			c1.0209,0.0215,1.9941,0.2342,2.9226,0.6356c0.927,0.4026,1.658,1.0569,2.192,1.9615L333.246,101.2782z"/>
	</g>
</g>
</svg>
