<?xml version="1.0" encoding="utf-8"?>
<!-- Generator: Adobe Illustrator 24.1.1, SVG Export Plug-In . SVG Version: 6.00 Build 0)  -->
<svg version="1.1" id="Capa_1" xmlns="http://www.w3.org/2000/svg" xmlns:xlink="http://www.w3.org/1999/xlink" x="0px" y="0px"
	 width="405.1526px" height="178.1695px" viewBox="0 0 405.1526 178.1695" style="enable-background:new 0 0 405.1526 178.1695;"
	 xml:space="preserve">
<style type="text/css">
	.st0{fill:#FFFFFF;}
	.st1{fill:#00539D;}
	.st2{fill:#EDEDED;}
	.st3{fill:#003B74;}
	.st4{fill:#FFFFFF;stroke:#003B74;stroke-linecap:round;stroke-linejoin:round;stroke-miterlimit:10;}
	.st5{fill:none;stroke:#FFFFFF;stroke-width:2;stroke-linecap:round;stroke-linejoin:round;stroke-miterlimit:10;}
</style>
<g>
	<path class="st0" d="M92.1035,75.2284c-0.1035,0.9923-0.1494,1.9948-0.3194,2.9755c-1.5085,8.6984-7.6346,11.7632-15.2814,7.2394
		c-3.3755-1.997-6.5655-4.6351-9.1499-7.5862C54.8449,63.5744,47.4609,46.9058,45.4646,28.0057
		c-0.3775-3.5745,0.028-7.3492,0.7411-10.8971c1.48-7.3635,7.0733-9.9102,13.9166-6.6457c1.3408,0.6396,2.6372,1.4197,3.8413,2.2908
		C79.8069,24.2161,94.0844,55.8791,92.1035,75.2284z M82.2029,77.7578c6.7665-14.8953-15.2386-58.5881-27.0989-58.683
		C49.8394,35.1223,69.4846,74.8793,82.2029,77.7578z"/>
	<path class="st0" d="M39.233,28.1031c4.8632,9.4545,0.977,15.4919-6.0363,20.9848c-1.9565,1.5323-3.3914,5.0075-3.348,7.5623
		c0.1049,6.169,2.7111,11.764,7.4202,15.8211c1.7168,1.479,4.8472,2.4272,7.0512,2.0352c8.7776-1.5614,16.2763-0.8681,19.938,8.916
		c-13.9551-4.8689-26.6788,0.6279-39.6188,5.946c-2.4415,1.0034-6.8671-0.0864-9.1152-1.834
		C7.1012,80.9879,3.2321,72.052,4.1758,61.2573c0.3353-3.8353,2.2686-6.368,5.9114-7.8987
		c3.6733-1.5436,7.2192-3.4282,10.7066-5.3689C28.9995,43.4232,35.6776,37.3533,39.233,28.1031z"/>
	<path class="st0" d="M28.1933,92.7903c2.9435-1.2925,5.2398-2.2084,7.4532-3.2934c3.6824-1.8053,6.6475-1.1855,9.0982,2.1954
		c2.3634,3.2605,5.4923,4.7919,9.6555,5.3481c2.2789,0.3045,4.5459,2.8022,6.0929,4.857c0.3453,0.4586-2.2693,3.2828-3.6874,4.8692
		c-0.634,0.7092-1.671,1.0649-2.5383,1.5575c-9.0612,5.1478-11.0978,4.7042-17.3266-3.7352
		C34.1815,100.8503,31.4066,97.1232,28.1933,92.7903z"/>
	<path class="st5" d="M24.3423,171.407c-4.4396-4.7274-8.49-9.0405-11.9886-12.7659c10.0074-8.6149,19.9188-17.1474,29.8303-25.6799
		c0.2526,0.2021,0.5053,0.4041,0.7579,0.6062C36.8372,145.9873,30.7322,158.4072,24.3423,171.407"/>
	<path class="st5" d="M46.3227,174.5334c2.128-11.9923,4.0939-23.0711,6.0599-34.1502c0.3068-0.0823,0.6137-0.1647,0.9205-0.247
		c3.5445,9.9528,7.089,19.9055,10.8691,30.5199C58.3528,171.9201,52.8133,173.1234,46.3227,174.5334"/>
	<path class="st5" d="M32.608,129.7521c-4.109,2.4311-8.218,4.8623-12.6887,7.5074c-1.9647-2.0899-3.8228-4.0664-5.928-6.3057
		c1.2094-0.3873,1.8218-0.7175,2.4557-0.7656c5.2843-0.4017,10.5725-0.7515,15.8596-1.117
		C32.4071,129.2981,32.5075,129.5251,32.608,129.7521z"/>
	<path class="st0" d="M68.3235,58.3594c-2.6457-5.9073-4.9138-10.9716-7.3913-16.5036c5.0196-0.808,7.9167,1.1775,9.7196,4.5257
		C72.724,50.2298,72.1129,54.0125,68.3235,58.3594z"/>
	<path class="st5" d="M89.6248,37.139c0.8555,2.3037,1.7581,4.084,2.1771,5.9718c2.2227,10.0054,5.4404,19.954,6.2027,30.0811
		c1.1122,14.7748-7.6691,22.0139-22.1259,19.6412c-4.725-0.7755-9.2953-2.4861-13.9416-3.7506
		c-1.7581-0.4785-3.5394-1.2747-5.2927-1.231c-1.2584,0.0315-2.4879,1.2173-3.7305,1.8882c0.1487,0.43,0.2974,0.8598,0.446,1.2897
		c6.5884-0.0063,11.1645,3.2107,12.9233,9.1733c2.1868,7.4137-4.2905,9.9233-8.9492,13.2188
		c0.5349,2.3229,1.2725,4.3946,1.4475,6.5128c0.0994,1.2012,0.3438,2.2422,0.7142,3.1582l-0.005-0.0003
		c0.5349,2.3229,1.3358,3.7881,1.5109,5.9063c0.4163,5.0349,3.3097,7.3265,7.8898,8.8726
		c8.0313,2.7111,15.8558,6.0328,23.7765,9.0739c10.9475,4.2033,21.904,8.3834,33.4286,12.7922
		c-1.3514-8.3145-2.5844-15.9001-3.8684-23.7991l-1.8718-9.0764l-0.0023-0.0001c1.7668-0.0641,2.8533-0.1318,3.9304-0.1277
		c52.7686,0.1951,194.2002,1.1474,246.968,1.4749c3.6699,0.0228,5.1519-0.9227,6.0241-4.616
		c4.8595-20.5751,10.0604-41.0691,15.0828-61.606c1.8809-7.6906,3.5956-15.4217,5.5925-24.0231
		C324.4006,37.952,162.9431,37.1507,89.6248,37.139z"/>
</g>
<g>
	<path class="st0" d="M118.6107,45.1568h2.9668l7.084,16.2842h-4.0479l-1.4028-3.4502h-6.3252l-1.3569,3.4502h-3.9561
		L118.6107,45.1568z M119.9906,49.8951l-1.978,5.0596h3.979L119.9906,49.8951z"/>
	<path class="st0" d="M136.1825,53.5523c-0.5059-0.6289-1.1729-0.9434-2.001-0.9434c-0.2915,0-0.5752,0.0693-0.8511,0.207
		s-0.4141,0.376-0.4141,0.7129c0,0.2764,0.1416,0.4795,0.4258,0.6094c0.2832,0.1309,0.644,0.2461,1.0811,0.3457
		s0.9043,0.2061,1.4028,0.3213c0.498,0.1152,0.9658,0.2959,1.4028,0.541s0.7974,0.5791,1.0811,1
		c0.2837,0.4219,0.4258,0.9854,0.4258,1.6904c0,0.7217-0.1577,1.3154-0.4717,1.7832c-0.3145,0.4678-0.7168,0.8428-1.2075,1.127
		c-0.4907,0.2832-1.043,0.4824-1.6558,0.5977c-0.6138,0.1152-1.2192,0.1729-1.8174,0.1729c-0.7817,0-1.5718-0.1113-2.3687-0.334
		c-0.7979-0.2217-1.4722-0.6172-2.0244-1.1846l2.0933-2.3232c0.3218,0.3994,0.6787,0.7021,1.0693,0.9092
		c0.3911,0.207,0.8472,0.3105,1.3687,0.3105c0.3984,0,0.7588-0.0576,1.0811-0.1729c0.3218-0.1152,0.4829-0.3252,0.4829-0.6328
		c0-0.291-0.1421-0.5088-0.4253-0.6553c-0.2842-0.1455-0.644-0.2676-1.0811-0.3682c-0.437-0.0996-0.9053-0.207-1.4033-0.3213
		c-0.498-0.1152-0.9658-0.2881-1.4028-0.5176c-0.437-0.2305-0.7974-0.5557-1.0811-0.9775s-0.4253-0.9854-0.4253-1.6904
		c0-0.6592,0.1338-1.2266,0.4023-1.7021c0.2681-0.4756,0.6211-0.8662,1.0581-1.1729s0.939-0.5332,1.5063-0.6787
		s1.1421-0.2188,1.7251-0.2188c0.7358,0,1.4795,0.1074,2.231,0.3223c0.751,0.2148,1.3877,0.5977,1.9092,1.1494L136.1825,53.5523z"/>
	<path class="st0" d="M151.0863,59.5093c-0.5518,0.7051-1.2495,1.25-2.0928,1.6328c-0.8438,0.3828-1.7173,0.5752-2.6221,0.5752
		c-0.8589,0-1.6675-0.1387-2.4263-0.4141c-0.7593-0.2764-1.4185-0.6709-1.978-1.1846c-0.5601-0.5137-1.0005-1.1309-1.3228-1.8516
		c-0.3218-0.7207-0.4829-1.5254-0.4829-2.415s0.1611-1.6943,0.4829-2.415c0.3223-0.7207,0.7627-1.3379,1.3228-1.8516
		c0.5596-0.5137,1.2188-0.9082,1.978-1.1846c0.7588-0.2764,1.5674-0.4141,2.4263-0.4141c0.7969,0,1.5215,0.1377,2.1733,0.4141
		s1.2036,0.6709,1.6563,1.1846c0.4521,0.5137,0.8008,1.1309,1.0464,1.8516c0.2451,0.7207,0.3682,1.5254,0.3682,2.415v1.0811h-8.0039
		c0.1377,0.6592,0.437,1.1846,0.897,1.5752c0.46,0.3916,1.0269,0.5869,1.7017,0.5869c0.5674,0,1.0469-0.127,1.4375-0.3799
		c0.3911-0.2529,0.7324-0.5781,1.0234-0.9775L151.0863,59.5093z M148.1654,54.5875c0.0151-0.583-0.1763-1.0811-0.5747-1.4951
		c-0.3989-0.4141-0.9126-0.6211-1.541-0.6211c-0.3838,0-0.7212,0.0615-1.0122,0.1836c-0.2915,0.123-0.5405,0.2803-0.7476,0.4717
		s-0.3682,0.4141-0.4829,0.667c-0.1152,0.2529-0.1807,0.5176-0.1953,0.7939H148.1654z"/>
	<path class="st0" d="M165.4383,60.4976c0,2.1162-0.5332,3.7227-1.5986,4.8193c-1.0659,1.0957-2.6875,1.6436-4.8647,1.6436
		c-0.9966,0-1.978-0.1113-2.9438-0.333c-0.9658-0.2227-1.8555-0.6553-2.668-1.2998l1.9092-2.8516
		c0.5361,0.4443,1.0996,0.7969,1.6904,1.0576c0.5898,0.2607,1.2378,0.3916,1.9434,0.3916c1.0581,0,1.8359-0.2578,2.3345-0.7705
		c0.498-0.5146,0.7476-1.1699,0.7476-1.9668V60.107h-0.0459c-0.3989,0.5371-0.8936,0.916-1.4834,1.1387
		c-0.5908,0.2217-1.1465,0.333-1.668,0.333c-0.8276,0-1.5791-0.1416-2.2539-0.4248c-0.6748-0.2842-1.2534-0.6826-1.7363-1.1963
		s-0.855-1.123-1.1157-1.8281c-0.2607-0.7061-0.3906-1.4805-0.3906-2.3232c0-0.7363,0.1187-1.457,0.3564-2.1621
		c0.2373-0.7051,0.5747-1.3262,1.0117-1.8633c0.437-0.5361,0.9697-0.9697,1.5986-1.2998c0.6284-0.3291,1.3418-0.4941,2.1392-0.4941
		c0.4902,0,0.939,0.0537,1.3452,0.1611s0.7705,0.2451,1.0928,0.4141c0.3218,0.1689,0.5977,0.3564,0.8276,0.5635
		c0.2305,0.207,0.4141,0.4102,0.5522,0.6094h0.0459v-1.4717h3.1743V60.4976z M156.744,55.7828c0,0.3682,0.0693,0.7168,0.207,1.0469
		c0.1382,0.3301,0.3335,0.6211,0.5864,0.874s0.5444,0.4561,0.874,0.6094s0.6938,0.2295,1.0928,0.2295
		c0.3828,0,0.7437-0.0762,1.0811-0.2295c0.3369-0.1533,0.6323-0.3564,0.8853-0.6094s0.4487-0.5439,0.5864-0.874
		c0.1382-0.3301,0.207-0.6787,0.207-1.0469s-0.0688-0.7168-0.207-1.0459c-0.1377-0.3301-0.3335-0.6211-0.5864-0.874
		s-0.5483-0.4561-0.8853-0.6104c-0.3374-0.1523-0.6982-0.2295-1.0811-0.2295c-0.3989,0-0.7632,0.0771-1.0928,0.2295
		c-0.3296,0.1543-0.6211,0.3574-0.874,0.6104s-0.4482,0.5439-0.5864,0.874C156.8133,55.066,156.744,55.4146,156.744,55.7828z"/>
	<path class="st0" d="M178.9618,61.441h-3.312v-1.5176h-0.0459c-0.123,0.2148-0.2798,0.4287-0.4717,0.6436
		s-0.4253,0.4063-0.7012,0.5752c-0.2764,0.1689-0.5908,0.3066-0.9434,0.4141c-0.3525,0.1064-0.7358,0.1611-1.1499,0.1611
		c-0.874,0-1.5835-0.1348-2.1274-0.4033c-0.5444-0.2676-0.9658-0.6396-1.2651-1.1152c-0.2988-0.4746-0.498-1.0352-0.5977-1.6787
		c-0.1001-0.6445-0.1494-1.3418-0.1494-2.0928v-6.1641h3.4497v5.4736c0,0.3223,0.0117,0.6553,0.0347,1.001
		c0.0229,0.3447,0.0918,0.6631,0.207,0.9541c0.1147,0.291,0.291,0.5293,0.5288,0.7129c0.2378,0.1846,0.5786,0.2764,1.0234,0.2764
		s0.8052-0.0811,1.0811-0.2422c0.2759-0.1602,0.4868-0.375,0.6323-0.6436c0.146-0.2686,0.2417-0.5713,0.2876-0.9082
		s0.0693-0.6904,0.0693-1.0586v-5.5654h3.4497V61.441z"/>
	<path class="st0" d="M181.3998,50.2632h3.4497v1.7939h0.0459c0.3682-0.6904,0.8052-1.208,1.311-1.5527
		c0.5063-0.3447,1.1421-0.5176,1.9092-0.5176c0.1992,0,0.3984,0.0078,0.5981,0.0234c0.1987,0.0146,0.3828,0.0459,0.5518,0.0918
		v3.1504c-0.2456-0.0762-0.4868-0.1338-0.7246-0.1719s-0.4868-0.0576-0.7476-0.0576c-0.6592,0-1.1807,0.0918-1.564,0.2764
		c-0.3833,0.1836-0.6782,0.4404-0.8853,0.7705c-0.207,0.3291-0.3413,0.7236-0.4023,1.1846c-0.0615,0.46-0.0923,0.9658-0.0923,1.5176
		v4.6689h-3.4497V50.2632z"/>
	<path class="st0" d="M197.7753,60.0377h-0.0459c-0.3833,0.5986-0.8936,1.0273-1.5293,1.2881
		c-0.6367,0.2607-1.3076,0.3916-2.0127,0.3916c-0.5215,0-1.0234-0.0732-1.5063-0.2188s-0.9087-0.3643-1.2769-0.6553
		c-0.3677-0.291-0.6592-0.6523-0.874-1.0811c-0.2148-0.4297-0.3218-0.9277-0.3218-1.4951c0-0.6445,0.1187-1.1885,0.3564-1.6328
		c0.2378-0.4453,0.5596-0.8125,0.9658-1.1045c0.4063-0.291,0.8701-0.5176,1.3916-0.6787c0.521-0.1611,1.0615-0.2793,1.6216-0.3564
		c0.5596-0.0762,1.1191-0.1221,1.6792-0.1377c0.5596-0.0146,1.0771-0.0234,1.5522-0.0234c0-0.6123-0.2183-1.0996-0.6553-1.46
		s-0.9546-0.541-1.5527-0.541c-0.5674,0-1.085,0.1191-1.5522,0.3564c-0.4683,0.2383-0.8857,0.5635-1.2534,0.9775l-1.8403-1.8857
		c0.644-0.5977,1.395-1.0459,2.2539-1.3457c0.8589-0.2988,1.748-0.4482,2.668-0.4482c1.0122,0,1.8438,0.127,2.4956,0.3799
		s1.1733,0.625,1.564,1.1152c0.3911,0.4912,0.6631,1.0928,0.8169,1.8057c0.1528,0.7129,0.23,1.5371,0.23,2.4727v5.6807h-3.1743
		V60.0377z M196.9242,56.5416c-0.2607,0-0.5864,0.0117-0.9775,0.0352c-0.3906,0.0225-0.7666,0.0879-1.127,0.1953
		s-0.667,0.2686-0.9199,0.4834s-0.3794,0.5137-0.3794,0.8965c0,0.4141,0.1763,0.7207,0.5288,0.9199s0.7207,0.2988,1.104,0.2988
		c0.3374,0,0.6631-0.0459,0.9775-0.1377s0.5942-0.2217,0.8398-0.3906c0.2451-0.1689,0.4404-0.3838,0.5864-0.6445
		c0.1455-0.2607,0.2183-0.5674,0.2183-0.9199v-0.7363H196.9242z"/>
	<path class="st0" d="M203.1112,50.2632h3.3115v1.5176h0.0464c0.1069-0.2148,0.2603-0.4287,0.46-0.6436
		c0.1992-0.2148,0.437-0.4063,0.7129-0.5752s0.5903-0.3066,0.9429-0.4141s0.7363-0.1611,1.1499-0.1611
		c0.7822,0,1.4756,0.1611,2.0815,0.4834c0.606,0.3213,1.062,0.8281,1.3687,1.5176c0.3984-0.7207,0.8813-1.2344,1.4492-1.541
		c0.5669-0.3066,1.2646-0.46,2.0928-0.46c0.751,0,1.3838,0.127,1.8975,0.3799s0.9199,0.5977,1.2192,1.0352
		c0.2988,0.4365,0.5132,0.9502,0.644,1.541c0.1299,0.5898,0.1953,1.2227,0.1953,1.8975v6.6006h-3.4502v-6.5088
		c0-0.5215-0.1113-0.9697-0.3335-1.3457s-0.6172-0.5635-1.1841-0.5635c-0.3989,0-0.7324,0.0654-1.001,0.1953
		c-0.2681,0.1309-0.4829,0.3105-0.6436,0.541c-0.1611,0.2295-0.2764,0.498-0.3452,0.8047s-0.1035,0.6289-0.1035,0.9658v5.9111
		h-3.4502v-5.9111c0-0.1992-0.0078-0.4443-0.0229-0.7363c-0.0151-0.291-0.0688-0.5664-0.1606-0.8271
		c-0.0923-0.2607-0.2417-0.4834-0.4487-0.667c-0.207-0.1846-0.5098-0.2764-0.9087-0.2764c-0.4448,0-0.8047,0.0801-1.0806,0.2412
		c-0.2764,0.1611-0.4873,0.376-0.6328,0.6445c-0.146,0.2686-0.2412,0.5713-0.2876,0.9082
		c-0.0459,0.3379-0.0688,0.6904-0.0688,1.0576v5.5664h-3.4497V50.2632z"/>
	<path class="st0" d="M222.7069,55.8521c0-0.8896,0.1606-1.6943,0.4829-2.415c0.3218-0.7207,0.7627-1.3379,1.3223-1.8516
		s1.2192-0.9082,1.978-1.1846c0.7593-0.2764,1.5679-0.4141,2.4268-0.4141c0.8584,0,1.6675,0.1377,2.4263,0.4141
		c0.7593,0.2764,1.418,0.6709,1.978,1.1846c0.5596,0.5137,1.0005,1.1309,1.3228,1.8516c0.3218,0.7207,0.4829,1.5254,0.4829,2.415
		s-0.1611,1.6943-0.4829,2.415c-0.3223,0.7207-0.7632,1.3379-1.3228,1.8516c-0.5601,0.5137-1.2188,0.9082-1.978,1.1846
		c-0.7588,0.2754-1.5679,0.4141-2.4263,0.4141c-0.8589,0-1.6675-0.1387-2.4268-0.4141c-0.7588-0.2764-1.4185-0.6709-1.978-1.1846
		s-1.0005-1.1309-1.3223-1.8516C222.8675,57.5464,222.7069,56.7418,222.7069,55.8521z M226.1566,55.8521
		c0,0.8438,0.2417,1.5254,0.7246,2.0469s1.1616,0.7822,2.0356,0.7822s1.5522-0.2607,2.0352-0.7822
		c0.4834-0.5215,0.7246-1.2031,0.7246-2.0469c0-0.8428-0.2412-1.5254-0.7246-2.0469c-0.4829-0.5215-1.1611-0.7822-2.0352-0.7822
		s-1.5527,0.2607-2.0356,0.7822S226.1566,55.0093,226.1566,55.8521z"/>
	<path class="st0" d="M243.4754,53.5523c-0.5059-0.6289-1.1729-0.9434-2.001-0.9434c-0.2915,0-0.5752,0.0693-0.8511,0.207
		s-0.4141,0.376-0.4141,0.7129c0,0.2764,0.1416,0.4795,0.4258,0.6094c0.2832,0.1309,0.644,0.2461,1.0811,0.3457
		s0.9043,0.2061,1.4028,0.3213c0.498,0.1152,0.9658,0.2959,1.4028,0.541s0.7974,0.5791,1.0811,1
		c0.2837,0.4219,0.4258,0.9854,0.4258,1.6904c0,0.7217-0.1577,1.3154-0.4717,1.7832c-0.3145,0.4678-0.7168,0.8428-1.2075,1.127
		c-0.4907,0.2832-1.043,0.4824-1.6558,0.5977c-0.6138,0.1152-1.2192,0.1729-1.8174,0.1729c-0.7817,0-1.5718-0.1113-2.3687-0.334
		c-0.7979-0.2217-1.4722-0.6172-2.0244-1.1846l2.0933-2.3232c0.3218,0.3994,0.6787,0.7021,1.0693,0.9092
		c0.3911,0.207,0.8472,0.3105,1.3687,0.3105c0.3984,0,0.7588-0.0576,1.0811-0.1729c0.3218-0.1152,0.4829-0.3252,0.4829-0.6328
		c0-0.291-0.1421-0.5088-0.4253-0.6553c-0.2842-0.1455-0.644-0.2676-1.0811-0.3682c-0.437-0.0996-0.9053-0.207-1.4033-0.3213
		c-0.498-0.1152-0.9658-0.2881-1.4028-0.5176c-0.437-0.2305-0.7974-0.5557-1.0811-0.9775s-0.4253-0.9854-0.4253-1.6904
		c0-0.6592,0.1338-1.2266,0.4023-1.7021c0.2681-0.4756,0.6211-0.8662,1.0581-1.1729s0.939-0.5332,1.5063-0.6787
		s1.1421-0.2188,1.7251-0.2188c0.7358,0,1.4795,0.1074,2.231,0.3223c0.751,0.2148,1.3877,0.5977,1.9092,1.1494L243.4754,53.5523z"/>
	<path class="st0" d="M262.2201,53.023h-3.0361v3.7256c0,0.3076,0.0151,0.5869,0.0459,0.8398s0.0996,0.4717,0.207,0.6553
		c0.1074,0.1846,0.2725,0.3262,0.4946,0.4258s0.5176,0.1494,0.8857,0.1494c0.1836,0,0.4253-0.0186,0.7241-0.0576
		c0.2993-0.0381,0.5254-0.126,0.6787-0.2646v2.875c-0.3833,0.1387-0.7822,0.2305-1.1958,0.2764
		c-0.4141,0.0459-0.8208,0.0693-1.2192,0.0693c-0.583,0-1.1196-0.0615-1.6099-0.1846c-0.4912-0.1221-0.9199-0.3174-1.2881-0.5859
		s-0.6558-0.6172-0.8623-1.0469c-0.207-0.4287-0.3105-0.9502-0.3105-1.5645V53.023h-2.208v-2.7598h2.208v-3.3125h3.4497v3.3125
		h3.0361V53.023z"/>
	<path class="st0" d="M274.7318,61.441h-3.312v-1.5176h-0.0459c-0.123,0.2148-0.2798,0.4287-0.4717,0.6436
		s-0.4253,0.4063-0.7012,0.5752c-0.2764,0.1689-0.5908,0.3066-0.9434,0.4141c-0.3525,0.1064-0.7358,0.1611-1.1499,0.1611
		c-0.874,0-1.5835-0.1348-2.1274-0.4033c-0.5444-0.2676-0.9658-0.6396-1.2651-1.1152c-0.2988-0.4746-0.498-1.0352-0.5977-1.6787
		c-0.1001-0.6445-0.1494-1.3418-0.1494-2.0928v-6.1641h3.4497v5.4736c0,0.3223,0.0117,0.6553,0.0347,1.001
		c0.0229,0.3447,0.0918,0.6631,0.207,0.9541c0.1147,0.291,0.291,0.5293,0.5288,0.7129c0.2378,0.1846,0.5786,0.2764,1.0234,0.2764
		s0.8052-0.0811,1.0811-0.2422c0.2759-0.1602,0.4868-0.375,0.6323-0.6436c0.146-0.2686,0.2417-0.5713,0.2876-0.9082
		s0.0693-0.6904,0.0693-1.0586v-5.5654h3.4497V61.441z"/>
	<path class="st0" d="M290.992,60.0377h-0.0459c-0.3833,0.5986-0.8936,1.0273-1.5293,1.2881
		c-0.6367,0.2607-1.3076,0.3916-2.0127,0.3916c-0.5215,0-1.0234-0.0732-1.5063-0.2188s-0.9087-0.3643-1.2769-0.6553
		c-0.3677-0.291-0.6592-0.6523-0.874-1.0811c-0.2148-0.4297-0.3218-0.9277-0.3218-1.4951c0-0.6445,0.1187-1.1885,0.3564-1.6328
		c0.2378-0.4453,0.5596-0.8125,0.9658-1.1045c0.4063-0.291,0.8701-0.5176,1.3916-0.6787c0.521-0.1611,1.0615-0.2793,1.6216-0.3564
		c0.5596-0.0762,1.1191-0.1221,1.6792-0.1377c0.5596-0.0146,1.0771-0.0234,1.5522-0.0234c0-0.6123-0.2183-1.0996-0.6553-1.46
		s-0.9546-0.541-1.5527-0.541c-0.5674,0-1.085,0.1191-1.5522,0.3564c-0.4683,0.2383-0.8857,0.5635-1.2534,0.9775l-1.8403-1.8857
		c0.644-0.5977,1.395-1.0459,2.2539-1.3457c0.8589-0.2988,1.748-0.4482,2.668-0.4482c1.0122,0,1.8438,0.127,2.4956,0.3799
		s1.1733,0.625,1.564,1.1152c0.3911,0.4912,0.6631,1.0928,0.8169,1.8057c0.1528,0.7129,0.23,1.5371,0.23,2.4727v5.6807h-3.1743
		V60.0377z M290.141,56.5416c-0.2607,0-0.5864,0.0117-0.9775,0.0352c-0.3906,0.0225-0.7666,0.0879-1.127,0.1953
		s-0.667,0.2686-0.9199,0.4834s-0.3794,0.5137-0.3794,0.8965c0,0.4141,0.1763,0.7207,0.5288,0.9199s0.7207,0.2988,1.104,0.2988
		c0.3374,0,0.6631-0.0459,0.9775-0.1377s0.5942-0.2217,0.8398-0.3906c0.2451-0.1689,0.4404-0.3838,0.5864-0.6445
		c0.1455-0.2607,0.2183-0.5674,0.2183-0.9199v-0.7363H290.141z"/>
	<path class="st0" d="M307.0916,61.441h-3.312v-1.5176h-0.0459c-0.123,0.2148-0.2798,0.4287-0.4717,0.6436
		s-0.4253,0.4063-0.7012,0.5752c-0.2764,0.1689-0.5908,0.3066-0.9434,0.4141c-0.3525,0.1064-0.7358,0.1611-1.1499,0.1611
		c-0.874,0-1.5835-0.1348-2.1274-0.4033c-0.5444-0.2676-0.9658-0.6396-1.2651-1.1152c-0.2988-0.4746-0.498-1.0352-0.5977-1.6787
		c-0.1001-0.6445-0.1494-1.3418-0.1494-2.0928v-6.1641h3.4497v5.4736c0,0.3223,0.0117,0.6553,0.0347,1.001
		c0.0229,0.3447,0.0918,0.6631,0.207,0.9541c0.1147,0.291,0.291,0.5293,0.5288,0.7129c0.2378,0.1846,0.5786,0.2764,1.0234,0.2764
		s0.8052-0.0811,1.0811-0.2422c0.2759-0.1602,0.4868-0.375,0.6323-0.6436c0.146-0.2686,0.2417-0.5713,0.2876-0.9082
		s0.0693-0.6904,0.0693-1.0586v-5.5654h3.4497V61.441z"/>
	<path class="st0" d="M317.1424,53.023h-3.0361v3.7256c0,0.3076,0.0151,0.5869,0.0459,0.8398s0.0996,0.4717,0.207,0.6553
		c0.1074,0.1846,0.2725,0.3262,0.4946,0.4258s0.5176,0.1494,0.8857,0.1494c0.1836,0,0.4253-0.0186,0.7241-0.0576
		c0.2993-0.0381,0.5254-0.126,0.6787-0.2646v2.875c-0.3833,0.1387-0.7822,0.2305-1.1958,0.2764
		c-0.4141,0.0459-0.8208,0.0693-1.2192,0.0693c-0.583,0-1.1196-0.0615-1.6099-0.1846c-0.4912-0.1221-0.9199-0.3174-1.2881-0.5859
		s-0.6558-0.6172-0.8623-1.0469c-0.207-0.4287-0.3105-0.9502-0.3105-1.5645V53.023h-2.208v-2.7598h2.208v-3.3125h3.4497v3.3125
		h3.0361V53.023z"/>
	<path class="st0" d="M318.4764,55.8521c0-0.8896,0.1606-1.6943,0.4829-2.415c0.3218-0.7207,0.7627-1.3379,1.3223-1.8516
		s1.2192-0.9082,1.978-1.1846c0.7593-0.2764,1.5679-0.4141,2.4268-0.4141c0.8584,0,1.6675,0.1377,2.4263,0.4141
		c0.7593,0.2764,1.418,0.6709,1.978,1.1846c0.5596,0.5137,1.0005,1.1309,1.3228,1.8516c0.3218,0.7207,0.4829,1.5254,0.4829,2.415
		s-0.1611,1.6943-0.4829,2.415c-0.3223,0.7207-0.7632,1.3379-1.3228,1.8516c-0.5601,0.5137-1.2188,0.9082-1.978,1.1846
		c-0.7588,0.2754-1.5679,0.4141-2.4263,0.4141c-0.8589,0-1.6675-0.1387-2.4268-0.4141c-0.7588-0.2764-1.4185-0.6709-1.978-1.1846
		s-1.0005-1.1309-1.3223-1.8516C318.6371,57.5464,318.4764,56.7418,318.4764,55.8521z M321.9261,55.8521
		c0,0.8438,0.2417,1.5254,0.7246,2.0469s1.1616,0.7822,2.0356,0.7822s1.5522-0.2607,2.0352-0.7822
		c0.4834-0.5215,0.7246-1.2031,0.7246-2.0469c0-0.8428-0.2412-1.5254-0.7246-2.0469c-0.4829-0.5215-1.1611-0.7822-2.0352-0.7822
		s-1.5527,0.2607-2.0356,0.7822S321.9261,55.0093,321.9261,55.8521z"/>
	<path class="st0" d="M347.2948,53.8736c-0.1689-0.2451-0.4067-0.4482-0.7129-0.6094c-0.3071-0.1611-0.6367-0.2412-0.9893-0.2412
		c-0.874,0-1.5522,0.2607-2.0356,0.7822c-0.4829,0.5215-0.7241,1.2041-0.7241,2.0469c0,0.8438,0.2412,1.5254,0.7241,2.0469
		c0.4834,0.5215,1.1616,0.7822,2.0356,0.7822c0.3833,0,0.7129-0.084,0.9893-0.2529c0.2759-0.1689,0.5132-0.3682,0.7129-0.5986
		l2.2769,2.3926c-0.5371,0.5518-1.1694,0.9395-1.8975,1.1611c-0.7285,0.2227-1.4224,0.334-2.0815,0.334
		c-0.8589,0-1.6675-0.1387-2.4263-0.4141c-0.7593-0.2764-1.4185-0.6709-1.978-1.1846c-0.5601-0.5137-1.0005-1.1309-1.3228-1.8516
		c-0.3218-0.7207-0.4829-1.5254-0.4829-2.415s0.1611-1.6943,0.4829-2.415c0.3223-0.7207,0.7627-1.3379,1.3228-1.8516
		c0.5596-0.5137,1.2188-0.9082,1.978-1.1846c0.7588-0.2764,1.5674-0.4141,2.4263-0.4141c0.6592,0,1.353,0.1113,2.0815,0.334
		c0.728,0.2217,1.3604,0.6094,1.8975,1.1611L347.2948,53.8736z"/>
	<path class="st0" d="M350.3997,55.8521c0-0.8896,0.1606-1.6943,0.4829-2.415c0.3218-0.7207,0.7627-1.3379,1.3223-1.8516
		s1.2192-0.9082,1.978-1.1846c0.7593-0.2764,1.5679-0.4141,2.4268-0.4141c0.8584,0,1.6675,0.1377,2.4263,0.4141
		c0.7593,0.2764,1.418,0.6709,1.978,1.1846c0.5596,0.5137,1.0005,1.1309,1.3228,1.8516c0.3218,0.7207,0.4829,1.5254,0.4829,2.415
		s-0.1611,1.6943-0.4829,2.415c-0.3223,0.7207-0.7632,1.3379-1.3228,1.8516c-0.5601,0.5137-1.2188,0.9082-1.978,1.1846
		c-0.7588,0.2754-1.5679,0.4141-2.4263,0.4141c-0.8589,0-1.6675-0.1387-2.4268-0.4141c-0.7588-0.2764-1.4185-0.6709-1.978-1.1846
		s-1.0005-1.1309-1.3223-1.8516C350.5604,57.5464,350.3997,56.7418,350.3997,55.8521z M353.8495,55.8521
		c0,0.8438,0.2417,1.5254,0.7246,2.0469s1.1616,0.7822,2.0356,0.7822s1.5522-0.2607,2.0352-0.7822
		c0.4834-0.5215,0.7246-1.2031,0.7246-2.0469c0-0.8428-0.2412-1.5254-0.7246-2.0469c-0.4829-0.5215-1.1611-0.7822-2.0352-0.7822
		s-1.5527,0.2607-2.0356,0.7822S353.8495,55.0093,353.8495,55.8521z"/>
	<path class="st0" d="M364.8436,50.2632h3.3115v1.5176h0.0464c0.1069-0.2148,0.2603-0.4287,0.46-0.6436
		c0.1992-0.2148,0.437-0.4063,0.7129-0.5752s0.5903-0.3066,0.9429-0.4141s0.7363-0.1611,1.1499-0.1611
		c0.874,0,1.5791,0.1348,2.1162,0.4023c0.5366,0.2686,0.9546,0.6406,1.2534,1.1162c0.2993,0.4746,0.502,1.0342,0.6094,1.6787
		c0.1074,0.6436,0.1611,1.3418,0.1611,2.0928v6.1641h-3.4497v-5.4736c0-0.3223-0.0117-0.6563-0.0347-1.001
		s-0.0918-0.6631-0.207-0.9541s-0.2915-0.5293-0.5288-0.7129c-0.2383-0.1846-0.5791-0.2764-1.0239-0.2764
		s-0.8047,0.0801-1.0806,0.2412c-0.2764,0.1611-0.4873,0.376-0.6328,0.6445c-0.146,0.2686-0.2412,0.5713-0.2876,0.9082
		c-0.0459,0.3379-0.0688,0.6904-0.0688,1.0576v5.5664h-3.4497V50.2632z"/>
	<path class="st0" d="M123.5785,89.0416h-3.312V87.524h-0.0459c-0.123,0.2148-0.2798,0.4287-0.4717,0.6436
		s-0.4253,0.4063-0.7012,0.5752c-0.2764,0.1689-0.5908,0.3066-0.9434,0.4141c-0.3525,0.1064-0.7358,0.1611-1.1499,0.1611
		c-0.874,0-1.5835-0.1348-2.1274-0.4033c-0.5444-0.2676-0.9658-0.6396-1.2651-1.1152c-0.2988-0.4746-0.498-1.0352-0.5977-1.6787
		c-0.1001-0.6445-0.1494-1.3418-0.1494-2.0928v-6.1641h3.4497v5.4736c0,0.3223,0.0117,0.6553,0.0347,1.001
		c0.0229,0.3447,0.0918,0.6631,0.207,0.9541c0.1147,0.291,0.291,0.5293,0.5288,0.7129c0.2378,0.1846,0.5786,0.2764,1.0234,0.2764
		s0.8052-0.0811,1.0811-0.2422c0.2759-0.1602,0.4868-0.375,0.6323-0.6436c0.146-0.2686,0.2417-0.5713,0.2876-0.9082
		s0.0693-0.6904,0.0693-1.0586v-5.5654h3.4497V89.0416z"/>
	<path class="st0" d="M126.0165,77.8638h3.3115v1.5176h0.0464c0.1069-0.2148,0.2603-0.4287,0.46-0.6436
		c0.1992-0.2148,0.437-0.4063,0.7129-0.5752s0.5903-0.3066,0.9429-0.4141s0.7363-0.1611,1.1499-0.1611
		c0.874,0,1.5791,0.1348,2.1162,0.4023c0.5366,0.2686,0.9546,0.6406,1.2534,1.1162c0.2993,0.4746,0.502,1.0342,0.6094,1.6787
		c0.1074,0.6436,0.1611,1.3418,0.1611,2.0928v6.1641h-3.4497v-5.4736c0-0.3223-0.0117-0.6563-0.0347-1.001
		s-0.0918-0.6631-0.207-0.9541s-0.2915-0.5293-0.5288-0.7129c-0.2383-0.1846-0.5791-0.2764-1.0239-0.2764
		s-0.8047,0.0801-1.0806,0.2412c-0.2764,0.1611-0.4873,0.376-0.6328,0.6445c-0.146,0.2686-0.2412,0.5713-0.2876,0.9082
		c-0.0459,0.3379-0.0688,0.6904-0.0688,1.0576v5.5664h-3.4497V77.8638z"/>
	<path class="st0" d="M151.4305,76.6216l-3.2661,2.875l-1.9551-2.2539l5.313-4.4854h3.2202v16.2842h-3.312V76.6216z"/>
	<path class="st0" d="M159.181,80.9c0-0.9668,0.0884-1.9473,0.2646-2.9443s0.4907-1.9014,0.9429-2.7139s1.0698-1.4756,1.8516-1.9893
		c0.7822-0.5137,1.7788-0.7705,2.9902-0.7705c1.2109,0,2.208,0.2568,2.9897,0.7705c0.7822,0.5137,1.3994,1.1768,1.8516,1.9893
		s0.7666,1.7168,0.9429,2.7139s0.2646,1.9775,0.2646,2.9443c0,0.9658-0.0884,1.9473-0.2646,2.9434
		c-0.1763,0.9971-0.4907,1.9014-0.9429,2.7139c-0.4521,0.8135-1.0693,1.4766-1.8516,1.9902
		c-0.7817,0.5137-1.7788,0.7705-2.9897,0.7705c-1.2114,0-2.208-0.2568-2.9902-0.7705c-0.7817-0.5137-1.3994-1.1768-1.8516-1.9902
		c-0.4521-0.8125-0.7666-1.7168-0.9429-2.7139C159.2694,82.8472,159.181,81.8658,159.181,80.9z M162.6312,80.9
		c0,0.4287,0.019,0.9424,0.0576,1.541c0.0381,0.5977,0.1416,1.1729,0.3105,1.7246c0.1685,0.5518,0.4253,1.0195,0.7705,1.4033
		c0.3447,0.3828,0.8315,0.5742,1.4604,0.5742c0.6128,0,1.0962-0.1914,1.4487-0.5742c0.3525-0.3838,0.6133-0.8516,0.7822-1.4033
		c0.1685-0.5518,0.272-1.127,0.3105-1.7246c0.0381-0.5986,0.0576-1.1123,0.0576-1.541c0-0.4297-0.0195-0.9434-0.0576-1.541
		c-0.0386-0.5986-0.1421-1.1738-0.3105-1.7256c-0.1689-0.5518-0.4297-1.0195-0.7822-1.4023
		c-0.3525-0.3838-0.8359-0.5752-1.4487-0.5752c-0.6289,0-1.1157,0.1914-1.4604,0.5752c-0.3452,0.3828-0.6021,0.8506-0.7705,1.4023
		c-0.1689,0.5518-0.2725,1.127-0.3105,1.7256C162.6503,79.9566,162.6312,80.4703,162.6312,80.9z"/>
	<path class="st0" d="M172.1532,77.0357c0-0.6289,0.1182-1.2188,0.3564-1.7715c0.2373-0.5518,0.5596-1.0342,0.9658-1.4482
		s0.8857-0.7402,1.4375-0.9775c0.5518-0.2383,1.1421-0.3564,1.771-0.3564c0.6284,0,1.2192,0.1182,1.771,0.3564
		c0.5522,0.2373,1.0313,0.5635,1.4375,0.9775s0.728,0.8965,0.9658,1.4482c0.2378,0.5527,0.3564,1.1426,0.3564,1.7715
		s-0.1187,1.2188-0.3564,1.7705c-0.2378,0.5527-0.5596,1.0352-0.9658,1.4492s-0.8853,0.7402-1.4375,0.9775
		c-0.5518,0.2383-1.1426,0.3564-1.771,0.3564c-0.6289,0-1.2192-0.1182-1.771-0.3564c-0.5518-0.2373-1.0313-0.5635-1.4375-0.9775
		s-0.7285-0.8965-0.9658-1.4492C172.2713,78.2544,172.1532,77.6646,172.1532,77.0357z M178.869,77.0357
		c0-0.6133-0.2109-1.1348-0.6323-1.5645c-0.4224-0.4287-0.9395-0.6436-1.5527-0.6436s-1.1309,0.2148-1.5527,0.6436
		c-0.4219,0.4297-0.6323,0.9512-0.6323,1.5645s0.2104,1.1348,0.6323,1.5635c0.4219,0.4297,0.9395,0.6445,1.5527,0.6445
		s1.1304-0.2148,1.5527-0.6445C178.6581,78.1705,178.869,77.649,178.869,77.0357z M186.183,72.022l1.9321,1.0801l-9.499,16.6758
		l-1.748-0.9893L186.183,72.022z M183.722,84.7408c0-0.6289,0.1187-1.2188,0.3564-1.7715c0.2373-0.5518,0.5596-1.0352,0.9658-1.4492
		c0.4063-0.4131,0.8857-0.7393,1.4375-0.9766c0.5522-0.2383,1.1421-0.3574,1.771-0.3574s1.2192,0.1191,1.771,0.3574
		c0.5522,0.2373,1.0313,0.5635,1.4375,0.9766c0.4063,0.4141,0.728,0.8975,0.9663,1.4492c0.2373,0.5527,0.3564,1.1426,0.3564,1.7715
		s-0.1191,1.2227-0.3564,1.7822c-0.2383,0.5596-0.5601,1.0469-0.9663,1.4609s-0.8853,0.7393-1.4375,0.9775
		c-0.5518,0.2373-1.1421,0.3564-1.771,0.3564s-1.2188-0.1191-1.771-0.3564c-0.5518-0.2383-1.0313-0.5635-1.4375-0.9775
		s-0.7285-0.9014-0.9658-1.4609C183.8407,85.9634,183.722,85.3697,183.722,84.7408z M190.4379,84.7408
		c0-0.6133-0.2109-1.1348-0.6323-1.5645c-0.4219-0.4287-0.9395-0.6436-1.5527-0.6436s-1.1309,0.2148-1.5522,0.6436
		c-0.4219,0.4297-0.6328,0.9512-0.6328,1.5645c0,0.6289,0.2109,1.1572,0.6328,1.5869c0.4214,0.4297,0.939,0.6436,1.5522,0.6436
		s1.1309-0.2139,1.5527-0.6436C190.2269,85.898,190.4379,85.3697,190.4379,84.7408z"/>
	<path class="st0" d="M201.3622,80.6695c0-0.3984-0.0112-0.7969-0.0342-1.1963c-0.0229-0.3984-0.0498-0.7969-0.0806-1.1953h1.6328
		v1.6328h0.0464c0.3677-0.6289,0.8774-1.1045,1.5293-1.4258c0.6514-0.3223,1.2993-0.4834,1.9434-0.4834
		c0.291,0,0.6016,0.0313,0.9316,0.0918c0.3296,0.0615,0.6475,0.1729,0.9546,0.334c0.3066,0.1611,0.5938,0.3867,0.8623,0.6787
		c0.2681,0.291,0.4946,0.667,0.6787,1.127c0.3066-0.6904,0.7935-1.2344,1.4604-1.6338c0.667-0.3984,1.3604-0.5977,2.0815-0.5977
		c1.3799,0,2.3994,0.3643,3.0591,1.0928c0.6587,0.7285,0.9888,1.7676,0.9888,3.1162v6.8311h-1.5181v-6.2793
		c0-1.0879-0.1919-1.9238-0.5747-2.5068c-0.3838-0.582-1.0967-0.874-2.1392-0.874c-0.5674,0-1.043,0.1113-1.4263,0.334
		c-0.3833,0.2217-0.6938,0.5176-0.9312,0.8848c-0.2378,0.3682-0.4106,0.7861-0.5176,1.2539
		c-0.1074,0.4678-0.1611,0.9541-0.1611,1.4609v5.7266h-1.5181v-6.2793c0-1.0879-0.1919-1.9238-0.5747-2.5068
		c-0.3838-0.582-1.0967-0.874-2.1392-0.874c-0.0918,0-0.3027,0.0313-0.6323,0.0918c-0.3301,0.0615-0.6709,0.2305-1.0234,0.5068
		c-0.353,0.2754-0.6714,0.6895-0.9546,1.2412c-0.2842,0.5527-0.4258,1.3193-0.4258,2.3008v5.5195h-1.5181V80.6695z"/>
	<path class="st0" d="M227.8583,82.441v-0.2764c0-1.8555-0.9199-2.7832-2.7603-2.7832c-1.2573,0-2.354,0.4219-3.2891,1.2656
		l-0.9199-1.0811c1.0122-1.043,2.5303-1.5645,4.5542-1.5645c0.521,0,1.0234,0.0771,1.5063,0.2305s0.9004,0.3867,1.2534,0.7012
		c0.3525,0.3145,0.6362,0.709,0.8511,1.1846c0.2144,0.4756,0.3223,1.043,0.3223,1.7021v4.8066c0,0.4141,0.019,0.8477,0.0571,1.2998
		s0.0806,0.8242,0.1265,1.1152h-1.4717c-0.0459-0.2607-0.0806-0.5439-0.1035-0.8506s-0.0347-0.6064-0.0347-0.8975h-0.0459
		c-0.4448,0.7207-0.9702,1.2383-1.5757,1.5527c-0.606,0.3135-1.3452,0.4717-2.2192,0.4717c-0.4756,0-0.9355-0.0654-1.3804-0.1963
		c-0.4448-0.1299-0.8394-0.3291-1.1841-0.5977c-0.3452-0.2676-0.6211-0.5977-0.8281-0.9893
		c-0.207-0.3906-0.3105-0.8467-0.3105-1.3682c0-0.874,0.2261-1.5596,0.6787-2.0586c0.4517-0.498,1.0195-0.8701,1.7017-1.1152
		s1.4106-0.3984,2.1851-0.46c0.7739-0.0615,1.4834-0.0918,2.1274-0.0918H227.8583z M227.076,83.6822
		c-0.3833,0-0.8623,0.0195-1.4375,0.0576c-0.5747,0.0391-1.127,0.1309-1.6558,0.2764c-0.5293,0.1455-0.9814,0.3721-1.3569,0.6787
		c-0.376,0.3066-0.564,0.7285-0.564,1.2646c0,0.3525,0.0728,0.6553,0.2188,0.9082c0.1455,0.2529,0.3408,0.46,0.5864,0.6211
		c0.2451,0.1611,0.5176,0.2764,0.8164,0.3457c0.2993,0.0684,0.6016,0.1035,0.9087,0.1035c0.5518,0,1.0313-0.0928,1.4375-0.2764
		c0.4063-0.1846,0.7476-0.4336,1.0234-0.748c0.2759-0.3135,0.479-0.6816,0.6094-1.1035s0.1958-0.8701,0.1958-1.3457v-0.7822H227.076
		z M225.2362,76.0699h-1.3569l2.2998-3.3125h2.0933L225.2362,76.0699z"/>
	<path class="st0" d="M238.599,80.8306c-0.23-0.4443-0.5366-0.7969-0.9199-1.0576s-0.8511-0.3916-1.4028-0.3916
		c-0.2612,0-0.5254,0.0313-0.7935,0.0918c-0.2686,0.0615-0.5103,0.1582-0.7246,0.2881c-0.2148,0.1299-0.3872,0.2949-0.5176,0.4941
		s-0.1953,0.4453-0.1953,0.7363c0,0.5059,0.1758,0.874,0.5288,1.1035c0.3525,0.2305,0.8813,0.4297,1.5869,0.5986l1.541,0.3672
		c0.751,0.1689,1.376,0.5107,1.8745,1.0244c0.498,0.5137,0.7476,1.1533,0.7476,1.9199c0,0.583-0.1191,1.085-0.3564,1.5068
		c-0.2378,0.4219-0.5522,0.7666-0.9429,1.0352c-0.3911,0.2686-0.8398,0.4639-1.3457,0.5859c-0.5059,0.123-1.02,0.1846-1.541,0.1846
		c-0.8281,0-1.5986-0.1582-2.3115-0.4717c-0.7129-0.3145-1.3223-0.8545-1.8286-1.6221l1.311-0.8965
		c0.3066,0.4912,0.6938,0.8818,1.1616,1.1729s1.0234,0.4375,1.6675,0.4375c0.3066,0,0.6133-0.0352,0.9199-0.1035
		c0.3066-0.0693,0.5786-0.1768,0.8169-0.3223c0.2373-0.1455,0.4287-0.334,0.5747-0.5635c0.1455-0.2305,0.2188-0.498,0.2188-0.8057
		c0-0.5361-0.1997-0.9229-0.5981-1.1611c-0.3989-0.2373-0.8818-0.4258-1.4492-0.5635l-1.4717-0.3447
		c-0.1841-0.0459-0.4336-0.123-0.7476-0.2305c-0.3145-0.1064-0.6211-0.2676-0.9199-0.4824
		c-0.2993-0.2148-0.5562-0.4951-0.7705-0.8398c-0.2148-0.3447-0.3223-0.7705-0.3223-1.2764c0-0.5518,0.1113-1.0352,0.3335-1.4492
		s0.521-0.751,0.897-1.0117c0.3755-0.2607,0.8013-0.4561,1.2769-0.5869c0.4751-0.1299,0.9658-0.1953,1.4717-0.1953
		c0.751,0,1.4492,0.1455,2.0933,0.4375c0.644,0.291,1.1421,0.7891,1.4946,1.4941L238.599,80.8306z"/>
	<path class="st0" d="M259.828,89.0416h-1.5181v-1.7939h-0.0459c-0.2456,0.3682-0.5371,0.6826-0.874,0.9434
		c-0.3374,0.2607-0.6899,0.4746-1.0581,0.6436c-0.3677,0.1689-0.7475,0.291-1.1382,0.3682
		c-0.3911,0.0762-0.7632,0.1152-1.1157,0.1152c-0.8433,0-1.6138-0.1426-2.3115-0.4258s-1.2993-0.6787-1.8057-1.1846
		c-0.5059-0.5059-0.9009-1.1045-1.1841-1.7939c-0.2842-0.6904-0.4258-1.4414-0.4258-2.2539s0.1416-1.5645,0.4258-2.2539
		c0.2832-0.6904,0.6782-1.2881,1.1841-1.7939c0.5063-0.5059,1.1079-0.9014,1.8057-1.1846c0.6978-0.2842,1.4683-0.4258,2.3115-0.4258
		c0.3525,0,0.7246,0.0381,1.1157,0.1152c0.3906,0.0771,0.7705,0.1992,1.1382,0.3682c0.3682,0.1689,0.7207,0.3828,1.0581,0.6436
		c0.3369,0.2607,0.6284,0.5752,0.874,0.9434h0.0459v-8.418h1.5181V89.0416z M250.0072,83.6597c0,0.5977,0.0952,1.1582,0.2871,1.6787
		c0.1919,0.5215,0.4639,0.9736,0.8169,1.3574c0.3525,0.3828,0.7778,0.6865,1.2764,0.9082c0.498,0.2227,1.0615,0.334,1.6904,0.334
		c0.6133,0,1.1846-0.1113,1.7134-0.334c0.5293-0.2217,0.9853-0.5254,1.3686-0.9082c0.3833-0.3838,0.6821-0.8359,0.897-1.3574
		c0.2144-0.5205,0.3223-1.0811,0.3223-1.6787c0-0.5986-0.1079-1.1572-0.3223-1.6787c-0.2148-0.5215-0.5137-0.9736-0.897-1.3574
		c-0.3833-0.3828-0.8394-0.6865-1.3686-0.9082c-0.5288-0.2227-1.1001-0.334-1.7134-0.334c-0.6289,0-1.1924,0.1113-1.6904,0.334
		c-0.4985,0.2217-0.9238,0.5254-1.2764,0.9082c-0.353,0.3838-0.625,0.8359-0.8169,1.3574S250.0072,83.0611,250.0072,83.6597z"/>
	<path class="st0" d="M264.1976,84.0738c0.0459,0.5371,0.1763,1.043,0.3911,1.5176c0.2144,0.4756,0.498,0.8857,0.8511,1.2305
		c0.3525,0.3457,0.7588,0.6172,1.2188,0.8164c0.46,0.2002,0.9585,0.2998,1.4951,0.2998c0.8125,0,1.5142-0.1885,2.1045-0.5645
		c0.5903-0.375,1.0386-0.8086,1.3457-1.2988l1.1729,0.9658c-0.644,0.8125-1.3535,1.3955-2.1274,1.748
		c-0.7744,0.3525-1.6064,0.5293-2.4956,0.5293c-0.7974,0-1.5371-0.1426-2.2192-0.4258c-0.6826-0.2832-1.269-0.6787-1.7598-1.1846
		s-0.8779-1.1045-1.1616-1.7939c-0.2837-0.6904-0.4253-1.4414-0.4253-2.2539s0.1382-1.5645,0.4141-2.2539
		c0.2759-0.6904,0.6592-1.2881,1.1499-1.7939s1.0654-0.9014,1.7251-1.1846c0.6592-0.2842,1.3721-0.4258,2.1392-0.4258
		c0.8125,0,1.541,0.1455,2.1846,0.4375c0.644,0.291,1.1846,0.6777,1.6216,1.1611c0.437,0.4824,0.7705,1.0508,1.0005,1.7021
		s0.3452,1.3457,0.3452,2.0811v0.6904H264.1976z M271.5116,82.8316c0-1.0273-0.3066-1.8594-0.9199-2.4951
		c-0.6133-0.6367-1.4717-0.9551-2.5757-0.9551c-0.4912,0-0.9663,0.0957-1.4263,0.2881c-0.46,0.1914-0.8623,0.4482-1.2075,0.7705
		c-0.3447,0.3213-0.6211,0.6895-0.8281,1.1035s-0.3105,0.8438-0.3105,1.2881H271.5116z"/>
	<path class="st0" d="M288.0257,80.8306c-0.23-0.4443-0.5366-0.7969-0.9199-1.0576s-0.8511-0.3916-1.4028-0.3916
		c-0.2612,0-0.5254,0.0313-0.7935,0.0918c-0.2686,0.0615-0.5103,0.1582-0.7246,0.2881c-0.2148,0.1299-0.3872,0.2949-0.5176,0.4941
		s-0.1953,0.4453-0.1953,0.7363c0,0.5059,0.1758,0.874,0.5288,1.1035c0.3525,0.2305,0.8813,0.4297,1.5869,0.5986l1.541,0.3672
		c0.751,0.1689,1.376,0.5107,1.8745,1.0244c0.498,0.5137,0.7476,1.1533,0.7476,1.9199c0,0.583-0.1191,1.085-0.3564,1.5068
		c-0.2378,0.4219-0.5522,0.7666-0.9429,1.0352c-0.3911,0.2686-0.8398,0.4639-1.3457,0.5859c-0.5059,0.123-1.02,0.1846-1.541,0.1846
		c-0.8281,0-1.5986-0.1582-2.3115-0.4717c-0.7129-0.3145-1.3223-0.8545-1.8286-1.6221l1.311-0.8965
		c0.3066,0.4912,0.6938,0.8818,1.1616,1.1729s1.0234,0.4375,1.6675,0.4375c0.3066,0,0.6133-0.0352,0.9199-0.1035
		c0.3066-0.0693,0.5786-0.1768,0.8169-0.3223c0.2373-0.1455,0.4287-0.334,0.5747-0.5635c0.1455-0.2305,0.2188-0.498,0.2188-0.8057
		c0-0.5361-0.1997-0.9229-0.5981-1.1611c-0.3989-0.2373-0.8818-0.4258-1.4492-0.5635l-1.4717-0.3447
		c-0.1841-0.0459-0.4336-0.123-0.7476-0.2305c-0.3145-0.1064-0.6211-0.2676-0.9199-0.4824
		c-0.2993-0.2148-0.5562-0.4951-0.7705-0.8398c-0.2148-0.3447-0.3223-0.7705-0.3223-1.2764c0-0.5518,0.1113-1.0352,0.3335-1.4492
		s0.521-0.751,0.897-1.0117c0.3755-0.2607,0.8013-0.4561,1.2769-0.5869c0.4751-0.1299,0.9658-0.1953,1.4717-0.1953
		c0.751,0,1.4492,0.1455,2.0933,0.4375c0.644,0.291,1.1421,0.7891,1.4946,1.4941L288.0257,80.8306z"/>
	<path class="st0" d="M299.8939,89.0416c-0.0313-0.291-0.0503-0.5781-0.0576-0.8623c-0.0078-0.2842-0.0117-0.5713-0.0117-0.8623
		h-0.0459c-0.1689,0.291-0.3833,0.5596-0.644,0.8047s-0.5518,0.4561-0.874,0.6328c-0.3218,0.1758-0.6631,0.3135-1.0234,0.4141
		c-0.3604,0.0986-0.7168,0.1494-1.0693,0.1494c-1.3799,0-2.3999-0.3643-3.0591-1.0928c-0.6597-0.7285-0.9893-1.7676-0.9893-3.1162
		v-6.8311h1.5181v5.957c0,0.5977,0.0464,1.127,0.1382,1.5869s0.249,0.8467,0.4717,1.1611c0.2217,0.3145,0.521,0.5518,0.897,0.7129
		c0.3755,0.1611,0.8467,0.2422,1.4146,0.2422c0.0762,0,0.291-0.0313,0.6436-0.0928c0.3525-0.0605,0.7246-0.2295,1.1157-0.5059
		c0.3911-0.2754,0.7397-0.6895,1.0464-1.2422c0.3066-0.5518,0.46-1.3184,0.46-2.2998v-5.5195h1.5181v8.3945
		c0,0.292,0.0117,0.6592,0.0347,1.1045c0.0229,0.4443,0.0493,0.8662,0.0806,1.2646H299.8939z"/>
	<path class="st0" d="M316.0399,89.0416h-1.7021l-4.3701-10.7637h1.7944l3.4497,9.0615h0.0459l3.4272-9.0615h1.7251
		L316.0399,89.0416z"/>
	<path class="st0" d="M329.2879,82.441v-0.2764c0-1.8555-0.9199-2.7832-2.7603-2.7832c-1.2573,0-2.354,0.4219-3.2891,1.2656
		l-0.9199-1.0811c1.0122-1.043,2.5303-1.5645,4.5542-1.5645c0.521,0,1.0234,0.0771,1.5063,0.2305s0.9004,0.3867,1.2534,0.7012
		c0.3525,0.3145,0.6362,0.709,0.8511,1.1846c0.2144,0.4756,0.3223,1.043,0.3223,1.7021v4.8066c0,0.4141,0.019,0.8477,0.0571,1.2998
		s0.0806,0.8242,0.1265,1.1152h-1.4717c-0.0459-0.2607-0.0806-0.5439-0.1035-0.8506s-0.0347-0.6064-0.0347-0.8975h-0.0459
		c-0.4448,0.7207-0.9702,1.2383-1.5757,1.5527c-0.606,0.3135-1.3452,0.4717-2.2192,0.4717c-0.4756,0-0.9355-0.0654-1.3804-0.1963
		c-0.4448-0.1299-0.8394-0.3291-1.1841-0.5977c-0.3452-0.2676-0.6211-0.5977-0.8281-0.9893
		c-0.207-0.3906-0.3105-0.8467-0.3105-1.3682c0-0.874,0.2261-1.5596,0.6787-2.0586c0.4517-0.498,1.0195-0.8701,1.7017-1.1152
		s1.4106-0.3984,2.1851-0.46c0.7739-0.0615,1.4834-0.0918,2.1274-0.0918H329.2879z M328.5057,83.6822
		c-0.3833,0-0.8623,0.0195-1.4375,0.0576c-0.5747,0.0391-1.127,0.1309-1.6558,0.2764c-0.5293,0.1455-0.9814,0.3721-1.3569,0.6787
		c-0.376,0.3066-0.564,0.7285-0.564,1.2646c0,0.3525,0.0728,0.6553,0.2188,0.9082c0.1455,0.2529,0.3408,0.46,0.5864,0.6211
		c0.2451,0.1611,0.5176,0.2764,0.8164,0.3457c0.2993,0.0684,0.6016,0.1035,0.9087,0.1035c0.5518,0,1.0313-0.0928,1.4375-0.2764
		c0.4063-0.1846,0.7476-0.4336,1.0234-0.748c0.2759-0.3135,0.479-0.6816,0.6094-1.1035s0.1958-0.8701,0.1958-1.3457v-0.7822
		H328.5057z"/>
	<path class="st0" d="M336.1878,89.0416h-1.5181V71.6539h1.5181V89.0416z"/>
	<path class="st0" d="M350.724,83.6597c0,0.8125-0.1421,1.5635-0.4258,2.2539c-0.2837,0.6895-0.6782,1.2881-1.1846,1.7939
		c-0.5059,0.5059-1.1079,0.9014-1.8052,1.1846c-0.6982,0.2832-1.4688,0.4258-2.3115,0.4258c-0.8281,0-1.5908-0.1426-2.2886-0.4258
		s-1.2993-0.6787-1.8057-1.1846c-0.5059-0.5059-0.9009-1.1045-1.1846-1.7939c-0.2837-0.6904-0.4253-1.4414-0.4253-2.2539
		s0.1416-1.5645,0.4253-2.2539c0.2837-0.6904,0.6787-1.2881,1.1846-1.7939c0.5063-0.5059,1.1079-0.9014,1.8057-1.1846
		c0.6978-0.2842,1.4604-0.4258,2.2886-0.4258c0.8428,0,1.6133,0.1416,2.3115,0.4258c0.6973,0.2832,1.2993,0.6787,1.8052,1.1846
		c0.5063,0.5059,0.9009,1.1035,1.1846,1.7939C350.5819,82.0953,350.724,82.8472,350.724,83.6597z M349.0677,83.6597
		c0-0.5986-0.0957-1.1572-0.2876-1.6787s-0.4639-0.9736-0.8164-1.3574c-0.353-0.3828-0.7783-0.6865-1.2764-0.9082
		c-0.4985-0.2227-1.062-0.334-1.6904-0.334c-0.6289,0-1.1924,0.1113-1.6904,0.334c-0.4985,0.2217-0.9204,0.5254-1.2651,0.9082
		c-0.3452,0.3838-0.6133,0.8359-0.8052,1.3574s-0.2876,1.0801-0.2876,1.6787c0,0.5977,0.0957,1.1582,0.2876,1.6787
		c0.1919,0.5215,0.46,0.9736,0.8052,1.3574c0.3447,0.3828,0.7666,0.6865,1.2651,0.9082c0.498,0.2227,1.0615,0.334,1.6904,0.334
		c0.6284,0,1.1919-0.1113,1.6904-0.334c0.498-0.2217,0.9233-0.5254,1.2764-0.9082c0.3525-0.3838,0.6245-0.8359,0.8164-1.3574
		C348.972,84.8179,349.0677,84.2574,349.0677,83.6597z"/>
	<path class="st0" d="M353.6444,81.6353c0-0.4746-0.0112-0.958-0.0342-1.4492c-0.0234-0.4902-0.0425-1.127-0.0576-1.9082h1.4951
		v2.001h0.0459c0.1069-0.291,0.2603-0.5713,0.46-0.8398c0.1992-0.2676,0.4404-0.5098,0.7246-0.7246
		c0.2832-0.2148,0.6128-0.3867,0.9888-0.5176c0.3755-0.1299,0.8013-0.1953,1.2764-0.1953c0.4292,0,0.8052,0.0459,1.127,0.1377
		l-0.2988,1.4951c-0.1992-0.0762-0.4907-0.1152-0.874-0.1152c-0.583,0-1.0811,0.1123-1.4951,0.334
		c-0.4136,0.2227-0.7588,0.5059-1.0347,0.8506c-0.2764,0.3457-0.4795,0.7178-0.6099,1.1162s-0.1953,0.7813-0.1953,1.1494v6.0723
		h-1.5181V81.6353z"/>
	<path class="st0" d="M121.0946,108.4068c-0.2607-0.3984-0.625-0.7354-1.0923-1.0117c-0.4683-0.2764-1.001-0.4141-1.5986-0.4141
		c-0.6289-0.0146-1.1924,0.085-1.6904,0.2988c-0.4985,0.2148-0.9243,0.5146-1.2769,0.8975
		c-0.3525,0.3838-0.6206,0.8398-0.8047,1.3682c-0.1841,0.5293-0.2764,1.1006-0.2764,1.7139s0.0923,1.1846,0.2764,1.7129
		c0.1841,0.5293,0.4521,0.9863,0.8047,1.3691s0.7783,0.6826,1.2769,0.8965c0.498,0.2148,1.0615,0.3145,1.6904,0.2998
		c0.5977,0,1.1304-0.1387,1.5986-0.4141c0.4673-0.2764,0.8315-0.6133,1.0923-1.0127l1.2422,0.9434
		c-0.5371,0.6289-1.1426,1.0928-1.8174,1.3916s-1.3799,0.4561-2.1157,0.4717c-0.874,0.0146-1.6641-0.1191-2.3691-0.4033
		c-0.7056-0.2832-1.3071-0.6777-1.8057-1.1836c-0.498-0.5068-0.8779-1.1084-1.1382-1.8057
		c-0.2612-0.6982-0.3911-1.4531-0.3911-2.2656s0.1299-1.5674,0.3911-2.2656c0.2603-0.6973,0.6401-1.2998,1.1382-1.8057
		c0.4985-0.5059,1.1001-0.9004,1.8057-1.1846c0.7051-0.2832,1.4951-0.417,2.3691-0.4023c0.7358,0.0156,1.4409,0.1729,2.1157,0.4717
		s1.2803,0.7627,1.8174,1.3916L121.0946,108.4068z"/>
	<path class="st0" d="M135.2167,111.2593c0,0.8125-0.1421,1.5635-0.4258,2.2539c-0.2837,0.6895-0.6782,1.2881-1.1846,1.7939
		c-0.5059,0.5059-1.1079,0.9014-1.8052,1.1846c-0.6982,0.2832-1.4688,0.4258-2.3115,0.4258c-0.8281,0-1.5908-0.1426-2.2886-0.4258
		s-1.2993-0.6787-1.8057-1.1846c-0.5059-0.5059-0.9009-1.1045-1.1846-1.7939c-0.2837-0.6904-0.4253-1.4414-0.4253-2.2539
		s0.1416-1.5645,0.4253-2.2539c0.2837-0.6904,0.6787-1.2881,1.1846-1.7939c0.5063-0.5059,1.1079-0.9014,1.8057-1.1846
		c0.6978-0.2842,1.4604-0.4258,2.2886-0.4258c0.8428,0,1.6133,0.1416,2.3115,0.4258c0.6973,0.2832,1.2993,0.6787,1.8052,1.1846
		c0.5063,0.5059,0.9009,1.1035,1.1846,1.7939C135.0746,109.6949,135.2167,110.4468,135.2167,111.2593z M133.5604,111.2593
		c0-0.5986-0.0957-1.1572-0.2876-1.6787s-0.4639-0.9736-0.8164-1.3574c-0.353-0.3828-0.7783-0.6865-1.2764-0.9082
		c-0.4985-0.2227-1.062-0.334-1.6904-0.334c-0.6289,0-1.1924,0.1113-1.6904,0.334c-0.4985,0.2217-0.9204,0.5254-1.2651,0.9082
		c-0.3452,0.3838-0.6133,0.8359-0.8052,1.3574s-0.2876,1.0801-0.2876,1.6787c0,0.5977,0.0957,1.1582,0.2876,1.6787
		c0.1919,0.5215,0.46,0.9736,0.8052,1.3574c0.3447,0.3828,0.7666,0.6865,1.2651,0.9082c0.498,0.2227,1.0615,0.334,1.6904,0.334
		c0.6284,0,1.1919-0.1113,1.6904-0.334c0.498-0.2217,0.9233-0.5254,1.2764-0.9082c0.3525-0.3838,0.6245-0.8359,0.8164-1.3574
		C133.4647,112.4175,133.5604,111.857,133.5604,111.2593z"/>
	<path class="st0" d="M137.9759,108.2691c0-0.3984-0.0112-0.7969-0.0342-1.1963c-0.0229-0.3984-0.0498-0.7969-0.0806-1.1953h1.6328
		v1.6328h0.0464c0.3677-0.6289,0.8774-1.1045,1.5293-1.4258c0.6514-0.3223,1.2993-0.4834,1.9434-0.4834
		c0.291,0,0.6016,0.0313,0.9316,0.0918c0.3296,0.0615,0.6475,0.1729,0.9546,0.334c0.3066,0.1611,0.5938,0.3867,0.8623,0.6787
		c0.2681,0.291,0.4946,0.667,0.6787,1.127c0.3066-0.6904,0.7935-1.2344,1.4604-1.6338c0.667-0.3984,1.3604-0.5977,2.0815-0.5977
		c1.3799,0,2.3994,0.3643,3.0591,1.0928c0.6587,0.7285,0.9888,1.7676,0.9888,3.1162v6.8311h-1.5181v-6.2793
		c0-1.0879-0.1919-1.9238-0.5747-2.5068c-0.3838-0.582-1.0967-0.874-2.1392-0.874c-0.5674,0-1.043,0.1113-1.4263,0.334
		c-0.3833,0.2217-0.6938,0.5176-0.9312,0.8848c-0.2378,0.3682-0.4106,0.7861-0.5176,1.2539
		c-0.1074,0.4678-0.1611,0.9541-0.1611,1.4609v5.7266h-1.5181v-6.2793c0-1.0879-0.1919-1.9238-0.5747-2.5068
		c-0.3838-0.582-1.0967-0.874-2.1392-0.874c-0.0918,0-0.3027,0.0313-0.6323,0.0918c-0.3301,0.0615-0.6709,0.2305-1.0234,0.5068
		c-0.353,0.2754-0.6714,0.6895-0.9546,1.2412c-0.2842,0.5527-0.4258,1.3193-0.4258,2.3008v5.5195h-1.5181V108.2691z"/>
	<path class="st0" d="M158.6297,111.6734c0.0459,0.5371,0.1763,1.043,0.3911,1.5176c0.2144,0.4756,0.498,0.8857,0.8511,1.2305
		c0.3525,0.3457,0.7588,0.6172,1.2188,0.8164c0.46,0.2002,0.9585,0.2998,1.4951,0.2998c0.8125,0,1.5142-0.1885,2.1045-0.5645
		c0.5903-0.375,1.0386-0.8086,1.3457-1.2988l1.1729,0.9658c-0.644,0.8125-1.3535,1.3955-2.1274,1.748
		c-0.7744,0.3525-1.6064,0.5293-2.4956,0.5293c-0.7974,0-1.5371-0.1426-2.2192-0.4258c-0.6826-0.2832-1.269-0.6787-1.7598-1.1846
		s-0.8779-1.1045-1.1616-1.7939c-0.2837-0.6904-0.4253-1.4414-0.4253-2.2539s0.1382-1.5645,0.4141-2.2539
		c0.2759-0.6904,0.6592-1.2881,1.1499-1.7939s1.0654-0.9014,1.7251-1.1846c0.6592-0.2842,1.3721-0.4258,2.1392-0.4258
		c0.8125,0,1.541,0.1455,2.1846,0.4375c0.644,0.291,1.1846,0.6777,1.6216,1.1611c0.437,0.4824,0.7705,1.0508,1.0005,1.7021
		s0.3452,1.3457,0.3452,2.0811v0.6904H158.6297z M165.9437,110.4312c0-1.0273-0.3066-1.8594-0.9199-2.4951
		c-0.6133-0.6367-1.4717-0.9551-2.5757-0.9551c-0.4912,0-0.9663,0.0957-1.4263,0.2881c-0.46,0.1914-0.8623,0.4482-1.2075,0.7705
		c-0.3447,0.3213-0.6211,0.6895-0.8281,1.1035s-0.3105,0.8438-0.3105,1.2881H165.9437z"/>
	<path class="st0" d="M170.5209,109.2349c0-0.4746-0.0112-0.958-0.0342-1.4492c-0.0234-0.4902-0.0425-1.127-0.0576-1.9082h1.4951
		v2.001h0.0459c0.1069-0.291,0.2603-0.5713,0.46-0.8398c0.1992-0.2676,0.4404-0.5098,0.7246-0.7246
		c0.2832-0.2148,0.6128-0.3867,0.9888-0.5176c0.3755-0.1299,0.8013-0.1953,1.2764-0.1953c0.4292,0,0.8052,0.0459,1.127,0.1377
		l-0.2988,1.4951c-0.1992-0.0762-0.4907-0.1152-0.874-0.1152c-0.583,0-1.0811,0.1123-1.4951,0.334
		c-0.4136,0.2227-0.7588,0.5059-1.0347,0.8506c-0.2764,0.3457-0.4795,0.7178-0.6099,1.1162s-0.1953,0.7813-0.1953,1.1494v6.0723
		h-1.5181V109.2349z"/>
	<path class="st0" d="M185.4252,108.4068c-0.2607-0.3984-0.625-0.7354-1.0923-1.0117c-0.4683-0.2764-1.001-0.4141-1.5986-0.4141
		c-0.6289-0.0146-1.1924,0.085-1.6904,0.2988c-0.4985,0.2148-0.9243,0.5146-1.2769,0.8975
		c-0.3525,0.3838-0.6206,0.8398-0.8047,1.3682c-0.1841,0.5293-0.2764,1.1006-0.2764,1.7139s0.0923,1.1846,0.2764,1.7129
		c0.1841,0.5293,0.4521,0.9863,0.8047,1.3691s0.7783,0.6826,1.2769,0.8965c0.498,0.2148,1.0615,0.3145,1.6904,0.2998
		c0.5977,0,1.1304-0.1387,1.5986-0.4141c0.4673-0.2764,0.8315-0.6133,1.0923-1.0127l1.2422,0.9434
		c-0.5371,0.6289-1.1426,1.0928-1.8174,1.3916s-1.3799,0.4561-2.1157,0.4717c-0.874,0.0146-1.6641-0.1191-2.3691-0.4033
		c-0.7056-0.2832-1.3071-0.6777-1.8057-1.1836c-0.498-0.5068-0.8779-1.1084-1.1382-1.8057
		c-0.2612-0.6982-0.3911-1.4531-0.3911-2.2656s0.1299-1.5674,0.3911-2.2656c0.2603-0.6973,0.6401-1.2998,1.1382-1.8057
		c0.4985-0.5059,1.1001-0.9004,1.8057-1.1846c0.7051-0.2832,1.4951-0.417,2.3691-0.4023c0.7358,0.0156,1.4409,0.1729,2.1157,0.4717
		s1.2803,0.7627,1.8174,1.3916L185.4252,108.4068z"/>
	<path class="st0" d="M190.8758,101.7369c0,0.3223-0.1147,0.5869-0.3447,0.7939s-0.4829,0.3105-0.7593,0.3105
		c-0.2759,0-0.5288-0.1035-0.7588-0.3105s-0.3452-0.4717-0.3452-0.7939c0-0.3213,0.1152-0.5859,0.3452-0.793
		s0.4829-0.3105,0.7588-0.3105c0.2764,0,0.5293,0.1035,0.7593,0.3105S190.8758,101.4156,190.8758,101.7369z M190.5311,116.6412
		h-1.5181v-10.7637h1.5181V116.6412z"/>
	<path class="st0" d="M201.0882,110.0406v-0.2764c0-1.8555-0.9199-2.7832-2.7603-2.7832c-1.2573,0-2.354,0.4219-3.2891,1.2656
		l-0.9199-1.0811c1.0122-1.043,2.5303-1.5645,4.5542-1.5645c0.521,0,1.0234,0.0771,1.5063,0.2305s0.9004,0.3867,1.2534,0.7012
		c0.3525,0.3145,0.6362,0.709,0.8511,1.1846c0.2144,0.4756,0.3223,1.043,0.3223,1.7021v4.8066c0,0.4141,0.019,0.8477,0.0571,1.2998
		s0.0806,0.8242,0.1265,1.1152h-1.4717c-0.0459-0.2607-0.0806-0.5439-0.1035-0.8506s-0.0347-0.6064-0.0347-0.8975h-0.0459
		c-0.4448,0.7207-0.9702,1.2383-1.5757,1.5527c-0.606,0.3135-1.3452,0.4717-2.2192,0.4717c-0.4756,0-0.9355-0.0654-1.3804-0.1963
		c-0.4448-0.1299-0.8394-0.3291-1.1841-0.5977c-0.3452-0.2676-0.6211-0.5977-0.8281-0.9893
		c-0.207-0.3906-0.3105-0.8467-0.3105-1.3682c0-0.874,0.2261-1.5596,0.6787-2.0586c0.4517-0.498,1.0195-0.8701,1.7017-1.1152
		s1.4106-0.3984,2.1851-0.46c0.7739-0.0615,1.4834-0.0918,2.1274-0.0918H201.0882z M200.306,111.2818
		c-0.3833,0-0.8623,0.0195-1.4375,0.0576c-0.5747,0.0391-1.127,0.1309-1.6558,0.2764c-0.5293,0.1455-0.9814,0.3721-1.3569,0.6787
		c-0.376,0.3066-0.564,0.7285-0.564,1.2646c0,0.3525,0.0728,0.6553,0.2188,0.9082c0.1455,0.2529,0.3408,0.46,0.5864,0.6211
		c0.2451,0.1611,0.5176,0.2764,0.8164,0.3457c0.2993,0.0684,0.6016,0.1035,0.9087,0.1035c0.5518,0,1.0313-0.0928,1.4375-0.2764
		c0.4063-0.1846,0.7476-0.4336,1.0234-0.748c0.2759-0.3135,0.479-0.6816,0.6094-1.1035s0.1958-0.8701,0.1958-1.3457v-0.7822H200.306
		z"/>
	<path class="st0" d="M207.9881,116.6412h-1.5181V99.2535h1.5181V116.6412z"/>
	<path class="st0" d="M214.4281,115.5377c0,0.3213-0.1147,0.6094-0.3447,0.8623c-0.2305,0.2529-0.5293,0.3789-0.8975,0.3789
		c-0.3677,0-0.667-0.126-0.897-0.3789s-0.3447-0.541-0.3447-0.8623c0-0.3223,0.1147-0.6104,0.3447-0.8633
		s0.5293-0.3789,0.897-0.3789c0.3682,0,0.667,0.126,0.8975,0.3789C214.3133,114.9273,214.4281,115.2154,214.4281,115.5377z"/>
</g>
</svg>
